%!PS-Adobe-3.0 EPSF-3.0
%%Creator: MATLAB, The Mathworks, Inc. Version 7.9.0.529 (R2009b). Operating System: Linux 2.6.16.60-0.21-smp #1 SMP Tue May 6 12:41:02 UTC 2008 x86_64.
%%Title: /home/btpp/btpp05/CollisionsMaxwellian.eps
%%CreationDate: 12/15/2010  17:17:14
%%DocumentNeededFonts: Helvetica
%%+ Helvetica-Bold
%%DocumentProcessColors: Cyan Magenta Yellow Black
%%LanguageLevel: 2
%%Pages: 1
%%BoundingBox:    84   249   509   593
%%EndComments

%%BeginProlog
% MathWorks dictionary
/MathWorks 160 dict begin
% definition operators
/bdef {bind def} bind def
/ldef {load def} bind def
/xdef {exch def} bdef
/xstore {exch store} bdef
% operator abbreviations
/c  /clip ldef
/cc /concat ldef
/cp /closepath ldef
/gr /grestore ldef
/gs /gsave ldef
/mt /moveto ldef
/np /newpath ldef
/cm /currentmatrix ldef
/sm /setmatrix ldef
/rm /rmoveto ldef
/rl /rlineto ldef
/s {show newpath} bdef
/sc {setcmykcolor} bdef
/sr /setrgbcolor ldef
/sg /setgray ldef
/w /setlinewidth ldef
/j /setlinejoin ldef
/cap /setlinecap ldef
/rc {rectclip} bdef
/rf {rectfill} bdef
% page state control
/pgsv () def
/bpage {/pgsv save def} bdef
/epage {pgsv restore} bdef
/bplot /gsave ldef
/eplot {stroke grestore} bdef
% orientation switch
/portraitMode 0 def /landscapeMode 1 def /rotateMode 2 def
% coordinate system mappings
/dpi2point 0 def
% font control
/FontSize 0 def
/FMS {/FontSize xstore findfont [FontSize 0 0 FontSize neg 0 0]
  makefont setfont} bdef
/reencode {exch dup where {pop load} {pop StandardEncoding} ifelse
  exch dup 3 1 roll findfont dup length dict begin
  { 1 index /FID ne {def}{pop pop} ifelse } forall
  /Encoding exch def currentdict end definefont pop} bdef
/isroman {findfont /CharStrings get /Agrave known} bdef
/FMSR {3 1 roll 1 index dup isroman {reencode} {pop pop} ifelse
  exch FMS} bdef
/csm {1 dpi2point div -1 dpi2point div scale neg translate
 dup landscapeMode eq {pop -90 rotate}
  {rotateMode eq {90 rotate} if} ifelse} bdef
% line types: solid, dotted, dashed, dotdash
/SO { [] 0 setdash } bdef
/DO { [.5 dpi2point mul 4 dpi2point mul] 0 setdash } bdef
/DA { [6 dpi2point mul] 0 setdash } bdef
/DD { [.5 dpi2point mul 4 dpi2point mul 6 dpi2point mul 4
  dpi2point mul] 0 setdash } bdef
% macros for lines and objects
/L {lineto stroke} bdef
/MP {3 1 roll moveto 1 sub {rlineto} repeat} bdef
/AP {{rlineto} repeat} bdef
/PDlw -1 def
/W {/PDlw currentlinewidth def setlinewidth} def
/PP {closepath eofill} bdef
/DP {closepath stroke} bdef
/MR {4 -2 roll moveto dup  0 exch rlineto exch 0 rlineto
  neg 0 exch rlineto closepath} bdef
/FR {MR stroke} bdef
/PR {MR fill} bdef
/L1i {{currentfile picstr readhexstring pop} image} bdef
/tMatrix matrix def
/MakeOval {newpath tMatrix currentmatrix pop translate scale
0 0 1 0 360 arc tMatrix setmatrix} bdef
/FO {MakeOval stroke} bdef
/PO {MakeOval fill} bdef
/PD {currentlinewidth 2 div 0 360 arc fill
   PDlw -1 eq not {PDlw w /PDlw -1 def} if} def
/FA {newpath tMatrix currentmatrix pop translate scale
  0 0 1 5 -2 roll arc tMatrix setmatrix stroke} bdef
/PA {newpath tMatrix currentmatrix pop	translate 0 0 moveto scale
  0 0 1 5 -2 roll arc closepath tMatrix setmatrix fill} bdef
/FAn {newpath tMatrix currentmatrix pop translate scale
  0 0 1 5 -2 roll arcn tMatrix setmatrix stroke} bdef
/PAn {newpath tMatrix currentmatrix pop translate 0 0 moveto scale
  0 0 1 5 -2 roll arcn closepath tMatrix setmatrix fill} bdef
/vradius 0 def /hradius 0 def /lry 0 def
/lrx 0 def /uly 0 def /ulx 0 def /rad 0 def
/MRR {/vradius xdef /hradius xdef /lry xdef /lrx xdef /uly xdef
  /ulx xdef newpath tMatrix currentmatrix pop ulx hradius add uly
  vradius add translate hradius vradius scale 0 0 1 180 270 arc 
  tMatrix setmatrix lrx hradius sub uly vradius add translate
  hradius vradius scale 0 0 1 270 360 arc tMatrix setmatrix
  lrx hradius sub lry vradius sub translate hradius vradius scale
  0 0 1 0 90 arc tMatrix setmatrix ulx hradius add lry vradius sub
  translate hradius vradius scale 0 0 1 90 180 arc tMatrix setmatrix
  closepath} bdef
/FRR {MRR stroke } bdef
/PRR {MRR fill } bdef
/MlrRR {/lry xdef /lrx xdef /uly xdef /ulx xdef /rad lry uly sub 2 div def
  newpath tMatrix currentmatrix pop ulx rad add uly rad add translate
  rad rad scale 0 0 1 90 270 arc tMatrix setmatrix lrx rad sub lry rad
  sub translate rad rad scale 0 0 1 270 90 arc tMatrix setmatrix
  closepath} bdef
/FlrRR {MlrRR stroke } bdef
/PlrRR {MlrRR fill } bdef
/MtbRR {/lry xdef /lrx xdef /uly xdef /ulx xdef /rad lrx ulx sub 2 div def
  newpath tMatrix currentmatrix pop ulx rad add uly rad add translate
  rad rad scale 0 0 1 180 360 arc tMatrix setmatrix lrx rad sub lry rad
  sub translate rad rad scale 0 0 1 0 180 arc tMatrix setmatrix
  closepath} bdef
/FtbRR {MtbRR stroke } bdef
/PtbRR {MtbRR fill } bdef
/stri 6 array def /dtri 6 array def
/smat 6 array def /dmat 6 array def
/tmat1 6 array def /tmat2 6 array def /dif 3 array def
/asub {/ind2 exch def /ind1 exch def dup dup
  ind1 get exch ind2 get sub exch } bdef
/tri_to_matrix {
  2 0 asub 3 1 asub 4 0 asub 5 1 asub
  dup 0 get exch 1 get 7 -1 roll astore } bdef
/compute_transform {
  dmat dtri tri_to_matrix tmat1 invertmatrix 
  smat stri tri_to_matrix tmat2 concatmatrix } bdef
/ds {stri astore pop} bdef
/dt {dtri astore pop} bdef
/db {2 copy /cols xdef /rows xdef mul dup 3 mul string
  currentfile 
  3 index 0 eq {/ASCIIHexDecode filter}
  {/ASCII85Decode filter 3 index 2 eq {/RunLengthDecode filter} if }
  ifelse exch readstring pop
  dup 0 3 index getinterval /rbmap xdef
  dup 2 index dup getinterval /gbmap xdef
  1 index dup 2 mul exch getinterval /bbmap xdef pop pop}bdef
/it {gs np dtri aload pop moveto lineto lineto cp c
  cols rows 8 compute_transform 
  rbmap gbmap bbmap true 3 colorimage gr}bdef
/il {newpath moveto lineto stroke}bdef
currentdict end def
%%EndProlog

%%BeginSetup
MathWorks begin

0 cap

end
%%EndSetup

%%Page: 1 1
%%BeginPageSetup
%%PageBoundingBox:    84   249   509   593
MathWorks begin
bpage
%%EndPageSetup

%%BeginObject: obj1
bplot

/dpi2point 12 def
portraitMode 1008 7116 csm

    0     0  5108  4120 rc
86 dict begin %Colortable dictionary
/c0 { 0.000000 0.000000 0.000000 sr} bdef
/c1 { 1.000000 1.000000 1.000000 sr} bdef
/c2 { 0.900000 0.000000 0.000000 sr} bdef
/c3 { 0.000000 0.820000 0.000000 sr} bdef
/c4 { 0.000000 0.000000 0.800000 sr} bdef
/c5 { 0.910000 0.820000 0.320000 sr} bdef
/c6 { 1.000000 0.260000 0.820000 sr} bdef
/c7 { 0.000000 0.820000 0.820000 sr} bdef
c0
1 j
1 sg
   0    0 5109 4121 rf
6 w
0 3358 3959 0 0 -3358 664 3667 4 MP
PP
-3959 0 0 3358 3959 0 0 -3358 664 3667 5 MP stroke
4 w
DO
0 sg
 664 3667 mt  664  309 L
 664  309 mt  664  309 L
1653 3667 mt 1653  309 L
1653  309 mt 1653  309 L
2643 3667 mt 2643  309 L
2643  309 mt 2643  309 L
3633 3667 mt 3633  309 L
3633  309 mt 3633  309 L
4623 3667 mt 4623  309 L
4623  309 mt 4623  309 L
 664 3667 mt 4623 3667 L
4623 3667 mt 4623 3667 L
 664 1988 mt 4623 1988 L
4623 1988 mt 4623 1988 L
 664  309 mt 4623  309 L
4623  309 mt 4623  309 L
SO
6 w
 664 3667 mt 4623 3667 L
 664  309 mt 4623  309 L
 664 3667 mt  664  309 L
4623 3667 mt 4623  309 L
 664 3667 mt 4623 3667 L
 664 3667 mt  664  309 L
 664 3667 mt  664 3627 L
 664  309 mt  664  348 L
%%IncludeResource: font Helvetica-Bold
/Helvetica-Bold /ISOLatin1Encoding 168 FMSR

 618 3862 mt 
(0) s
1653 3667 mt 1653 3627 L
1653  309 mt 1653  348 L
1607 3862 mt 
(2) s
2643 3667 mt 2643 3627 L
2643  309 mt 2643  348 L
2597 3862 mt 
(4) s
3633 3667 mt 3633 3627 L
3633  309 mt 3633  348 L
3587 3862 mt 
(6) s
4623 3667 mt 4623 3627 L
4623  309 mt 4623  348 L
4577 3862 mt 
(8) s
 664 3667 mt  703 3667 L
4623 3667 mt 4583 3667 L
 345 3731 mt 
(-15) s
 664 1988 mt  703 1988 L
4623 1988 mt 4583 1988 L
 345 2052 mt 
(-10) s
 664  309 mt  703  309 L
4623  309 mt 4583  309 L
 438  373 mt 
(-5) s
 664 3667 mt 4623 3667 L
 664  309 mt 4623  309 L
 664 3667 mt  664  309 L
4623 3667 mt 4623  309 L
gs 664 309 3960 3359 rc
gr

gs 591 449 3872 2659 rc
/c8 { 0.000000 0.000000 1.000000 sr} bdef
c8
 628  522 mt  700  522 L
 664  486 mt  664  558 L
 630  523 mt  702  523 L
 666  487 mt  666  559 L
 633  526 mt  705  526 L
 669  490 mt  669  562 L
 639  530 mt  711  530 L
 675  494 mt  675  566 L
 646  535 mt  718  535 L
 682  499 mt  682  571 L
 655  541 mt  727  541 L
 691  505 mt  691  577 L
 667  549 mt  739  549 L
 703  513 mt  703  585 L
 679  557 mt  751  557 L
 715  521 mt  715  593 L
 694  567 mt  766  567 L
 730  531 mt  730  603 L
 711  579 mt  783  579 L
 747  543 mt  747  615 L
 729  591 mt  801  591 L
 765  555 mt  765  627 L
 750  605 mt  822  605 L
 786  569 mt  786  641 L
 772  620 mt  844  620 L
 808  584 mt  808  656 L
 796  636 mt  868  636 L
 832  600 mt  832  672 L
 822  654 mt  894  654 L
 858  618 mt  858  690 L
 849  673 mt  921  673 L
 885  637 mt  885  709 L
 879  693 mt  951  693 L
 915  657 mt  915  729 L
 910  714 mt  982  714 L
 946  678 mt  946  750 L
 944  736 mt 1016  736 L
 980  700 mt  980  772 L
 979  760 mt 1051  760 L
1015  724 mt 1015  796 L
1016  785 mt 1088  785 L
1052  749 mt 1052  821 L
1055  812 mt 1127  812 L
1091  776 mt 1091  848 L
1095  839 mt 1167  839 L
1131  803 mt 1131  875 L
1138  868 mt 1210  868 L
1174  832 mt 1174  904 L
1182  898 mt 1254  898 L
1218  862 mt 1218  934 L
1228  929 mt 1300  929 L
1264  893 mt 1264  965 L
1276  962 mt 1348  962 L
1312  926 mt 1312  998 L
1326  996 mt 1398  996 L
1362  960 mt 1362 1032 L
1378 1031 mt 1450 1031 L
1414  995 mt 1414 1067 L
1431 1067 mt 1503 1067 L
1467 1031 mt 1467 1103 L
1487 1105 mt 1559 1105 L
1523 1069 mt 1523 1141 L
1544 1144 mt 1616 1144 L
1580 1108 mt 1580 1180 L
1603 1184 mt 1675 1184 L
1639 1148 mt 1639 1220 L
1664 1226 mt 1736 1226 L
1700 1190 mt 1700 1262 L
1727 1268 mt 1799 1268 L
1763 1232 mt 1763 1304 L
1792 1312 mt 1864 1312 L
1828 1276 mt 1828 1348 L
1858 1357 mt 1930 1357 L
1894 1321 mt 1894 1393 L
1927 1404 mt 1999 1404 L
1963 1368 mt 1963 1440 L
1997 1452 mt 2069 1452 L
2033 1416 mt 2033 1488 L
2069 1500 mt 2141 1500 L
2105 1464 mt 2105 1536 L
2143 1551 mt 2215 1551 L
2179 1515 mt 2179 1587 L
2219 1602 mt 2291 1602 L
2255 1566 mt 2255 1638 L
2296 1655 mt 2368 1655 L
2332 1619 mt 2332 1691 L
2376 1709 mt 2448 1709 L
2412 1673 mt 2412 1745 L
2457 1764 mt 2529 1764 L
2493 1728 mt 2493 1800 L
2540 1821 mt 2612 1821 L
2576 1785 mt 2576 1857 L
2625 1879 mt 2697 1879 L
2661 1843 mt 2661 1915 L
2712 1938 mt 2784 1938 L
2748 1902 mt 2748 1974 L
2801 1998 mt 2873 1998 L
2837 1962 mt 2837 2034 L
2891 2060 mt 2963 2060 L
2927 2024 mt 2927 2096 L
2983 2122 mt 3055 2122 L
3019 2086 mt 3019 2158 L
3078 2186 mt 3150 2186 L
3114 2150 mt 3114 2222 L
3174 2252 mt 3246 2252 L
3210 2216 mt 3210 2288 L
3272 2318 mt 3344 2318 L
3308 2282 mt 3308 2354 L
3372 2386 mt 3444 2386 L
3408 2350 mt 3408 2422 L
3473 2455 mt 3545 2455 L
3509 2419 mt 3509 2491 L
3577 2525 mt 3649 2525 L
3613 2489 mt 3613 2561 L
3682 2596 mt 3754 2596 L
3718 2560 mt 3718 2632 L
3789 2668 mt 3861 2668 L
3825 2632 mt 3825 2704 L
3898 2741 mt 3970 2741 L
3934 2705 mt 3934 2777 L
4009 2814 mt 4081 2814 L
4045 2778 mt 4045 2850 L
4122 2888 mt 4194 2888 L
4158 2852 mt 4158 2924 L
4236 2962 mt 4308 2962 L
4272 2926 mt 4272 2998 L
4353 3034 mt 4425 3034 L
4389 2998 mt 4389 3070 L
gr

c8
gs 664 309 3960 3359 rc
gr

gs 591 452 3813 2641 rc
24 W
/c9 { 0.000000 1.000000 0.000000 sr} bdef
c9
664 525 PD
24 W
672 530 PD
24 W
687 540 PD
24 W
709 554 PD
24 W
738 574 PD
24 W
775 599 PD
24 W
820 628 PD
24 W
871 663 PD
24 W
930 703 PD
24 W
997 748 PD
24 W
1071 798 PD
24 W
1152 853 PD
24 W
1241 913 PD
24 W
1337 979 PD
24 W
1440 1049 PD
24 W
1551 1124 PD
24 W
1670 1205 PD
24 W
1795 1290 PD
24 W
1928 1381 PD
24 W
2069 1477 PD
24 W
2217 1578 PD
24 W
2372 1684 PD
24 W
2534 1795 PD
24 W
2704 1912 PD
24 W
2882 2034 PD
24 W
3067 2160 PD
24 W
3259 2292 PD
24 W
3458 2430 PD
24 W
3665 2572 PD
24 W
3879 2718 PD
24 W
4101 2868 PD
24 W
4330 3019 PD
gr

c9
gs 664 309 3960 3359 rc
gr

gs 594 460 3695 2637 rc
/c10 { 1.000000 0.000000 0.000000 sr} bdef
c10
 642  508 mt  692  558 L
 692  508 mt  642  558 L
 672  526 mt  722  576 L
 722  526 mt  672  576 L
 731  564 mt  781  614 L
 781  564 mt  731  614 L
 820  621 mt  870  671 L
 870  621 mt  820  671 L
 938  700 mt  988  750 L
 988  700 mt  938  750 L
1086  799 mt 1136  849 L
1136  799 mt 1086  849 L
1263  919 mt 1313  969 L
1313  919 mt 1263  969 L
1470 1061 mt 1520 1111 L
1520 1061 mt 1470 1111 L
1706 1223 mt 1756 1273 L
1756 1223 mt 1706 1273 L
1973 1407 mt 2023 1457 L
2023 1407 mt 1973 1457 L
2268 1613 mt 2318 1663 L
2318 1613 mt 2268 1663 L
2593 1842 mt 2643 1892 L
2643 1842 mt 2593 1892 L
2948 2095 mt 2998 2145 L
2998 2095 mt 2948 2145 L
3333 2372 mt 3383 2422 L
3383 2372 mt 3333 2422 L
3746 2674 mt 3796 2724 L
3796 2674 mt 3746 2724 L
4190 2998 mt 4240 3048 L
4240 2998 mt 4190 3048 L
gr

c10
gs 664 309 3960 3359 rc
DA
0 sg
827 1030 710 620 591 454 473 338 355 239 236 150 119 68 678 552 8 MP stroke
gr

0 sg
DA
%%IncludeResource: font Helvetica-Bold
/Helvetica-Bold /ISOLatin1Encoding 144 FMSR

2415 3996 mt 
(v) s
%%IncludeResource: font Helvetica-Bold
/Helvetica-Bold /ISOLatin1Encoding 108 FMSR

2495 3924 mt 
(2) s
%%IncludeResource: font Helvetica-Bold
/Helvetica-Bold /ISOLatin1Encoding 144 FMSR

2555 3996 mt 
( [v) s
%%IncludeResource: font Helvetica-Bold
/Helvetica-Bold /ISOLatin1Encoding 108 FMSR

2723 4068 mt 
(th) s
%%IncludeResource: font Helvetica-Bold
/Helvetica-Bold /ISOLatin1Encoding 144 FMSR

2824 3996 mt 
(]) s
 258 2349 mt  -90 rotate
(log\(f\) [arb]) s
90 rotate
gs 664 309 3960 3359 rc
SO
c10
117 79 114 77 113 77 111 75 109 74 107 73 105 71 104 70 
101 69 100 68 98 66 96 66 95 64 92 62 90 62 89 60 
87 59 85 58 83 56 81 55 80 54 77 53 76 51 74 50 
72 49 70 48 69 46 66 45 65 44 63 43 61 41 59 40 
57 39 56 38 53 36 52 35 50 34 48 33 46 31 44 30 
43 29 40 28 39 26 37 25 35 24 34 22 31 22 30 20 
27 19 26 17 24 16 22 15 21 14 18 13 17 11 15 10 
12 9 12 7 9 7 7 5 6 3 3 3 2 1 664 409 64 MP stroke
gr

c10
SO
0 sg
%%IncludeResource: font Helvetica
/Helvetica /ISOLatin1Encoding 120 FMSR

 647 3710 mt 
( ) s
4607  351 mt 
( ) s
1 sg
0 1128 2001 0 0 -1128 2559 1503 4 MP
PP
-2001 0 0 1128 2001 0 0 -1128 2559 1503 5 MP stroke
4 w
DO
SO
6 w
0 sg
2559 1503 mt 4560 1503 L
2559  375 mt 4560  375 L
2559 1503 mt 2559  375 L
4560 1503 mt 4560  375 L
2559 1503 mt 4560 1503 L
2559 1503 mt 2559  375 L
2559 1503 mt 4560 1503 L
2559  375 mt 4560  375 L
2559 1503 mt 2559  375 L
4560 1503 mt 4560  375 L
%%IncludeResource: font Helvetica-Bold
/Helvetica-Bold /ISOLatin1Encoding 144 FMSR

3039  558 mt 
(nv=128 nmu=64) s
gs 2559 375 2002 1129 rc
gs 2744 431 147 147 rc
c8
2781  504 mt 2853  504 L
2817  468 mt 2817  540 L
gr

c8
gr

c8
0 sg
3039  775 mt 
(nv=64 nmu=32) s
gs 2559 375 2002 1129 rc
gs 2744 648 147 147 rc
24 W
c9
2817 721 PD
gr

c9
gr

c9
0 sg
3039  992 mt 
(nv=32 nmu=16) s
gs 2559 375 2002 1129 rc
gs 2744 865 147 147 rc
c10
2792  913 mt 2842  963 L
2842  913 mt 2792  963 L
gr

c10
gr

c10
0 sg
3039 1210 mt 
(nv=16 nmu=8) s
gs 2559 375 2002 1129 rc
DA
369 0 2632 1156 2 MP stroke
SO
gr

3039 1427 mt 
(Reference Maxwellian) s
gs 2559 375 2002 1129 rc
c10
369 0 2632 1373 2 MP stroke
gr

c10

end %%Color Dict

eplot
%%EndObject

epage
end

showpage

%%Trailer
%%EOF
