%!PS-Adobe-3.0 EPSF-3.0
%%Creator: MATLAB, The Mathworks, Inc. Version 7.9.0.529 (R2009b). Operating System: Linux 2.6.16.60-0.21-smp #1 SMP Tue May 6 12:41:02 UTC 2008 x86_64.
%%Title: /home/btpp/btpp05/MomentumCons.eps
%%CreationDate: 12/17/2010  17:31:08
%%DocumentNeededFonts: Helvetica
%%+ Helvetica-Bold
%%DocumentProcessColors: Cyan Magenta Yellow Black
%%LanguageLevel: 2
%%Pages: 1
%%BoundingBox:    84   249   509   593
%%EndComments

%%BeginProlog
% MathWorks dictionary
/MathWorks 160 dict begin
% definition operators
/bdef {bind def} bind def
/ldef {load def} bind def
/xdef {exch def} bdef
/xstore {exch store} bdef
% operator abbreviations
/c  /clip ldef
/cc /concat ldef
/cp /closepath ldef
/gr /grestore ldef
/gs /gsave ldef
/mt /moveto ldef
/np /newpath ldef
/cm /currentmatrix ldef
/sm /setmatrix ldef
/rm /rmoveto ldef
/rl /rlineto ldef
/s {show newpath} bdef
/sc {setcmykcolor} bdef
/sr /setrgbcolor ldef
/sg /setgray ldef
/w /setlinewidth ldef
/j /setlinejoin ldef
/cap /setlinecap ldef
/rc {rectclip} bdef
/rf {rectfill} bdef
% page state control
/pgsv () def
/bpage {/pgsv save def} bdef
/epage {pgsv restore} bdef
/bplot /gsave ldef
/eplot {stroke grestore} bdef
% orientation switch
/portraitMode 0 def /landscapeMode 1 def /rotateMode 2 def
% coordinate system mappings
/dpi2point 0 def
% font control
/FontSize 0 def
/FMS {/FontSize xstore findfont [FontSize 0 0 FontSize neg 0 0]
  makefont setfont} bdef
/reencode {exch dup where {pop load} {pop StandardEncoding} ifelse
  exch dup 3 1 roll findfont dup length dict begin
  { 1 index /FID ne {def}{pop pop} ifelse } forall
  /Encoding exch def currentdict end definefont pop} bdef
/isroman {findfont /CharStrings get /Agrave known} bdef
/FMSR {3 1 roll 1 index dup isroman {reencode} {pop pop} ifelse
  exch FMS} bdef
/csm {1 dpi2point div -1 dpi2point div scale neg translate
 dup landscapeMode eq {pop -90 rotate}
  {rotateMode eq {90 rotate} if} ifelse} bdef
% line types: solid, dotted, dashed, dotdash
/SO { [] 0 setdash } bdef
/DO { [.5 dpi2point mul 4 dpi2point mul] 0 setdash } bdef
/DA { [6 dpi2point mul] 0 setdash } bdef
/DD { [.5 dpi2point mul 4 dpi2point mul 6 dpi2point mul 4
  dpi2point mul] 0 setdash } bdef
% macros for lines and objects
/L {lineto stroke} bdef
/MP {3 1 roll moveto 1 sub {rlineto} repeat} bdef
/AP {{rlineto} repeat} bdef
/PDlw -1 def
/W {/PDlw currentlinewidth def setlinewidth} def
/PP {closepath eofill} bdef
/DP {closepath stroke} bdef
/MR {4 -2 roll moveto dup  0 exch rlineto exch 0 rlineto
  neg 0 exch rlineto closepath} bdef
/FR {MR stroke} bdef
/PR {MR fill} bdef
/L1i {{currentfile picstr readhexstring pop} image} bdef
/tMatrix matrix def
/MakeOval {newpath tMatrix currentmatrix pop translate scale
0 0 1 0 360 arc tMatrix setmatrix} bdef
/FO {MakeOval stroke} bdef
/PO {MakeOval fill} bdef
/PD {currentlinewidth 2 div 0 360 arc fill
   PDlw -1 eq not {PDlw w /PDlw -1 def} if} def
/FA {newpath tMatrix currentmatrix pop translate scale
  0 0 1 5 -2 roll arc tMatrix setmatrix stroke} bdef
/PA {newpath tMatrix currentmatrix pop	translate 0 0 moveto scale
  0 0 1 5 -2 roll arc closepath tMatrix setmatrix fill} bdef
/FAn {newpath tMatrix currentmatrix pop translate scale
  0 0 1 5 -2 roll arcn tMatrix setmatrix stroke} bdef
/PAn {newpath tMatrix currentmatrix pop translate 0 0 moveto scale
  0 0 1 5 -2 roll arcn closepath tMatrix setmatrix fill} bdef
/vradius 0 def /hradius 0 def /lry 0 def
/lrx 0 def /uly 0 def /ulx 0 def /rad 0 def
/MRR {/vradius xdef /hradius xdef /lry xdef /lrx xdef /uly xdef
  /ulx xdef newpath tMatrix currentmatrix pop ulx hradius add uly
  vradius add translate hradius vradius scale 0 0 1 180 270 arc 
  tMatrix setmatrix lrx hradius sub uly vradius add translate
  hradius vradius scale 0 0 1 270 360 arc tMatrix setmatrix
  lrx hradius sub lry vradius sub translate hradius vradius scale
  0 0 1 0 90 arc tMatrix setmatrix ulx hradius add lry vradius sub
  translate hradius vradius scale 0 0 1 90 180 arc tMatrix setmatrix
  closepath} bdef
/FRR {MRR stroke } bdef
/PRR {MRR fill } bdef
/MlrRR {/lry xdef /lrx xdef /uly xdef /ulx xdef /rad lry uly sub 2 div def
  newpath tMatrix currentmatrix pop ulx rad add uly rad add translate
  rad rad scale 0 0 1 90 270 arc tMatrix setmatrix lrx rad sub lry rad
  sub translate rad rad scale 0 0 1 270 90 arc tMatrix setmatrix
  closepath} bdef
/FlrRR {MlrRR stroke } bdef
/PlrRR {MlrRR fill } bdef
/MtbRR {/lry xdef /lrx xdef /uly xdef /ulx xdef /rad lrx ulx sub 2 div def
  newpath tMatrix currentmatrix pop ulx rad add uly rad add translate
  rad rad scale 0 0 1 180 360 arc tMatrix setmatrix lrx rad sub lry rad
  sub translate rad rad scale 0 0 1 0 180 arc tMatrix setmatrix
  closepath} bdef
/FtbRR {MtbRR stroke } bdef
/PtbRR {MtbRR fill } bdef
/stri 6 array def /dtri 6 array def
/smat 6 array def /dmat 6 array def
/tmat1 6 array def /tmat2 6 array def /dif 3 array def
/asub {/ind2 exch def /ind1 exch def dup dup
  ind1 get exch ind2 get sub exch } bdef
/tri_to_matrix {
  2 0 asub 3 1 asub 4 0 asub 5 1 asub
  dup 0 get exch 1 get 7 -1 roll astore } bdef
/compute_transform {
  dmat dtri tri_to_matrix tmat1 invertmatrix 
  smat stri tri_to_matrix tmat2 concatmatrix } bdef
/ds {stri astore pop} bdef
/dt {dtri astore pop} bdef
/db {2 copy /cols xdef /rows xdef mul dup 3 mul string
  currentfile 
  3 index 0 eq {/ASCIIHexDecode filter}
  {/ASCII85Decode filter 3 index 2 eq {/RunLengthDecode filter} if }
  ifelse exch readstring pop
  dup 0 3 index getinterval /rbmap xdef
  dup 2 index dup getinterval /gbmap xdef
  1 index dup 2 mul exch getinterval /bbmap xdef pop pop}bdef
/it {gs np dtri aload pop moveto lineto lineto cp c
  cols rows 8 compute_transform 
  rbmap gbmap bbmap true 3 colorimage gr}bdef
/il {newpath moveto lineto stroke}bdef
currentdict end def
%%EndProlog

%%BeginSetup
MathWorks begin

0 cap

end
%%EndSetup

%%Page: 1 1
%%BeginPageSetup
%%PageBoundingBox:    84   249   509   593
MathWorks begin
bpage
%%EndPageSetup

%%BeginObject: obj1
bplot

/dpi2point 12 def
portraitMode 1008 7116 csm

    0     0  5108  4120 rc
86 dict begin %Colortable dictionary
/c0 { 0.000000 0.000000 0.000000 sr} bdef
/c1 { 1.000000 1.000000 1.000000 sr} bdef
/c2 { 0.900000 0.000000 0.000000 sr} bdef
/c3 { 0.000000 0.820000 0.000000 sr} bdef
/c4 { 0.000000 0.000000 0.800000 sr} bdef
/c5 { 0.910000 0.820000 0.320000 sr} bdef
/c6 { 1.000000 0.260000 0.820000 sr} bdef
/c7 { 0.000000 0.820000 0.820000 sr} bdef
c0
1 j
1 sg
   0    0 5109 4121 rf
6 w
0 3358 3959 0 0 -3358 664 3667 4 MP
PP
-3959 0 0 3358 3959 0 0 -3358 664 3667 5 MP stroke
4 w
DO
SO
6 w
0 sg
 664 3667 mt 4623 3667 L
 664  309 mt 4623  309 L
 664 3667 mt  664  309 L
4623 3667 mt 4623  309 L
 664 3667 mt 4623 3667 L
 664 3667 mt  664  309 L
 664 3667 mt  664 3627 L
 664  309 mt  664  348 L
%%IncludeResource: font Helvetica-Bold
/Helvetica-Bold /ISOLatin1Encoding 120 FMSR

 631 3816 mt 
(0) s
1323 3667 mt 1323 3627 L
1323  309 mt 1323  348 L
1223 3816 mt 
(500) s
1983 3667 mt 1983 3627 L
1983  309 mt 1983  348 L
1850 3816 mt 
(1000) s
2643 3667 mt 2643 3627 L
2643  309 mt 2643  348 L
2510 3816 mt 
(1500) s
3303 3667 mt 3303 3627 L
3303  309 mt 3303  348 L
3170 3816 mt 
(2000) s
3963 3667 mt 3963 3627 L
3963  309 mt 3963  348 L
3830 3816 mt 
(2500) s
4623 3667 mt 4623 3627 L
4623  309 mt 4623  348 L
4490 3816 mt 
(3000) s
 664 3667 mt  703 3667 L
4623 3667 mt 4583 3667 L
 563 3713 mt 
(0) s
 664 3107 mt  703 3107 L
4623 3107 mt 4583 3107 L
 329 3153 mt 
(0.005) s
 664 2547 mt  703 2547 L
4623 2547 mt 4583 2547 L
 396 2593 mt 
(0.01) s
 664 1988 mt  703 1988 L
4623 1988 mt 4583 1988 L
 329 2034 mt 
(0.015) s
 664 1428 mt  703 1428 L
4623 1428 mt 4583 1428 L
 396 1474 mt 
(0.02) s
 664  868 mt  703  868 L
4623  868 mt 4583  868 L
 329  914 mt 
(0.025) s
 664  309 mt  703  309 L
4623  309 mt 4583  309 L
 396  355 mt 
(0.03) s
 664 3667 mt 4623 3667 L
 664  309 mt 4623  309 L
 664 3667 mt  664  309 L
4623 3667 mt 4623  309 L
gs 664 309 3960 3359 rc
/c8 { 1.000000 0.000000 0.000000 sr} bdef
c8
8 0 8 0 8 0 8 0 8 0 8 0 8 0 8 0 
8 0 8 0 8 0 8 0 7 0 8 0 8 0 8 0 
8 0 8 0 8 0 8 0 8 0 8 0 8 0 8 0 
7 0 8 0 8 0 8 0 8 0 8 0 8 0 8 0 
8 0 8 0 8 0 8 0 7 0 8 0 8 0 8 0 
8 0 8 0 8 0 8 0 8 0 8 0 8 0 8 0 
7 0 8 0 8 0 8 0 8 0 8 0 8 0 8 0 
8 0 8 0 8 0 8 0 7 0 8 0 8 0 8 0 
8 0 8 0 8 0 8 0 8 0 8 0 8 0 8 0 
8 0 7 0 8 0 8 0 8 0 8 0 8 1 8 0 
8 0 8 0 8 0 8 0 8 0 7 0 8 0 8 0 
8 0 8 0 8 0 8 0 8 0 8 0 8 0 8 0 
8 0 7 0 8 0 8 0 8 0 8 0 8 0 8 0 
8 0 8 0 8 0 8 0 8 0 7 0 8 0 8 1 
8 0 8 0 8 0 8 0 8 0 8 0 8 0 8 0 
8 0 7 0 8 0 8 0 8 0 8 0 8 0 8 0 
8 0 8 0 8 0 8 1 8 0 8 0 7 0 8 0 
8 0 8 0 8 0 8 0 8 0 8 0 8 0 8 0 
8 0 8 1 7 0 8 0 8 0 8 0 8 0 8 0 
8 0 8 0 8 0 8 1 8 0 8 0 7 0 8 0 
8 0 8 0 8 0 8 0 8 1 8 0 8 0 8 0 
8 0 8 0 7 0 8 0 8 1 8 0 8 0 8 0 
8 0 8 0 8 1 8 0 8 0 8 0 7 0 8 0 
8 1 8 0 8 0 8 0 8 0 8 1 8 0 8 0 
8 0 8 0 8 1 7 0 8 0 8 0 8 1 8 0 
8 0 8 0 8 1 8 0 8 0 8 0 8 1 7 0 
8 0 8 1 8 0 8 0 8 1 8 0 8 0 8 1 
8 0 8 0 8 1 7 0 8 1 8 0 8 0 8 1 
8 0 8 1 8 0 8 0 8 1 8 0 8 1 7 0 
8 1 8 0 8 1 8 0 8 1 8 0 8 1 8 0 
8 1 8 1 8 0 7 1 8 0 8 1 8 1 8 0 
8 1 8 1 8 0 8 1 8 1 8 1 8 0 8 1 
7 1 8 1 8 1 8 0 8 1 8 1 8 1 8 1 
8 1 8 1 8 1 8 1 7 1 8 1 8 1 8 1 
8 1 8 1 8 1 8 1 8 2 8 1 8 1 8 1 
7 1 8 2 8 1 8 1 8 2 8 1 8 2 8 1 
8 2 8 1 8 2 8 1 7 2 8 1 8 2 8 2 
8 2 8 1 8 2 2255 3575 300 MP stroke
8 2 8 2 8 2 8 2 8 2 7 2 8 2 8 2 
8 2 8 2 8 2 8 3 8 2 8 2 8 3 8 2 
8 3 8 2 7 3 8 2 8 3 8 3 8 3 8 2 
8 3 8 3 8 3 8 3 8 4 8 3 7 3 8 3 
8 4 8 3 8 4 8 3 8 4 8 4 8 3 8 4 
8 4 8 4 7 4 8 4 8 4 8 5 8 4 8 5 
8 4 8 5 8 4 8 5 8 5 8 5 7 5 8 5 
8 6 8 5 8 5 8 6 8 6 8 5 8 6 8 6 
8 6 8 6 7 7 8 6 8 7 8 6 8 7 8 7 
8 7 8 7 8 7 8 8 8 7 8 8 8 7 7 8 
8 8 8 9 8 8 8 8 8 9 8 9 8 9 8 9 
8 9 8 10 8 9 7 10 8 10 8 10 8 10 8 11 
8 10 8 11 8 11 8 11 8 11 8 12 8 12 7 12 
8 12 8 12 8 12 8 13 8 13 8 13 8 14 8 13 
8 14 8 14 8 14 7 15 8 15 8 15 8 15 8 15 
8 16 8 16 8 16 8 17 8 16 8 17 8 18 7 17 
8 18 8 18 8 18 8 19 8 19 8 19 8 20 8 19 
8 20 8 21 8 21 8 21 7 21 8 22 8 22 8 22 
8 23 8 22 8 24 8 23 8 24 8 25 8 24 8 25 
7 26 8 25 8 26 8 27 8 27 8 27 8 27 8 28 
8 28 8 29 8 29 8 29 7 30 8 30 8 31 8 31 
8 31 8 32 8 32 8 32 8 33 8 33 8 34 8 34 
7 34 8 35 8 35 8 36 8 36 8 36 8 37 8 37 
8 38 8 38 8 38 8 39 7 39 8 39 8 40 8 40 
8 40 8 41 8 41 8 42 8 42 8 42 8 43 8 43 
671 496 201 MP stroke
/c9 { 0.000000 1.000000 0.000000 sr} bdef
c9
8 0 8 1 8 0 8 0 8 0 8 0 8 0 8 1 
8 0 8 0 8 0 8 0 7 0 8 1 8 0 8 0 
8 0 8 0 8 1 8 0 8 0 8 0 8 0 8 1 
7 0 8 0 8 0 8 0 8 1 8 0 8 0 8 0 
8 0 8 1 8 0 8 0 7 0 8 1 8 0 8 0 
8 0 8 1 8 0 8 0 8 0 8 1 8 0 8 0 
7 0 8 1 8 0 8 0 8 1 8 0 8 0 8 0 
8 1 8 0 8 0 8 1 7 0 8 0 8 1 8 0 
8 0 8 1 8 0 8 0 8 1 8 0 8 0 8 1 
8 0 7 0 8 1 8 0 8 1 8 0 8 0 8 1 
8 0 8 1 8 0 8 0 8 1 7 0 8 1 8 0 
8 0 8 1 8 0 8 1 8 0 8 1 8 0 8 1 
8 0 7 1 8 0 8 1 8 0 8 1 8 0 8 1 
8 0 8 1 8 0 8 1 8 0 7 1 8 1 8 0 
8 1 8 0 8 1 8 1 8 0 8 1 8 0 8 1 
8 1 7 0 8 1 8 1 8 0 8 1 8 1 8 0 
8 1 8 1 8 1 8 0 8 1 8 1 7 0 8 1 
8 1 8 1 8 1 8 0 8 1 8 1 8 1 8 1 
8 1 8 0 7 1 8 1 8 1 8 1 8 1 8 1 
8 1 8 1 8 1 8 1 8 1 8 1 7 1 8 1 
8 1 8 1 8 1 8 1 8 1 8 1 8 1 8 1 
8 1 8 2 7 1 8 1 8 1 8 1 8 2 8 1 
8 1 8 1 8 2 8 1 8 1 8 1 7 2 8 1 
8 2 8 1 8 1 8 2 8 1 8 2 8 1 8 2 
8 1 8 2 8 1 7 2 8 1 8 2 8 2 8 1 
8 2 8 1 8 2 8 2 8 2 8 1 8 2 7 2 
8 2 8 2 8 1 8 2 8 2 8 2 8 2 8 2 
8 2 8 2 8 2 7 2 8 2 8 2 8 3 8 2 
8 2 8 2 8 2 8 3 8 2 8 2 8 3 7 2 
8 2 8 3 8 2 8 3 8 2 8 3 8 3 8 2 
8 3 8 2 8 3 7 3 8 3 8 3 8 2 8 3 
8 3 8 3 8 3 8 3 8 3 8 3 8 3 8 3 
7 4 8 3 8 3 8 3 8 4 8 3 8 4 8 3 
8 3 8 4 8 4 8 3 7 4 8 4 8 3 8 4 
8 4 8 4 8 4 8 4 8 4 8 4 8 4 8 4 
7 4 8 4 8 5 8 4 8 4 8 5 8 4 8 5 
8 5 8 4 8 5 8 5 7 4 8 5 8 5 8 5 
8 5 8 5 8 5 2255 3222 300 MP stroke
8 6 8 5 8 5 8 6 8 5 7 6 8 5 8 6 
8 5 8 6 8 6 8 6 8 6 8 6 8 6 8 6 
8 6 8 7 7 6 8 6 8 7 8 6 8 7 8 7 
8 6 8 7 8 7 8 7 8 7 8 7 7 8 8 7 
8 7 8 8 8 7 8 8 8 8 8 8 8 7 8 8 
8 8 8 9 7 8 8 8 8 9 8 8 8 9 8 8 
8 9 8 9 8 9 8 9 8 9 8 9 7 10 8 9 
8 9 8 10 8 10 8 10 8 9 8 10 8 11 8 10 
8 10 8 10 7 11 8 11 8 10 8 11 8 11 8 11 
8 11 8 12 8 11 8 11 8 12 8 12 8 12 7 11 
8 12 8 13 8 12 8 12 8 13 8 12 8 13 8 13 
8 13 8 13 8 13 7 14 8 13 8 14 8 13 8 14 
8 14 8 14 8 14 8 14 8 15 8 14 8 15 7 15 
8 15 8 15 8 15 8 15 8 16 8 15 8 16 8 16 
8 15 8 16 8 17 7 16 8 16 8 17 8 16 8 17 
8 17 8 17 8 17 8 17 8 18 8 17 8 18 7 17 
8 18 8 18 8 18 8 18 8 19 8 18 8 18 8 19 
8 19 8 19 8 19 8 19 7 19 8 19 8 19 8 20 
8 19 8 20 8 19 8 20 8 20 8 20 8 20 8 20 
7 20 8 20 8 20 8 21 8 20 8 20 8 21 8 20 
8 21 8 20 8 21 8 21 7 20 8 21 8 21 8 20 
8 21 8 20 8 21 8 21 8 20 8 21 8 20 8 20 
7 21 8 20 8 20 8 20 8 20 8 20 8 19 8 20 
8 19 8 19 8 19 8 19 7 18 8 19 8 18 8 17 
8 18 8 17 8 17 8 16 8 16 8 16 8 15 8 15 
671 467 201 MP stroke
/c10 { 0.000000 0.000000 1.000000 sr} bdef
c10
8 0 8 0 8 0 8 0 8 0 8 0 8 0 8 0 
8 0 8 0 8 0 8 0 7 0 8 0 8 0 8 0 
8 0 8 0 8 0 8 0 8 0 8 0 8 0 8 0 
7 0 8 0 8 0 8 0 8 0 8 0 8 0 8 0 
8 0 8 0 8 0 8 0 7 0 8 0 8 0 8 0 
8 0 8 0 8 0 8 0 8 0 8 0 8 0 8 0 
7 0 8 0 8 0 8 0 8 0 8 0 8 0 8 0 
8 0 8 0 8 0 8 0 7 0 8 0 8 0 8 0 
8 0 8 0 8 0 8 0 8 0 8 0 8 0 8 0 
8 0 7 0 8 0 8 0 8 0 8 0 8 0 8 0 
8 0 8 0 8 0 8 0 8 0 7 0 8 0 8 0 
8 0 8 0 8 0 8 0 8 0 8 0 8 0 8 0 
8 0 7 0 8 0 8 0 8 0 8 0 8 0 8 0 
8 0 8 0 8 0 8 0 8 0 7 0 8 0 8 0 
8 0 8 0 8 0 8 0 8 0 8 0 8 0 8 0 
8 0 7 0 8 0 8 0 8 0 8 0 8 0 8 0 
8 0 8 0 8 0 8 0 8 0 8 0 7 0 8 0 
8 0 8 0 8 0 8 0 8 0 8 0 8 0 8 0 
8 0 8 0 7 0 8 0 8 0 8 0 8 0 8 0 
8 0 8 0 8 0 8 0 8 0 8 0 7 0 8 0 
8 0 8 0 8 0 8 0 8 0 8 0 8 0 8 0 
8 0 8 0 7 0 8 0 8 0 8 0 8 0 8 0 
8 0 8 0 8 0 8 0 8 0 8 0 7 0 8 0 
8 0 8 0 8 0 8 0 8 0 8 0 8 0 8 0 
8 0 8 0 8 0 7 0 8 0 8 0 8 0 8 0 
8 0 8 0 8 0 8 0 8 0 8 0 8 0 7 0 
8 0 8 0 8 0 8 0 8 0 8 0 8 0 8 0 
8 0 8 0 8 0 7 0 8 0 8 0 8 0 8 0 
8 0 8 0 8 0 8 0 8 0 8 0 8 0 7 0 
8 0 8 0 8 0 8 0 8 0 8 0 8 0 8 0 
8 0 8 0 8 0 7 0 8 0 8 0 8 0 8 0 
8 0 8 0 8 0 8 0 8 0 8 0 8 0 8 0 
7 0 8 0 8 0 8 0 8 0 8 0 8 0 8 0 
8 0 8 0 8 0 8 0 7 0 8 0 8 0 8 0 
8 0 8 0 8 0 8 0 8 0 8 0 8 0 8 0 
7 0 8 0 8 0 8 0 8 0 8 0 8 0 8 0 
8 0 8 0 8 0 8 0 7 0 8 0 8 0 8 0 
8 0 8 0 8 0 2255 453 300 MP stroke
8 0 8 0 8 0 8 0 8 0 7 0 8 0 8 0 
8 0 8 0 8 0 8 0 8 0 8 0 8 0 8 0 
8 0 8 0 7 0 8 0 8 0 8 0 8 0 8 0 
8 0 8 0 8 0 8 0 8 0 8 0 7 0 8 0 
8 0 8 0 8 0 8 0 8 0 8 0 8 0 8 0 
8 0 8 0 7 0 8 0 8 0 8 0 8 0 8 0 
8 0 8 0 8 0 8 0 8 0 8 0 7 0 8 0 
8 0 8 0 8 0 8 0 8 0 8 0 8 0 8 0 
8 0 8 0 7 0 8 0 8 0 8 0 8 0 8 0 
8 0 8 0 8 0 8 0 8 0 8 0 8 0 7 0 
8 0 8 0 8 0 8 0 8 0 8 0 8 0 8 0 
8 0 8 0 8 0 7 0 8 0 8 0 8 0 8 0 
8 0 8 0 8 0 8 0 8 0 8 0 8 0 7 0 
8 0 8 0 8 0 8 0 8 0 8 0 8 0 8 0 
8 0 8 0 8 0 7 0 8 0 8 0 8 0 8 0 
8 0 8 0 8 0 8 0 8 0 8 0 8 0 7 0 
8 0 8 0 8 0 8 0 8 0 8 0 8 0 8 0 
8 0 8 0 8 0 8 0 7 0 8 0 8 0 8 0 
8 0 8 0 8 0 8 0 8 0 8 0 8 0 8 0 
7 0 8 0 8 0 8 0 8 0 8 0 8 0 8 0 
8 0 8 0 8 0 8 0 7 0 8 0 8 0 8 0 
8 0 8 0 8 0 8 0 8 0 8 0 8 0 8 0 
7 0 8 0 8 0 8 0 8 0 8 0 8 0 8 0 
8 0 8 0 8 0 8 0 7 0 8 0 8 0 8 0 
8 0 8 0 8 0 8 0 8 0 8 0 8 0 8 0 
671 453 201 MP stroke
gr

c10
0 sg
%%IncludeResource: font Helvetica-Bold
/Helvetica-Bold /ISOLatin1Encoding 144 FMSR

2202 3942 mt 
(Time [t v) s
%%IncludeResource: font Helvetica-Bold
/Helvetica-Bold /ISOLatin1Encoding 108 FMSR

2794 4014 mt 
(th) s
%%IncludeResource: font Helvetica-Bold
/Helvetica-Bold /ISOLatin1Encoding 144 FMSR

2895 3942 mt 
(/R]) s
 178 2821 mt  -90 rotate
(Parallel Momentum <v) s
90 rotate
%%IncludeResource: font Helvetica-Bold
/Helvetica-Bold /ISOLatin1Encoding 108 FMSR

 250 1301 mt  -90 rotate
(||) s
90 rotate
%%IncludeResource: font Helvetica-Bold
/Helvetica-Bold /ISOLatin1Encoding 144 FMSR

 178 1241 mt  -90 rotate
(>) s
90 rotate
%%IncludeResource: font Helvetica
/Helvetica /ISOLatin1Encoding 120 FMSR

 647 3710 mt 
( ) s
4607  351 mt 
( ) s
1 sg
0 636 2038 0 0 -636 2477 1282 4 MP
PP
-2038 0 0 636 2038 0 0 -636 2477 1282 5 MP stroke
4 w
DO
SO
6 w
0 sg
2477 1282 mt 4515 1282 L
2477  646 mt 4515  646 L
2477 1282 mt 2477  646 L
4515 1282 mt 4515  646 L
2477 1282 mt 4515 1282 L
2477 1282 mt 2477  646 L
2477 1282 mt 4515 1282 L
2477  646 mt 4515  646 L
2477 1282 mt 2477  646 L
4515 1282 mt 4515  646 L
%%IncludeResource: font Helvetica-Bold
/Helvetica-Bold /ISOLatin1Encoding 120 FMSR

2956  810 mt 
(No mometum conservtion) s
gs 2477 646 2039 637 rc
c8
368 0 2550 766 2 MP stroke
gr

c8
0 sg
2956 1009 mt 
(Self collisions conserved) s
gs 2477 646 2039 637 rc
c9
368 0 2550 964 2 MP stroke
gr

c9
0 sg
2956 1207 mt 
(Total conservation) s
gs 2477 646 2039 637 rc
c10
368 0 2550 1162 2 MP stroke
gr

c10

end %%Color Dict

eplot
%%EndObject

epage
end

showpage

%%Trailer
%%EOF
