%!PS-Adobe-3.0 EPSF-3.0
%%BoundingBox: 126 505 446 734
%%HiResBoundingBox: 126.537 505.287 445.573 733.076
%%Creator: Karbon14 EPS Exportfilter 0.5
%%CreationDate: (03/03/08 14:20:34)
%%For: (rwlbuis) ()
%%Title: ()

/N {newpath} def
/C {closepath} def
/m {moveto} def
/c {curveto} def
/l {lineto} def
/s {stroke} def
/f {fill} def
/w {setlinewidth} def
/d {setdash} def
/r {setrgbcolor} def
/S {gsave} def
/R {grestore} def

N
131.342 732.576 m
131.342 512.314 131.342 512.314 131.342 505.787 c
131.342 505.787 l
[] 0 d 0 0 0 r 1 w s

N
257.788 488.656 m
257.788 488.656 l
[] 0 d 0 0 0 r 1 w s

N
131.736 568.814 m
132.552 568.814 132.552 568.814 444.182 568.814 c
444.182 568.814 l
[] 0 d 0 0 0 r 1 w s

N
135.378 557.739 m
135.378 560.004 133.511 561.84 131.207 561.84 c
128.904 561.84 127.037 560.004 127.037 557.739 c
127.037 555.474 128.904 553.638 131.207 553.638 c
133.511 553.638 135.378 555.474 135.378 557.739 c
C
S 0 0 0 r f R
[] 0 d 1 1 1 r 1 w s

N
182.519 592.135 m
182.519 546.341 182.519 546.341 182.519 544.984 c
182.519 544.984 l
[] 0 d 0 0 0 r 1 w s

N
226.519 592.135 m
226.519 546.341 226.519 546.341 226.519 544.984 c
226.519 544.984 l
[] 0 d 0 0 0 r 1 w s

N
272.519 592.135 m
272.519 546.341 272.519 546.341 272.519 544.984 c
272.519 544.984 l
[] 0 d 0 0 0 r 1 w s

N
318.519 592.135 m
318.519 546.341 318.519 546.341 318.519 544.984 c
318.519 544.984 l
[] 0 d 0 0 0 r 1 w s

N
186.378 582.739 m
186.378 585.004 184.511 586.84 182.207 586.84 c
179.904 586.84 178.037 585.004 178.037 582.739 c
178.037 580.474 179.904 578.638 182.207 578.638 c
184.511 578.638 186.378 580.474 186.378 582.739 c
C
[] 0 d 0 0 0 r 1 w s

N
135.378 583.739 m
135.378 586.004 133.511 587.84 131.207 587.84 c
128.904 587.84 127.037 586.004 127.037 583.739 c
127.037 581.474 128.904 579.638 131.207 579.638 c
133.511 579.638 135.378 581.474 135.378 583.739 c
C
[] 0 d 0 0 0 r 1 w s

N
230.378 582.739 m
230.378 585.004 228.511 586.84 226.207 586.84 c
223.904 586.84 222.037 585.004 222.037 582.739 c
222.037 580.474 223.904 578.638 226.207 578.638 c
228.511 578.638 230.378 580.474 230.378 582.739 c
C
[] 0 d 0 0 0 r 1 w s

N
276.378 583.739 m
276.378 586.004 274.511 587.84 272.207 587.84 c
269.904 587.84 268.037 586.004 268.037 583.739 c
268.037 581.474 269.904 579.638 272.207 579.638 c
274.511 579.638 276.378 581.474 276.378 583.739 c
C
[] 0 d 0 0 0 r 1 w s

N
186.378 557.739 m
186.378 560.004 184.511 561.84 182.207 561.84 c
179.904 561.84 178.037 560.004 178.037 557.739 c
178.037 555.474 179.904 553.638 182.207 553.638 c
184.511 553.638 186.378 555.474 186.378 557.739 c
C
S 0 0 0 r f R
[] 0 d 1 1 1 r 1 w s

N
230.378 557.739 m
230.378 560.004 228.511 561.84 226.207 561.84 c
223.904 561.84 222.037 560.004 222.037 557.739 c
222.037 555.474 223.904 553.638 226.207 553.638 c
228.511 553.638 230.378 555.474 230.378 557.739 c
C
S 0 0 0 r f R
[] 0 d 1 1 1 r 1 w s

N
444.104 564.359 m
443.464 564.578 442.901 564.578 442.901 564.578 c
442.276 564.578 441.917 564.359 441.917 564.359 c
441.557 564.156 441.557 563.812 441.557 563.812 c
441.557 563.594 441.714 563.422 441.714 563.422 c
441.885 563.266 442.385 563.125 442.385 563.125 c
443.12 562.906 l
443.62 562.766 443.932 562.562 443.932 562.562 c
444.245 562.375 444.401 562.094 444.401 562.094 c
444.573 561.812 444.573 561.438 444.573 561.438 c
444.573 560.719 443.964 560.297 443.964 560.297 c
443.354 559.875 442.401 559.875 442.401 559.875 c
441.464 559.875 440.854 560.156 440.854 560.156 c
441.01 560.812 l
441.651 560.516 442.37 560.516 442.37 560.516 c
443.01 560.516 443.401 560.75 443.401 560.75 c
443.807 560.984 443.807 561.375 443.807 561.375 c
443.807 561.641 443.604 561.844 443.604 561.844 c
443.417 562.047 442.682 562.281 442.682 562.281 c
442.089 562.453 441.807 562.547 441.807 562.547 c
441.526 562.641 441.292 562.812 441.292 562.812 c
441.057 562.984 440.932 563.234 440.932 563.234 c
440.807 563.484 440.807 563.781 440.807 563.781 c
440.807 564.438 441.385 564.812 441.385 564.812 c
441.964 565.203 442.917 565.203 442.917 565.203 c
443.526 565.203 444.276 565 444.276 565 c
444.104 564.359 l
[] 0 d 0 0 0 r 1 w s

N
137.161 708.115 m
137.849 707.958 138.24 707.49 138.24 707.49 c
138.63 707.021 138.63 706.38 138.63 706.38 c
138.63 705.443 137.943 704.88 137.943 704.88 c
137.271 704.333 136.318 704.333 136.318 704.333 c
134.349 704.333 l
134.349 711.224 l
136.271 711.224 l
137.255 711.224 137.818 710.786 137.818 710.786 c
138.38 710.349 138.38 709.552 138.38 709.552 c
138.38 709.068 138.052 708.677 138.052 708.677 c
137.74 708.302 137.161 708.13 137.161 708.13 c
137.161 708.115 l
135.161 708.49 m
136.099 708.49 l
137.568 708.49 137.568 709.536 137.568 709.536 c
137.568 710.005 137.193 710.255 137.193 710.255 c
136.833 710.521 136.146 710.521 136.146 710.521 c
135.161 710.521 l
135.161 708.49 l
135.161 705.036 m
136.068 705.036 l
136.865 705.036 137.318 705.396 137.318 705.396 c
137.786 705.755 137.786 706.38 137.786 706.38 c
137.786 707.052 137.333 707.411 137.333 707.411 c
136.88 707.786 136.005 707.786 136.005 707.786 c
135.161 707.786 l
135.161 705.036 l
[] 0 d 0 0 0 r 1 w s

N
142.333 709.536 m
143.38 709.536 143.99 708.802 143.99 708.802 c
144.615 708.083 144.615 706.88 144.615 706.88 c
144.615 705.677 143.99 704.943 143.99 704.943 c
143.38 704.208 142.333 704.208 142.333 704.208 c
141.271 704.208 140.646 704.943 140.646 704.943 c
140.036 705.677 140.036 706.88 140.036 706.88 c
140.036 708.083 140.661 708.802 140.661 708.802 c
141.286 709.536 142.333 709.536 142.333 709.536 c
142.333 704.865 m
143.021 704.865 143.427 705.443 143.427 705.443 c
143.833 706.036 143.833 706.88 143.833 706.88 c
143.833 707.755 143.427 708.318 143.427 708.318 c
143.036 708.88 142.333 708.88 142.333 708.88 c
141.63 708.88 141.24 708.318 141.24 708.318 c
140.849 707.771 140.849 706.88 140.849 706.88 c
140.849 706.021 141.24 705.443 141.24 705.443 c
141.63 704.865 142.333 704.865 142.333 704.865 c
[] 0 d 0 0 0 r 1 w s

N
150.302 704.333 m
149.536 704.333 l
149.536 705.083 l
148.708 704.208 147.802 704.208 147.802 704.208 c
146.38 704.208 146.38 705.943 146.38 705.943 c
146.38 709.427 l
147.13 709.427 l
147.13 706.161 l
147.13 705.521 147.333 705.193 147.333 705.193 c
147.552 704.88 148.036 704.88 148.036 704.88 c
148.74 704.88 149.536 705.74 149.536 705.74 c
149.536 709.427 l
150.302 709.427 l
150.302 704.333 l
[] 0 d 0 0 0 r 1 w s

N
156.302 704.333 m
155.536 704.333 l
155.536 707.599 l
155.536 708.271 155.318 708.568 155.318 708.568 c
155.115 708.88 154.646 708.88 154.646 708.88 c
153.943 708.88 153.146 708.021 153.146 708.021 c
153.146 704.333 l
152.38 704.333 l
152.38 709.427 l
153.146 709.427 l
153.146 708.677 l
153.958 709.536 154.88 709.536 154.88 709.536 c
156.302 709.536 156.302 707.818 156.302 707.818 c
156.302 704.333 l
[] 0 d 0 0 0 r 1 w s

N
162.286 704.333 m
161.521 704.333 l
161.521 705.068 l
161.286 704.693 160.849 704.443 160.849 704.443 c
160.411 704.208 159.927 704.208 159.927 704.208 c
159.052 704.208 158.536 704.974 158.536 704.974 c
158.036 705.755 158.036 706.958 158.036 706.958 c
158.036 708.068 158.568 708.802 158.568 708.802 c
159.099 709.536 159.974 709.536 159.974 709.536 c
160.943 709.536 161.521 708.755 161.521 708.755 c
161.521 711.224 l
162.286 711.224 l
162.286 704.333 l
161.521 705.896 m
161.521 708.005 l
160.974 708.88 160.208 708.88 160.208 708.88 c
159.568 708.88 159.208 708.318 159.208 708.318 c
158.849 707.771 158.849 706.911 158.849 706.911 c
158.849 706.036 159.193 705.458 159.193 705.458 c
159.536 704.88 160.13 704.88 160.13 704.88 c
160.427 704.88 160.708 705.036 160.708 705.036 c
161.005 705.193 161.255 705.505 161.255 705.505 c
161.521 705.818 161.521 705.896 161.521 705.896 c
[] 0 d 0 0 0 r 1 w s

N
168.427 704.333 m
167.677 704.333 l
167.583 704.646 167.583 705.161 167.583 705.161 c
166.927 704.208 165.818 704.208 165.818 704.208 c
165.255 704.208 164.818 704.599 164.818 704.599 c
164.38 705.005 164.38 705.646 164.38 705.646 c
164.38 706.021 164.536 706.302 164.536 706.302 c
164.693 706.599 164.974 706.786 164.974 706.786 c
165.271 706.99 165.693 707.099 165.693 707.099 c
166.115 707.224 166.693 707.271 166.693 707.271 c
167.536 707.333 l
167.536 707.583 l
167.536 708.88 166.318 708.88 166.318 708.88 c
166.036 708.88 165.583 708.755 165.583 708.755 c
165.146 708.63 164.833 708.458 164.833 708.458 c
164.63 709.005 l
165.677 709.536 166.568 709.536 166.568 709.536 c
168.302 709.536 168.302 707.708 168.302 707.708 c
168.302 705.521 l
168.302 704.849 168.427 704.333 168.427 704.333 c
167.536 705.849 m
167.536 706.771 l
166.505 706.677 166.115 706.583 166.115 706.583 c
165.74 706.505 165.458 706.286 165.458 706.286 c
165.177 706.068 165.177 705.693 165.177 705.693 c
165.177 705.349 165.411 705.13 165.411 705.13 c
165.661 704.927 166.036 704.927 166.036 704.927 c
166.443 704.927 166.833 705.161 166.833 705.161 c
167.24 705.411 167.536 705.849 167.536 705.849 c
[] 0 d 0 0 0 r 1 w s

N
174.38 709.286 m
174.068 708.552 l
173.568 708.771 173.208 708.771 173.208 708.771 c
172.865 708.771 172.536 708.568 172.536 708.568 c
172.224 708.38 171.943 708.021 171.943 708.021 c
171.677 707.661 171.677 707.63 171.677 707.63 c
171.677 704.333 l
170.927 704.333 l
170.927 709.427 l
171.677 709.427 l
171.677 708.396 l
172.286 709.536 173.271 709.536 173.271 709.536 c
173.833 709.536 174.38 709.286 174.38 709.286 c
[] 0 d 0 0 0 r 1 w s

N
180.536 709.427 m
178.599 704.333 l
178.193 703.208 177.771 702.771 177.771 702.771 c
177.365 702.318 176.833 702.318 176.833 702.318 c
176.365 702.318 175.911 702.49 175.911 702.49 c
176.036 703.099 l
176.396 702.99 176.693 702.99 176.693 702.99 c
177.099 702.99 177.365 703.302 177.365 703.302 c
177.63 703.615 177.896 704.349 177.896 704.349 c
175.99 709.427 l
176.818 709.427 l
178.271 705.365 l
179.708 709.427 l
180.536 709.427 l
[] 0 d 0 0 0 r 1 w s

N
139.302 544.667 m
138.536 544.667 l
138.536 547.932 l
138.536 548.604 138.318 548.901 138.318 548.901 c
138.115 549.214 137.646 549.214 137.646 549.214 c
136.943 549.214 136.146 548.354 136.146 548.354 c
136.146 544.667 l
135.38 544.667 l
135.38 549.76 l
136.146 549.76 l
136.146 549.01 l
136.958 549.87 137.88 549.87 137.88 549.87 c
139.302 549.87 139.302 548.151 139.302 548.151 c
139.302 544.667 l
[] 0 d 0 0 0 r 1 w s

N
190.302 544.667 m
189.536 544.667 l
189.536 547.932 l
189.536 548.604 189.318 548.901 189.318 548.901 c
189.115 549.214 188.646 549.214 188.646 549.214 c
187.943 549.214 187.146 548.354 187.146 548.354 c
187.146 544.667 l
186.38 544.667 l
186.38 549.76 l
187.146 549.76 l
187.146 549.01 l
187.958 549.87 188.88 549.87 188.88 549.87 c
190.302 549.87 190.302 548.151 190.302 548.151 c
190.302 544.667 l
[] 0 d 0 0 0 r 1 w s

N
196.646 547.87 m
194.661 547.87 l
194.661 545.885 l
194.021 545.885 l
194.021 547.87 l
192.021 547.87 l
192.021 548.51 l
194.021 548.51 l
194.021 550.51 l
194.661 550.51 l
194.661 548.51 l
196.646 548.51 l
196.646 547.87 l
[] 0 d 0 0 0 r 1 w s

N
202.302 544.667 m
198.677 544.667 l
198.677 545.37 l
200.146 545.37 l
200.146 550.714 l
198.771 550.026 l
198.771 550.823 l
200.255 551.589 l
200.943 551.589 l
200.943 545.37 l
202.302 545.37 l
202.302 544.667 l
[] 0 d 0 0 0 r 1 w s

N
233.302 545 m
232.536 545 l
232.536 548.266 l
232.536 548.938 232.318 549.234 232.318 549.234 c
232.115 549.547 231.646 549.547 231.646 549.547 c
230.943 549.547 230.146 548.688 230.146 548.688 c
230.146 545 l
229.38 545 l
229.38 550.094 l
230.146 550.094 l
230.146 549.344 l
230.958 550.203 231.88 550.203 231.88 550.203 c
233.302 550.203 233.302 548.484 233.302 548.484 c
233.302 545 l
[] 0 d 0 0 0 r 1 w s

N
239.646 548.203 m
237.661 548.203 l
237.661 546.219 l
237.021 546.219 l
237.021 548.203 l
235.021 548.203 l
235.021 548.844 l
237.021 548.844 l
237.021 550.844 l
237.661 550.844 l
237.661 548.844 l
239.646 548.844 l
239.646 548.203 l
[] 0 d 0 0 0 r 1 w s

N
245.13 545 m
241.333 545 l
241.333 545.578 l
242.771 547.188 243.193 547.734 243.193 547.734 c
243.63 548.281 243.896 548.875 243.896 548.875 c
244.177 549.484 244.177 550.078 244.177 550.078 c
244.177 550.656 243.818 550.984 243.818 550.984 c
243.474 551.312 242.849 551.312 242.849 551.312 c
242.365 551.312 241.552 551.016 241.552 551.016 c
241.427 551.703 l
242.177 552.016 242.974 552.016 242.974 552.016 c
243.896 552.016 244.458 551.5 244.458 551.5 c
245.021 550.984 245.021 550.109 245.021 550.109 c
245.021 549.5 244.724 548.875 244.724 548.875 c
244.443 548.266 243.99 547.703 243.99 547.703 c
243.536 547.156 242.224 545.703 242.224 545.703 c
245.13 545.703 l
245.13 545 l
[] 0 d 0 0 0 r 1 w s

N
278.302 595 m
277.536 595 l
277.536 598.266 l
277.536 598.938 277.318 599.234 277.318 599.234 c
277.115 599.547 276.646 599.547 276.646 599.547 c
275.943 599.547 275.146 598.688 275.146 598.688 c
275.146 595 l
274.38 595 l
274.38 600.094 l
275.146 600.094 l
275.146 599.344 l
275.958 600.203 276.88 600.203 276.88 600.203 c
278.302 600.203 278.302 598.484 278.302 598.484 c
278.302 595 l
[] 0 d 0 0 0 r 1 w s

N
284.646 598.203 m
282.661 598.203 l
282.661 596.219 l
282.021 596.219 l
282.021 598.203 l
280.021 598.203 l
280.021 598.844 l
282.021 598.844 l
282.021 600.844 l
282.661 600.844 l
282.661 598.844 l
284.646 598.844 l
284.646 598.203 l
[] 0 d 0 0 0 r 1 w s

N
290.13 595 m
286.333 595 l
286.333 595.578 l
287.771 597.188 288.193 597.734 288.193 597.734 c
288.63 598.281 288.896 598.875 288.896 598.875 c
289.177 599.484 289.177 600.078 289.177 600.078 c
289.177 600.656 288.818 600.984 288.818 600.984 c
288.474 601.312 287.849 601.312 287.849 601.312 c
287.365 601.312 286.552 601.016 286.552 601.016 c
286.427 601.703 l
287.177 602.016 287.974 602.016 287.974 602.016 c
288.896 602.016 289.458 601.5 289.458 601.5 c
290.021 600.984 290.021 600.109 290.021 600.109 c
290.021 599.5 289.724 598.875 289.724 598.875 c
289.443 598.266 288.99 597.703 288.99 597.703 c
288.536 597.156 287.224 595.703 287.224 595.703 c
290.13 595.703 l
290.13 595 l
[] 0 d 0 0 0 r 1 w s

N
234.302 594.667 m
233.536 594.667 l
233.536 597.932 l
233.536 598.604 233.318 598.901 233.318 598.901 c
233.115 599.214 232.646 599.214 232.646 599.214 c
231.943 599.214 231.146 598.354 231.146 598.354 c
231.146 594.667 l
230.38 594.667 l
230.38 599.76 l
231.146 599.76 l
231.146 599.01 l
231.958 599.87 232.88 599.87 232.88 599.87 c
234.302 599.87 234.302 598.151 234.302 598.151 c
234.302 594.667 l
[] 0 d 0 0 0 r 1 w s

N
240.646 597.87 m
238.661 597.87 l
238.661 595.885 l
238.021 595.885 l
238.021 597.87 l
236.021 597.87 l
236.021 598.51 l
238.021 598.51 l
238.021 600.51 l
238.661 600.51 l
238.661 598.51 l
240.646 598.51 l
240.646 597.87 l
[] 0 d 0 0 0 r 1 w s

N
246.302 594.667 m
242.677 594.667 l
242.677 595.37 l
244.146 595.37 l
244.146 600.714 l
242.771 600.026 l
242.771 600.823 l
244.255 601.589 l
244.943 601.589 l
244.943 595.37 l
246.302 595.37 l
246.302 594.667 l
[] 0 d 0 0 0 r 1 w s

N
190.302 594.667 m
189.536 594.667 l
189.536 597.932 l
189.536 598.604 189.318 598.901 189.318 598.901 c
189.115 599.214 188.646 599.214 188.646 599.214 c
187.943 599.214 187.146 598.354 187.146 598.354 c
187.146 594.667 l
186.38 594.667 l
186.38 599.76 l
187.146 599.76 l
187.146 599.01 l
187.958 599.87 188.88 599.87 188.88 599.87 c
190.302 599.87 190.302 598.151 190.302 598.151 c
190.302 594.667 l
[] 0 d 0 0 0 r 1 w s

N
137.635 595 m
136.87 595 l
136.87 598.266 l
136.87 598.938 136.651 599.234 136.651 599.234 c
136.448 599.547 135.979 599.547 135.979 599.547 c
135.276 599.547 134.479 598.688 134.479 598.688 c
134.479 595 l
133.714 595 l
133.714 600.094 l
134.479 600.094 l
134.479 599.344 l
135.292 600.203 136.214 600.203 136.214 600.203 c
137.635 600.203 137.635 598.484 137.635 598.484 c
137.635 595 l
[] 0 d 0 0 0 r 1 w s

N
143.073 597.375 m
140.167 597.375 l
140.167 598.125 l
143.073 598.125 l
143.073 597.375 l
[] 0 d 0 0 0 r 1 w s

N
149.635 595 m
146.01 595 l
146.01 595.703 l
147.479 595.703 l
147.479 601.047 l
146.104 600.359 l
146.104 601.156 l
147.589 601.922 l
148.276 601.922 l
148.276 595.703 l
149.635 595.703 l
149.635 595 l
[] 0 d 0 0 0 r 1 w s

N
170.687 538.307 m
171.156 538.198 171.422 537.87 171.422 537.87 c
171.703 537.557 171.703 537.104 171.703 537.104 c
171.703 536.448 171.219 536.057 171.219 536.057 c
170.75 535.667 170.078 535.667 170.078 535.667 c
168.719 535.667 l
168.719 540.495 l
170.047 540.495 l
170.75 540.495 171.141 540.182 171.141 540.182 c
171.531 539.885 171.531 539.323 171.531 539.323 c
171.531 538.979 171.297 538.714 171.297 538.714 c
171.078 538.448 170.687 538.323 170.687 538.323 c
170.687 538.307 l
169.281 538.573 m
169.937 538.573 l
170.953 538.573 170.953 539.307 170.953 539.307 c
170.953 539.635 170.703 539.807 170.703 539.807 c
170.453 539.995 169.969 539.995 169.969 539.995 c
169.281 539.995 l
169.281 538.573 l
169.281 536.151 m
169.906 536.151 l
170.469 536.151 170.797 536.401 170.797 536.401 c
171.125 536.667 171.125 537.104 171.125 537.104 c
171.125 537.573 170.797 537.823 170.797 537.823 c
170.484 538.089 169.875 538.089 169.875 538.089 c
169.281 538.089 l
169.281 536.151 l
[] 0 d 0 0 0 r 1 w s

N
174.297 539.307 m
175.031 539.307 175.469 538.792 175.469 538.792 c
175.906 538.292 175.906 537.448 175.906 537.448 c
175.906 536.604 175.469 536.089 175.469 536.089 c
175.031 535.573 174.297 535.573 174.297 535.573 c
173.562 535.573 173.125 536.089 173.125 536.089 c
172.703 536.604 172.703 537.448 172.703 537.448 c
172.703 538.292 173.125 538.792 173.125 538.792 c
173.562 539.307 174.297 539.307 174.297 539.307 c
174.297 536.042 m
174.781 536.042 175.062 536.448 175.062 536.448 c
175.344 536.854 175.344 537.448 175.344 537.448 c
175.344 538.057 175.062 538.448 175.062 538.448 c
174.797 538.854 174.297 538.854 174.297 538.854 c
173.812 538.854 173.531 538.464 173.531 538.464 c
173.266 538.073 173.266 537.448 173.266 537.448 c
173.266 536.854 173.531 536.448 173.531 536.448 c
173.812 536.042 174.297 536.042 174.297 536.042 c
[] 0 d 0 0 0 r 1 w s

N
179.875 535.667 m
179.344 535.667 l
179.344 536.198 l
178.766 535.589 178.141 535.589 178.141 535.589 c
177.141 535.589 177.141 536.792 177.141 536.792 c
177.141 539.229 l
177.672 539.229 l
177.672 536.948 l
177.672 536.495 177.812 536.26 177.812 536.26 c
177.953 536.042 178.297 536.042 178.297 536.042 c
178.781 536.042 179.344 536.651 179.344 536.651 c
179.344 539.229 l
179.875 539.229 l
179.875 535.667 l
[] 0 d 0 0 0 r 1 w s

N
184.094 535.667 m
183.562 535.667 l
183.562 537.948 l
183.562 538.432 183.406 538.635 183.406 538.635 c
183.25 538.854 182.922 538.854 182.922 538.854 c
182.438 538.854 181.875 538.245 181.875 538.245 c
181.875 535.667 l
181.344 535.667 l
181.344 539.229 l
181.875 539.229 l
181.875 538.698 l
182.453 539.307 183.094 539.307 183.094 539.307 c
184.094 539.307 184.094 538.104 184.094 538.104 c
184.094 535.667 l
[] 0 d 0 0 0 r 1 w s

N
188.281 535.667 m
187.75 535.667 l
187.75 536.182 l
187.578 535.917 187.266 535.745 187.266 535.745 c
186.969 535.573 186.625 535.573 186.625 535.573 c
186.016 535.573 185.656 536.12 185.656 536.12 c
185.312 536.667 185.312 537.495 185.312 537.495 c
185.312 538.292 185.672 538.792 185.672 538.792 c
186.047 539.307 186.656 539.307 186.656 539.307 c
187.328 539.307 187.75 538.76 187.75 538.76 c
187.75 540.495 l
188.281 540.495 l
188.281 535.667 l
187.75 536.76 m
187.75 538.245 l
187.359 538.854 186.828 538.854 186.828 538.854 c
186.375 538.854 186.125 538.464 186.125 538.464 c
185.875 538.073 185.875 537.479 185.875 537.479 c
185.875 536.854 186.109 536.448 186.109 536.448 c
186.344 536.057 186.766 536.057 186.766 536.057 c
186.969 536.057 187.172 536.167 187.172 536.167 c
187.391 536.276 187.562 536.495 187.562 536.495 c
187.75 536.714 187.75 536.76 187.75 536.76 c
[] 0 d 0 0 0 r 1 w s

N
192.578 535.667 m
192.047 535.667 l
191.984 535.885 191.984 536.245 191.984 536.245 c
191.531 535.573 190.75 535.573 190.75 535.573 c
190.359 535.573 190.047 535.854 190.047 535.854 c
189.75 536.135 189.75 536.589 189.75 536.589 c
189.75 536.839 189.859 537.042 189.859 537.042 c
189.969 537.245 190.172 537.385 190.172 537.385 c
190.375 537.526 190.656 537.604 190.656 537.604 c
190.953 537.682 191.359 537.714 191.359 537.714 c
191.969 537.76 l
191.969 537.932 l
191.969 538.854 191.109 538.854 191.109 538.854 c
190.906 538.854 190.594 538.76 190.594 538.76 c
190.281 538.682 190.062 538.557 190.062 538.557 c
189.922 538.948 l
190.656 539.307 191.281 539.307 191.281 539.307 c
192.5 539.307 192.5 538.026 192.5 538.026 c
192.5 536.495 l
192.5 536.026 192.578 535.667 192.578 535.667 c
191.969 536.729 m
191.969 537.37 l
191.234 537.307 190.969 537.245 190.969 537.245 c
190.703 537.198 190.5 537.042 190.5 537.042 c
190.312 536.885 190.312 536.62 190.312 536.62 c
190.312 536.385 190.469 536.229 190.469 536.229 c
190.641 536.089 190.906 536.089 190.906 536.089 c
191.188 536.089 191.469 536.26 191.469 536.26 c
191.75 536.432 191.969 536.729 191.969 536.729 c
[] 0 d 0 0 0 r 1 w s

N
196.75 539.135 m
196.531 538.62 l
196.188 538.776 195.922 538.776 195.922 538.776 c
195.688 538.776 195.469 538.635 195.469 538.635 c
195.25 538.51 195.047 538.245 195.047 538.245 c
194.859 537.995 194.859 537.964 194.859 537.964 c
194.859 535.667 l
194.328 535.667 l
194.328 539.229 l
194.859 539.229 l
194.859 538.51 l
195.297 539.307 195.969 539.307 195.969 539.307 c
196.375 539.307 196.75 539.135 196.75 539.135 c
[] 0 d 0 0 0 r 1 w s

N
201.062 539.229 m
199.719 535.667 l
199.422 534.885 199.125 534.573 199.125 534.573 c
198.844 534.26 198.469 534.26 198.469 534.26 c
198.141 534.26 197.828 534.385 197.828 534.385 c
197.906 534.807 l
198.172 534.729 198.375 534.729 198.375 534.729 c
198.656 534.729 198.844 534.948 198.844 534.948 c
199.031 535.167 199.219 535.667 199.219 535.667 c
197.891 539.229 l
198.469 539.229 l
199.469 536.385 l
200.484 539.229 l
201.062 539.229 l
[] 0 d 0 0 0 r 1 w s

N
[] 0 d 0 0 0 r 1 w s

N
209.297 535.792 m
208.828 535.573 208.266 535.573 208.266 535.573 c
207.438 535.573 206.938 536.089 206.938 536.089 c
206.438 536.604 206.438 537.448 206.438 537.448 c
206.438 538.292 206.938 538.792 206.938 538.792 c
207.438 539.307 208.266 539.307 208.266 539.307 c
208.797 539.307 209.281 539.12 209.281 539.12 c
209.141 538.682 l
208.656 538.854 208.266 538.854 208.266 538.854 c
207.672 538.854 207.328 538.464 207.328 538.464 c
206.984 538.089 206.984 537.448 206.984 537.448 c
206.984 536.854 207.344 536.448 207.344 536.448 c
207.703 536.042 208.266 536.042 208.266 536.042 c
208.719 536.042 209.203 536.214 209.203 536.214 c
209.297 535.792 l
[] 0 d 0 0 0 r 1 w s

N
213.609 537.432 m
211.172 537.432 l
211.172 536.823 211.516 536.432 211.516 536.432 c
211.875 536.042 212.391 536.042 212.391 536.042 c
212.875 536.042 213.391 536.214 213.391 536.214 c
213.484 535.792 l
213 535.573 212.375 535.573 212.375 535.573 c
211.578 535.573 211.094 536.073 211.094 536.073 c
210.609 536.589 210.609 537.464 210.609 537.464 c
210.609 538.307 211.047 538.807 211.047 538.807 c
211.484 539.307 212.172 539.307 212.172 539.307 c
212.797 539.307 213.203 538.839 213.203 538.839 c
213.609 538.37 213.609 537.604 213.609 537.604 c
213.609 537.432 l
213.031 537.87 m
213.031 538.276 212.766 538.557 212.766 538.557 c
212.516 538.854 212.188 538.854 212.188 538.854 c
211.781 538.854 211.5 538.573 211.5 538.573 c
211.234 538.307 211.203 537.87 211.203 537.87 c
213.031 537.87 l
[] 0 d 0 0 0 r 1 w s

N
217.453 535.667 m
216 535.667 l
216 540.026 l
215.062 540.026 l
215.062 540.495 l
216.531 540.495 l
216.531 536.135 l
217.453 536.135 l
217.453 535.667 l
[] 0 d 0 0 0 r 1 w s

N
221.656 535.667 m
220.203 535.667 l
220.203 540.026 l
219.266 540.026 l
219.266 540.495 l
220.734 540.495 l
220.734 536.135 l
221.656 536.135 l
221.656 535.667 l
[] 0 d 0 0 0 r 1 w s

N
173.682 607.667 m
173.104 607.667 l
172.573 609.354 l
170.979 609.354 l
170.448 607.667 l
169.854 607.667 l
171.432 612.495 l
172.104 612.495 l
173.682 607.667 l
172.401 609.839 m
171.776 611.839 l
171.151 609.839 l
172.401 609.839 l
[] 0 d 0 0 0 r 1 w s

N
177.339 607.667 m
176.807 607.667 l
176.807 608.182 l
176.635 607.917 176.323 607.745 176.323 607.745 c
176.026 607.573 175.682 607.573 175.682 607.573 c
175.073 607.573 174.714 608.12 174.714 608.12 c
174.37 608.667 174.37 609.495 174.37 609.495 c
174.37 610.292 174.729 610.792 174.729 610.792 c
175.104 611.307 175.714 611.307 175.714 611.307 c
176.385 611.307 176.807 610.76 176.807 610.76 c
176.807 612.495 l
177.339 612.495 l
177.339 607.667 l
176.807 608.76 m
176.807 610.245 l
176.417 610.854 175.885 610.854 175.885 610.854 c
175.432 610.854 175.182 610.464 175.182 610.464 c
174.932 610.073 174.932 609.479 174.932 609.479 c
174.932 608.854 175.167 608.448 175.167 608.448 c
175.401 608.057 175.823 608.057 175.823 608.057 c
176.026 608.057 176.229 608.167 176.229 608.167 c
176.448 608.276 176.62 608.495 176.62 608.495 c
176.807 608.714 176.807 608.76 176.807 608.76 c
[] 0 d 0 0 0 r 1 w s

N
180.401 612.573 m
180.557 612.573 180.651 612.464 180.651 612.464 c
180.76 612.354 180.76 612.214 180.76 612.214 c
180.76 612.057 180.651 611.948 180.651 611.948 c
180.557 611.839 180.401 611.839 180.401 611.839 c
180.26 611.839 180.151 611.948 180.151 611.948 c
180.042 612.057 180.042 612.214 180.042 612.214 c
180.042 612.354 180.151 612.464 180.151 612.464 c
180.26 612.573 180.401 612.573 180.401 612.573 c
180.667 607.479 m
180.667 606.823 180.432 606.542 180.432 606.542 c
180.198 606.26 179.635 606.26 179.635 606.26 c
179.26 606.26 178.807 606.401 178.807 606.401 c
178.948 606.839 l
179.323 606.729 179.635 606.729 179.635 606.729 c
179.917 606.729 180.026 606.885 180.026 606.885 c
180.135 607.042 180.135 607.542 180.135 607.542 c
180.135 610.76 l
179.089 610.76 l
179.089 611.229 l
180.667 611.229 l
180.667 607.479 l
[] 0 d 0 0 0 r 1 w s

N
185.839 607.667 m
185.307 607.667 l
185.245 607.885 185.245 608.245 185.245 608.245 c
184.792 607.573 184.01 607.573 184.01 607.573 c
183.62 607.573 183.307 607.854 183.307 607.854 c
183.01 608.135 183.01 608.589 183.01 608.589 c
183.01 608.839 183.12 609.042 183.12 609.042 c
183.229 609.245 183.432 609.385 183.432 609.385 c
183.635 609.526 183.917 609.604 183.917 609.604 c
184.214 609.682 184.62 609.714 184.62 609.714 c
185.229 609.76 l
185.229 609.932 l
185.229 610.854 184.37 610.854 184.37 610.854 c
184.167 610.854 183.854 610.76 183.854 610.76 c
183.542 610.682 183.323 610.557 183.323 610.557 c
183.182 610.948 l
183.917 611.307 184.542 611.307 184.542 611.307 c
185.76 611.307 185.76 610.026 185.76 610.026 c
185.76 608.495 l
185.76 608.026 185.839 607.667 185.839 607.667 c
185.229 608.729 m
185.229 609.37 l
184.495 609.307 184.229 609.245 184.229 609.245 c
183.964 609.198 183.76 609.042 183.76 609.042 c
183.573 608.885 183.573 608.62 183.573 608.62 c
183.573 608.385 183.729 608.229 183.729 608.229 c
183.901 608.089 184.167 608.089 184.167 608.089 c
184.448 608.089 184.729 608.26 184.729 608.26 c
185.01 608.432 185.229 608.729 185.229 608.729 c
[] 0 d 0 0 0 r 1 w s

N
189.948 607.792 m
189.479 607.573 188.917 607.573 188.917 607.573 c
188.089 607.573 187.589 608.089 187.589 608.089 c
187.089 608.604 187.089 609.448 187.089 609.448 c
187.089 610.292 187.589 610.792 187.589 610.792 c
188.089 611.307 188.917 611.307 188.917 611.307 c
189.448 611.307 189.932 611.12 189.932 611.12 c
189.792 610.682 l
189.307 610.854 188.917 610.854 188.917 610.854 c
188.323 610.854 187.979 610.464 187.979 610.464 c
187.635 610.089 187.635 609.448 187.635 609.448 c
187.635 608.854 187.995 608.448 187.995 608.448 c
188.354 608.042 188.917 608.042 188.917 608.042 c
189.37 608.042 189.854 608.214 189.854 608.214 c
189.948 607.792 l
[] 0 d 0 0 0 r 1 w s

N
194.26 609.432 m
191.823 609.432 l
191.823 608.823 192.167 608.432 192.167 608.432 c
192.526 608.042 193.042 608.042 193.042 608.042 c
193.526 608.042 194.042 608.214 194.042 608.214 c
194.135 607.792 l
193.651 607.573 193.026 607.573 193.026 607.573 c
192.229 607.573 191.745 608.073 191.745 608.073 c
191.26 608.589 191.26 609.464 191.26 609.464 c
191.26 610.307 191.698 610.807 191.698 610.807 c
192.135 611.307 192.823 611.307 192.823 611.307 c
193.448 611.307 193.854 610.839 193.854 610.839 c
194.26 610.37 194.26 609.604 194.26 609.604 c
194.26 609.432 l
193.682 609.87 m
193.682 610.276 193.417 610.557 193.417 610.557 c
193.167 610.854 192.839 610.854 192.839 610.854 c
192.432 610.854 192.151 610.573 192.151 610.573 c
191.885 610.307 191.854 609.87 191.854 609.87 c
193.682 609.87 l
[] 0 d 0 0 0 r 1 w s

N
198.37 607.667 m
197.839 607.667 l
197.839 609.948 l
197.839 610.432 197.682 610.635 197.682 610.635 c
197.526 610.854 197.198 610.854 197.198 610.854 c
196.714 610.854 196.151 610.245 196.151 610.245 c
196.151 607.667 l
195.62 607.667 l
195.62 611.229 l
196.151 611.229 l
196.151 610.698 l
196.729 611.307 197.37 611.307 197.37 611.307 c
198.37 611.307 198.37 610.104 198.37 610.104 c
198.37 607.667 l
[] 0 d 0 0 0 r 1 w s

N
202.604 607.823 m
202.073 607.589 201.542 607.589 201.542 607.589 c
200.589 607.589 200.589 608.589 200.589 608.589 c
200.589 610.76 l
199.917 610.76 l
199.917 611.229 l
200.589 611.229 l
200.589 612.198 l
201.12 612.198 l
201.12 611.229 l
202.323 611.229 l
202.323 610.76 l
201.12 610.76 l
201.12 608.729 l
201.12 608.401 201.26 608.214 201.26 608.214 c
201.401 608.042 201.651 608.042 201.651 608.042 c
202.089 608.042 202.51 608.245 202.51 608.245 c
202.604 607.823 l
[] 0 d 0 0 0 r 1 w s

N
[] 0 d 0 0 0 r 1 w s

N
210.964 607.792 m
210.495 607.573 209.932 607.573 209.932 607.573 c
209.104 607.573 208.604 608.089 208.604 608.089 c
208.104 608.604 208.104 609.448 208.104 609.448 c
208.104 610.292 208.604 610.792 208.604 610.792 c
209.104 611.307 209.932 611.307 209.932 611.307 c
210.464 611.307 210.948 611.12 210.948 611.12 c
210.807 610.682 l
210.323 610.854 209.932 610.854 209.932 610.854 c
209.339 610.854 208.995 610.464 208.995 610.464 c
208.651 610.089 208.651 609.448 208.651 609.448 c
208.651 608.854 209.01 608.448 209.01 608.448 c
209.37 608.042 209.932 608.042 209.932 608.042 c
210.385 608.042 210.87 608.214 210.87 608.214 c
210.964 607.792 l
[] 0 d 0 0 0 r 1 w s

N
215.276 609.432 m
212.839 609.432 l
212.839 608.823 213.182 608.432 213.182 608.432 c
213.542 608.042 214.057 608.042 214.057 608.042 c
214.542 608.042 215.057 608.214 215.057 608.214 c
215.151 607.792 l
214.667 607.573 214.042 607.573 214.042 607.573 c
213.245 607.573 212.76 608.073 212.76 608.073 c
212.276 608.589 212.276 609.464 212.276 609.464 c
212.276 610.307 212.714 610.807 212.714 610.807 c
213.151 611.307 213.839 611.307 213.839 611.307 c
214.464 611.307 214.87 610.839 214.87 610.839 c
215.276 610.37 215.276 609.604 215.276 609.604 c
215.276 609.432 l
214.698 609.87 m
214.698 610.276 214.432 610.557 214.432 610.557 c
214.182 610.854 213.854 610.854 213.854 610.854 c
213.448 610.854 213.167 610.573 213.167 610.573 c
212.901 610.307 212.87 609.87 212.87 609.87 c
214.698 609.87 l
[] 0 d 0 0 0 r 1 w s

N
219.12 607.667 m
217.667 607.667 l
217.667 612.026 l
216.729 612.026 l
216.729 612.495 l
218.198 612.495 l
218.198 608.135 l
219.12 608.135 l
219.12 607.667 l
[] 0 d 0 0 0 r 1 w s

N
223.323 607.667 m
221.87 607.667 l
221.87 612.026 l
220.932 612.026 l
220.932 612.495 l
222.401 612.495 l
222.401 608.135 l
223.323 608.135 l
223.323 607.667 l
[] 0 d 0 0 0 r 1 w s

%%EOF
