%!PS-Adobe-3.0 EPSF-3.0
%%Creator: MATLAB, The Mathworks, Inc. Version 7.8.0.347 (R2009a). Operating System: Linux 2.6.25.20-0.7-default #1 SMP 2010-02-26 20:32:57 +0100 x86_64.
%%Title: /storage/space1/phrhaz/runs/matlab_plots/waltz_benchmarks/bpar-growthrates-waltz-linear.eps
%%CreationDate: 03/18/2010  10:29:03
%%DocumentNeededFonts: Helvetica
%%DocumentProcessColors: Cyan Magenta Yellow Black
%%LanguageLevel: 2
%%Pages: 1
%%BoundingBox:  -119   112   714   729
%%EndComments

%%BeginProlog
% MathWorks dictionary
/MathWorks 160 dict begin
% definition operators
/bdef {bind def} bind def
/ldef {load def} bind def
/xdef {exch def} bdef
/xstore {exch store} bdef
% operator abbreviations
/c  /clip ldef
/cc /concat ldef
/cp /closepath ldef
/gr /grestore ldef
/gs /gsave ldef
/mt /moveto ldef
/np /newpath ldef
/cm /currentmatrix ldef
/sm /setmatrix ldef
/rm /rmoveto ldef
/rl /rlineto ldef
/s {show newpath} bdef
/sc {setcmykcolor} bdef
/sr /setrgbcolor ldef
/sg /setgray ldef
/w /setlinewidth ldef
/j /setlinejoin ldef
/cap /setlinecap ldef
/rc {rectclip} bdef
/rf {rectfill} bdef
% page state control
/pgsv () def
/bpage {/pgsv save def} bdef
/epage {pgsv restore} bdef
/bplot /gsave ldef
/eplot {stroke grestore} bdef
% orientation switch
/portraitMode 0 def /landscapeMode 1 def /rotateMode 2 def
% coordinate system mappings
/dpi2point 0 def
% font control
/FontSize 0 def
/FMS {/FontSize xstore findfont [FontSize 0 0 FontSize neg 0 0]
  makefont setfont} bdef
/reencode {exch dup where {pop load} {pop StandardEncoding} ifelse
  exch dup 3 1 roll findfont dup length dict begin
  { 1 index /FID ne {def}{pop pop} ifelse } forall
  /Encoding exch def currentdict end definefont pop} bdef
/isroman {findfont /CharStrings get /Agrave known} bdef
/FMSR {3 1 roll 1 index dup isroman {reencode} {pop pop} ifelse
  exch FMS} bdef
/csm {1 dpi2point div -1 dpi2point div scale neg translate
 dup landscapeMode eq {pop -90 rotate}
  {rotateMode eq {90 rotate} if} ifelse} bdef
% line types: solid, dotted, dashed, dotdash
/SO { [] 0 setdash } bdef
/DO { [.5 dpi2point mul 4 dpi2point mul] 0 setdash } bdef
/DA { [6 dpi2point mul] 0 setdash } bdef
/DD { [.5 dpi2point mul 4 dpi2point mul 6 dpi2point mul 4
  dpi2point mul] 0 setdash } bdef
% macros for lines and objects
/L {lineto stroke} bdef
/MP {3 1 roll moveto 1 sub {rlineto} repeat} bdef
/AP {{rlineto} repeat} bdef
/PDlw -1 def
/W {/PDlw currentlinewidth def setlinewidth} def
/PP {closepath eofill} bdef
/DP {closepath stroke} bdef
/MR {4 -2 roll moveto dup  0 exch rlineto exch 0 rlineto
  neg 0 exch rlineto closepath} bdef
/FR {MR stroke} bdef
/PR {MR fill} bdef
/L1i {{currentfile picstr readhexstring pop} image} bdef
/tMatrix matrix def
/MakeOval {newpath tMatrix currentmatrix pop translate scale
0 0 1 0 360 arc tMatrix setmatrix} bdef
/FO {MakeOval stroke} bdef
/PO {MakeOval fill} bdef
/PD {currentlinewidth 2 div 0 360 arc fill
   PDlw -1 eq not {PDlw w /PDlw -1 def} if} def
/FA {newpath tMatrix currentmatrix pop translate scale
  0 0 1 5 -2 roll arc tMatrix setmatrix stroke} bdef
/PA {newpath tMatrix currentmatrix pop	translate 0 0 moveto scale
  0 0 1 5 -2 roll arc closepath tMatrix setmatrix fill} bdef
/FAn {newpath tMatrix currentmatrix pop translate scale
  0 0 1 5 -2 roll arcn tMatrix setmatrix stroke} bdef
/PAn {newpath tMatrix currentmatrix pop translate 0 0 moveto scale
  0 0 1 5 -2 roll arcn closepath tMatrix setmatrix fill} bdef
/vradius 0 def /hradius 0 def /lry 0 def
/lrx 0 def /uly 0 def /ulx 0 def /rad 0 def
/MRR {/vradius xdef /hradius xdef /lry xdef /lrx xdef /uly xdef
  /ulx xdef newpath tMatrix currentmatrix pop ulx hradius add uly
  vradius add translate hradius vradius scale 0 0 1 180 270 arc 
  tMatrix setmatrix lrx hradius sub uly vradius add translate
  hradius vradius scale 0 0 1 270 360 arc tMatrix setmatrix
  lrx hradius sub lry vradius sub translate hradius vradius scale
  0 0 1 0 90 arc tMatrix setmatrix ulx hradius add lry vradius sub
  translate hradius vradius scale 0 0 1 90 180 arc tMatrix setmatrix
  closepath} bdef
/FRR {MRR stroke } bdef
/PRR {MRR fill } bdef
/MlrRR {/lry xdef /lrx xdef /uly xdef /ulx xdef /rad lry uly sub 2 div def
  newpath tMatrix currentmatrix pop ulx rad add uly rad add translate
  rad rad scale 0 0 1 90 270 arc tMatrix setmatrix lrx rad sub lry rad
  sub translate rad rad scale 0 0 1 270 90 arc tMatrix setmatrix
  closepath} bdef
/FlrRR {MlrRR stroke } bdef
/PlrRR {MlrRR fill } bdef
/MtbRR {/lry xdef /lrx xdef /uly xdef /ulx xdef /rad lrx ulx sub 2 div def
  newpath tMatrix currentmatrix pop ulx rad add uly rad add translate
  rad rad scale 0 0 1 180 360 arc tMatrix setmatrix lrx rad sub lry rad
  sub translate rad rad scale 0 0 1 0 180 arc tMatrix setmatrix
  closepath} bdef
/FtbRR {MtbRR stroke } bdef
/PtbRR {MtbRR fill } bdef
/stri 6 array def /dtri 6 array def
/smat 6 array def /dmat 6 array def
/tmat1 6 array def /tmat2 6 array def /dif 3 array def
/asub {/ind2 exch def /ind1 exch def dup dup
  ind1 get exch ind2 get sub exch } bdef
/tri_to_matrix {
  2 0 asub 3 1 asub 4 0 asub 5 1 asub
  dup 0 get exch 1 get 7 -1 roll astore } bdef
/compute_transform {
  dmat dtri tri_to_matrix tmat1 invertmatrix 
  smat stri tri_to_matrix tmat2 concatmatrix } bdef
/ds {stri astore pop} bdef
/dt {dtri astore pop} bdef
/db {2 copy /cols xdef /rows xdef mul dup 3 mul string
  currentfile 
  3 index 0 eq {/ASCIIHexDecode filter}
  {/ASCII85Decode filter 3 index 2 eq {/RunLengthDecode filter} if }
  ifelse exch readstring pop
  dup 0 3 index getinterval /rbmap xdef
  dup 2 index dup getinterval /gbmap xdef
  1 index dup 2 mul exch getinterval /bbmap xdef pop pop}bdef
/it {gs np dtri aload pop moveto lineto lineto cp c
  cols rows 8 compute_transform 
  rbmap gbmap bbmap true 3 colorimage gr}bdef
/il {newpath moveto lineto stroke}bdef
currentdict end def
%%EndProlog

%%BeginSetup
MathWorks begin

0 cap

end
%%EndSetup

%%Page: 1 1
%%BeginPageSetup
%%PageBoundingBox:  -119   112   714   729
MathWorks begin
bpage
%%EndPageSetup

%%BeginObject: obj1
bplot

/dpi2point 12 def
portraitMode -1428 8748 csm

    0     0 10003  7394 rc
86 dict begin %Colortable dictionary
/c0 { 0.000000 0.000000 0.000000 sr} bdef
/c1 { 1.000000 1.000000 1.000000 sr} bdef
/c2 { 0.900000 0.000000 0.000000 sr} bdef
/c3 { 0.000000 0.820000 0.000000 sr} bdef
/c4 { 0.000000 0.000000 0.800000 sr} bdef
/c5 { 0.910000 0.820000 0.320000 sr} bdef
/c6 { 1.000000 0.260000 0.820000 sr} bdef
/c7 { 0.000000 0.820000 0.820000 sr} bdef
c0
1 j
1 sg
   0    0 10004 7395 rf
6 w
0 6026 7753 0 0 -6026 1300 6581 4 MP
PP
-7753 0 0 6026 7753 0 0 -6026 1300 6581 5 MP stroke
4 w
DO
SO
6 w
0 sg
1300 6581 mt 9053 6581 L
1300  555 mt 9053  555 L
1300 6581 mt 1300  555 L
9053 6581 mt 9053  555 L
1300 6581 mt 9053 6581 L
1300 6581 mt 1300  555 L
1300 6581 mt 1300 6503 L
1300  555 mt 1300  632 L
%%IncludeResource: font Helvetica
/Helvetica /ISOLatin1Encoding 240 FMSR

1234 6838 mt 
(0) s
3238 6581 mt 3238 6503 L
3238  555 mt 3238  632 L
2938 6838 mt 
(0.005) s
5176 6581 mt 5176 6503 L
5176  555 mt 5176  632 L
4943 6838 mt 
(0.01) s
7114 6581 mt 7114 6503 L
7114  555 mt 7114  632 L
6814 6838 mt 
(0.015) s
9053 6581 mt 9053 6503 L
9053  555 mt 9053  632 L
8820 6838 mt 
(0.02) s
1300 6581 mt 1377 6581 L
9053 6581 mt 8975 6581 L
1132 6670 mt 
(0) s
1300 5375 mt 1377 5375 L
9053 5375 mt 8975 5375 L
 932 5464 mt 
(0.5) s
1300 4170 mt 1377 4170 L
9053 4170 mt 8975 4170 L
1132 4259 mt 
(1) s
1300 2965 mt 1377 2965 L
9053 2965 mt 8975 2965 L
 932 3054 mt 
(1.5) s
1300 1760 mt 1377 1760 L
9053 1760 mt 8975 1760 L
1132 1849 mt 
(2) s
1300  555 mt 1377  555 L
9053  555 mt 8975  555 L
 932  644 mt 
(2.5) s
1300 6581 mt 9053 6581 L
1300  555 mt 9053  555 L
1300 6581 mt 1300  555 L
9053 6581 mt 9053  555 L
gs 1300 555 7754 6027 rc
12 w
/c8 { 0.000000 0.000000 1.000000 sr} bdef
c8
388 212 388 172 387 139 388 118 387 99 1300 4826 6 MP stroke
/c9 { 0.000000 0.500000 0.000000 sr} bdef
c9
388 222 388 176 387 140 388 113 387 96 1300 4826 6 MP stroke
6 w
gr

c9
0 j
90 119 -90 119 -90 -119 90 -119 1300 4942 5 MP
/c10 { 1.000000 0.000000 0.000000 sr} bdef
c10
DP
90 119 -90 119 -90 -119 90 -119 1687 5039 5 MP
DP
90 119 -90 119 -90 -119 90 -119 2075 5152 5 MP
DP
90 119 -90 119 -90 -119 90 -119 2462 5284 5 MP
DP
90 119 -90 119 -90 -119 90 -119 2850 5454 5 MP
DP
90 119 -90 119 -90 -119 90 -119 3238 5775 5 MP
DP
gs 1300 555 7754 6027 rc
gr

0 sg
%%IncludeResource: font Symbol
/Symbol /ISOLatin1Encoding 288 FMSR

5096 7381 mt 
(b) s
%%IncludeResource: font Helvetica
/Helvetica /ISOLatin1Encoding 288 FMSR

 682 4021 mt  -90 rotate
(R ) s
90 rotate
%%IncludeResource: font Symbol
/Symbol /ISOLatin1Encoding 288 FMSR

 682 3733 mt  -90 rotate
(g) s
90 rotate
%%IncludeResource: font Helvetica
/Helvetica /ISOLatin1Encoding 288 FMSR

 682 3615 mt  -90 rotate
( / c) s
90 rotate
%%IncludeResource: font Helvetica
/Helvetica /ISOLatin1Encoding 228 FMSR

 826 3231 mt  -90 rotate
(s) s
90 rotate
gs 1300 555 7754 6027 rc
gr

90 119 -90 119 -90 -119 90 -119 1300 4942 5 MP
DP
90 119 -90 119 -90 -119 90 -119 1687 5035 5 MP
DP
90 119 -90 119 -90 -119 90 -119 2075 5145 5 MP
DP
90 119 -90 119 -90 -119 90 -119 2462 5278 5 MP
DP
90 119 -90 119 -90 -119 90 -119 2850 5462 5 MP
DP
90 119 -90 119 -90 -119 90 -119 3238 5817 5 MP
DP
gs 1300 555 7754 6027 rc
gr

%%IncludeResource: font Helvetica
/Helvetica /ISOLatin1Encoding 192 FMSR

2743  375 mt 
(Growth rates, Waltz linear test case, kthrho = 0.425 \(gkw\)) s
%%IncludeResource: font Helvetica
/Helvetica /ISOLatin1Encoding 120 FMSR

1283 6624 mt 
( ) s
9037  597 mt 
( ) s
gs 1300 555 7754 6027 rc
12 w
/c11 { 0.000000 0.498039 0.000000 sr} bdef
c11
388 -128 388 -140 387 -149 388 -166 388 -186 387 -207 388 -236 388 -278 
387 -327 388 -401 388 -496 387 -641 388 -834 4013 4999 14 MP stroke
c8
388 -111 388 -120 387 -135 388 -150 388 -168 387 -196 388 -224 388 -262 
387 -316 388 -388 388 -487 387 -622 388 -803 4013 5202 14 MP stroke
6 w
gr

c8
90 119 -90 119 -90 -119 90 -119 4013 5424 5 MP
c10
DP
90 119 -90 119 -90 -119 90 -119 4401 4574 5 MP
DP
90 119 -90 119 -90 -119 90 -119 4788 3927 5 MP
DP
90 119 -90 119 -90 -119 90 -119 5176 3430 5 MP
DP
90 119 -90 119 -90 -119 90 -119 5564 3038 5 MP
DP
90 119 -90 119 -90 -119 90 -119 5951 2720 5 MP
DP
90 119 -90 119 -90 -119 90 -119 6339 2457 5 MP
DP
90 119 -90 119 -90 -119 90 -119 6727 2234 5 MP
DP
90 119 -90 119 -90 -119 90 -119 7114 2043 5 MP
DP
90 119 -90 119 -90 -119 90 -119 7502 1875 5 MP
DP
90 119 -90 119 -90 -119 90 -119 7890 1727 5 MP
DP
90 119 -90 119 -90 -119 90 -119 8277 1595 5 MP
DP
90 119 -90 119 -90 -119 90 -119 8665 1476 5 MP
DP
90 119 -90 119 -90 -119 90 -119 9053 1367 5 MP
DP
gs 1300 555 7754 6027 rc
gr

90 119 -90 119 -90 -119 90 -119 4013 5195 5 MP
0 sg
DP
90 119 -90 119 -90 -119 90 -119 4401 4317 5 MP
DP
90 119 -90 119 -90 -119 90 -119 4788 3655 5 MP
DP
90 119 -90 119 -90 -119 90 -119 5176 3147 5 MP
DP
90 119 -90 119 -90 -119 90 -119 5564 2745 5 MP
DP
90 119 -90 119 -90 -119 90 -119 5951 2416 5 MP
DP
90 119 -90 119 -90 -119 90 -119 6339 2139 5 MP
DP
90 119 -90 119 -90 -119 90 -119 6727 1903 5 MP
DP
90 119 -90 119 -90 -119 90 -119 7114 1696 5 MP
DP
90 119 -90 119 -90 -119 90 -119 7502 1513 5 MP
DP
90 119 -90 119 -90 -119 90 -119 7890 1348 5 MP
DP
90 119 -90 119 -90 -119 90 -119 8277 1199 5 MP
DP
90 119 -90 119 -90 -119 90 -119 8665 1062 5 MP
DP
90 119 -90 119 -90 -119 90 -119 9053 936 5 MP
DP
gs 1300 555 7754 6027 rc
gr

1 sg
0 1871 1760 0 0 -1871 1834 3000 4 MP
PP
-1760 0 0 1871 1760 0 0 -1871 1834 3000 5 MP stroke
4 w
DO
SO
6 w
0 sg
1834 3000 mt 3594 3000 L
1834 1129 mt 3594 1129 L
1834 3000 mt 1834 1129 L
3594 3000 mt 3594 1129 L
1834 3000 mt 3594 3000 L
1834 3000 mt 1834 1129 L
1834 3000 mt 3594 3000 L
1834 1129 mt 3594 1129 L
1834 3000 mt 1834 1129 L
3594 3000 mt 3594 1129 L
%%IncludeResource: font Helvetica
/Helvetica /ISOLatin1Encoding 240 FMSR

2304 1364 mt 
(gs2, B) s
%%IncludeResource: font Helvetica
/Helvetica /ISOLatin1Encoding 192 FMSR

2984 1484 mt 
(1||) s
%%IncludeResource: font Helvetica
/Helvetica /ISOLatin1Encoding 240 FMSR

3190 1364 mt 
( off) s
gs 1834 1129 1761 1872 rc
12 w
c8
361 0 1906 1378 2 MP stroke
gr

12 w
c8
0 sg
2304 1821 mt 
(gs2, B) s
%%IncludeResource: font Helvetica
/Helvetica /ISOLatin1Encoding 192 FMSR

2984 1941 mt 
(1||) s
%%IncludeResource: font Helvetica
/Helvetica /ISOLatin1Encoding 240 FMSR

3190 1821 mt 
( on) s
gs 1834 1129 1761 1872 rc
c9
361 0 1906 1835 2 MP stroke
gr

c9
0 sg
2304 2279 mt 
(gkw, B) s
%%IncludeResource: font Helvetica
/Helvetica /ISOLatin1Encoding 192 FMSR

3009 2399 mt 
(1||) s
%%IncludeResource: font Helvetica
/Helvetica /ISOLatin1Encoding 240 FMSR

3215 2279 mt 
( off) s
gs 1834 1129 1761 1872 rc
6 w
gs 1906 2112 363 363 rc
90 119 -90 119 -90 -119 90 -119 2087 2412 5 MP
c10
DP
gr

c10
gr

6 w
c10
0 sg
2304 2736 mt 
(gkw, B) s
%%IncludeResource: font Helvetica
/Helvetica /ISOLatin1Encoding 192 FMSR

3009 2856 mt 
(1||) s
%%IncludeResource: font Helvetica
/Helvetica /ISOLatin1Encoding 240 FMSR

3215 2736 mt 
( on) s
gs 1834 1129 1761 1872 rc
gs 1906 2569 363 363 rc
90 119 -90 119 -90 -119 90 -119 2087 2869 5 MP
DP
gr

gr

4891 1193 mt 
(with magnetic) s
4945 1470 mt 
(compression) s
6837 2591 mt 
(without magnetic) s
7057 2868 mt 
(compression) s
1905 5781 mt 
(ITG) s
6717 4229 mt 
(KBM) s

end %%Color Dict

eplot
%%EndObject

epage
end

showpage

%%Trailer
%%EOF
