%!PS-Adobe-3.0 EPSF-3.0
%%Creator: MATLAB, The Mathworks, Inc. Version 7.8.0.347 (R2009a). Operating System: Linux 2.6.25.20-0.5-default #1 SMP 2009-08-14 01:48:11 +0200 x86_64.
%%Title: /storage/space1/phrhac/latex/Thesis/chapter5/figs/dpsi_test/accuracy.eps
%%CreationDate: 01/18/2010  14:56:24
%%DocumentNeededFonts: Helvetica
%%DocumentProcessColors: Cyan Magenta Yellow Black
%%LanguageLevel: 2
%%Pages: 1
%%BoundingBox:     4   278   589   563
%%EndComments

%%BeginProlog
% MathWorks dictionary
/MathWorks 160 dict begin
% definition operators
/bdef {bind def} bind def
/ldef {load def} bind def
/xdef {exch def} bdef
/xstore {exch store} bdef
% operator abbreviations
/c  /clip ldef
/cc /concat ldef
/cp /closepath ldef
/gr /grestore ldef
/gs /gsave ldef
/mt /moveto ldef
/np /newpath ldef
/cm /currentmatrix ldef
/sm /setmatrix ldef
/rm /rmoveto ldef
/rl /rlineto ldef
/s {show newpath} bdef
/sc {setcmykcolor} bdef
/sr /setrgbcolor ldef
/sg /setgray ldef
/w /setlinewidth ldef
/j /setlinejoin ldef
/cap /setlinecap ldef
/rc {rectclip} bdef
/rf {rectfill} bdef
% page state control
/pgsv () def
/bpage {/pgsv save def} bdef
/epage {pgsv restore} bdef
/bplot /gsave ldef
/eplot {stroke grestore} bdef
% orientation switch
/portraitMode 0 def /landscapeMode 1 def /rotateMode 2 def
% coordinate system mappings
/dpi2point 0 def
% font control
/FontSize 0 def
/FMS {/FontSize xstore findfont [FontSize 0 0 FontSize neg 0 0]
  makefont setfont} bdef
/reencode {exch dup where {pop load} {pop StandardEncoding} ifelse
  exch dup 3 1 roll findfont dup length dict begin
  { 1 index /FID ne {def}{pop pop} ifelse } forall
  /Encoding exch def currentdict end definefont pop} bdef
/isroman {findfont /CharStrings get /Agrave known} bdef
/FMSR {3 1 roll 1 index dup isroman {reencode} {pop pop} ifelse
  exch FMS} bdef
/csm {1 dpi2point div -1 dpi2point div scale neg translate
 dup landscapeMode eq {pop -90 rotate}
  {rotateMode eq {90 rotate} if} ifelse} bdef
% line types: solid, dotted, dashed, dotdash
/SO { [] 0 setdash } bdef
/DO { [.5 dpi2point mul 4 dpi2point mul] 0 setdash } bdef
/DA { [6 dpi2point mul] 0 setdash } bdef
/DD { [.5 dpi2point mul 4 dpi2point mul 6 dpi2point mul 4
  dpi2point mul] 0 setdash } bdef
% macros for lines and objects
/L {lineto stroke} bdef
/MP {3 1 roll moveto 1 sub {rlineto} repeat} bdef
/AP {{rlineto} repeat} bdef
/PDlw -1 def
/W {/PDlw currentlinewidth def setlinewidth} def
/PP {closepath eofill} bdef
/DP {closepath stroke} bdef
/MR {4 -2 roll moveto dup  0 exch rlineto exch 0 rlineto
  neg 0 exch rlineto closepath} bdef
/FR {MR stroke} bdef
/PR {MR fill} bdef
/L1i {{currentfile picstr readhexstring pop} image} bdef
/tMatrix matrix def
/MakeOval {newpath tMatrix currentmatrix pop translate scale
0 0 1 0 360 arc tMatrix setmatrix} bdef
/FO {MakeOval stroke} bdef
/PO {MakeOval fill} bdef
/PD {currentlinewidth 2 div 0 360 arc fill
   PDlw -1 eq not {PDlw w /PDlw -1 def} if} def
/FA {newpath tMatrix currentmatrix pop translate scale
  0 0 1 5 -2 roll arc tMatrix setmatrix stroke} bdef
/PA {newpath tMatrix currentmatrix pop	translate 0 0 moveto scale
  0 0 1 5 -2 roll arc closepath tMatrix setmatrix fill} bdef
/FAn {newpath tMatrix currentmatrix pop translate scale
  0 0 1 5 -2 roll arcn tMatrix setmatrix stroke} bdef
/PAn {newpath tMatrix currentmatrix pop translate 0 0 moveto scale
  0 0 1 5 -2 roll arcn closepath tMatrix setmatrix fill} bdef
/vradius 0 def /hradius 0 def /lry 0 def
/lrx 0 def /uly 0 def /ulx 0 def /rad 0 def
/MRR {/vradius xdef /hradius xdef /lry xdef /lrx xdef /uly xdef
  /ulx xdef newpath tMatrix currentmatrix pop ulx hradius add uly
  vradius add translate hradius vradius scale 0 0 1 180 270 arc 
  tMatrix setmatrix lrx hradius sub uly vradius add translate
  hradius vradius scale 0 0 1 270 360 arc tMatrix setmatrix
  lrx hradius sub lry vradius sub translate hradius vradius scale
  0 0 1 0 90 arc tMatrix setmatrix ulx hradius add lry vradius sub
  translate hradius vradius scale 0 0 1 90 180 arc tMatrix setmatrix
  closepath} bdef
/FRR {MRR stroke } bdef
/PRR {MRR fill } bdef
/MlrRR {/lry xdef /lrx xdef /uly xdef /ulx xdef /rad lry uly sub 2 div def
  newpath tMatrix currentmatrix pop ulx rad add uly rad add translate
  rad rad scale 0 0 1 90 270 arc tMatrix setmatrix lrx rad sub lry rad
  sub translate rad rad scale 0 0 1 270 90 arc tMatrix setmatrix
  closepath} bdef
/FlrRR {MlrRR stroke } bdef
/PlrRR {MlrRR fill } bdef
/MtbRR {/lry xdef /lrx xdef /uly xdef /ulx xdef /rad lrx ulx sub 2 div def
  newpath tMatrix currentmatrix pop ulx rad add uly rad add translate
  rad rad scale 0 0 1 180 360 arc tMatrix setmatrix lrx rad sub lry rad
  sub translate rad rad scale 0 0 1 0 180 arc tMatrix setmatrix
  closepath} bdef
/FtbRR {MtbRR stroke } bdef
/PtbRR {MtbRR fill } bdef
/stri 6 array def /dtri 6 array def
/smat 6 array def /dmat 6 array def
/tmat1 6 array def /tmat2 6 array def /dif 3 array def
/asub {/ind2 exch def /ind1 exch def dup dup
  ind1 get exch ind2 get sub exch } bdef
/tri_to_matrix {
  2 0 asub 3 1 asub 4 0 asub 5 1 asub
  dup 0 get exch 1 get 7 -1 roll astore } bdef
/compute_transform {
  dmat dtri tri_to_matrix tmat1 invertmatrix 
  smat stri tri_to_matrix tmat2 concatmatrix } bdef
/ds {stri astore pop} bdef
/dt {dtri astore pop} bdef
/db {2 copy /cols xdef /rows xdef mul dup 3 mul string
  currentfile 
  3 index 0 eq {/ASCIIHexDecode filter}
  {/ASCII85Decode filter 3 index 2 eq {/RunLengthDecode filter} if }
  ifelse exch readstring pop
  dup 0 3 index getinterval /rbmap xdef
  dup 2 index dup getinterval /gbmap xdef
  1 index dup 2 mul exch getinterval /bbmap xdef pop pop}bdef
/it {gs np dtri aload pop moveto lineto lineto cp c
  cols rows 8 compute_transform 
  rbmap gbmap bbmap true 3 colorimage gr}bdef
/il {newpath moveto lineto stroke}bdef
currentdict end def
%%EndProlog

%%BeginSetup
MathWorks begin

0 cap

end
%%EndSetup

%%Page: 1 1
%%BeginPageSetup
%%PageBoundingBox:     4   278   589   563
MathWorks begin
bpage
%%EndPageSetup

%%BeginObject: obj1
bplot

/dpi2point 12 def
portraitMode 0048 6756 csm

    0     0  7024  3417 rc
86 dict begin %Colortable dictionary
/c0 { 0.000000 0.000000 0.000000 sr} bdef
/c1 { 1.000000 1.000000 1.000000 sr} bdef
/c2 { 0.900000 0.000000 0.000000 sr} bdef
/c3 { 0.000000 0.820000 0.000000 sr} bdef
/c4 { 0.000000 0.000000 0.800000 sr} bdef
/c5 { 0.910000 0.820000 0.320000 sr} bdef
/c6 { 1.000000 0.260000 0.820000 sr} bdef
/c7 { 0.000000 0.820000 0.820000 sr} bdef
c0
1 j
1 sg
   0    0 7025 3418 rf
6 w
0 2692 6216 0 0 -2692 728 2899 4 MP
PP
-6216 0 0 2692 6216 0 0 -2692 728 2899 5 MP stroke
4 w
DO
SO
6 w
0 sg
 728 2899 mt 6944 2899 L
 728  207 mt 6944  207 L
 728 2899 mt  728  207 L
6944 2899 mt 6944  207 L
 728 2899 mt 6944 2899 L
 728 2899 mt  728  207 L
 728 2899 mt  728 2836 L
 728  207 mt  728  269 L
%%IncludeResource: font Helvetica
/Helvetica /ISOLatin1Encoding 144 FMSR

 564 3067 mt 
(-12) s
1293 2899 mt 1293 2836 L
1293  207 mt 1293  269 L
1129 3067 mt 
(-11) s
1858 2899 mt 1858 2836 L
1858  207 mt 1858  269 L
1694 3067 mt 
(-10) s
2424 2899 mt 2424 2836 L
2424  207 mt 2424  269 L
2300 3067 mt 
(-9) s
2989 2899 mt 2989 2836 L
2989  207 mt 2989  269 L
2865 3067 mt 
(-8) s
3554 2899 mt 3554 2836 L
3554  207 mt 3554  269 L
3430 3067 mt 
(-7) s
4119 2899 mt 4119 2836 L
4119  207 mt 4119  269 L
3995 3067 mt 
(-6) s
4684 2899 mt 4684 2836 L
4684  207 mt 4684  269 L
4560 3067 mt 
(-5) s
5249 2899 mt 5249 2836 L
5249  207 mt 5249  269 L
5125 3067 mt 
(-4) s
5814 2899 mt 5814 2836 L
5814  207 mt 5814  269 L
5690 3067 mt 
(-3) s
6379 2899 mt 6379 2836 L
6379  207 mt 6379  269 L
6255 3067 mt 
(-2) s
6944 2899 mt 6944 2836 L
6944  207 mt 6944  269 L
6820 3067 mt 
(-1) s
 728 2899 mt  728 2899 L
 728 2899 mt  728 2899 L
 728 2899 mt  728 2899 L
 728 2899 mt  728 2899 L
 728 2899 mt  728 2899 L
 728 2899 mt  728 2899 L
 728 2899 mt  728 2899 L
 728 2899 mt  728 2899 L
 728 2899 mt  728 2899 L
 728 2899 mt  728 2899 L
 728 2899 mt  728 2899 L
 728 2899 mt  728 2899 L
 728 2899 mt  728 2899 L
 728 2899 mt  728 2899 L
 728 2899 mt  728 2899 L
 728 2899 mt  728 2899 L
 728 2899 mt  728 2899 L
 728 2899 mt  728 2899 L
 728 2899 mt  791 2899 L
6944 2899 mt 6881 2899 L
 372 2952 mt 
(10) s
%%IncludeResource: font Helvetica
/Helvetica /ISOLatin1Encoding 96 FMSR

 532 2863 mt 
(-12) s
 728 2899 mt  728 2899 L
 728 2899 mt  728 2899 L
 728 2899 mt  728 2899 L
 728 2899 mt  728 2899 L
 728 2899 mt  728 2899 L
 728 2899 mt  728 2899 L
 728 2899 mt  728 2899 L
 728 2899 mt  728 2899 L
 728 2899 mt  728 2899 L
 728 2899 mt  728 2899 L
 728 2899 mt  728 2899 L
 728 2899 mt  728 2899 L
 728 2899 mt  728 2899 L
 728 2899 mt  728 2899 L
 728 2899 mt  728 2899 L
 728 2899 mt  728 2899 L
 728 2899 mt  728 2899 L
 728 2899 mt  728 2899 L
 728 2226 mt  791 2226 L
6944 2226 mt 6881 2226 L
%%IncludeResource: font Helvetica
/Helvetica /ISOLatin1Encoding 144 FMSR

 372 2279 mt 
(10) s
%%IncludeResource: font Helvetica
/Helvetica /ISOLatin1Encoding 96 FMSR

 532 2190 mt 
(-10) s
 728 2899 mt  728 2899 L
 728 2899 mt  728 2899 L
 728 2899 mt  728 2899 L
 728 2899 mt  728 2899 L
 728 2899 mt  728 2899 L
 728 2899 mt  728 2899 L
 728 2899 mt  728 2899 L
 728 2899 mt  728 2899 L
 728 2899 mt  728 2899 L
 728 2899 mt  728 2899 L
 728 2899 mt  728 2899 L
 728 2899 mt  728 2899 L
 728 2899 mt  728 2899 L
 728 2899 mt  728 2899 L
 728 2899 mt  728 2899 L
 728 2899 mt  728 2899 L
 728 2899 mt  728 2899 L
 728 2899 mt  728 2899 L
 728 1553 mt  791 1553 L
6944 1553 mt 6881 1553 L
%%IncludeResource: font Helvetica
/Helvetica /ISOLatin1Encoding 144 FMSR

 372 1606 mt 
(10) s
%%IncludeResource: font Helvetica
/Helvetica /ISOLatin1Encoding 96 FMSR

 532 1517 mt 
(-8) s
 728 2899 mt  728 2899 L
 728 2899 mt  728 2899 L
 728 2899 mt  728 2899 L
 728 2899 mt  728 2899 L
 728 2899 mt  728 2899 L
 728 2899 mt  728 2899 L
 728 2899 mt  728 2899 L
 728 2899 mt  728 2899 L
 728 2899 mt  728 2899 L
 728 2899 mt  728 2899 L
 728 2899 mt  728 2899 L
 728 2899 mt  728 2899 L
 728 2899 mt  728 2899 L
 728 2899 mt  728 2899 L
 728 2899 mt  728 2899 L
 728 2899 mt  728 2899 L
 728 2899 mt  728 2899 L
 728 2899 mt  728 2899 L
 728  880 mt  791  880 L
6944  880 mt 6881  880 L
%%IncludeResource: font Helvetica
/Helvetica /ISOLatin1Encoding 144 FMSR

 372  933 mt 
(10) s
%%IncludeResource: font Helvetica
/Helvetica /ISOLatin1Encoding 96 FMSR

 532  844 mt 
(-6) s
 728 2899 mt  728 2899 L
 728 2899 mt  728 2899 L
 728 2899 mt  728 2899 L
 728 2899 mt  728 2899 L
 728 2899 mt  728 2899 L
 728 2899 mt  728 2899 L
 728 2899 mt  728 2899 L
 728 2899 mt  728 2899 L
 728 2899 mt  728 2899 L
 728 2899 mt  728 2899 L
 728 2899 mt  728 2899 L
 728 2899 mt  728 2899 L
 728 2899 mt  728 2899 L
 728 2899 mt  728 2899 L
 728 2899 mt  728 2899 L
 728 2899 mt  728 2899 L
 728 2899 mt  728 2899 L
 728 2899 mt  728 2899 L
 728  207 mt  791  207 L
6944  207 mt 6881  207 L
%%IncludeResource: font Helvetica
/Helvetica /ISOLatin1Encoding 144 FMSR

 372  260 mt 
(10) s
%%IncludeResource: font Helvetica
/Helvetica /ISOLatin1Encoding 96 FMSR

 532  171 mt 
(-4) s
 728 2899 mt  728 2899 L
 728 2899 mt  728 2899 L
 728 2899 mt  728 2899 L
 728 2899 mt  728 2899 L
 728 2899 mt  728 2899 L
 728 2899 mt  728 2899 L
 728 2899 mt  728 2899 L
 728 2899 mt  728 2899 L
 728 2899 mt  728 2899 L
 728 2899 mt  728 2899 L
 728 2899 mt  728 2899 L
 728 2899 mt  728 2899 L
 728 2899 mt  728 2899 L
 728 2899 mt  728 2899 L
 728 2899 mt  728 2899 L
 728 2899 mt  728 2899 L
 728 2899 mt  728 2899 L
 728 2899 mt  728 2899 L
 728 2899 mt 6944 2899 L
 728  207 mt 6944  207 L
 728 2899 mt  728  207 L
6944 2899 mt 6944  207 L
gs 729 206 6216 2694 rc
1293 381 PD
gr

gs 1112 200 363 363 rc
1203  381 mt 1383  381 L
1293  291 mt 1293  471 L
gr

gs 729 206 6216 2694 rc
1858 669 PD
gs 1677 488 363 363 rc
1768  669 mt 1948  669 L
1858  579 mt 1858  759 L
gr

2424 1082 PD
gs 2243 901 363 363 rc
2334 1082 mt 2514 1082 L
2424  992 mt 2424 1172 L
gr

2989 1404 PD
gs 2808 1223 363 363 rc
2899 1404 mt 3079 1404 L
2989 1314 mt 2989 1494 L
gr

4119 2073 PD
gs 3938 1892 363 363 rc
4029 2073 mt 4209 2073 L
4119 1983 mt 4119 2163 L
gr

4684 2407 PD
gs 4503 2226 363 363 rc
4594 2407 mt 4774 2407 L
4684 2317 mt 4684 2497 L
gr

0.25 sg
5249 2687 PD
gs 5068 2506 363 363 rc
5159 2687 mt 5339 2687 L
5249 2597 mt 5249 2777 L
gr

0 sg
5814 1700 PD
gs 5633 1519 363 363 rc
5724 1700 mt 5904 1700 L
5814 1610 mt 5814 1790 L
gr

6379 348 PD
gr

gs 6198 167 363 363 rc
6289  348 mt 6469  348 L
6379  258 mt 6379  438 L
gr

gs 729 206 6216 2694 rc
gr

%%IncludeResource: font Symbol
/Symbol /ISOLatin1Encoding 144 FMSR

3533 3255 mt 
(D) s
%%IncludeResource: font Helvetica
/Helvetica /ISOLatin1Encoding 144 FMSR

3621 3255 mt 
( ) s
%%IncludeResource: font Symbol
/Symbol /ISOLatin1Encoding 144 FMSR

3661 3255 mt 
(y) s
%%IncludeResource: font Helvetica
/Helvetica /ISOLatin1Encoding 144 FMSR

3759 3255 mt 
( = 10) s
%%IncludeResource: font Helvetica
/Helvetica /ISOLatin1Encoding 108 FMSR

4083 3183 mt 
(x) s
%%IncludeResource: font Helvetica
/Helvetica /ISOLatin1Encoding 144 FMSR

 285 2046 mt  -90 rotate
(Fractional Error) s
90 rotate
%%IncludeResource: font Helvetica
/Helvetica /ISOLatin1Encoding 120 FMSR

 712 2942 mt 
( ) s
6928  248 mt 
( ) s
DA
995 -2492 5416 2763 2 MP stroke
4328 2506 1014 236 2 MP stroke
SO
294 471 5714 428 2 MP stroke
-42 -66 26 126 6024 839 3 MP
PP
16 -60 -42 -66 26 126 6024 839 4 MP stroke
60 12 -102 -78 6050 965 3 MP
PP
42 66 60 12 -102 -78 6050 965 4 MP stroke
%%IncludeResource: font Helvetica
/Helvetica /ISOLatin1Encoding 144 FMSR

1871  396 mt 
(Accuracy of approximation, determined by species gradients) s
241 -474 3229 2307 2 MP stroke
-36 70 95 -87 3411 1850 3 MP
PP
-59 17 -36 70 95 -87 3411 1850 4 MP stroke
-21 -58 -15 128 3506 1763 3 MP
PP
36 -70 -21 -58 -15 128 3506 1763 4 MP stroke
2120 2441 mt 
(Determined by numerical precision) s

end %%Color Dict

eplot
%%EndObject

epage
end

showpage

%%Trailer
%%EOF
