%!PS-Adobe-3.0 EPSF-3.0
%%Creator: MATLAB, The Mathworks, Inc. Version 7.5.0.338 (R2007b). Operating System: Linux 2.6.25.20-0.1-default #1 SMP 2008-12-12 20:30:38 +0100 x86_64.
%%Title: /storage/space1/phsfar/runs/gkw/time/cyclone_base_linear3.eps
%%CreationDate: 03/10/2009  14:59:27
%%DocumentNeededFonts: Helvetica
%%DocumentProcessColors: Cyan Magenta Yellow Black
%%LanguageLevel: 2
%%Pages: 1
%%BoundingBox: 2 302 584 534
%%EndComments

%%BeginProlog
% MathWorks dictionary
/MathWorks 160 dict begin
% definition operators
/bdef {bind def} bind def
/ldef {load def} bind def
/xdef {exch def} bdef
/xstore {exch store} bdef
% operator abbreviations
/c  /clip ldef
/cc /concat ldef
/cp /closepath ldef
/gr /grestore ldef
/gs /gsave ldef
/mt /moveto ldef
/np /newpath ldef
/cm /currentmatrix ldef
/sm /setmatrix ldef
/rm /rmoveto ldef
/rl /rlineto ldef
/s {show newpath} bdef
/sc {setcmykcolor} bdef
/sr /setrgbcolor ldef
/sg /setgray ldef
/w /setlinewidth ldef
/j /setlinejoin ldef
/cap /setlinecap ldef
/rc {rectclip} bdef
/rf {rectfill} bdef
% page state control
/pgsv () def
/bpage {/pgsv save def} bdef
/epage {pgsv restore} bdef
/bplot /gsave ldef
/eplot {stroke grestore} bdef
% orientation switch
/portraitMode 0 def /landscapeMode 1 def /rotateMode 2 def
% coordinate system mappings
/dpi2point 0 def
% font control
/FontSize 0 def
/FMS {/FontSize xstore findfont [FontSize 0 0 FontSize neg 0 0]
  makefont setfont} bdef
/reencode {exch dup where {pop load} {pop StandardEncoding} ifelse
  exch dup 3 1 roll findfont dup length dict begin
  { 1 index /FID ne {def}{pop pop} ifelse } forall
  /Encoding exch def currentdict end definefont pop} bdef
/isroman {findfont /CharStrings get /Agrave known} bdef
/FMSR {3 1 roll 1 index dup isroman {reencode} {pop pop} ifelse
  exch FMS} bdef
/csm {1 dpi2point div -1 dpi2point div scale neg translate
 dup landscapeMode eq {pop -90 rotate}
  {rotateMode eq {90 rotate} if} ifelse} bdef
% line types: solid, dotted, dashed, dotdash
/SO { [] 0 setdash } bdef
/DO { [.5 dpi2point mul 4 dpi2point mul] 0 setdash } bdef
/DA { [6 dpi2point mul] 0 setdash } bdef
/DD { [.5 dpi2point mul 4 dpi2point mul 6 dpi2point mul 4
  dpi2point mul] 0 setdash } bdef
% macros for lines and objects
/L {lineto stroke} bdef
/MP {3 1 roll moveto 1 sub {rlineto} repeat} bdef
/AP {{rlineto} repeat} bdef
/PDlw -1 def
/W {/PDlw currentlinewidth def setlinewidth} def
/PP {closepath eofill} bdef
/DP {closepath stroke} bdef
/MR {4 -2 roll moveto dup  0 exch rlineto exch 0 rlineto
  neg 0 exch rlineto closepath} bdef
/FR {MR stroke} bdef
/PR {MR fill} bdef
/L1i {{currentfile picstr readhexstring pop} image} bdef
/tMatrix matrix def
/MakeOval {newpath tMatrix currentmatrix pop translate scale
0 0 1 0 360 arc tMatrix setmatrix} bdef
/FO {MakeOval stroke} bdef
/PO {MakeOval fill} bdef
/PD {currentlinewidth 2 div 0 360 arc fill
   PDlw -1 eq not {PDlw w /PDlw -1 def} if} def
/FA {newpath tMatrix currentmatrix pop translate scale
  0 0 1 5 -2 roll arc tMatrix setmatrix stroke} bdef
/PA {newpath tMatrix currentmatrix pop	translate 0 0 moveto scale
  0 0 1 5 -2 roll arc closepath tMatrix setmatrix fill} bdef
/FAn {newpath tMatrix currentmatrix pop translate scale
  0 0 1 5 -2 roll arcn tMatrix setmatrix stroke} bdef
/PAn {newpath tMatrix currentmatrix pop translate 0 0 moveto scale
  0 0 1 5 -2 roll arcn closepath tMatrix setmatrix fill} bdef
/vradius 0 def /hradius 0 def /lry 0 def
/lrx 0 def /uly 0 def /ulx 0 def /rad 0 def
/MRR {/vradius xdef /hradius xdef /lry xdef /lrx xdef /uly xdef
  /ulx xdef newpath tMatrix currentmatrix pop ulx hradius add uly
  vradius add translate hradius vradius scale 0 0 1 180 270 arc 
  tMatrix setmatrix lrx hradius sub uly vradius add translate
  hradius vradius scale 0 0 1 270 360 arc tMatrix setmatrix
  lrx hradius sub lry vradius sub translate hradius vradius scale
  0 0 1 0 90 arc tMatrix setmatrix ulx hradius add lry vradius sub
  translate hradius vradius scale 0 0 1 90 180 arc tMatrix setmatrix
  closepath} bdef
/FRR {MRR stroke } bdef
/PRR {MRR fill } bdef
/MlrRR {/lry xdef /lrx xdef /uly xdef /ulx xdef /rad lry uly sub 2 div def
  newpath tMatrix currentmatrix pop ulx rad add uly rad add translate
  rad rad scale 0 0 1 90 270 arc tMatrix setmatrix lrx rad sub lry rad
  sub translate rad rad scale 0 0 1 270 90 arc tMatrix setmatrix
  closepath} bdef
/FlrRR {MlrRR stroke } bdef
/PlrRR {MlrRR fill } bdef
/MtbRR {/lry xdef /lrx xdef /uly xdef /ulx xdef /rad lrx ulx sub 2 div def
  newpath tMatrix currentmatrix pop ulx rad add uly rad add translate
  rad rad scale 0 0 1 180 360 arc tMatrix setmatrix lrx rad sub lry rad
  sub translate rad rad scale 0 0 1 0 180 arc tMatrix setmatrix
  closepath} bdef
/FtbRR {MtbRR stroke } bdef
/PtbRR {MtbRR fill } bdef
/stri 6 array def /dtri 6 array def
/smat 6 array def /dmat 6 array def
/tmat1 6 array def /tmat2 6 array def /dif 3 array def
/asub {/ind2 exch def /ind1 exch def dup dup
  ind1 get exch ind2 get sub exch } bdef
/tri_to_matrix {
  2 0 asub 3 1 asub 4 0 asub 5 1 asub
  dup 0 get exch 1 get 7 -1 roll astore } bdef
/compute_transform {
  dmat dtri tri_to_matrix tmat1 invertmatrix 
  smat stri tri_to_matrix tmat2 concatmatrix } bdef
/ds {stri astore pop} bdef
/dt {dtri astore pop} bdef
/db {2 copy /cols xdef /rows xdef mul dup 3 mul string
  currentfile 
  3 index 0 eq {/ASCIIHexDecode filter}
  {/ASCII85Decode filter 3 index 2 eq {/RunLengthDecode filter} if }
  ifelse exch readstring pop
  dup 0 3 index getinterval /rbmap xdef
  dup 2 index dup getinterval /gbmap xdef
  1 index dup 2 mul exch getinterval /bbmap xdef pop pop}bdef
/it {gs np dtri aload pop moveto lineto lineto cp c
  cols rows 8 compute_transform 
  rbmap gbmap bbmap true 3 colorimage gr}bdef
/il {newpath moveto lineto stroke}bdef
currentdict end def
%%EndProlog

%%BeginSetup
MathWorks begin

0 cap

end
%%EndSetup

%%Page: 1 1
%%BeginPageSetup
%%PageBoundingBox: 2 302 584 534
MathWorks begin
bpage
%%EndPageSetup

%%BeginObject: obj1
bplot

/dpi2point 12 def
portraitMode -0216 6576 csm

    0     0  7584  3054 rc
85 dict begin %Colortable dictionary
/c0 { 0.000000 0.000000 0.000000 sr} bdef
/c1 { 1.000000 1.000000 1.000000 sr} bdef
/c2 { 0.900000 0.000000 0.000000 sr} bdef
/c3 { 0.000000 0.820000 0.000000 sr} bdef
/c4 { 0.000000 0.000000 0.800000 sr} bdef
/c5 { 0.910000 0.820000 0.320000 sr} bdef
/c6 { 1.000000 0.260000 0.820000 sr} bdef
/c7 { 0.000000 0.820000 0.820000 sr} bdef
c0
1 j
1 sg
   0    0 7585 3055 rf
6 w
0 2376 2721 0 0 -2376 775 2622 4 MP
PP
-2721 0 0 2376 2721 0 0 -2376 775 2622 5 MP stroke
4 w
DO
SO
6 w
0 sg
 775 2622 mt 3496 2622 L
 775  246 mt 3496  246 L
 775 2622 mt  775  246 L
3496 2622 mt 3496  246 L
 775 2622 mt 3496 2622 L
 775 2622 mt  775  246 L
 775 2622 mt  775 2594 L
 775  246 mt  775  273 L
%%IncludeResource: font Helvetica
/Helvetica /ISOLatin1Encoding 144 FMSR

 611 2790 mt 
(-10) s
1455 2622 mt 1455 2594 L
1455  246 mt 1455  273 L
1331 2790 mt 
(-5) s
2135 2622 mt 2135 2594 L
2135  246 mt 2135  273 L
2095 2790 mt 
(0) s
2815 2622 mt 2815 2594 L
2815  246 mt 2815  273 L
2775 2790 mt 
(5) s
3496 2622 mt 3496 2594 L
3496  246 mt 3496  273 L
3416 2790 mt 
(10) s
 775 2622 mt  802 2622 L
3496 2622 mt 3468 2622 L
 456 2675 mt 
(-0.2) s
 775 2241 mt  802 2241 L
3496 2241 mt 3468 2241 L
 660 2294 mt 
(0) s
 775 1861 mt  802 1861 L
3496 1861 mt 3468 1861 L
 540 1914 mt 
(0.2) s
 775 1481 mt  802 1481 L
3496 1481 mt 3468 1481 L
 540 1534 mt 
(0.4) s
 775 1101 mt  802 1101 L
3496 1101 mt 3468 1101 L
 540 1154 mt 
(0.6) s
 775  721 mt  802  721 L
3496  721 mt 3468  721 L
 540  774 mt 
(0.8) s
 775  341 mt  802  341 L
3496  341 mt 3468  341 L
 660  394 mt 
(1) s
 775 2622 mt 3496 2622 L
 775  246 mt 3496  246 L
 775 2622 mt  775  246 L
3496 2622 mt 3496  246 L
gs 775 246 2722 2377 rc
12 w
/c8 { 0.000000 0.000000 1.000000 sr} bdef
c8
26 -1 27 0 27 0 26 0 27 0 27 0 27 0 26 0 
27 -2 27 -1 26 5 27 11 27 9 27 -2 26 -14 27 -15 
27 -10 26 -3 27 0 27 4 27 8 26 13 27 19 27 23 
26 19 27 1 27 -32 27 -69 26 -88 27 -65 27 -5 26 71 
27 133 27 163 27 160 26 141 27 141 27 112 26 103 27 107 
27 115 27 121 26 126 27 124 27 118 26 105 27 90 27 72 
27 52 26 31 27 10 27 -10 26 -32 27 -52 27 -71 27 -91 
26 -105 27 -117 27 -124 26 -125 27 -121 27 -115 27 -108 26 -104 
27 -112 27 -141 26 -141 27 -160 27 -163 27 -132 26 -72 27 5 
27 66 26 87 27 69 27 32 27 0 26 -19 27 -23 27 -20 
26 -13 27 -8 27 -3 27 -1 26 3 27 10 27 15 26 13 
27 3 27 -9 27 -11 26 -5 27 2 27 2 26 1 27 0 
27 0 27 0 26 -1 27 0 27 1 24 0 775 2241 103 MP stroke
DA
26 0 27 0 27 0 26 0 27 0 27 0 27 0 26 1 
27 -1 27 -4 26 -5 27 0 27 12 27 17 26 12 27 1 
27 -4 26 -4 27 1 27 4 27 6 26 5 27 0 27 -12 
26 -29 27 -45 27 -49 27 -24 26 28 27 89 27 129 26 126 
27 83 27 23 27 -43 26 -67 27 -96 27 -108 26 -95 27 -78 
27 -59 27 -38 26 -16 27 7 27 25 26 40 27 46 27 47 
27 40 26 26 27 10 27 -10 26 -26 27 -40 27 -47 27 -46 
26 -39 27 -25 27 -6 26 15 27 38 27 58 27 78 26 94 
27 108 27 95 26 67 27 43 27 -23 27 -83 26 -125 27 -130 
27 -89 26 -28 27 25 27 49 27 45 26 29 27 13 27 0 
26 -5 27 -6 27 -4 27 -1 26 3 27 4 27 -1 26 -12 
27 -16 27 -12 27 0 26 6 27 4 27 1 26 -1 27 0 
27 0 27 0 26 0 27 0 27 0 24 0 775 2241 103 MP stroke
SO
6 w
gr

c8
/c9 { 1.000000 0.000000 0.000000 sr} bdef
c9
  36   36  813 2241 FO
  36   36  861 2242 FO
  36   36  909 2242 FO
  36   36  957 2242 FO
  36   36 1005 2242 FO
  36   36 1053 2240 FO
  36   36 1101 2236 FO
  36   36 1149 2236 FO
  36   36 1197 2242 FO
  36   36 1245 2249 FO
  36   36 1294 2248 FO
  36   36 1342 2240 FO
  36   36 1390 2222 FO
  36   36 1438 2202 FO
  36   36 1486 2212 FO
  36   36 1534 2292 FO
  36   36 1582 2404 FO
  36   36 1630 2380 FO
  36   36 1678 2111 FO
  36   36 1726 1789 FO
  36   36 1774 1580 FO
  36   36 1822 1375 FO
  36   36 1871 1177 FO
  36   36 1919  955 FO
  36   36 1967  733 FO
  36   36 2015  543 FO
  36   36 2063  409 FO
  36   36 2111  341 FO
  36   36 2159  341 FO
  36   36 2207  409 FO
  36   36 2255  543 FO
  36   36 2303  733 FO
  36   36 2351  955 FO
  36   36 2399 1177 FO
  36   36 2448 1375 FO
  36   36 2496 1580 FO
  36   36 2544 1789 FO
  36   36 2592 2111 FO
  36   36 2640 2380 FO
  36   36 2688 2404 FO
  36   36 2736 2292 FO
  36   36 2784 2212 FO
  36   36 2832 2202 FO
  36   36 2880 2222 FO
  36   36 2928 2240 FO
  36   36 2976 2248 FO
  36   36 3025 2249 FO
  36   36 3073 2242 FO
  36   36 3121 2236 FO
  36   36 3169 2236 FO
  36   36 3217 2240 FO
  36   36 3265 2242 FO
  36   36 3313 2242 FO
  36   36 3361 2242 FO
  36   36 3409 2242 FO
  36   36 3457 2241 FO
gs 775 246 2722 2377 rc
12 w
gr

12 w
0 j
36 47 -36 47 -36 -47 36 -47 813 2288 5 MP
DP
36 47 -36 47 -36 -47 36 -47 861 2289 5 MP
DP
36 47 -36 47 -36 -47 36 -47 909 2289 5 MP
DP
36 47 -36 47 -36 -47 36 -47 957 2289 5 MP
DP
36 47 -36 47 -36 -47 36 -47 1005 2289 5 MP
DP
36 47 -36 47 -36 -47 36 -47 1053 2287 5 MP
DP
36 47 -36 47 -36 -47 36 -47 1101 2283 5 MP
DP
36 47 -36 47 -36 -47 36 -47 1149 2283 5 MP
DP
36 47 -36 47 -36 -47 36 -47 1197 2289 5 MP
DP
36 47 -36 47 -36 -47 36 -47 1245 2296 5 MP
DP
36 47 -36 47 -36 -47 36 -47 1294 2295 5 MP
DP
36 47 -36 47 -36 -47 36 -47 1342 2287 5 MP
DP
36 47 -36 47 -36 -47 36 -47 1390 2269 5 MP
DP
36 47 -36 47 -36 -47 36 -47 1438 2249 5 MP
DP
36 47 -36 47 -36 -47 36 -47 1486 2259 5 MP
DP
36 47 -36 47 -36 -47 36 -47 1534 2339 5 MP
DP
36 47 -36 47 -36 -47 36 -47 1582 2451 5 MP
DP
36 47 -36 47 -36 -47 36 -47 1630 2427 5 MP
DP
36 47 -36 47 -36 -47 36 -47 1678 2158 5 MP
DP
36 47 -36 47 -36 -47 36 -47 1726 1836 5 MP
DP
36 47 -36 47 -36 -47 36 -47 1774 1627 5 MP
DP
36 47 -36 47 -36 -47 36 -47 1822 1422 5 MP
DP
36 47 -36 47 -36 -47 36 -47 1871 1224 5 MP
DP
36 47 -36 47 -36 -47 36 -47 1919 1002 5 MP
DP
36 47 -36 47 -36 -47 36 -47 1967 780 5 MP
DP
36 47 -36 47 -36 -47 36 -47 2015 590 5 MP
DP
36 47 -36 47 -36 -47 36 -47 2063 456 5 MP
DP
36 47 -36 47 -36 -47 36 -47 2111 388 5 MP
DP
36 47 -36 47 -36 -47 36 -47 2159 388 5 MP
DP
36 47 -36 47 -36 -47 36 -47 2207 456 5 MP
DP
36 47 -36 47 -36 -47 36 -47 2255 590 5 MP
DP
36 47 -36 47 -36 -47 36 -47 2303 780 5 MP
DP
36 47 -36 47 -36 -47 36 -47 2351 1002 5 MP
DP
36 47 -36 47 -36 -47 36 -47 2399 1224 5 MP
DP
36 47 -36 47 -36 -47 36 -47 2448 1422 5 MP
DP
36 47 -36 47 -36 -47 36 -47 2496 1627 5 MP
DP
36 47 -36 47 -36 -47 36 -47 2544 1836 5 MP
DP
36 47 -36 47 -36 -47 36 -47 2592 2158 5 MP
DP
36 47 -36 47 -36 -47 36 -47 2640 2427 5 MP
DP
36 47 -36 47 -36 -47 36 -47 2688 2451 5 MP
DP
36 47 -36 47 -36 -47 36 -47 2736 2339 5 MP
DP
36 47 -36 47 -36 -47 36 -47 2784 2259 5 MP
DP
36 47 -36 47 -36 -47 36 -47 2832 2249 5 MP
DP
36 47 -36 47 -36 -47 36 -47 2880 2269 5 MP
DP
36 47 -36 47 -36 -47 36 -47 2928 2287 5 MP
DP
36 47 -36 47 -36 -47 36 -47 2976 2295 5 MP
DP
36 47 -36 47 -36 -47 36 -47 3025 2296 5 MP
DP
36 47 -36 47 -36 -47 36 -47 3073 2289 5 MP
DP
36 47 -36 47 -36 -47 36 -47 3121 2283 5 MP
DP
36 47 -36 47 -36 -47 36 -47 3169 2283 5 MP
DP
36 47 -36 47 -36 -47 36 -47 3217 2287 5 MP
DP
36 47 -36 47 -36 -47 36 -47 3265 2289 5 MP
DP
36 47 -36 47 -36 -47 36 -47 3313 2289 5 MP
DP
36 47 -36 47 -36 -47 36 -47 3361 2289 5 MP
DP
36 47 -36 47 -36 -47 36 -47 3409 2289 5 MP
DP
36 47 -36 47 -36 -47 36 -47 3457 2288 5 MP
DP
gs 775 246 2722 2377 rc
gr

0 sg
1978 2951 mt 
(2 ) s
%%IncludeResource: font Symbol
/Symbol /ISOLatin1Encoding 144 FMSR

2098 2951 mt 
(p) s
%%IncludeResource: font Helvetica
/Helvetica /ISOLatin1Encoding 144 FMSR

2177 2951 mt 
( s) s
 369 1979 mt  -90 rotate
(Eigenmode [a.u.]) s
90 rotate
gs 775 246 2722 2377 rc
gr

36 47 -36 47 -36 -47 36 -47 813 2289 5 MP
c9
DP
36 47 -36 47 -36 -47 36 -47 861 2288 5 MP
DP
36 47 -36 47 -36 -47 36 -47 909 2289 5 MP
DP
36 47 -36 47 -36 -47 36 -47 957 2289 5 MP
DP
36 47 -36 47 -36 -47 36 -47 1005 2290 5 MP
DP
36 47 -36 47 -36 -47 36 -47 1053 2290 5 MP
DP
36 47 -36 47 -36 -47 36 -47 1101 2288 5 MP
DP
36 47 -36 47 -36 -47 36 -47 1149 2281 5 MP
DP
36 47 -36 47 -36 -47 36 -47 1197 2274 5 MP
DP
36 47 -36 47 -36 -47 36 -47 1245 2272 5 MP
DP
36 47 -36 47 -36 -47 36 -47 1294 2270 5 MP
DP
36 47 -36 47 -36 -47 36 -47 1342 2265 5 MP
DP
36 47 -36 47 -36 -47 36 -47 1390 2267 5 MP
DP
36 47 -36 47 -36 -47 36 -47 1438 2291 5 MP
DP
36 47 -36 47 -36 -47 36 -47 1486 2342 5 MP
DP
36 47 -36 47 -36 -47 36 -47 1534 2373 5 MP
DP
36 47 -36 47 -36 -47 36 -47 1582 2285 5 MP
DP
36 47 -36 47 -36 -47 36 -47 1630 2063 5 MP
DP
36 47 -36 47 -36 -47 36 -47 1678 1914 5 MP
DP
36 47 -36 47 -36 -47 36 -47 1726 2007 5 MP
DP
36 47 -36 47 -36 -47 36 -47 1774 2195 5 MP
DP
36 47 -36 47 -36 -47 36 -47 1822 2364 5 MP
DP
36 47 -36 47 -36 -47 36 -47 1871 2484 5 MP
DP
36 47 -36 47 -36 -47 36 -47 1919 2534 5 MP
DP
36 47 -36 47 -36 -47 36 -47 1967 2514 5 MP
DP
36 47 -36 47 -36 -47 36 -47 2015 2439 5 MP
DP
36 47 -36 47 -36 -47 36 -47 2063 2349 5 MP
DP
36 47 -36 47 -36 -47 36 -47 2111 2288 5 MP
DP
36 47 -36 47 -36 -47 36 -47 2159 2288 5 MP
DP
36 47 -36 47 -36 -47 36 -47 2207 2349 5 MP
DP
36 47 -36 47 -36 -47 36 -47 2255 2439 5 MP
DP
36 47 -36 47 -36 -47 36 -47 2303 2514 5 MP
DP
36 47 -36 47 -36 -47 36 -47 2351 2534 5 MP
DP
36 47 -36 47 -36 -47 36 -47 2399 2484 5 MP
DP
36 47 -36 47 -36 -47 36 -47 2448 2364 5 MP
DP
36 47 -36 47 -36 -47 36 -47 2496 2195 5 MP
DP
36 47 -36 47 -36 -47 36 -47 2544 2007 5 MP
DP
36 47 -36 47 -36 -47 36 -47 2592 1914 5 MP
DP
36 47 -36 47 -36 -47 36 -47 2640 2063 5 MP
DP
36 47 -36 47 -36 -47 36 -47 2688 2285 5 MP
DP
36 47 -36 47 -36 -47 36 -47 2736 2373 5 MP
DP
36 47 -36 47 -36 -47 36 -47 2784 2342 5 MP
DP
36 47 -36 47 -36 -47 36 -47 2832 2291 5 MP
DP
36 47 -36 47 -36 -47 36 -47 2880 2267 5 MP
DP
36 47 -36 47 -36 -47 36 -47 2928 2265 5 MP
DP
36 47 -36 47 -36 -47 36 -47 2976 2270 5 MP
DP
36 47 -36 47 -36 -47 36 -47 3025 2272 5 MP
DP
36 47 -36 47 -36 -47 36 -47 3073 2274 5 MP
DP
36 47 -36 47 -36 -47 36 -47 3121 2281 5 MP
DP
36 47 -36 47 -36 -47 36 -47 3169 2288 5 MP
DP
36 47 -36 47 -36 -47 36 -47 3217 2290 5 MP
DP
36 47 -36 47 -36 -47 36 -47 3265 2290 5 MP
DP
36 47 -36 47 -36 -47 36 -47 3313 2289 5 MP
DP
36 47 -36 47 -36 -47 36 -47 3361 2289 5 MP
DP
36 47 -36 47 -36 -47 36 -47 3409 2288 5 MP
DP
36 47 -36 47 -36 -47 36 -47 3457 2289 5 MP
DP
gs 775 246 2722 2377 rc
6 w
gr

6 w
1 sg
0 2393 2956 0 0 -2393 4179 2622 4 MP
PP
-2956 0 0 2393 2956 0 0 -2393 4179 2622 5 MP stroke
4 w
DO
SO
6 w
0 sg
4179 2622 mt 7135 2622 L
4179  229 mt 7135  229 L
4179 2622 mt 4179  229 L
7135 2622 mt 7135  229 L
4179 2622 mt 7135 2622 L
4179 2622 mt 4179  229 L
4179 2622 mt 4179 2592 L
4179  229 mt 4179  258 L
%%IncludeResource: font Helvetica
/Helvetica /ISOLatin1Encoding 120 FMSR

4146 2767 mt 
(0) s
4601 2622 mt 4601 2592 L
4601  229 mt 4601  258 L
4518 2767 mt 
(0.1) s
5023 2622 mt 5023 2592 L
5023  229 mt 5023  258 L
4940 2767 mt 
(0.2) s
5445 2622 mt 5445 2592 L
5445  229 mt 5445  258 L
5362 2767 mt 
(0.3) s
5868 2622 mt 5868 2592 L
5868  229 mt 5868  258 L
5785 2767 mt 
(0.4) s
6290 2622 mt 6290 2592 L
6290  229 mt 6290  258 L
6207 2767 mt 
(0.5) s
6712 2622 mt 6712 2592 L
6712  229 mt 6712  258 L
6629 2767 mt 
(0.6) s
7135 2622 mt 7135 2592 L
7135  229 mt 7135  258 L
7052 2767 mt 
(0.7) s
4179 2622 mt 4208 2622 L
7135 2622 mt 7105 2622 L
4078 2666 mt 
(0) s
4179 2143 mt 4208 2143 L
7135 2143 mt 7105 2143 L
3978 2187 mt 
(0.2) s
4179 1664 mt 4208 1664 L
7135 1664 mt 7105 1664 L
3978 1708 mt 
(0.4) s
4179 1186 mt 4208 1186 L
7135 1186 mt 7105 1186 L
3978 1230 mt 
(0.6) s
4179  707 mt 4208  707 L
7135  707 mt 7105  707 L
3978  751 mt 
(0.8) s
4179  229 mt 4208  229 L
7135  229 mt 7105  229 L
4078  273 mt 
(1) s
4179 2622 mt 7135 2622 L
4179  229 mt 7135  229 L
4179 2622 mt 4179  229 L
7135 2622 mt 7135  229 L
gs 4179 229 2957 2394 rc
12 w
c8
298 173 299 182 298 108 299 14 299 -93 298 -189 299 -216 4477 2500 8 MP stroke
299 272 298 227 299 176 298 89 299 -20 299 -145 298 -258 299 -295 
4477 2441 9 MP stroke
299 276 298 238 299 163 298 62 299 -65 299 -214 298 -347 299 -399 
4477 2359 9 MP stroke
299 270 298 231 299 152 298 37 299 -107 299 -274 298 -425 299 -494 
4477 2285 9 MP stroke
299 250 298 221 299 138 298 5 299 -155 299 -345 298 -514 299 -603 
4477 2195 9 MP stroke
gr

12 w
c8
36 47 -36 47 -36 -47 36 -47 4477 2548 5 MP
c9
DP
36 47 -36 47 -36 -47 36 -47 4776 2330 5 MP
DP
36 47 -36 47 -36 -47 36 -47 5074 2140 5 MP
DP
36 47 -36 47 -36 -47 36 -47 5373 2049 5 MP
DP
36 47 -36 47 -36 -47 36 -47 5672 2063 5 MP
DP
36 47 -36 47 -36 -47 36 -47 5970 2170 5 MP
DP
36 47 -36 47 -36 -47 36 -47 6269 2342 5 MP
DP
36 47 -36 47 -36 -47 36 -47 6567 2544 5 MP
DP
gs 4179 229 2957 2394 rc
gr

36 47 -36 47 -36 -47 36 -47 4477 2489 5 MP
DP
36 47 -36 47 -36 -47 36 -47 4776 2191 5 MP
DP
36 47 -36 47 -36 -47 36 -47 5074 1934 5 MP
DP
36 47 -36 47 -36 -47 36 -47 5373 1791 5 MP
DP
36 47 -36 47 -36 -47 36 -47 5672 1769 5 MP
DP
36 47 -36 47 -36 -47 36 -47 5970 1857 5 MP
DP
36 47 -36 47 -36 -47 36 -47 6269 2032 5 MP
DP
36 47 -36 47 -36 -47 36 -47 6567 2267 5 MP
DP
36 47 -36 47 -36 -47 36 -47 6866 2517 5 MP
DP
gs 4179 229 2957 2394 rc
gr

36 47 -36 47 -36 -47 36 -47 4477 2408 5 MP
DP
36 47 -36 47 -36 -47 36 -47 4776 2005 5 MP
DP
36 47 -36 47 -36 -47 36 -47 5074 1660 5 MP
DP
36 47 -36 47 -36 -47 36 -47 5373 1448 5 MP
DP
36 47 -36 47 -36 -47 36 -47 5672 1380 5 MP
DP
36 47 -36 47 -36 -47 36 -47 5970 1440 5 MP
DP
36 47 -36 47 -36 -47 36 -47 6269 1602 5 MP
DP
36 47 -36 47 -36 -47 36 -47 6567 1836 5 MP
DP
36 47 -36 47 -36 -47 36 -47 6866 2115 5 MP
DP
gs 4179 229 2957 2394 rc
gr

36 47 -36 47 -36 -47 36 -47 4477 2334 5 MP
DP
36 47 -36 47 -36 -47 36 -47 4776 1837 5 MP
DP
36 47 -36 47 -36 -47 36 -47 5074 1413 5 MP
DP
36 47 -36 47 -36 -47 36 -47 5373 1141 5 MP
DP
36 47 -36 47 -36 -47 36 -47 5672 1031 5 MP
DP
36 47 -36 47 -36 -47 36 -47 5970 1066 5 MP
DP
36 47 -36 47 -36 -47 36 -47 6269 1215 5 MP
DP
36 47 -36 47 -36 -47 36 -47 6567 1443 5 MP
DP
36 47 -36 47 -36 -47 36 -47 6866 1709 5 MP
DP
gs 4179 229 2957 2394 rc
gr

36 47 -36 47 -36 -47 36 -47 4477 2244 5 MP
DP
36 47 -36 47 -36 -47 36 -47 4776 1639 5 MP
DP
36 47 -36 47 -36 -47 36 -47 5074 1124 5 MP
DP
36 47 -36 47 -36 -47 36 -47 5373 782 5 MP
DP
36 47 -36 47 -36 -47 36 -47 5672 623 5 MP
DP
36 47 -36 47 -36 -47 36 -47 5970 628 5 MP
DP
36 47 -36 47 -36 -47 36 -47 6269 761 5 MP
DP
36 47 -36 47 -36 -47 36 -47 6567 977 5 MP
DP
36 47 -36 47 -36 -47 36 -47 6866 1222 5 MP
DP
gs 4179 229 2957 2394 rc
gr

0 sg
5528 2885 mt 
(k) s
%%IncludeResource: font Symbol
/Symbol /ISOLatin1Encoding 96 FMSR

5588 2945 mt 
(q) s
%%IncludeResource: font Helvetica
/Helvetica /ISOLatin1Encoding 120 FMSR

5638 2885 mt 
( ) s
%%IncludeResource: font Symbol
/Symbol /ISOLatin1Encoding 120 FMSR

5671 2885 mt 
(r) s
%%IncludeResource: font Helvetica
/Helvetica /ISOLatin1Encoding 96 FMSR

5736 2945 mt 
(s) s
%%IncludeResource: font Helvetica
/Helvetica /ISOLatin1Encoding 120 FMSR

3842 1614 mt  -90 rotate
(R ) s
90 rotate
%%IncludeResource: font Symbol
/Symbol /ISOLatin1Encoding 120 FMSR

3842 1494 mt  -90 rotate
(g) s
90 rotate
%%IncludeResource: font Helvetica
/Helvetica /ISOLatin1Encoding 120 FMSR

3842 1445 mt  -90 rotate
( / c) s
90 rotate
%%IncludeResource: font Helvetica
/Helvetica /ISOLatin1Encoding 96 FMSR

3902 1285 mt  -90 rotate
(s) s
90 rotate
6 w
%%IncludeResource: font Helvetica
/Helvetica /ISOLatin1Encoding 120 FMSR

6711  912 mt 
(15.18) s
6730 1465 mt 
(12.44) s
6759 1892 mt 
(10.35) s
6771 2329 mt 
(8.28) s
6167 2525 mt 
(6.9) s

end %%Color Dict

eplot
%%EndObject

epage
end

showpage

%%Trailer
%%EOF
