%!PS-Adobe-3.0 EPSF-3.0 
%%BoundingBox: 0 0 454 482
%%Pages: 0
%%Creator: Sun Microsystems, Inc.
%%Title: none
%%CreationDate: none
%%LanguageLevel: 2
%%EndComments
%%BeginProlog
%%BeginResource: procset SDRes-Prolog 1.0 0
/b4_inc_state save def
/dict_count countdictstack def
/op_count count 1 sub def
userdict begin
0 setgray 0 setlinecap 1 setlinewidth 0 setlinejoin 10 setmiterlimit[] 0 setdash newpath
/languagelevel where {pop languagelevel 1 ne {false setstrokeadjust false setoverprint} if} if
/bdef {bind def} bind def
/c {setrgbcolor} bdef
/l {neg lineto} bdef
/rl {neg rlineto} bdef
/lc {setlinecap} bdef
/lj {setlinejoin} bdef
/lw {setlinewidth} bdef
/ml {setmiterlimit} bdef
/ld {setdash} bdef
/m {neg moveto} bdef
/ct {6 2 roll neg 6 2 roll neg 6 2 roll neg curveto} bdef
/r {rotate} bdef
/t {neg translate} bdef
/s {scale} bdef
/sw {show} bdef
/gs {gsave} bdef
/gr {grestore} bdef
/f {findfont dup length dict begin
{1 index /FID ne {def} {pop pop} ifelse} forall /Encoding ISOLatin1Encoding def
currentdict end /NFont exch definefont pop /NFont findfont} bdef
/p {closepath} bdef
/sf {scalefont setfont} bdef
/ef {eofill}bdef
/pc {closepath stroke}bdef
/ps {stroke}bdef
/pum {matrix currentmatrix}bdef
/pom {setmatrix}bdef
/bs {/aString exch def /nXOfs exch def /nWidth exch def currentpoint nXOfs 0 rmoveto pum nWidth aString stringwidth pop div 1 scale aString show pom moveto} bdef
%%EndResource
%%EndProlog
%%BeginSetup
%%EndSetup
%%Page: 1 1
%%BeginPageSetup
%%EndPageSetup
pum
0.02837 0.02835 s 
0 -17000 t
/tm matrix currentmatrix def
gs
tm setmatrix
-1000 -1000 t 
1 1 s 
1000 1000 m 16999 1000 l 16999 17999 l 1000 17999 l 1000 1000 l eoclip newpath
gs
0 0 m 15999 0 l 15999 16999 l 0 16999 l 0 0 l eoclip newpath
1000 1000 m 17000 1000 l 17000 18000 l 1000 18000 l 1000 1000 l eoclip newpath
0 lw 1 lj 0.003 0.003 0.003 c 7537 8458 m  5880 8458 4537 7115 4537 5458 ct 4537 3801 5880 2458 7537 2458 ct 
9194 2458 10537 3801 10537 5458 ct 10537 7115 9194 8458 7537 8458 ct pc
7287 14958 m  5216 14958 3537 13279 3537 11208 ct 3537 9137 5216 7458 7287 7458 ct 
9358 7458 11037 9137 11037 11208 ct 11037 13279 9358 14958 7287 14958 ct pc
11287 10958 m  10044 10958 9037 9951 9037 8708 ct 9037 7465 10044 6458 11287 6458 ct 
12530 6458 13537 7465 13537 8708 ct 13537 9951 12530 10958 11287 10958 ct pc
2037 1958 m  2187 2408 l  1887 2408 l  2037 1958 l  p ef
1 lw 0 lj 2037 15958 m  2037 2318 l  ps
15037 15958 m  14587 16108 l  14587 15808 l  15037 15958 l  p ef
2037 15958 m  14677 15958 l  ps
9150 7972 m  8863 8640 l  8519 8334 l  9150 7972 l  p ef
2000 15925 m  8746 8351 l  8820 8417 l  2074 15991 l  2000 15925 l  p ef
gs
gs
pum
6285 11916 t
254 0 m  176 -122 l  97 0 l  4 0 l  127 -173 l  10 -336 l  104 -336 l 
176 -226 l  247 -336 l  342 -336 l  225 -174 l  349 0 l  254 0 l  p ef
pom
gr
gr
7506 5386 m  7433 5855 l  7166 5717 l  7506 5386 l  p ef
2082 15904 m  7341 5706 l  ps
9189 7972 m  8816 7679 l  9066 7514 l  9189 7972 l  p ef
7506 5428 m  8990 7672 l  ps
gs
gs
pum
4541 10274 t
322 0 m  212 -174 l  102 0 l  6 0 l  157 -230 l  18 -437 l  115 -437 l 
212 -283 l  309 -437 l  405 -437 l  273 -230 l  418 0 l  322 0 l  p ef
pom
gr
gr
gs
gs
pum
8466 6502 t
44 0 m  44 -257 l  44 -264 44 -272 44 -280 ct 44 -288 44 -296 44 -303 ct 43 -310 43 -317 43 -323 ct 
43 -329 42 -333 42 -336 ct 125 -336 l  125 -333 126 -329 126 -323 ct 127 -317 127 -310 127 -303 ct 
128 -295 128 -288 129 -281 ct 129 -274 129 -268 129 -264 ct 130 -264 l  135 -276 139 -287 143 -297 ct 
148 -306 153 -314 159 -321 ct 164 -328 172 -333 180 -337 ct 188 -340 198 -342 211 -342 ct 
216 -342 221 -342 226 -341 ct 231 -340 235 -339 238 -338 ct 238 -264 l  232 -266 226 -267 221 -268 ct 
215 -269 208 -269 200 -269 ct 179 -269 162 -260 150 -243 ct 138 -225 131 -199 131 -165 ct 
131 0 l  44 0 l  p ef
pom
gr
gs
pum
8712 6502 t
39 -165 m  39 -193 42 -221 46 -247 ct 50 -273 57 -299 66 -323 ct 76 -347 88 -371 102 -393 ct 
116 -416 134 -438 154 -460 ct 208 -460 l  188 -438 172 -416 157 -393 ct 143 -370 132 -347 122 -322 ct 
113 -298 107 -273 102 -247 ct 98 -220 96 -193 96 -164 ct 96 -135 98 -108 102 -81 ct 
107 -55 113 -30 122 -5 ct 132 19 143 43 157 65 ct 172 88 188 110 208 132 ct 154 132 l 
134 110 116 88 102 65 ct 88 43 76 19 66 -5 ct 57 -29 50 -55 46 -81 ct 42 -107 39 -134 39 -163 ct 
39 -165 l  p ef
pom
gr
gs
pum
8924 6502 t
322 0 m  212 -174 l  102 0 l  6 0 l  157 -230 l  18 -437 l  115 -437 l 
212 -283 l  309 -437 l  405 -437 l  273 -230 l  418 0 l  322 0 l  p ef
pom
gr
gs
pum
9347 6502 t
172 -163 m  172 -134 170 -107 166 -81 ct 161 -55 154 -29 145 -5 ct 136 19 124 43 109 65 ct 
95 88 78 110 58 132 ct 4 132 l  23 110 40 88 54 65 ct 68 43 80 19 89 -5 ct 98 -30 105 -55 109 -81 ct 
114 -108 116 -135 116 -164 ct 116 -193 114 -220 109 -247 ct 105 -273 98 -298 89 -322 ct 
80 -347 68 -370 54 -393 ct 40 -416 23 -438 4 -460 ct 58 -460 l  78 -438 95 -416 109 -393 ct 
124 -371 136 -347 145 -323 ct 154 -299 161 -273 166 -247 ct 170 -221 172 -193 172 -165 ct 
172 -163 l  p ef
pom
gr
gr
gr
gs
0 0 m 15999 0 l 15999 16999 l 0 16999 l 0 0 l eoclip newpath
gr
gr
0 17000 t 
pom
count op_count sub {pop} repeat countdictstack dict_count sub {end} repeat b4_inc_state restore
%%PageTrailer
%%Trailer
%%EOF
