%!PS-Adobe-3.0 EPSF-3.0
%%Creator: MATLAB, The Mathworks, Inc. Version 7.5.0.338 (R2007b). Operating System: Linux 2.6.25.18-0.2-default #1 SMP 2008-10-21 16:30:26 +0200 x86_64.
%%Title: /storage/space1/phsgbo/GKWtest/svn/gkw/doc/fulloper.eps
%%CreationDate: 11/21/2008  19:26:03
%%DocumentNeededFonts: Helvetica
%%DocumentProcessColors: Cyan Magenta Yellow Black
%%LanguageLevel: 2
%%Pages: 1
%%BoundingBox:   -26   227   623   614
%%EndComments

%%BeginProlog
% MathWorks dictionary
/MathWorks 160 dict begin
% definition operators
/bdef {bind def} bind def
/ldef {load def} bind def
/xdef {exch def} bdef
/xstore {exch store} bdef
% operator abbreviations
/c  /clip ldef
/cc /concat ldef
/cp /closepath ldef
/gr /grestore ldef
/gs /gsave ldef
/mt /moveto ldef
/np /newpath ldef
/cm /currentmatrix ldef
/sm /setmatrix ldef
/rm /rmoveto ldef
/rl /rlineto ldef
/s {show newpath} bdef
/sc {setcmykcolor} bdef
/sr /setrgbcolor ldef
/sg /setgray ldef
/w /setlinewidth ldef
/j /setlinejoin ldef
/cap /setlinecap ldef
/rc {rectclip} bdef
/rf {rectfill} bdef
% page state control
/pgsv () def
/bpage {/pgsv save def} bdef
/epage {pgsv restore} bdef
/bplot /gsave ldef
/eplot {stroke grestore} bdef
% orientation switch
/portraitMode 0 def /landscapeMode 1 def /rotateMode 2 def
% coordinate system mappings
/dpi2point 0 def
% font control
/FontSize 0 def
/FMS {/FontSize xstore findfont [FontSize 0 0 FontSize neg 0 0]
  makefont setfont} bdef
/reencode {exch dup where {pop load} {pop StandardEncoding} ifelse
  exch dup 3 1 roll findfont dup length dict begin
  { 1 index /FID ne {def}{pop pop} ifelse } forall
  /Encoding exch def currentdict end definefont pop} bdef
/isroman {findfont /CharStrings get /Agrave known} bdef
/FMSR {3 1 roll 1 index dup isroman {reencode} {pop pop} ifelse
  exch FMS} bdef
/csm {1 dpi2point div -1 dpi2point div scale neg translate
 dup landscapeMode eq {pop -90 rotate}
  {rotateMode eq {90 rotate} if} ifelse} bdef
% line types: solid, dotted, dashed, dotdash
/SO { [] 0 setdash } bdef
/DO { [.5 dpi2point mul 4 dpi2point mul] 0 setdash } bdef
/DA { [6 dpi2point mul] 0 setdash } bdef
/DD { [.5 dpi2point mul 4 dpi2point mul 6 dpi2point mul 4
  dpi2point mul] 0 setdash } bdef
% macros for lines and objects
/L {lineto stroke} bdef
/MP {3 1 roll moveto 1 sub {rlineto} repeat} bdef
/AP {{rlineto} repeat} bdef
/PDlw -1 def
/W {/PDlw currentlinewidth def setlinewidth} def
/PP {closepath eofill} bdef
/DP {closepath stroke} bdef
/MR {4 -2 roll moveto dup  0 exch rlineto exch 0 rlineto
  neg 0 exch rlineto closepath} bdef
/FR {MR stroke} bdef
/PR {MR fill} bdef
/L1i {{currentfile picstr readhexstring pop} image} bdef
/tMatrix matrix def
/MakeOval {newpath tMatrix currentmatrix pop translate scale
0 0 1 0 360 arc tMatrix setmatrix} bdef
/FO {MakeOval stroke} bdef
/PO {MakeOval fill} bdef
/PD {currentlinewidth 2 div 0 360 arc fill
   PDlw -1 eq not {PDlw w /PDlw -1 def} if} def
/FA {newpath tMatrix currentmatrix pop translate scale
  0 0 1 5 -2 roll arc tMatrix setmatrix stroke} bdef
/PA {newpath tMatrix currentmatrix pop	translate 0 0 moveto scale
  0 0 1 5 -2 roll arc closepath tMatrix setmatrix fill} bdef
/FAn {newpath tMatrix currentmatrix pop translate scale
  0 0 1 5 -2 roll arcn tMatrix setmatrix stroke} bdef
/PAn {newpath tMatrix currentmatrix pop translate 0 0 moveto scale
  0 0 1 5 -2 roll arcn closepath tMatrix setmatrix fill} bdef
/vradius 0 def /hradius 0 def /lry 0 def
/lrx 0 def /uly 0 def /ulx 0 def /rad 0 def
/MRR {/vradius xdef /hradius xdef /lry xdef /lrx xdef /uly xdef
  /ulx xdef newpath tMatrix currentmatrix pop ulx hradius add uly
  vradius add translate hradius vradius scale 0 0 1 180 270 arc 
  tMatrix setmatrix lrx hradius sub uly vradius add translate
  hradius vradius scale 0 0 1 270 360 arc tMatrix setmatrix
  lrx hradius sub lry vradius sub translate hradius vradius scale
  0 0 1 0 90 arc tMatrix setmatrix ulx hradius add lry vradius sub
  translate hradius vradius scale 0 0 1 90 180 arc tMatrix setmatrix
  closepath} bdef
/FRR {MRR stroke } bdef
/PRR {MRR fill } bdef
/MlrRR {/lry xdef /lrx xdef /uly xdef /ulx xdef /rad lry uly sub 2 div def
  newpath tMatrix currentmatrix pop ulx rad add uly rad add translate
  rad rad scale 0 0 1 90 270 arc tMatrix setmatrix lrx rad sub lry rad
  sub translate rad rad scale 0 0 1 270 90 arc tMatrix setmatrix
  closepath} bdef
/FlrRR {MlrRR stroke } bdef
/PlrRR {MlrRR fill } bdef
/MtbRR {/lry xdef /lrx xdef /uly xdef /ulx xdef /rad lrx ulx sub 2 div def
  newpath tMatrix currentmatrix pop ulx rad add uly rad add translate
  rad rad scale 0 0 1 180 360 arc tMatrix setmatrix lrx rad sub lry rad
  sub translate rad rad scale 0 0 1 0 180 arc tMatrix setmatrix
  closepath} bdef
/FtbRR {MtbRR stroke } bdef
/PtbRR {MtbRR fill } bdef
/stri 6 array def /dtri 6 array def
/smat 6 array def /dmat 6 array def
/tmat1 6 array def /tmat2 6 array def /dif 3 array def
/asub {/ind2 exch def /ind1 exch def dup dup
  ind1 get exch ind2 get sub exch } bdef
/tri_to_matrix {
  2 0 asub 3 1 asub 4 0 asub 5 1 asub
  dup 0 get exch 1 get 7 -1 roll astore } bdef
/compute_transform {
  dmat dtri tri_to_matrix tmat1 invertmatrix 
  smat stri tri_to_matrix tmat2 concatmatrix } bdef
/ds {stri astore pop} bdef
/dt {dtri astore pop} bdef
/db {2 copy /cols xdef /rows xdef mul dup 3 mul string
  currentfile 
  3 index 0 eq {/ASCIIHexDecode filter}
  {/ASCII85Decode filter 3 index 2 eq {/RunLengthDecode filter} if }
  ifelse exch readstring pop
  dup 0 3 index getinterval /rbmap xdef
  dup 2 index dup getinterval /gbmap xdef
  1 index dup 2 mul exch getinterval /bbmap xdef pop pop}bdef
/it {gs np dtri aload pop moveto lineto lineto cp c
  cols rows 8 compute_transform 
  rbmap gbmap bbmap true 3 colorimage gr}bdef
/il {newpath moveto lineto stroke}bdef
currentdict end def
%%EndProlog

%%BeginSetup
MathWorks begin

0 cap

end
%%EndSetup

%%Page: 1 1
%%BeginPageSetup
%%PageBoundingBox:   -26   227   623   614
MathWorks begin
bpage
%%EndPageSetup

%%BeginObject: obj1
bplot

/dpi2point 12 def
portraitMode -0312 7368 csm

    0     0  7789  4636 rc
85 dict begin %Colortable dictionary
/c0 { 0.000000 0.000000 0.000000 sr} bdef
/c1 { 1.000000 1.000000 1.000000 sr} bdef
/c2 { 0.900000 0.000000 0.000000 sr} bdef
/c3 { 0.000000 0.820000 0.000000 sr} bdef
/c4 { 0.000000 0.000000 0.800000 sr} bdef
/c5 { 0.910000 0.820000 0.320000 sr} bdef
/c6 { 1.000000 0.260000 0.820000 sr} bdef
/c7 { 0.000000 0.820000 0.820000 sr} bdef
c0
1 j
1 sg
   0    0 7790 4637 rf
6 w
0 1581 2606 0 0 -1581 1013 1929 4 MP
PP
-2606 0 0 1581 2606 0 0 -1581 1013 1929 5 MP stroke
gs 1013 348 2607 1582 rc
/c8 { 0.000000 0.000000 0.562500 sr} bdef
c8
27 0 26 0 26 0 27 0 26 0 26 0 27 0 26 0 
26 0 27 0 26 0 26 0 27 0 26 0 26 0 27 0 
26 0 26 0 27 0 26 0 26 0 27 0 26 0 26 0 
27 0 26 0 26 0 27 0 26 0 26 0 27 0 26 0 
26 0 26 0 27 0 26 0 26 0 27 0 26 0 26 0 
27 0 26 0 26 0 27 0 26 0 26 0 27 0 26 0 
26 0 27 0 26 0 26 0 27 0 26 0 26 0 27 0 
26 0 26 0 27 0 26 0 26 0 27 0 26 0 26 0 
27 0 26 0 26 0 26 0 27 0 26 0 26 0 27 0 
26 0 26 0 27 0 26 0 26 0 27 0 26 0 26 0 
27 0 26 0 26 0 27 0 26 0 26 0 27 0 26 0 
26 0 27 0 26 0 26 0 27 0 26 0 26 0 27 0 
26 0 26 0 26 0 1013 348 100 MP
-26 0 -26 0 -27 0 -26 0 -26 0 -27 0 -26 0 -26 0 
-27 0 -26 0 -26 0 -27 0 -26 0 -26 0 -27 0 -26 0 
-26 0 -26 0 -27 0 -26 0 -26 0 -27 0 -26 0 -26 0 
-27 0 -26 0 -26 0 -27 0 -26 0 -26 0 -27 0 -26 0 
-26 0 -27 0 -26 0 -26 0 -27 0 -26 0 -26 0 -27 0 
-26 0 -26 0 -27 0 -26 0 -26 0 -27 0 -26 0 -26 0 
-27 0 0 0 0 33 0 32 0 32 0 33 0 32 0 32 
0 32 0 33 0 32 0 32 0 32 0 33 0 32 0 32 
0 32 0 33 0 32 0 32 0 33 0 32 0 32 0 32 
0 33 0 32 0 32 0 32 0 33 0 32 0 32 0 32 
0 33 0 32 0 32 0 33 0 32 0 32 0 32 0 33 
0 32 0 32 0 32 0 33 0 32 0 32 0 32 0 33 
0 32 0 32 0 32 0 0 100 AP
0 -32 0 -32 0 -32 0 -33 0 -32 0 -32 0 -32 0 -33 
0 -32 0 -32 0 -32 0 -33 0 -32 0 -32 0 -32 0 -33 
0 -32 0 -32 0 -33 0 -32 0 -32 0 -32 0 -33 0 -32 
0 -32 0 -32 0 -33 0 -32 0 -32 0 -32 0 -33 0 -32 
0 -32 0 -33 0 -32 0 -32 0 -32 0 -33 0 -32 0 -32 
0 -32 0 -33 0 -32 0 -32 0 -32 0 -33 0 -32 0 -32 
0 -33 0 0 -26 0 -26 0 -26 0 -27 0 -26 0 -26 0 
-27 0 -26 0 -26 0 -27 0 -26 0 -26 0 -27 0 -26 0 
-26 0 -27 0 -26 0 -26 0 -27 0 -26 0 -26 0 -27 0 
-26 0 -26 0 -27 0 -26 0 -26 0 -27 0 -26 0 -26 0 
-27 0 -26 0 -26 0 -26 0 -27 0 -26 0 -26 0 -27 0 
-26 0 -26 0 -27 0 -26 0 -26 0 -27 0 -26 0 -26 0 
-27 0 -26 0 -26 0 -27 0 100 AP
0 0 1 AP
PP
0 sg
0 0 0 0 0 -32 0 -32 0 -32 0 -33 0 -32 0 -32 
0 -32 0 -33 0 -32 0 -32 0 -32 0 -33 0 -32 0 -32 
0 -32 0 -33 0 -32 0 -32 0 -33 0 -32 0 -32 0 -32 
0 -33 0 -32 0 -32 0 -32 0 -33 0 -32 0 -32 0 -32 
0 -33 0 -32 0 -32 0 -33 0 -32 0 -32 0 -32 0 -33 
0 -32 0 -32 0 -32 0 -33 0 -32 0 -32 0 -32 0 -33 
0 -32 0 -32 0 -33 0 0 -26 0 -26 0 -26 0 -27 0 
-26 0 -26 0 -27 0 -26 0 -26 0 -27 0 -26 0 -26 0 
-27 0 -26 0 -26 0 -27 0 -26 0 -26 0 -27 0 -26 0 
-26 0 -27 0 -26 0 -26 0 -27 0 -26 0 -26 0 -27 0 
-26 0 -26 0 -27 0 -26 0 -26 0 -26 0 -27 0 -26 0 
-26 0 -27 0 -26 0 -26 0 -27 0 -26 0 -26 0 -27 0 
-26 0 -26 0 -27 0 -26 0 -26 0 -27 0 -26 0 -26 0 
-27 0 -26 0 -26 0 -27 0 -26 0 -26 0 -27 0 -26 0 
-26 0 -27 0 -26 0 -26 0 -27 0 -26 0 -26 0 -26 0 
-27 0 -26 0 -26 0 -27 0 -26 0 -26 0 -27 0 -26 0 
-26 0 -27 0 -26 0 -26 0 -27 0 -26 0 -26 0 -27 0 
-26 0 -26 0 -27 0 -26 0 -26 0 -27 0 -26 0 -26 0 
-27 0 -26 0 -26 0 -27 0 -26 0 -26 0 -27 0 0 0 
0 33 0 32 0 32 0 33 0 32 0 32 0 32 0 33 
0 32 0 32 0 32 0 33 0 32 0 32 0 32 0 33 
0 32 0 32 0 33 0 32 0 32 0 32 0 33 0 32 
0 32 0 32 0 33 0 32 0 32 0 32 0 33 0 32 
0 32 0 33 0 32 0 32 0 32 0 33 0 32 0 32 
0 32 0 33 0 32 0 32 0 32 0 33 0 32 0 32 
0 32 0 0 27 0 26 0 26 0 27 0 26 0 26 0 
27 0 26 0 26 0 27 0 26 0 26 0 27 0 26 0 
26 0 27 0 26 0 26 0 27 0 26 0 26 0 27 0 
26 0 26 0 27 0 26 0 26 0 27 0 26 0 26 0 
27 0 26 0 26 0 26 0 27 0 26 0 26 0 27 0 
26 0 26 0 27 0 26 0 26 0 27 0 26 0 26 0 
27 0 26 0 26 0 27 0 26 0 26 0 27 0 26 0 
26 0 27 0 26 0 26 0 27 0 26 0 26 0 27 0 
26 0 26 0 27 0 26 0 26 0 26 0 27 0 26 0 
26 0 27 0 26 0 26 0 27 0 26 0 26 0 27 0 
26 0 26 0 27 0 26 0 26 0 27 0 26 0 26 0 
27 0 26 0 26 0 27 0 26 0 26 0 27 0 26 0 
26 0 27 0 26 0 1065 348 300 MP stroke
26 0 26 0 1013 348 3 MP stroke
c8
27 0 26 0 26 0 27 0 26 0 26 0 27 0 25 0 
-1 -32 1 -32 1 -9 12 -23 11 -33 2 -32 1 -11 12 -21 
12 -32 2 -33 1 -2 20 -30 5 -32 1 -7 18 -25 7 -33 
1 -7 19 -25 7 -32 1 -4 21 -28 5 -33 0 0 24 -32 
2 -8 21 -24 5 -33 1 0 25 -32 1 -5 23 -27 3 -13 
21 -19 5 -27 10 -6 16 -32 1 -2 25 -30 1 -6 24 -26 
2 -11 24 -22 3 -16 21 -16 5 -23 18 -9 8 -31 7 -1 
20 -33 0 -1 26 -31 0 -3 26 -29 0 -5 26 -28 1 -5 
26 -27 0 -5 26 -27 0 -5 26 -27 1 -4 26 -29 0 -1 
26 -28 18 -3 9 -23 24 -9 2 -17 26 -15 0 -11 27 -22 
0 -2 26 -23 25 -7 1 -15 26 -17 1 -3 26 -20 26 -9 
0 -10 27 -16 25 -7 1 -11 26 -14 26 -7 1 -8 26 -12 
26 -9 26 -3 0 -5 1013 1901 100 MP
0 0 0 33 0 32 0 32 0 33 0 32 0 32 0 32 
0 33 0 32 0 32 0 32 0 33 0 32 0 3 24 29 
3 1 26 30 0 1 26 30 1 3 26 28 0 4 26 29 
1 3 25 29 1 4 26 30 0 2 26 31 0 1 21 32 
5 3 15 30 12 8 10 24 16 14 8 18 18 19 6 13 
21 24 4 9 22 27 3 5 23 30 2 2 24 32 1 1 
16 32 10 13 12 19 14 21 9 11 18 26 5 7 21 29 
3 3 23 31 2 1 22 32 3 8 17 25 9 20 13 12 
13 26 10 6 17 29 6 3 20 31 3 2 23 32 0 0 
21 32 6 22 15 10 11 28 11 5 15 30 7 2 20 32 
2 0 22 32 2 0 26 0 26 0 27 0 26 0 26 0 
27 0 26 0 26 0 27 0 26 0 26 0 27 0 26 0 
26 0 27 0 26 0 26 0 100 AP
0 0 -26 0 -26 0 -26 0 -27 0 -26 0 -26 0 -27 0 
-26 0 -26 0 -27 0 -26 0 -26 0 -27 0 -26 0 -26 0 
-27 0 -26 0 -26 0 -27 0 -26 0 -26 0 -27 0 -26 0 
-26 0 -27 0 -26 0 -26 0 -27 0 -26 0 -26 0 -27 0 
-26 0 -26 0 -26 0 -27 0 -26 0 -26 0 -27 0 -26 0 
-26 0 -27 0 -26 0 -26 0 -27 0 -26 0 -26 0 -27 0 
-26 0 -26 0 -27 0 -26 0 -26 0 -27 0 -26 0 -26 0 
-27 0 -26 0 -26 0 -27 0 -26 0 -26 0 -27 0 -26 0 
-26 0 -27 0 -26 0 -26 0 -26 0 -27 0 -26 0 -26 0 
-27 0 -26 0 -26 0 -27 0 -26 0 -26 0 -27 0 -26 0 
-26 0 -27 0 -26 0 -26 0 -27 0 -26 0 -26 0 -27 0 
-26 0 -26 0 -27 0 -26 0 -26 0 -27 0 -26 0 -26 0 
-27 0 -26 0 -26 0 -27 0 100 AP
0 -28 1 AP
PP
0 sg
0 0 0 -28 0 0 -26 0 -26 0 -26 0 -27 0 -26 0 
-26 0 -27 0 -26 0 -26 0 -27 0 -26 0 -26 0 -27 0 
-26 0 -26 0 -27 0 -26 0 -26 0 -27 0 -26 0 -26 0 
-27 0 -26 0 -26 0 -27 0 -26 0 -26 0 -27 0 -26 0 
-26 0 -27 0 -26 0 -26 0 -26 0 -27 0 -26 0 -26 0 
-27 0 -26 0 -26 0 -27 0 -26 0 -26 0 -27 0 -26 0 
-26 0 -27 0 -26 0 -26 0 -27 0 -26 0 -26 0 -27 0 
-26 0 -26 0 -27 0 -26 0 -26 0 -27 0 -26 0 -26 0 
-27 0 -26 0 -26 0 -27 0 -26 0 -26 0 -26 0 -27 0 
-26 0 -26 0 -27 0 -26 0 -26 0 -27 0 -26 0 -26 0 
-27 0 -26 0 -26 0 -27 0 -26 0 -26 0 -27 0 -26 0 
-26 0 -27 0 -26 0 -26 0 -27 0 -26 0 -26 0 -27 0 
-26 0 -26 0 -27 0 -26 0 -26 0 -27 0 0 0 0 33 
0 32 0 32 0 33 0 32 0 32 0 32 0 33 0 32 
0 32 0 32 0 33 0 32 0 3 24 29 3 1 26 30 
0 1 26 30 1 3 26 28 0 4 26 29 1 3 25 29 
1 4 26 30 0 2 26 31 0 1 21 32 5 3 15 30 
12 8 10 24 16 14 8 18 18 19 6 13 21 24 4 9 
22 27 3 5 23 30 2 2 24 32 1 1 16 32 10 13 
12 19 14 21 9 11 18 26 5 7 21 29 3 3 23 31 
2 1 22 32 3 8 17 25 9 20 13 12 13 26 10 6 
17 29 6 3 20 31 3 2 23 32 0 0 21 32 6 22 
15 10 11 28 11 5 15 30 7 2 20 32 2 0 22 32 
2 0 26 0 26 0 27 0 26 0 26 0 27 0 26 0 
26 0 27 0 26 0 26 0 27 0 26 0 26 0 27 0 
26 0 26 0 27 0 26 0 26 0 27 0 26 0 26 0 
27 0 25 0 -1 -32 1 -32 1 -9 12 -23 11 -33 2 -32 
1 -11 12 -21 12 -32 2 -33 1 -2 20 -30 5 -32 1 -7 
18 -25 7 -33 1 -7 19 -25 7 -32 1 -4 21 -28 5 -33 
0 0 24 -32 2 -8 21 -24 5 -33 1 0 25 -32 1 -5 
23 -27 3 -13 21 -19 5 -27 10 -6 16 -32 1 -2 25 -30 
1 -6 24 -26 2 -11 24 -22 3 -16 21 -16 5 -23 18 -9 
8 -31 7 -1 20 -33 0 -1 26 -31 0 -3 26 -29 0 -5 
26 -28 1 -5 26 -27 0 -5 26 -27 0 -5 26 -27 1 -4 
26 -29 0 -1 26 -28 18 -3 9 -23 24 -9 2 -17 26 -15 
0 -11 27 -22 0 -2 26 -23 25 -7 1 -15 26 -17 1 -3 
26 -20 26 -9 0 -10 27 -16 25 -7 1 -11 26 -14 26 -7 
1 -8 26 -12 26 -9 1039 1893 300 MP stroke
26 -3 0 -5 1013 1901 3 MP stroke
/c9 { 0.000000 0.000000 1.000000 sr} bdef
c9
6 21 13 32 8 15 8 17 18 28 3 5 23 30 2 2 
25 25 8 7 18 15 26 15 7 2 20 10 26 7 26 2 
27 -1 26 -7 21 -11 5 -2 27 -18 12 -12 14 -15 12 -17 
14 -27 3 -5 12 -33 7 -32 4 -32 0 -7 2 -25 -1 -33 
-1 -1 -2 -31 -5 -32 -8 -33 -10 -32 -1 -1 -10 -31 -15 -32 
-1 -3 -14 -30 -12 -20 -8 -12 -19 -27 -4 -5 -22 -26 -6 -6 
-20 -20 -19 -13 -8 -6 -26 -14 -26 -7 -27 -2 -26 3 -26 10 
-24 16 -3 2 -26 27 -3 4 -22 32 -1 3 -16 29 -11 32 
0 0 -10 33 -6 32 -4 32 -1 32 1 33 3 32 5 32 
8 33 4 11 3145 1304 75 MP
PP
0 sg
0 0 6 21 13 32 8 15 8 17 18 28 3 5 23 30 
2 2 25 25 8 7 18 15 26 15 7 2 20 10 26 7 
26 2 27 -1 26 -7 21 -11 5 -2 27 -18 12 -12 14 -15 
12 -17 14 -27 3 -5 12 -33 7 -32 4 -32 0 -7 2 -25 
-1 -33 -1 -1 -2 -31 -5 -32 -8 -33 -10 -32 -1 -1 -10 -31 
-15 -32 -1 -3 -14 -30 -12 -20 -8 -12 -19 -27 -4 -5 -22 -26 
-6 -6 -20 -20 -19 -13 -8 -6 -26 -14 -26 -7 -27 -2 -26 3 
-26 10 -24 16 -3 2 -26 27 -3 4 -22 32 -1 3 -16 29 
-11 32 0 0 -10 33 -6 32 -4 32 -1 32 1 33 3 32 
5 32 8 33 4 11 3145 1304 76 MP stroke
/c10 { 0.000000 0.437500 1.000000 sr} bdef
c10
1 8 11 32 14 29 1 3 19 32 6 9 19 24 8 8 
26 23 2 1 24 17 27 11 21 4 5 1 26 1 13 -2 
14 -2 26 -10 26 -20 0 0 27 -31 0 -1 17 -33 9 -27 
2 -5 6 -32 3 -32 -1 -33 -4 -32 -6 -32 0 0 -8 -33 
-11 -32 -7 -17 -7 -15 -16 -32 -4 -6 -17 -27 -9 -13 -16 -19 
-10 -11 -26 -21 -1 -1 -26 -17 -26 -9 -27 -3 -26 4 -26 12 
-18 14 -9 7 -19 25 -7 10 -12 22 -13 33 -1 6 -8 26 
-6 32 -2 32 0 33 3 32 5 32 8 25 3118 1323 63 MP
PP
0 sg
0 0 1 8 11 32 14 29 1 3 19 32 6 9 19 24 
8 8 26 23 2 1 24 17 27 11 21 4 5 1 26 1 
13 -2 14 -2 26 -10 26 -20 0 0 27 -31 0 -1 17 -33 
9 -27 2 -5 6 -32 3 -32 -1 -33 -4 -32 -6 -32 0 0 
-8 -33 -11 -32 -7 -17 -7 -15 -16 -32 -4 -6 -17 -27 -9 -13 
-16 -19 -10 -11 -26 -21 -1 -1 -26 -17 -26 -9 -27 -3 -26 4 
-26 12 -18 14 -9 7 -19 25 -7 10 -12 22 -13 33 -1 6 
-8 26 -6 32 -2 32 0 33 3 32 5 32 8 25 3118 1323 64 MP stroke
c8
-20 30 -1 3 -3 32 -22 31 0 1 -3 32 -6 33 -17 28 
-1 4 -3 32 -23 31 -2 1 2 0 27 0 26 0 22 0 
0 -32 2 -32 2 -6 15 -26 9 -33 3 -29 1 -3 22 -32 
3 -26 3 -6 20 -33 3 -9 16 -23 9 -32 2 -3 22 -29 
4 -16 13 -17 12 -32 1 -2 24 -30 2 -8 22 -24 5 -17 
16 -16 10 -32 0 0 26 -32 0 -3 25 -30 2 -5 24 -27 
2 -8 24 -24 2 -12 23 -20 4 -16 21 -17 5 -19 20 -13 
6 -23 19 -9 8 -27 15 -5 11 -30 9 -3 17 -32 0 0 
27 -32 0 -1 26 -31 0 -2 26 -31 0 -1 27 -31 0 -1 
26 -31 2 0 24 -30 17 -3 10 -26 21 -6 5 -24 24 -8 
2 -21 25 -11 2 -17 25 -16 1 -13 26 -19 0 -8 27 -24 
0 -1 26 -26 25 -5 1 -22 26 -11 1 -16 26 -16 0 -8 
26 -22 24 -2 2 -27 1013 1794 100 MP
0 -5 0 -33 0 -31 -26 15 0 16 -26 8 -5 25 -21 0 
-27 17 0 15 -26 9 -6 23 -20 1 -27 21 0 10 -26 15 
-1 18 -25 7 -17 25 -10 0 -26 26 0 6 -26 21 -1 11 
-26 18 -1 15 -25 14 -2 18 -24 12 -3 20 -24 10 -4 22 
-22 10 -5 23 -21 9 -5 23 -22 10 -4 22 -22 11 -4 22 
-22 13 -4 19 -23 16 -2 16 -24 19 -2 13 -24 22 -2 11 
-25 24 -1 8 -25 27 -1 5 -25 30 -1 2 -24 33 -2 0 
-9 32 -17 13 -5 19 -21 22 -3 10 -24 28 -1 5 -25 31 
0 1 -9 32 -17 19 -4 14 -22 28 -2 4 -12 32 -13 16 
-3 16 -23 31 -1 2 -5 32 -20 29 -2 3 -5 32 79 AP
PP
0 sg
0 0 0 -5 0 -33 0 -31 -26 15 0 16 -26 8 -5 25 
-21 0 -27 17 0 15 -26 9 -6 23 -20 1 -27 21 0 10 
-26 15 -1 18 -25 7 -17 25 -10 0 -26 26 0 6 -26 21 
-1 11 -26 18 -1 15 -25 14 -2 18 -24 12 -3 20 -24 10 
-4 22 -22 10 -5 23 -21 9 -5 23 -22 10 -4 22 -22 11 
-4 22 -22 13 -4 19 -23 16 -2 16 -24 19 -2 13 -24 22 
-2 11 -25 24 -1 8 -25 27 -1 5 -25 30 -1 2 -24 33 
-2 0 -9 32 -17 13 -5 19 -21 22 -3 10 -24 28 -1 5 
-25 31 0 1 -9 32 -17 19 -4 14 -22 28 -2 4 -12 32 
-13 16 -3 16 -23 31 -1 2 -5 32 -20 29 -2 3 -5 32 
-20 30 -1 3 -3 32 -22 31 0 1 -3 32 -6 33 -17 28 
-1 4 -3 32 -23 31 -2 1 2 0 27 0 26 0 22 0 
0 -32 2 -32 2 -6 15 -26 9 -33 3 -29 1 -3 22 -32 
3 -26 3 -6 20 -33 3 -9 16 -23 9 -32 2 -3 22 -29 
4 -16 13 -17 12 -32 1 -2 24 -30 2 -8 22 -24 5 -17 
16 -16 10 -32 0 0 26 -32 0 -3 25 -30 2 -5 24 -27 
2 -8 24 -24 2 -12 23 -20 4 -16 21 -17 5 -19 20 -13 
6 -23 19 -9 8 -27 15 -5 11 -30 9 -3 17 -32 0 0 
27 -32 0 -1 26 -31 0 -2 26 -31 0 -1 27 -31 0 -1 
26 -31 2 0 24 -30 17 -3 10 -26 21 -6 5 -24 24 -8 
2 -21 25 -11 2 -17 25 -16 1 -13 26 -19 0 -8 27 -24 
0 -1 26 -26 25 -5 1 -22 26 -11 1 -16 26 -16 0 -8 
26 -22 24 -2 2 -27 1013 1794 180 MP stroke
/c11 { 0.000000 0.875000 1.000000 sr} bdef
c11
10 27 16 31 1 1 22 32 4 4 26 26 3 3 23 16 
27 11 23 5 3 1 26 -1 0 0 27 -7 26 -16 10 -9 
16 -20 8 -13 14 -32 5 -19 3 -13 4 -32 -1 -33 -3 -32 
-3 -16 -3 -16 -9 -33 -13 -32 -2 -4 -13 -28 -13 -22 -7 -10 
-19 -25 -7 -8 -20 -19 -19 -13 -7 -4 -26 -11 -27 -4 -26 5 
-25 14 -1 1 -27 26 -4 5 -18 33 -4 10 -8 22 -7 32 
-4 32 0 33 2 32 5 32 10 33 2 5 3092 1310 55 MP
PP
0 sg
0 0 10 27 16 31 1 1 22 32 4 4 26 26 3 3 
23 16 27 11 23 5 3 1 26 -1 0 0 27 -7 26 -16 
10 -9 16 -20 8 -13 14 -32 5 -19 3 -13 4 -32 -1 -33 
-3 -32 -3 -16 -3 -16 -9 -33 -13 -32 -2 -4 -13 -28 -13 -22 
-7 -10 -19 -25 -7 -8 -20 -19 -19 -13 -7 -4 -26 -11 -27 -4 
-26 5 -25 14 -1 1 -27 26 -4 5 -18 33 -4 10 -8 22 
-7 32 -4 32 0 33 2 32 5 32 10 33 2 5 3092 1310 56 MP stroke
c8
15 33 11 13 10 19 16 21 7 11 20 26 4 6 22 30 
2 3 24 31 1 1 17 32 9 17 12 15 14 26 8 7 
18 29 5 3 22 31 1 1 21 32 4 15 15 18 11 26 
11 6 16 30 6 2 20 32 3 0 23 0 27 0 26 0 
26 0 4 0 -4 0 -19 -32 -7 -2 -16 -30 -10 -5 -11 -27 
-16 -13 -5 -20 -20 -32 -1 0 -22 -32 -4 -2 -20 -30 -7 -5 
-15 -28 -11 -9 -11 -23 -15 -21 -5 -11 -21 -32 -1 -1 -23 -32 
-3 -3 -21 -29 -5 -7 -18 -25 -9 -12 -14 -20 -12 -22 -8 -11 
-18 -32 0 -1 -25 -31 -2 -3 -23 -30 -3 -6 -22 -26 -4 -10 
-21 -22 -6 -14 -18 -18 -8 -19 -16 -14 -10 -24 -13 -8 -14 -29 
-7 -3 -19 -32 0 -1 -26 -32 0 -1 -26 -31 -1 -2 -26 -30 
0 -2 -26 -30 0 -2 -26 -31 -1 -1 0 1 0 33 0 32 
0 32 0 32 0 8 3619 1211 100 MP
9 25 18 9 8 23 18 10 8 22 18 13 7 19 20 16 
5 17 21 18 5 14 21 21 4 11 23 25 3 7 23 28 
2 5 24 30 1 2 26 32 0 0 21 AP
PP
0 sg
0 0 9 25 18 9 8 23 18 10 8 22 18 13 7 19 
20 16 5 17 21 18 5 14 21 21 4 11 23 25 3 7 
23 28 2 5 24 30 1 2 26 32 0 0 15 33 11 13 
10 19 16 21 7 11 20 26 4 6 22 30 2 3 24 31 
1 1 17 32 9 17 12 15 14 26 8 7 18 29 5 3 
22 31 1 1 21 32 4 15 15 18 11 26 11 6 16 30 
6 2 20 32 3 0 23 0 27 0 26 0 26 0 4 0 
-4 0 -19 -32 -7 -2 -16 -30 -10 -5 -11 -27 -16 -13 -5 -20 
-20 -32 -1 0 -22 -32 -4 -2 -20 -30 -7 -5 -15 -28 -11 -9 
-11 -23 -15 -21 -5 -11 -21 -32 -1 -1 -23 -32 -3 -3 -21 -29 
-5 -7 -18 -25 -9 -12 -14 -20 -12 -22 -8 -11 -18 -32 0 -1 
-25 -31 -2 -3 -23 -30 -3 -6 -22 -26 -4 -10 -21 -22 -6 -14 
-18 -18 -8 -19 -16 -14 -10 -24 -13 -8 -14 -29 -7 -3 -19 -32 
0 -1 -26 -32 0 -1 -26 -31 -1 -2 -26 -30 0 -2 -26 -30 
0 -2 -26 -31 -1 -1 0 1 0 33 0 32 0 32 0 32 
0 8 3619 1211 122 MP stroke
c8
-23 28 -2 4 -25 32 0 1 -8 32 -18 23 -3 9 -23 31 
-1 1 -7 33 -18 26 -3 6 -13 32 -11 20 -3 12 -14 33 
-9 19 -3 13 -10 32 -13 25 -5 7 5 0 26 0 23 0 
3 -26 2 -6 21 -32 4 -22 4 -10 19 -33 3 -6 16 -26 
9 -32 1 -2 22 -30 4 -11 16 -22 10 -32 1 -1 24 -31 
2 -4 23 -28 3 -10 20 -23 7 -17 15 -15 11 -31 2 -1 
24 -32 0 -2 26 -31 1 -2 25 -30 1 -4 25 -28 1 -5 
25 -28 2 -5 25 -27 1 -7 25 -25 1 -8 25 -24 2 -9 
25 -24 1 -9 25 -23 1 -10 25 -22 2 -11 25 -21 1 -11 
25 -22 1 -10 26 -22 1 -11 25 -21 1 -10 26 -22 0 -10 
26 -23 1 -8 26 -24 0 -7 26 -25 0 -5 27 -28 0 -1 
26 -29 20 -2 6 -27 24 -5 3 -24 25 -8 1 -22 26 -11 
0 -18 26 -14 0 -16 1013 1622 100 MP
0 -16 0 -32 0 -33 0 -5 0 5 -26 20 0 13 -26 15 
-1 17 -25 11 -2 21 -25 8 -3 24 -23 4 -26 28 0 1 
-27 26 0 6 -26 23 0 9 -26 21 -1 11 -26 19 -1 14 
-25 17 -1 15 -25 16 -2 16 -25 16 -2 17 -24 15 -2 17 
-24 15 -3 17 -24 16 -2 16 -24 17 -2 16 -24 18 -3 14 
-24 19 -2 13 -24 21 -2 11 -24 23 -2 10 -25 24 -1 8 
-25 26 -1 6 -25 28 -1 4 -26 30 0 3 -26 31 0 1 
-24 32 -2 2 -10 31 -17 15 -5 17 -21 23 -3 9 63 AP
PP
0 sg
0 0 0 -16 0 -32 0 -33 0 -5 0 5 -26 20 0 13 
-26 15 -1 17 -25 11 -2 21 -25 8 -3 24 -23 4 -26 28 
0 1 -27 26 0 6 -26 23 0 9 -26 21 -1 11 -26 19 
-1 14 -25 17 -1 15 -25 16 -2 16 -25 16 -2 17 -24 15 
-2 17 -24 15 -3 17 -24 16 -2 16 -24 17 -2 16 -24 18 
-3 14 -24 19 -2 13 -24 21 -2 11 -24 23 -2 10 -25 24 
-1 8 -25 26 -1 6 -25 28 -1 4 -26 30 0 3 -26 31 
0 1 -24 32 -2 2 -10 31 -17 15 -5 17 -21 23 -3 9 
-23 28 -2 4 -25 32 0 1 -8 32 -18 23 -3 9 -23 31 
-1 1 -7 33 -18 26 -3 6 -13 32 -11 20 -3 12 -14 33 
-9 19 -3 13 -10 32 -13 25 -5 7 5 0 26 0 23 0 
3 -26 2 -6 21 -32 4 -22 4 -10 19 -33 3 -6 16 -26 
9 -32 1 -2 22 -30 4 -11 16 -22 10 -32 1 -1 24 -31 
2 -4 23 -28 3 -10 20 -23 7 -17 15 -15 11 -31 2 -1 
24 -32 0 -2 26 -31 1 -2 25 -30 1 -4 25 -28 1 -5 
25 -28 2 -5 25 -27 1 -7 25 -25 1 -8 25 -24 2 -9 
25 -24 1 -9 25 -23 1 -10 25 -22 2 -11 25 -21 1 -11 
25 -22 1 -10 26 -22 1 -11 25 -21 1 -10 26 -22 0 -10 
26 -23 1 -8 26 -24 0 -7 26 -25 0 -5 27 -28 0 -1 
26 -29 20 -2 6 -27 24 -5 3 -24 25 -8 1 -22 26 -11 
0 -18 26 -14 0 -16 1013 1622 164 MP stroke
/c12 { 0.312500 1.000000 0.687500 sr} bdef
c12
2 24 5 32 9 33 10 23 4 9 20 32 3 4 25 28 
1 2 26 20 25 11 2 0 26 5 26 -2 8 -3 19 -8 
26 -23 1 -2 19 -32 6 -18 5 -14 4 -32 1 -33 -3 -32 
-7 -29 0 -3 -10 -33 -14 -32 -2 -4 -16 -28 -10 -15 -15 -17 
-12 -14 -25 -19 -1 0 -26 -12 -27 -4 -26 6 -16 10 -10 7 
-21 26 -6 9 -11 23 -9 32 -5 32 -1 17 -1 16 1 8 
3092 1404 49 MP
PP
0 sg
0 0 2 24 5 32 9 33 10 23 4 9 20 32 3 4 
25 28 1 2 26 20 25 11 2 0 26 5 26 -2 8 -3 
19 -8 26 -23 1 -2 19 -32 6 -18 5 -14 4 -32 1 -33 
-3 -32 -7 -29 0 -3 -10 -33 -14 -32 -2 -4 -16 -28 -10 -15 
-15 -17 -12 -14 -25 -19 -1 0 -26 -12 -27 -4 -26 6 -16 10 
-10 7 -21 26 -6 9 -11 23 -9 32 -5 32 -1 17 -1 16 
1 8 3092 1404 50 MP stroke
c8
-2 7 -24 26 -2 6 -25 27 -1 6 -25 28 -1 4 -25 29 
-1 3 -26 31 0 1 -26 32 0 1 -12 32 -14 16 -6 16 
-21 25 -3 7 -23 30 -2 3 -22 32 -2 3 -7 29 -20 29 
-2 3 -18 33 -6 12 -5 20 -21 31 -1 1 -5 32 6 0 
26 0 17 0 8 -32 1 -1 22 -31 5 -12 12 -20 13 -33 
1 -1 23 -31 3 -7 19 -25 8 -21 9 -11 16 -33 1 -1 
25 -31 1 -3 25 -29 2 -5 23 -27 3 -7 23 -26 3 -8 
23 -24 4 -9 23 -23 3 -11 23 -21 3 -12 23 -21 4 -11 
23 -21 3 -12 24 -20 2 -12 24 -21 3 -12 24 -20 2 -12 
25 -20 1 -12 25 -20 2 -12 25 -21 1 -11 25 -21 1 -11 
26 -21 1 -10 25 -22 1 -10 26 -23 0 -8 26 -24 1 -7 
26 -25 0 -6 26 -26 0 -4 26 -29 1 -1 26 -29 18 -2 
8 -28 23 -4 3 -26 1013 1438 100 MP
0 -7 0 -32 0 -32 0 -21 0 21 -26 9 -1 23 -25 7 
-3 25 -23 5 -8 28 -19 2 -26 29 0 1 -26 29 -1 3 
-26 27 0 6 -26 25 0 7 -26 24 -1 8 -26 24 0 8 
-26 23 -1 10 -25 22 -1 10 -26 23 -1 9 -25 23 -1 9 
-25 23 -2 10 -25 23 -1 9 -25 23 -2 9 -24 24 -2 8 
-25 25 -1 8 -25 25 43 AP
PP
0 sg
0 0 0 -7 0 -32 0 -32 0 -21 0 21 -26 9 -1 23 
-25 7 -3 25 -23 5 -8 28 -19 2 -26 29 0 1 -26 29 
-1 3 -26 27 0 6 -26 25 0 7 -26 24 -1 8 -26 24 
0 8 -26 23 -1 10 -25 22 -1 10 -26 23 -1 9 -25 23 
-1 9 -25 23 -2 10 -25 23 -1 9 -25 23 -2 9 -24 24 
-2 8 -25 25 -1 8 -25 25 -2 7 -24 26 -2 6 -25 27 
-1 6 -25 28 -1 4 -25 29 -1 3 -26 31 0 1 -26 32 
0 1 -12 32 -14 16 -6 16 -21 25 -3 7 -23 30 -2 3 
-22 32 -2 3 -7 29 -20 29 -2 3 -18 33 -6 12 -5 20 
-21 31 -1 1 -5 32 6 0 26 0 17 0 8 -32 1 -1 
22 -31 5 -12 12 -20 13 -33 1 -1 23 -31 3 -7 19 -25 
8 -21 9 -11 16 -33 1 -1 25 -31 1 -3 25 -29 2 -5 
23 -27 3 -7 23 -26 3 -8 23 -24 4 -9 23 -23 3 -11 
23 -21 3 -12 23 -21 4 -11 23 -21 3 -12 24 -20 2 -12 
24 -21 3 -12 24 -20 2 -12 25 -20 1 -12 25 -20 2 -12 
25 -21 1 -11 25 -21 1 -11 26 -21 1 -10 25 -22 1 -10 
26 -23 0 -8 26 -24 1 -7 26 -25 0 -6 26 -26 0 -4 
26 -29 1 -1 26 -29 18 -2 8 -28 23 -4 3 -26 1013 1438 144 MP stroke
c8
-24 16 -3 16 -23 15 -4 17 -23 14 -5 19 -21 12 -6 20 
-20 11 -8 21 -19 11 -10 22 -16 9 -12 23 -14 8 -13 24 
-14 8 -13 24 -13 10 -12 23 -14 11 -10 21 -17 15 -8 17 
-18 20 -6 12 -20 24 -5 9 -22 27 -3 5 -23 30 -2 2 
-24 32 0 0 -9 33 -18 25 -4 7 -22 31 -1 1 -10 32 
11 0 26 0 15 0 11 -32 1 -1 23 -31 3 -4 21 -28 
5 -10 17 -23 10 -24 6 -8 20 -32 0 -1 25 -31 1 -2 
25 -31 2 -2 25 -30 1 -3 25 -29 1 -4 25 -28 2 -4 
25 -29 1 -4 25 -28 1 -4 26 -28 1 -4 25 -28 1 -3 
26 -30 0 -2 26 -30 1 -1 26 -31 0 0 26 -29 14 -4 
13 -25 19 -7 7 -23 22 -9 4 -21 24 -11 3 -20 24 -13 
2 -18 25 -14 1 -16 25 -16 2 -15 25 -17 1 -14 26 -19 
0 -12 26 -20 0 -11 1013 1262 100 MP
0 -21 0 -32 0 -33 0 -2 0 2 -26 28 0 5 -26 25 
0 7 -26 24 -1 8 -26 23 0 9 -26 22 -1 11 -25 20 
-1 12 -26 19 -1 13 -25 18 -2 14 -24 18 -2 15 -25 16 
-2 16 25 AP
PP
0 sg
0 0 0 -21 0 -32 0 -33 0 -2 0 2 -26 28 0 5 
-26 25 0 7 -26 24 -1 8 -26 23 0 9 -26 22 -1 11 
-25 20 -1 12 -26 19 -1 13 -25 18 -2 14 -24 18 -2 15 
-25 16 -2 16 -24 16 -3 16 -23 15 -4 17 -23 14 -5 19 
-21 12 -6 20 -20 11 -8 21 -19 11 -10 22 -16 9 -12 23 
-14 8 -13 24 -14 8 -13 24 -13 10 -12 23 -14 11 -10 21 
-17 15 -8 17 -18 20 -6 12 -20 24 -5 9 -22 27 -3 5 
-23 30 -2 2 -24 32 0 0 -9 33 -18 25 -4 7 -22 31 
-1 1 -10 32 11 0 26 0 15 0 11 -32 1 -1 23 -31 
3 -4 21 -28 5 -10 17 -23 10 -24 6 -8 20 -32 0 -1 
25 -31 1 -2 25 -31 2 -2 25 -30 1 -3 25 -29 1 -4 
25 -28 2 -4 25 -29 1 -4 25 -28 1 -4 26 -28 1 -4 
25 -28 1 -3 26 -30 0 -2 26 -30 1 -1 26 -31 0 0 
26 -29 14 -4 13 -25 19 -7 7 -23 22 -9 4 -21 24 -11 
3 -20 24 -13 2 -18 25 -14 1 -16 25 -16 2 -15 25 -17 
1 -14 26 -19 0 -12 26 -20 0 -11 1013 1262 126 MP stroke
/c13 { 0.750000 1.000000 0.250000 sr} bdef
c13
8 25 15 32 4 5 20 27 6 7 26 22 8 3 19 9 
26 4 26 -5 14 -8 13 -8 19 -24 7 -14 7 -18 7 -32 
1 -33 -3 -32 -7 -32 -5 -15 -6 -18 -16 -32 -4 -8 -18 -24 
-9 -11 -24 -21 -2 -2 -26 -13 -27 -3 -26 8 -13 10 -13 11 
-14 21 -13 29 -1 3 -7 32 -2 33 2 32 6 32 2 8 
3066 1340 41 MP
PP
0 sg
0 0 8 25 15 32 4 5 20 27 6 7 26 22 8 3 
19 9 26 4 26 -5 14 -8 13 -8 19 -24 7 -14 7 -18 
7 -32 1 -33 -3 -32 -7 -32 -5 -15 -6 -18 -16 -32 -4 -8 
-18 -24 -9 -11 -24 -21 -2 -2 -26 -13 -27 -3 -26 8 -13 10 
-13 11 -14 21 -13 29 -1 3 -7 32 -2 33 2 32 6 32 
2 8 3066 1340 42 MP stroke
c8
2 7 25 28 1 5 25 28 1 4 25 30 1 2 26 32 
0 1 16 32 10 9 10 23 16 17 8 15 19 23 5 10 
21 27 3 5 23 30 2 2 23 32 2 3 14 30 12 20 
9 12 17 27 6 5 21 31 2 1 23 33 1 4 15 28 
11 24 10 8 17 29 6 3 20 0 26 0 27 0 12 0 
-12 -8 -10 -24 -17 -31 0 -1 -23 -32 -3 -2 -20 -31 -6 -4 
-16 -28 -11 -11 -10 -21 -16 -32 0 0 -24 -33 -2 -2 -22 -30 
-5 -5 -19 -27 -7 -11 -15 -21 -11 -21 -9 -12 -17 -32 -1 -1 
-24 -31 -2 -3 -24 -29 -2 -6 -23 -27 -4 -9 -21 -23 -5 -13 
-20 -19 -6 -17 -18 -16 -9 -21 -16 -11 -10 -24 -14 -8 -12 -28 
-11 -4 -16 -32 0 32 0 32 0 32 0 25 3619 968 87 MP
PP
0 sg
0 0 2 7 25 28 1 5 25 28 1 4 25 30 1 2 
26 32 0 1 16 32 10 9 10 23 16 17 8 15 19 23 
5 10 21 27 3 5 23 30 2 2 23 32 2 3 14 30 
12 20 9 12 17 27 6 5 21 31 2 1 23 33 1 4 
15 28 11 24 10 8 17 29 6 3 20 0 26 0 27 0 
12 0 -12 -8 -10 -24 -17 -31 0 -1 -23 -32 -3 -2 -20 -31 
-6 -4 -16 -28 -11 -11 -10 -21 -16 -32 0 0 -24 -33 -2 -2 
-22 -30 -5 -5 -19 -27 -7 -11 -15 -21 -11 -21 -9 -12 -17 -32 
-1 -1 -24 -31 -2 -3 -24 -29 -2 -6 -23 -27 -4 -9 -21 -23 
-5 -13 -20 -19 -6 -17 -18 -16 -9 -21 -16 -11 -10 -24 -14 -8 
-12 -28 -11 -4 -16 -32 0 32 0 32 0 32 0 25 3619 968 88 MP stroke
c8
-2 21 -24 9 -4 23 -22 7 -8 26 -19 3 -26 29 0 0 
-26 30 -1 2 -26 29 0 3 -26 28 -1 5 -25 26 -1 6 
-26 25 -1 7 -25 24 -2 9 -24 22 -2 10 -25 22 -2 10 
-24 21 -4 11 -22 20 -5 13 -22 19 -5 13 -21 19 -6 13 
-20 19 -7 13 -20 20 -6 13 -20 21 -6 11 -20 24 -5 8 
-22 26 -3 6 -23 29 -3 4 -23 30 -2 2 -25 32 0 0 
-9 32 9 0 27 0 19 0 7 -10 16 -22 10 -29 3 -3 
23 -32 1 -1 25 -32 1 -1 25 -31 1 -2 25 -30 2 -3 
25 -29 1 -3 25 -30 1 -3 26 -29 1 -3 25 -29 1 -2 
26 -30 0 -2 27 -31 0 0 26 -26 15 -6 11 -21 21 -11 
6 -18 22 -14 4 -16 24 -17 2 -13 25 -19 2 -12 25 -20 
1 -11 25 -22 1 -8 26 -24 1 -7 26 -25 0 -5 26 -27 
0 -4 26 -29 0 -1 1013 1091 100 MP
0 -31 0 -32 0 -20 -1 20 -25 11 5 AP
PP
0 sg
0 0 0 -31 0 -32 0 -20 -1 20 -25 11 -2 21 -24 9 
-4 23 -22 7 -8 26 -19 3 -26 29 0 0 -26 30 -1 2 
-26 29 0 3 -26 28 -1 5 -25 26 -1 6 -26 25 -1 7 
-25 24 -2 9 -24 22 -2 10 -25 22 -2 10 -24 21 -4 11 
-22 20 -5 13 -22 19 -5 13 -21 19 -6 13 -20 19 -7 13 
-20 20 -6 13 -20 21 -6 11 -20 24 -5 8 -22 26 -3 6 
-23 29 -3 4 -23 30 -2 2 -25 32 0 0 -9 32 9 0 
27 0 19 0 7 -10 16 -22 10 -29 3 -3 23 -32 1 -1 
25 -32 1 -1 25 -31 1 -2 25 -30 2 -3 25 -29 1 -3 
25 -30 1 -3 26 -29 1 -3 25 -29 1 -2 26 -30 0 -2 
27 -31 0 0 26 -26 15 -6 11 -21 21 -11 6 -18 22 -14 
4 -16 24 -17 2 -13 25 -19 2 -12 25 -20 1 -11 25 -22 
1 -8 26 -24 1 -7 26 -25 0 -5 26 -27 0 -4 26 -29 
0 -1 1013 1091 106 MP stroke
/c14 { 1.000000 0.812500 0.000000 sr} bdef
c14
17 30 9 12 21 20 5 5 27 12 26 3 26 -8 15 -12 
12 -13 10 -19 9 -32 2 -33 -2 -32 -8 -32 -11 -31 -1 -2 
-19 -32 -7 -9 -22 -23 -4 -4 -26 -14 -27 -3 -26 10 -12 11 
-14 19 -7 13 -10 32 -3 33 1 32 6 32 11 33 2 2 
3039 1313 33 MP
PP
0 sg
0 0 17 30 9 12 21 20 5 5 27 12 26 3 26 -8 
15 -12 12 -13 10 -19 9 -32 2 -33 -2 -32 -8 -32 -11 -31 
-1 -2 -19 -32 -7 -9 -22 -23 -4 -4 -26 -14 -27 -3 -26 10 
-12 11 -14 19 -7 13 -10 32 -3 33 1 32 6 32 11 33 
2 2 3039 1313 34 MP stroke
c8
0 0 0 -33 0 -32 0 -13 -1 13 -25 18 -1 14 -25 16 
-2 17 -24 12 -5 20 -22 9 -9 23 -17 5 -26 27 -1 1 
-26 29 0 3 -26 28 -1 4 -25 27 -1 5 -26 25 -1 8 
-25 23 -2 9 -24 22 -4 10 -23 21 -5 11 -21 20 -6 13 
-20 18 -8 14 -19 17 -9 15 -17 17 -9 15 -17 19 -8 14 
-19 21 -6 11 -20 25 -5 7 -21 27 -4 5 4 0 26 0 
24 0 2 -2 25 -30 2 -3 24 -29 2 -4 24 -28 2 -5 
24 -28 3 -4 24 -28 2 -4 25 -28 1 -4 26 -28 1 -3 
25 -30 1 -2 26 -30 0 -1 27 -26 13 -5 13 -20 21 -12 
5 -16 24 -17 3 -13 24 -19 2 -11 25 -21 1 -9 26 -23 
1 -7 26 -26 0 -4 26 -28 0 -2 26 -30 1013 928 87 MP
PP
0 sg
0 0 0 0 0 -33 0 -32 0 -13 -1 13 -25 18 -1 14 
-25 16 -2 17 -24 12 -5 20 -22 9 -9 23 -17 5 -26 27 
-1 1 -26 29 0 3 -26 28 -1 4 -25 27 -1 5 -26 25 
-1 8 -25 23 -2 9 -24 22 -4 10 -23 21 -5 11 -21 20 
-6 13 -20 18 -8 14 -19 17 -9 15 -17 17 -9 15 -17 19 
-8 14 -19 21 -6 11 -20 25 -5 7 -21 27 -4 5 4 0 
26 0 24 0 2 -2 25 -30 2 -3 24 -29 2 -4 24 -28 
2 -5 24 -28 3 -4 24 -28 2 -4 25 -28 1 -4 26 -28 
1 -3 25 -30 1 -2 26 -30 0 -1 27 -26 13 -5 13 -20 
21 -12 5 -16 24 -17 3 -13 24 -19 2 -11 25 -21 1 -9 
26 -23 1 -7 26 -26 0 -4 26 -28 0 -2 26 -30 1013 928 88 MP stroke
c8
4 11 23 26 3 7 23 28 2 4 24 30 1 2 26 32 
0 0 13 33 13 16 9 16 17 24 6 8 21 29 3 3 
23 32 1 1 16 32 9 18 10 14 17 27 6 5 20 0 
26 0 27 0 5 0 -5 -3 -19 -29 -8 -7 -13 -25 -13 -25 
-3 -7 -21 -33 -2 -1 -22 -31 -5 -5 -19 -27 -7 -11 -15 -21 
-11 -24 -6 -9 -20 -32 -1 -1 -24 -31 -2 -4 -23 -28 -3 -7 
-22 -26 -5 -10 -20 -22 -6 -14 -19 -18 -7 -19 -17 -13 -10 -26 
0 26 0 32 0 32 0 21 3619 746 61 MP
PP
0 sg
0 0 4 11 23 26 3 7 23 28 2 4 24 30 1 2 
26 32 0 0 13 33 13 16 9 16 17 24 6 8 21 29 
3 3 23 32 1 1 16 32 9 18 10 14 17 27 6 5 
20 0 26 0 27 0 5 0 -5 -3 -19 -29 -8 -7 -13 -25 
-13 -25 -3 -7 -21 -33 -2 -1 -22 -31 -5 -5 -19 -27 -7 -11 
-15 -21 -11 -24 -6 -9 -20 -32 -1 -1 -24 -31 -2 -4 -23 -28 
-3 -7 -22 -26 -5 -10 -20 -22 -6 -14 -19 -18 -7 -19 -17 -13 
-10 -26 0 26 0 32 0 32 0 21 3619 746 62 MP stroke
c8
0 -28 0 -32 0 -14 -1 14 -25 16 -3 16 -23 12 -6 20 
-20 7 -27 25 0 0 -26 30 0 3 -26 27 -1 5 -26 26 
-1 6 -25 24 -2 8 -24 22 -4 11 -23 19 -6 13 -20 16 
-11 16 -15 11 -21 21 -6 4 -26 28 0 1 -26 32 -1 0 
-26 32 0 0 -26 32 0 0 0 0 26 0 27 0 20 0 
6 -8 21 -24 5 -8 23 -24 4 -8 23 -24 3 -7 24 -26 
2 -5 25 -27 2 -4 25 -28 1 -3 26 -29 0 -2 27 -28 
8 -3 18 -19 21 -13 5 -15 24 -17 3 -12 25 -20 1 -9 
25 -24 1 -6 26 -26 0 -4 1013 771 69 MP
PP
0 sg
0 0 0 -28 0 -32 0 -14 -1 14 -25 16 -3 16 -23 12 
-6 20 -20 7 -27 25 0 0 -26 30 0 3 -26 27 -1 5 
-26 26 -1 6 -25 24 -2 8 -24 22 -4 11 -23 19 -6 13 
-20 16 -11 16 -15 11 -21 21 -6 4 -26 28 0 1 -26 32 
-1 0 -26 32 0 0 -26 32 0 0 0 0 26 0 27 0 
20 0 6 -8 21 -24 5 -8 23 -24 4 -8 23 -24 3 -7 
24 -26 2 -5 25 -27 2 -4 25 -28 1 -3 26 -29 0 -2 
27 -28 8 -3 18 -19 21 -13 5 -15 24 -17 3 -12 25 -20 
1 -9 25 -24 1 -6 26 -26 0 -4 1013 771 70 MP stroke
/c15 { 1.000000 0.375000 0.000000 sr} bdef
c15
4 19 13 33 9 15 14 17 12 11 27 14 26 1 26 -14 
11 -12 14 -32 2 -10 2 -23 -2 -32 0 0 -9 -32 -14 -33 
-4 -5 -21 -27 -5 -5 -26 -16 -27 -2 -26 13 -8 10 -16 32 
-2 12 -4 21 1 32 3 13 3039 1367 29 MP
PP
0 sg
0 0 4 19 13 33 9 15 14 17 12 11 27 14 26 1 
26 -14 11 -12 14 -32 2 -10 2 -23 -2 -32 0 0 -9 -32 
-14 -33 -4 -5 -21 -27 -5 -5 -26 -16 -27 -2 -26 13 -8 10 
-16 32 -2 12 -4 21 1 32 3 13 3039 1367 30 MP stroke
c8
0 -20 0 -32 0 -23 -26 23 0 0 -26 29 0 3 -26 27 
-1 5 -26 25 -1 8 -25 22 -3 10 -23 19 -7 13 -20 14 
-21 18 -5 3 -26 29 -1 1 -26 30 -1 2 -25 30 -1 2 
-25 29 -2 3 2 0 26 0 26 0 0 0 27 -16 18 -16 
8 -12 22 -20 4 -9 24 -23 3 -8 24 -25 2 -5 26 -27 
0 -3 26 -29 1 -1 26 -23 19 -8 7 -17 24 -16 2 -12 
1013 618 49 MP
PP
0 sg
0 0 0 -20 0 -32 0 -23 -26 23 0 0 -26 29 0 3 
-26 27 -1 5 -26 25 -1 8 -25 22 -3 10 -23 19 -7 13 
-20 14 -21 18 -5 3 -26 29 -1 1 -26 30 -1 2 -25 30 
-1 2 -25 29 -2 3 2 0 26 0 26 0 0 0 27 -16 
18 -16 8 -12 22 -20 4 -9 24 -23 3 -8 24 -25 2 -5 
26 -27 0 -3 26 -29 1 -1 26 -23 19 -8 7 -17 24 -16 
2 -12 1013 618 50 MP stroke
c8
1 2 19 32 7 8 10 24 16 21 7 12 19 26 4 6 
23 30 2 2 24 32 1 0 25 0 27 0 11 0 -11 -16 
-9 -16 -16 -32 -2 -1 -23 -31 -3 -4 -21 -29 -5 -8 -18 -24 
-9 -16 -13 -16 -13 -32 0 0 -25 -33 -1 -2 -25 -30 -2 -5 
0 5 0 32 0 33 0 30 3619 543 37 MP
PP
0 sg
0 0 1 2 19 32 7 8 10 24 16 21 7 12 19 26 
4 6 23 30 2 2 24 32 1 0 25 0 27 0 11 0 
-11 -16 -9 -16 -16 -32 -2 -1 -23 -31 -3 -4 -21 -29 -5 -8 
-18 -24 -9 -16 -13 -16 -13 -32 0 0 -25 -33 -1 -2 -25 -30 
-2 -5 0 5 0 32 0 33 0 30 3619 543 38 MP stroke
/c16 { 0.937500 0.000000 0.000000 sr} bdef
c16
14 24 12 14 27 16 26 -2 26 -27 1 -1 7 -33 -2 -32 
-6 -21 -4 -11 -19 -33 -3 -4 -26 -18 -27 -1 -26 22 -1 1 
-9 33 0 32 6 32 4 9 3013 1339 21 MP
PP
0 sg
0 0 14 24 12 14 27 16 26 -2 26 -27 1 -1 7 -33 
-2 -32 -6 -21 -4 -11 -19 -33 -3 -4 -26 -18 -27 -1 -26 22 
-1 1 -9 33 0 32 6 32 4 9 3013 1339 22 MP stroke
c8
0 -29 0 -32 0 -7 -1 7 -25 23 -2 9 -24 19 -6 13 
-20 12 -27 20 0 1 -26 30 -1 2 -25 28 -2 4 -25 27 
-3 5 3 0 27 0 26 0 0 -1 26 -17 19 -14 8 -12 
23 -20 3 -9 25 -23 1 -6 26 -27 0 -3 1013 480 31 MP
PP
0 sg
0 0 0 -29 0 -32 0 -7 -1 7 -25 23 -2 9 -24 19 
-6 13 -20 12 -27 20 0 1 -26 30 -1 2 -25 28 -2 4 
-25 27 -3 5 3 0 27 0 26 0 0 -1 26 -17 19 -14 
8 -12 23 -20 3 -9 25 -23 1 -6 26 -27 0 -3 1013 480 32 MP stroke
/c17 { 0.500000 0.000000 0.000000 sr} bdef
c17
27 20 26 -14 6 -14 0 -32 -6 -18 -9 -14 -17 -16 -27 4 
-7 12 -5 32 8 32 4 8 2987 1340 13 MP
PP
0 sg
0 0 27 20 26 -14 6 -14 0 -32 -6 -18 -9 -14 -17 -16 
-27 4 -7 12 -5 32 8 32 4 8 2987 1340 14 MP stroke
c8
27 0 26 0 5 0 -5 -5 -20 -27 -6 -11 -16 -21 -10 -32 
-1 0 0 0 0 32 0 32 0 32 0 0 3619 348 15 MP
PP
0 sg
0 0 27 0 26 0 5 0 -5 -5 -20 -27 -6 -11 -16 -21 
-10 -32 -1 0 0 0 0 32 0 32 0 32 0 0 3619 348 16 MP stroke
c8
0 -32 0 -32 0 -1 0 1 -26 29 -1 3 -25 26 -3 6 
3 0 26 0 26 0 0 0 1013 348 13 MP
PP
0 sg
0 0 0 -32 0 -32 0 -1 0 1 -26 29 -1 3 -25 26 
-3 6 3 0 26 0 26 0 0 0 1013 348 14 MP stroke
gr

0 sg
4 w
DO
SO
6 w
1013 1929 mt 3619 1929 L
1013  348 mt 3619  348 L
1013 1929 mt 1013  348 L
3619 1929 mt 3619  348 L
1013 1929 mt 3619 1929 L
1013 1929 mt 1013  348 L
1438 1929 mt 1438 1902 L
1438  348 mt 1438  374 L
%%IncludeResource: font Helvetica
/Helvetica /ISOLatin1Encoding 120 FMSR

1335 2074 mt 
(-2) s
1877 1929 mt 1877 1902 L
1877  348 mt 1877  374 L
1774 2074 mt 
(-1) s
2316 1929 mt 2316 1902 L
2316  348 mt 2316  374 L
2283 2074 mt 
(0) s
2754 1929 mt 2754 1902 L
2754  348 mt 2754  374 L
2721 2074 mt 
(1) s
3193 1929 mt 3193 1902 L
3193  348 mt 3193  374 L
3160 2074 mt 
(2) s
1013 1653 mt 1039 1653 L
3619 1653 mt 3592 1653 L
 812 1697 mt 
(0.5) s
1013 1361 mt 1039 1361 L
3619 1361 mt 3592 1361 L
 912 1405 mt 
(1) s
1013 1070 mt 1039 1070 L
3619 1070 mt 3592 1070 L
 812 1114 mt 
(1.5) s
1013  778 mt 1039  778 L
3619  778 mt 3592  778 L
 912  822 mt 
(2) s
1013  486 mt 1039  486 L
3619  486 mt 3592  486 L
 812  530 mt 
(2.5) s
1013 1929 mt 3619 1929 L
1013  348 mt 3619  348 L
1013 1929 mt 1013  348 L
3619 1929 mt 3619  348 L
1 sg
0 1581 2607 0 0 -1581 4442 1929 4 MP
PP
-2607 0 0 1581 2607 0 0 -1581 4442 1929 5 MP stroke
gs 4442 348 2608 1582 rc
c8
27 0 26 0 26 0 27 0 26 0 26 0 27 0 26 0 
26 0 27 0 26 0 26 0 27 0 26 0 26 0 27 0 
26 0 26 0 27 0 26 0 26 0 27 0 26 0 26 0 
27 0 26 0 26 0 27 0 26 0 26 0 27 0 26 0 
26 0 27 0 26 0 26 0 27 0 26 0 26 0 27 0 
26 0 26 0 27 0 26 0 26 0 27 0 26 0 26 0 
27 0 26 0 26 0 27 0 26 0 26 0 27 0 26 0 
26 0 27 0 26 0 26 0 27 0 26 0 26 0 27 0 
26 0 26 0 27 0 26 0 26 0 27 0 26 0 26 0 
27 0 26 0 26 0 27 0 26 0 26 0 27 0 26 0 
26 0 27 0 26 0 26 0 27 0 26 0 26 0 27 0 
26 0 26 0 27 0 26 0 26 0 27 0 26 0 26 0 
27 0 26 0 26 0 4442 348 100 MP
-27 0 -26 0 -26 0 -27 0 -26 0 -26 0 -27 0 -26 0 
-26 0 -27 0 -26 0 -26 0 -27 0 -26 0 -26 0 -27 0 
-26 0 -26 0 -27 0 -26 0 -26 0 -27 0 -26 0 -26 0 
-27 0 -26 0 -26 0 -27 0 -26 0 -26 0 -27 0 -26 0 
-26 0 -27 0 -26 0 -26 0 -27 0 -26 0 -26 0 -27 0 
-26 0 -26 0 -27 0 -26 0 -26 0 -27 0 -26 0 -26 0 
-27 0 0 0 0 33 0 32 0 32 0 33 0 32 0 32 
0 32 0 33 0 32 0 32 0 32 0 33 0 32 0 32 
0 32 0 33 0 32 0 32 0 33 0 32 0 32 0 32 
0 33 0 32 0 32 0 32 0 33 0 32 0 32 0 32 
0 33 0 32 0 32 0 33 0 32 0 32 0 32 0 33 
0 32 0 32 0 32 0 33 0 32 0 32 0 32 0 33 
0 32 0 32 0 32 0 0 100 AP
0 -32 0 -32 0 -32 0 -33 0 -32 0 -32 0 -32 0 -33 
0 -32 0 -32 0 -32 0 -33 0 -32 0 -32 0 -32 0 -33 
0 -32 0 -32 0 -33 0 -32 0 -32 0 -32 0 -33 0 -32 
0 -32 0 -32 0 -33 0 -32 0 -32 0 -32 0 -33 0 -32 
0 -32 0 -33 0 -32 0 -32 0 -32 0 -33 0 -32 0 -32 
0 -32 0 -33 0 -32 0 -32 0 -32 0 -33 0 -32 0 -32 
0 -33 0 0 -26 0 -26 0 -27 0 -26 0 -26 0 -27 0 
-26 0 -26 0 -27 0 -26 0 -26 0 -27 0 -26 0 -26 0 
-27 0 -26 0 -26 0 -27 0 -26 0 -26 0 -27 0 -26 0 
-26 0 -27 0 -26 0 -26 0 -27 0 -26 0 -26 0 -27 0 
-26 0 -26 0 -27 0 -26 0 -26 0 -27 0 -26 0 -26 0 
-27 0 -26 0 -26 0 -27 0 -26 0 -26 0 -27 0 -26 0 
-26 0 -27 0 -26 0 -26 0 100 AP
0 0 1 AP
PP
0 sg
0 0 0 0 0 -32 0 -32 0 -32 0 -33 0 -32 0 -32 
0 -32 0 -33 0 -32 0 -32 0 -32 0 -33 0 -32 0 -32 
0 -32 0 -33 0 -32 0 -32 0 -33 0 -32 0 -32 0 -32 
0 -33 0 -32 0 -32 0 -32 0 -33 0 -32 0 -32 0 -32 
0 -33 0 -32 0 -32 0 -33 0 -32 0 -32 0 -32 0 -33 
0 -32 0 -32 0 -32 0 -33 0 -32 0 -32 0 -32 0 -33 
0 -32 0 -32 0 -33 0 0 -26 0 -26 0 -27 0 -26 0 
-26 0 -27 0 -26 0 -26 0 -27 0 -26 0 -26 0 -27 0 
-26 0 -26 0 -27 0 -26 0 -26 0 -27 0 -26 0 -26 0 
-27 0 -26 0 -26 0 -27 0 -26 0 -26 0 -27 0 -26 0 
-26 0 -27 0 -26 0 -26 0 -27 0 -26 0 -26 0 -27 0 
-26 0 -26 0 -27 0 -26 0 -26 0 -27 0 -26 0 -26 0 
-27 0 -26 0 -26 0 -27 0 -26 0 -26 0 -27 0 -26 0 
-26 0 -27 0 -26 0 -26 0 -27 0 -26 0 -26 0 -27 0 
-26 0 -26 0 -27 0 -26 0 -26 0 -27 0 -26 0 -26 0 
-27 0 -26 0 -26 0 -27 0 -26 0 -26 0 -27 0 -26 0 
-26 0 -27 0 -26 0 -26 0 -27 0 -26 0 -26 0 -27 0 
-26 0 -26 0 -27 0 -26 0 -26 0 -27 0 -26 0 -26 0 
-27 0 -26 0 -26 0 -27 0 -26 0 -26 0 -27 0 0 0 
0 33 0 32 0 32 0 33 0 32 0 32 0 32 0 33 
0 32 0 32 0 32 0 33 0 32 0 32 0 32 0 33 
0 32 0 32 0 33 0 32 0 32 0 32 0 33 0 32 
0 32 0 32 0 33 0 32 0 32 0 32 0 33 0 32 
0 32 0 33 0 32 0 32 0 32 0 33 0 32 0 32 
0 32 0 33 0 32 0 32 0 32 0 33 0 32 0 32 
0 32 0 0 27 0 26 0 26 0 27 0 26 0 26 0 
27 0 26 0 26 0 27 0 26 0 26 0 27 0 26 0 
26 0 27 0 26 0 26 0 27 0 26 0 26 0 27 0 
26 0 26 0 27 0 26 0 26 0 27 0 26 0 26 0 
27 0 26 0 26 0 27 0 26 0 26 0 27 0 26 0 
26 0 27 0 26 0 26 0 27 0 26 0 26 0 27 0 
26 0 26 0 27 0 26 0 26 0 27 0 26 0 26 0 
27 0 26 0 26 0 27 0 26 0 26 0 27 0 26 0 
26 0 27 0 26 0 26 0 27 0 26 0 26 0 27 0 
26 0 26 0 27 0 26 0 26 0 27 0 26 0 26 0 
27 0 26 0 26 0 27 0 26 0 26 0 27 0 26 0 
26 0 27 0 26 0 26 0 27 0 26 0 26 0 27 0 
26 0 26 0 27 0 4494 348 300 MP stroke
26 0 26 0 4442 348 3 MP stroke
c8
26 0 26 0 27 0 26 0 26 0 27 0 26 0 26 0 
27 0 26 0 26 0 27 0 26 0 26 0 27 0 26 0 
26 0 27 0 19 0 7 -7 20 -25 6 -18 7 -14 17 -32 
3 -5 18 -28 8 -16 10 -16 16 -32 0 -2 23 -30 4 -7 
18 -26 8 -16 12 -16 14 -32 0 -1 24 -31 3 -6 20 -27 
6 -13 16 -19 10 -28 5 -4 20 -32 2 -5 21 -28 5 -14 
16 -18 10 -31 2 -1 22 -33 3 -7 20 -25 6 -22 11 -10 
14 -32 1 -5 22 -28 5 -19 14 -13 11 -32 1 -5 22 -27 
4 -20 15 -13 11 -32 1 -5 22 -27 4 -22 14 -10 11 -33 
1 -7 23 -25 4 -23 13 -9 12 -33 1 -6 23 -26 3 -21 
18 -11 8 -32 1 -3 24 -30 2 -13 23 -19 3 -23 19 -9 
8 -31 7 -1 19 -33 0 -2 26 -30 0 -4 27 -28 0 -3 
26 -27 17 -2 9 -21 4442 1820 100 MP
-26 0 -26 0 -27 0 0 0 0 33 0 32 0 32 0 33 
0 32 0 32 0 32 0 33 0 32 0 32 0 12 4 20 
23 31 0 2 9 32 17 17 3 15 21 32 2 2 8 31 
19 22 2 10 15 32 9 9 6 24 20 26 2 6 13 32 
12 14 5 18 21 29 1 4 14 32 11 14 7 18 20 28 
2 4 16 33 8 9 10 23 16 22 5 10 22 30 1 2 
19 33 6 8 14 24 12 17 10 15 17 23 6 10 20 26 
4 6 22 29 3 3 24 31 1 1 25 32 1 1 25 31 
1 1 26 32 1 0 25 31 2 1 24 30 4 3 23 28 
5 4 21 27 8 5 18 24 13 8 14 21 18 12 8 14 
26 18 0 2 27 28 5 2 21 26 14 6 12 0 27 0 
26 0 26 0 27 0 26 0 26 0 27 0 26 0 26 0 
27 0 26 0 26 0 27 0 100 AP
0 -32 0 -32 0 -33 0 0 -26 0 -26 0 -27 0 -26 0 
-26 0 -27 0 -26 0 -26 0 -27 0 -26 0 -26 0 -27 0 
-26 0 -26 0 -27 0 -26 0 -26 0 -27 0 -26 0 -26 0 
-27 0 -26 0 -26 0 -27 0 -26 0 -26 0 -27 0 -26 0 
-26 0 -27 0 -26 0 -26 0 -27 0 -26 0 -26 0 -27 0 
-26 0 -26 0 -27 0 -26 0 -26 0 -27 0 -26 0 -26 0 
-27 0 -26 0 -26 0 -27 0 -26 0 -26 0 -27 0 -26 0 
-26 0 -27 0 -26 0 -26 0 -27 0 -26 0 -26 0 -27 0 
-26 0 -26 0 -27 0 -26 0 -26 0 -27 0 -26 0 -26 0 
-27 0 -26 0 -26 0 -27 0 -26 0 -26 0 -27 0 -26 0 
-26 0 -27 0 -26 0 -26 0 -27 0 -26 0 -26 0 -27 0 
-26 0 -26 0 -27 0 -26 0 -26 0 -27 0 -26 0 -26 0 
-27 0 -26 0 -26 0 -27 0 100 AP
0 -12 1 AP
PP
0 sg
0 0 0 -12 0 -32 0 -32 0 -33 0 0 -26 0 -26 0 
-27 0 -26 0 -26 0 -27 0 -26 0 -26 0 -27 0 -26 0 
-26 0 -27 0 -26 0 -26 0 -27 0 -26 0 -26 0 -27 0 
-26 0 -26 0 -27 0 -26 0 -26 0 -27 0 -26 0 -26 0 
-27 0 -26 0 -26 0 -27 0 -26 0 -26 0 -27 0 -26 0 
-26 0 -27 0 -26 0 -26 0 -27 0 -26 0 -26 0 -27 0 
-26 0 -26 0 -27 0 -26 0 -26 0 -27 0 -26 0 -26 0 
-27 0 -26 0 -26 0 -27 0 -26 0 -26 0 -27 0 -26 0 
-26 0 -27 0 -26 0 -26 0 -27 0 -26 0 -26 0 -27 0 
-26 0 -26 0 -27 0 -26 0 -26 0 -27 0 -26 0 -26 0 
-27 0 -26 0 -26 0 -27 0 -26 0 -26 0 -27 0 -26 0 
-26 0 -27 0 -26 0 -26 0 -27 0 -26 0 -26 0 -27 0 
-26 0 -26 0 -27 0 -26 0 -26 0 -27 0 -26 0 -26 0 
-27 0 0 0 0 33 0 32 0 32 0 33 0 32 0 32 
0 32 0 33 0 32 0 32 0 12 4 20 23 31 0 2 
9 32 17 17 3 15 21 32 2 2 8 31 19 22 2 10 
15 32 9 9 6 24 20 26 2 6 13 32 12 14 5 18 
21 29 1 4 14 32 11 14 7 18 20 28 2 4 16 33 
8 9 10 23 16 22 5 10 22 30 1 2 19 33 6 8 
14 24 12 17 10 15 17 23 6 10 20 26 4 6 22 29 
3 3 24 31 1 1 25 32 1 1 25 31 1 1 26 32 
1 0 25 31 2 1 24 30 4 3 23 28 5 4 21 27 
8 5 18 24 13 8 14 21 18 12 8 14 26 18 0 2 
27 28 5 2 21 26 14 6 12 0 27 0 26 0 26 0 
27 0 26 0 26 0 27 0 26 0 26 0 27 0 26 0 
26 0 27 0 26 0 26 0 27 0 26 0 26 0 27 0 
26 0 26 0 27 0 26 0 26 0 27 0 26 0 26 0 
27 0 26 0 26 0 27 0 19 0 7 -7 20 -25 6 -18 
7 -14 17 -32 3 -5 18 -28 8 -16 10 -16 16 -32 0 -2 
23 -30 4 -7 18 -26 8 -16 12 -16 14 -32 0 -1 24 -31 
3 -6 20 -27 6 -13 16 -19 10 -28 5 -4 20 -32 2 -5 
21 -28 5 -14 16 -18 10 -31 2 -1 22 -33 3 -7 20 -25 
6 -22 11 -10 14 -32 1 -5 22 -28 5 -19 14 -13 11 -32 
1 -5 22 -27 4 -20 15 -13 11 -32 1 -5 22 -27 4 -22 
14 -10 11 -33 1 -7 23 -25 4 -23 13 -9 12 -33 1 -6 
23 -26 3 -21 18 -11 8 -32 1 -3 24 -30 2 -13 23 -19 
3 -23 19 -9 8 -31 7 -1 19 -33 0 -2 26 -30 0 -4 
27 -28 0 -3 26 -27 4468 1797 300 MP stroke
17 -2 9 -21 4442 1820 3 MP stroke
/c18 { 0.000000 0.125000 1.000000 sr} bdef
c18
27 1 26 -1 26 -3 27 -6 26 -9 26 -12 1 -1 26 -14 
25 -18 1 -1 26 -22 10 -9 17 -18 12 -14 14 -19 10 -14 
16 -25 5 -7 18 -32 4 -9 12 -23 13 -33 1 -2 12 -30 
11 -32 3 -12 7 -20 9 -33 8 -32 3 -12 5 -20 7 -33 
6 -32 5 -32 3 -21 2 -11 5 -33 4 -32 4 -32 3 -32 
3 -33 2 -32 2 -32 1 -26 1 -6 1 -33 1 -32 1 -32 
1 -33 -5 0 -26 0 -26 0 -27 0 -26 0 -26 0 -27 0 
-26 0 -26 0 -27 0 -26 0 -26 0 -27 0 -26 0 -26 0 
-27 0 -26 0 -26 0 -27 0 -26 0 -26 0 -27 0 -26 0 
-26 0 -27 0 -26 0 -26 0 -27 0 -26 0 -26 0 -27 0 
-26 0 -26 0 -27 0 -26 0 -26 0 -13 0 0 33 0 32 
-1 32 0 33 0 32 0 32 1 32 1 33 1 32 2 32 
3 32 4 33 2 13 6627 1528 100 MP
2 19 5 32 6 32 8 33 5 19 3 13 9 32 12 33 
2 6 10 26 14 32 3 6 12 26 14 26 4 7 19 32 
3 5 19 27 8 10 17 22 9 11 20 22 6 6 27 24 
2 2 24 20 18 12 8 7 27 15 21 10 5 3 26 11 
27 8 26 6 26 3 35 AP
PP
0 sg
0 0 2 19 5 32 6 32 8 33 5 19 3 13 9 32 
12 33 2 6 10 26 14 32 3 6 12 26 14 26 4 7 
19 32 3 5 19 27 8 10 17 22 9 11 20 22 6 6 
27 24 2 2 24 20 18 12 8 7 27 15 21 10 5 3 
26 11 27 8 26 6 26 3 27 1 26 -1 26 -3 27 -6 
26 -9 26 -12 1 -1 26 -14 25 -18 1 -1 26 -22 10 -9 
17 -18 12 -14 14 -19 10 -14 16 -25 5 -7 18 -32 4 -9 
12 -23 13 -33 1 -2 12 -30 11 -32 3 -12 7 -20 9 -33 
8 -32 3 -12 5 -20 7 -33 6 -32 5 -32 3 -21 2 -11 
5 -33 4 -32 4 -32 3 -32 3 -33 2 -32 2 -32 1 -26 
1 -6 1 -33 1 -32 1 -32 1 -33 -5 0 -26 0 -26 0 
-27 0 -26 0 -26 0 -27 0 -26 0 -26 0 -27 0 -26 0 
-26 0 -27 0 -26 0 -26 0 -27 0 -26 0 -26 0 -27 0 
-26 0 -26 0 -27 0 -26 0 -26 0 -27 0 -26 0 -26 0 
-27 0 -26 0 -26 0 -27 0 -26 0 -26 0 -27 0 -26 0 
-26 0 -13 0 0 33 0 32 -1 32 0 33 0 32 0 32 
1 32 1 33 1 32 2 32 3 32 4 33 2 13 6627 1528 136 MP stroke
/c19 { 0.000000 0.687500 1.000000 sr} bdef
c19
1 1 25 31 1 2 27 28 2 2 24 22 13 10 13 10 
27 17 12 6 14 7 26 10 27 7 26 4 26 2 27 -2 
26 -5 26 -8 27 -12 5 -3 21 -13 25 -20 1 -1 27 -26 
4 -5 22 -27 4 -5 21 -32 1 -4 16 -29 11 -22 4 -10 
14 -32 8 -24 3 -8 10 -33 9 -32 4 -16 5 -16 7 -33 
7 -32 5 -32 3 -15 3 -17 5 -33 4 -32 4 -32 3 -32 
3 -33 2 -32 2 -26 1 -6 1 -32 2 -33 1 -32 1 -32 
0 -33 -6 0 -26 0 -27 0 -26 0 -26 0 -27 0 -26 0 
-26 0 -27 0 -26 0 -26 0 -27 0 -26 0 -26 0 -27 0 
-26 0 -26 0 -27 0 -26 0 -26 0 -27 0 -26 0 -26 0 
-27 0 -26 0 -26 0 -27 0 -26 0 -26 0 -27 0 -3 0 
-1 33 0 32 0 32 -1 33 0 32 -1 32 1 32 0 33 
1 32 2 32 2 28 6575 1578 100 MP
1 4 3 33 4 32 6 32 6 32 7 25 2 8 9 32 
10 32 5 13 8 20 14 32 4 9 12 23 15 26 4 6 
21 33 17 AP
PP
0 sg
0 0 1 4 3 33 4 32 6 32 6 32 7 25 2 8 
9 32 10 32 5 13 8 20 14 32 4 9 12 23 15 26 
4 6 21 33 1 1 25 31 1 2 27 28 2 2 24 22 
13 10 13 10 27 17 12 6 14 7 26 10 27 7 26 4 
26 2 27 -2 26 -5 26 -8 27 -12 5 -3 21 -13 25 -20 
1 -1 27 -26 4 -5 22 -27 4 -5 21 -32 1 -4 16 -29 
11 -22 4 -10 14 -32 8 -24 3 -8 10 -33 9 -32 4 -16 
5 -16 7 -33 7 -32 5 -32 3 -15 3 -17 5 -33 4 -32 
4 -32 3 -32 3 -33 2 -32 2 -26 1 -6 1 -32 2 -33 
1 -32 1 -32 0 -33 -6 0 -26 0 -27 0 -26 0 -26 0 
-27 0 -26 0 -26 0 -27 0 -26 0 -26 0 -27 0 -26 0 
-26 0 -27 0 -26 0 -26 0 -27 0 -26 0 -26 0 -27 0 
-26 0 -26 0 -27 0 -26 0 -26 0 -27 0 -26 0 -26 0 
-27 0 -3 0 -1 33 0 32 0 32 -1 33 0 32 -1 32 
1 32 0 33 1 32 2 32 2 28 6575 1578 118 MP stroke
/c20 { 0.250000 1.000000 0.750000 sr} bdef
c20
8 33 4 12 7 20 12 32 8 19 6 14 17 32 3 6 
16 26 10 15 14 17 13 16 16 17 10 10 26 22 1 0 
26 17 26 14 4 1 22 8 27 6 26 3 26 -2 27 -5 
26 -9 1 -1 25 -13 26 -19 1 -1 26 -26 5 -5 21 -28 
3 -5 20 -32 4 -8 12 -24 14 -32 0 -2 12 -31 10 -32 
4 -17 5 -15 8 -33 6 -32 6 -32 2 -8 4 -24 5 -33 
4 -32 4 -32 3 -32 3 -33 2 -32 1 -16 1 -16 2 -32 
1 -33 1 -32 1 -32 0 -33 -6 0 -26 0 -27 0 -26 0 
-26 0 -27 0 -26 0 -26 0 -27 0 -26 0 -26 0 -27 0 
-26 0 -26 0 -27 0 -26 0 -26 0 -27 0 -26 0 -26 0 
-27 0 -26 0 -26 0 -27 0 -26 0 -8 0 0 33 -1 32 
0 32 -1 33 -1 32 -1 32 0 32 0 33 1 32 2 32 
2 32 4 33 3 25 6522 1516 100 MP
1 7 6 32 7 32 3 AP
PP
0 sg
0 0 1 7 6 32 7 32 8 33 4 12 7 20 12 32 
8 19 6 14 17 32 3 6 16 26 10 15 14 17 13 16 
16 17 10 10 26 22 1 0 26 17 26 14 4 1 22 8 
27 6 26 3 26 -2 27 -5 26 -9 1 -1 25 -13 26 -19 
1 -1 26 -26 5 -5 21 -28 3 -5 20 -32 4 -8 12 -24 
14 -32 0 -2 12 -31 10 -32 4 -17 5 -15 8 -33 6 -32 
6 -32 2 -8 4 -24 5 -33 4 -32 4 -32 3 -32 3 -33 
2 -32 1 -16 1 -16 2 -32 1 -33 1 -32 1 -32 0 -33 
-6 0 -26 0 -27 0 -26 0 -26 0 -27 0 -26 0 -26 0 
-27 0 -26 0 -26 0 -27 0 -26 0 -26 0 -27 0 -26 0 
-26 0 -27 0 -26 0 -26 0 -27 0 -26 0 -26 0 -27 0 
-26 0 -8 0 0 33 -1 32 0 32 -1 33 -1 32 -1 32 
0 32 0 33 1 32 2 32 2 32 4 33 3 25 6522 1516 104 MP stroke
/c21 { 0.812500 1.000000 0.187500 sr} bdef
c21
4 18 10 33 12 32 0 2 14 30 12 25 5 8 21 32 
1 1 25 31 1 1 26 25 9 6 18 13 26 14 17 6 
9 3 27 4 26 0 26 -5 8 -2 19 -8 26 -16 11 -9 
15 -14 16 -18 11 -14 12 -18 14 -26 3 -6 15 -33 8 -23 
4 -9 10 -32 8 -33 5 -19 3 -13 6 -32 5 -32 5 -33 
4 -32 3 -28 1 -4 3 -32 2 -33 2 -32 2 -32 1 -32 
1 -33 1 -32 1 -32 0 -33 -14 0 -26 0 -27 0 -26 0 
-26 0 -27 0 -26 0 -26 0 -27 0 -26 0 -26 0 -27 0 
-26 0 -26 0 -27 0 -26 0 -26 0 -27 0 -26 0 -26 0 
-15 0 -1 33 0 32 -1 32 -2 33 -1 32 -1 32 -1 32 
0 33 1 32 1 32 2 32 4 33 4 32 6 32 4 14 
6469 1463 89 MP
PP
0 sg
0 0 4 18 10 33 12 32 0 2 14 30 12 25 5 8 
21 32 1 1 25 31 1 1 26 25 9 6 18 13 26 14 
17 6 9 3 27 4 26 0 26 -5 8 -2 19 -8 26 -16 
11 -9 15 -14 16 -18 11 -14 12 -18 14 -26 3 -6 15 -33 
8 -23 4 -9 10 -32 8 -33 5 -19 3 -13 6 -32 5 -32 
5 -33 4 -32 3 -28 1 -4 3 -32 2 -33 2 -32 2 -32 
1 -32 1 -33 1 -32 1 -32 0 -33 -14 0 -26 0 -27 0 
-26 0 -26 0 -27 0 -26 0 -26 0 -27 0 -26 0 -26 0 
-27 0 -26 0 -26 0 -27 0 -26 0 -26 0 -27 0 -26 0 
-26 0 -15 0 -1 33 0 32 -1 32 -2 33 -1 32 -1 32 
-1 32 0 33 1 32 1 32 2 32 4 33 4 32 6 32 
4 14 6469 1463 90 MP stroke
/c22 { 1.000000 0.625000 0.000000 sr} bdef
c22
3 28 5 32 7 32 9 32 2 7 10 26 14 32 3 5 
16 27 10 15 15 18 11 12 23 20 4 3 26 14 26 9 
27 2 26 -4 26 -10 21 -14 6 -5 26 -27 0 -1 21 -32 
5 -11 11 -21 12 -32 4 -11 6 -22 9 -32 6 -32 5 -28 
1 -4 5 -33 3 -32 3 -32 3 -32 2 -33 1 -32 1 -32 
1 -32 1 -33 0 -32 0 -32 1 -33 -22 0 -26 0 -27 0 
-26 0 -26 0 -27 0 -26 0 -26 0 -27 0 -26 0 -26 0 
-27 0 -26 0 -26 0 -27 0 -19 0 0 33 -2 32 -1 32 
-2 33 -2 32 0 1 -1 31 -2 32 0 33 0 32 1 32 
2 32 0 5 6443 1569 75 MP
PP
0 sg
0 0 3 28 5 32 7 32 9 32 2 7 10 26 14 32 
3 5 16 27 10 15 15 18 11 12 23 20 4 3 26 14 
26 9 27 2 26 -4 26 -10 21 -14 6 -5 26 -27 0 -1 
21 -32 5 -11 11 -21 12 -32 4 -11 6 -22 9 -32 6 -32 
5 -28 1 -4 5 -33 3 -32 3 -32 3 -32 2 -33 1 -32 
1 -32 1 -32 1 -33 0 -32 0 -32 1 -33 -22 0 -26 0 
-27 0 -26 0 -26 0 -27 0 -26 0 -26 0 -27 0 -26 0 
-26 0 -27 0 -26 0 -26 0 -27 0 -19 0 0 33 -2 32 
-1 32 -2 33 -2 32 0 1 -1 31 -2 32 0 33 0 32 
1 32 2 32 0 5 6443 1569 76 MP stroke
/c23 { 1.000000 0.062500 0.000000 sr} bdef
c23
2 18 7 32 8 32 9 25 4 7 17 33 5 8 21 24 
6 6 26 18 26 8 27 -2 26 -11 22 -19 4 -5 19 -27 
8 -15 7 -18 12 -32 7 -28 1 -4 6 -32 5 -33 3 -32 
3 -32 1 -32 1 -33 0 -32 0 -32 0 -32 -1 -33 0 -32 
0 -32 -1 -33 -18 0 -26 0 -27 0 -26 0 -26 0 -27 0 
-26 0 -26 0 -27 0 -26 0 -11 0 -1 33 -2 32 -2 32 
-3 33 -3 32 -4 32 0 7 -2 25 -2 33 0 32 0 32 
2 32 2 15 6390 1559 59 MP
PP
0 sg
0 0 2 18 7 32 8 32 9 25 4 7 17 33 5 8 
21 24 6 6 26 18 26 8 27 -2 26 -11 22 -19 4 -5 
19 -27 8 -15 7 -18 12 -32 7 -28 1 -4 6 -32 5 -33 
3 -32 3 -32 1 -32 1 -33 0 -32 0 -32 0 -32 -1 -33 
0 -32 0 -32 -1 -33 -18 0 -26 0 -27 0 -26 0 -26 0 
-27 0 -26 0 -26 0 -27 0 -26 0 -11 0 -1 33 -2 32 
-2 32 -3 33 -3 32 -4 32 0 7 -2 25 -2 33 0 32 
0 32 2 32 2 15 6390 1559 60 MP stroke
c8
-1 1 -12 32 -14 14 -6 19 -20 24 -3 8 -23 30 -1 2 
-17 32 -9 9 -10 24 -16 19 -6 13 -20 25 -4 7 -23 30 
-1 2 -25 33 0 0 -17 32 -9 13 -11 19 -16 21 -7 11 
-19 26 -5 7 -21 29 -3 3 -19 32 -5 11 -6 21 6 0 
27 0 26 0 17 0 9 -8 19 -24 8 -8 18 -24 8 -10 
17 -22 9 -14 14 -19 13 -18 10 -14 16 -27 4 -5 22 -32 
0 -2 25 -31 2 -4 22 -28 4 -8 20 -24 6 -14 16 -18 
11 -25 8 -8 17 -32 1 -2 23 -30 3 -9 20 -23 7 -20 
13 -13 13 -32 0 -2 23 -30 3 -12 19 -21 8 -28 6 -4 
18 -32 2 -9 21 -23 5 -26 10 -7 15 -32 2 -9 21 -23 
5 -28 8 -4 17 -33 1 -12 21 -20 6 -32 0 0 24 -32 
2 -18 19 -15 7 -32 0 -4 24 -28 3 -23 17 -10 8 -32 
1 -9 23 -23 3 -30 4442 1539 100 MP
0 -2 0 -33 0 -32 0 -32 0 -32 0 -33 0 -7 0 7 
-7 33 -19 8 -3 24 -23 21 -1 11 -14 32 -12 4 -4 29 
-22 18 -1 14 -19 32 -6 2 -5 30 -22 20 -1 13 -16 32 
-9 4 -5 28 -21 23 -2 10 -12 32 -13 8 -4 24 -22 25 
-1 7 -11 33 -14 11 -5 21 -22 27 -1 5 -12 32 -13 12 
-5 21 -21 26 -2 6 -15 32 -10 8 -7 24 -19 23 -3 10 
-23 31 49 AP
PP
0 sg
0 0 0 -2 0 -33 0 -32 0 -32 0 -32 0 -33 0 -7 
0 7 -7 33 -19 8 -3 24 -23 21 -1 11 -14 32 -12 4 
-4 29 -22 18 -1 14 -19 32 -6 2 -5 30 -22 20 -1 13 
-16 32 -9 4 -5 28 -21 23 -2 10 -12 32 -13 8 -4 24 
-22 25 -1 7 -11 33 -14 11 -5 21 -22 27 -1 5 -12 32 
-13 12 -5 21 -21 26 -2 6 -15 32 -10 8 -7 24 -19 23 
-3 10 -23 31 -1 1 -12 32 -14 14 -6 19 -20 24 -3 8 
-23 30 -1 2 -17 32 -9 9 -10 24 -16 19 -6 13 -20 25 
-4 7 -23 30 -1 2 -25 33 0 0 -17 32 -9 13 -11 19 
-16 21 -7 11 -19 26 -5 7 -21 29 -3 3 -19 32 -5 11 
-6 21 6 0 27 0 26 0 17 0 9 -8 19 -24 8 -8 
18 -24 8 -10 17 -22 9 -14 14 -19 13 -18 10 -14 16 -27 
4 -5 22 -32 0 -2 25 -31 2 -4 22 -28 4 -8 20 -24 
6 -14 16 -18 11 -25 8 -8 17 -32 1 -2 23 -30 3 -9 
20 -23 7 -20 13 -13 13 -32 0 -2 23 -30 3 -12 19 -21 
8 -28 6 -4 18 -32 2 -9 21 -23 5 -26 10 -7 15 -32 
2 -9 21 -23 5 -28 8 -4 17 -33 1 -12 21 -20 6 -32 
0 0 24 -32 2 -18 19 -15 7 -32 0 -4 24 -28 3 -23 
17 -10 8 -32 1 -9 23 -23 3 -30 4442 1539 150 MP stroke
c8
19 25 3 7 22 32 1 1 16 31 10 14 11 19 16 21 
6 11 20 26 4 6 22 30 3 2 24 32 1 1 25 32 
0 0 25 32 1 3 25 29 2 3 26 30 0 0 26 31 
2 1 25 29 4 3 22 26 10 6 16 0 27 0 26 0 
26 0 27 0 26 0 -26 -16 -11 -16 -16 -9 -16 -23 -10 -6 
-21 -26 -5 -4 -23 -29 -4 -2 -25 -30 -1 -1 -26 -31 0 0 
-27 -32 0 0 -26 -33 0 0 -25 -32 -1 -1 -25 -31 -2 -2 
-22 -30 -4 -5 -21 -28 -5 -8 -18 -24 -9 -14 -13 -18 -13 -24 
-6 -8 -19 -33 -1 -3 -21 -29 -6 -11 -15 -21 -11 -25 -6 -8 
-18 -32 -2 -7 -19 -25 -8 -22 -8 -10 -16 -33 -2 -7 -18 -25 
-8 -27 -5 -5 -18 -32 -4 -14 -15 -19 -10 -32 -1 -5 -20 -27 
-6 -28 -5 -4 -17 -33 -5 -23 0 23 0 33 0 32 0 32 
0 32 0 33 0 29 7049 1157 100 MP
1 3 8 32 18 24 2 8 12 33 12 13 5 19 21 30 
1 2 11 32 15 18 5 15 21 30 1 2 14 32 11 15 
8 18 17 AP
PP
0 sg
0 0 1 3 8 32 18 24 2 8 12 33 12 13 5 19 
21 30 1 2 11 32 15 18 5 15 21 30 1 2 14 32 
11 15 8 18 19 25 3 7 22 32 1 1 16 31 10 14 
11 19 16 21 6 11 20 26 4 6 22 30 3 2 24 32 
1 1 25 32 0 0 25 32 1 3 25 29 2 3 26 30 
0 0 26 31 2 1 25 29 4 3 22 26 10 6 16 0 
27 0 26 0 26 0 27 0 26 0 -26 -16 -11 -16 -16 -9 
-16 -23 -10 -6 -21 -26 -5 -4 -23 -29 -4 -2 -25 -30 -1 -1 
-26 -31 0 0 -27 -32 0 0 -26 -33 0 0 -25 -32 -1 -1 
-25 -31 -2 -2 -22 -30 -4 -5 -21 -28 -5 -8 -18 -24 -9 -14 
-13 -18 -13 -24 -6 -8 -19 -33 -1 -3 -21 -29 -6 -11 -15 -21 
-11 -25 -6 -8 -18 -32 -2 -7 -19 -25 -8 -22 -8 -10 -16 -33 
-2 -7 -18 -25 -8 -27 -5 -5 -18 -32 -4 -14 -15 -19 -10 -32 
-1 -5 -20 -27 -6 -28 -5 -4 -17 -33 -5 -23 0 23 0 33 
0 32 0 32 0 32 0 33 0 29 7049 1157 118 MP stroke
c8
-18 13 -2 20 -24 29 0 3 -7 32 -19 17 -3 15 -24 32 
0 1 -8 32 -18 17 -3 15 -23 30 -1 2 -10 33 -16 14 
-4 18 -22 26 -2 6 -19 33 -5 3 -10 29 -17 17 -5 15 
-21 26 -2 6 -24 31 -1 2 -16 32 -10 9 -10 23 -16 18 
-7 14 -19 23 -5 10 -22 26 -3 6 -23 29 -2 3 -24 31 
-1 1 -26 33 0 0 -21 32 -5 7 -19 25 -7 10 -24 22 
24 0 26 0 26 0 19 0 8 -7 20 -25 6 -7 20 -25 
6 -9 19 -23 8 -12 17 -21 9 -15 15 -17 11 -20 11 -12 
16 -29 4 -3 21 -33 1 -2 24 -30 2 -6 22 -26 5 -12 
18 -20 8 -22 12 -11 14 -32 0 -2 24 -30 3 -10 20 -22 
6 -23 12 -10 13 -32 1 -5 23 -27 4 -18 17 -15 9 -32 
0 -2 24 -30 2 -17 19 -15 7 -33 1 -3 23 -29 3 -20 
17 -12 8 -32 1 -10 4442 1196 100 MP
0 -23 0 -32 0 -32 0 -32 0 -33 0 -16 -1 16 -12 33 
-13 6 -3 26 -23 25 -1 7 -8 32 13 AP
PP
0 sg
0 0 0 -23 0 -32 0 -32 0 -32 0 -33 0 -16 -1 16 
-12 33 -13 6 -3 26 -23 25 -1 7 -8 32 -18 13 -2 20 
-24 29 0 3 -7 32 -19 17 -3 15 -24 32 0 1 -8 32 
-18 17 -3 15 -23 30 -1 2 -10 33 -16 14 -4 18 -22 26 
-2 6 -19 33 -5 3 -10 29 -17 17 -5 15 -21 26 -2 6 
-24 31 -1 2 -16 32 -10 9 -10 23 -16 18 -7 14 -19 23 
-5 10 -22 26 -3 6 -23 29 -2 3 -24 31 -1 1 -26 33 
0 0 -21 32 -5 7 -19 25 -7 10 -24 22 24 0 26 0 
26 0 19 0 8 -7 20 -25 6 -7 20 -25 6 -9 19 -23 
8 -12 17 -21 9 -15 15 -17 11 -20 11 -12 16 -29 4 -3 
21 -33 1 -2 24 -30 2 -6 22 -26 5 -12 18 -20 8 -22 
12 -11 14 -32 0 -2 24 -30 3 -10 20 -22 6 -23 12 -10 
13 -32 1 -5 23 -27 4 -18 17 -15 9 -32 0 -2 24 -30 
2 -17 19 -15 7 -33 1 -3 23 -29 3 -20 17 -12 8 -32 
1 -10 4442 1196 114 MP stroke
c8
9 26 18 24 3 8 19 33 4 4 12 28 14 19 7 13 
20 27 2 5 24 33 0 0 17 32 9 12 13 20 14 19 
9 13 17 23 7 10 19 25 6 7 21 26 6 6 20 26 
7 6 19 0 27 0 26 0 26 0 15 0 -15 -11 -16 -21 
-10 -9 -17 -23 -9 -9 -18 -23 -9 -10 -17 -23 -9 -11 -16 -21 
-10 -14 -14 -18 -13 -20 -9 -12 -17 -29 -3 -4 -21 -32 -2 -3 
-22 -29 -5 -9 -17 -23 -9 -20 -10 -13 -15 -32 -1 -2 -22 -30 
-5 -13 -15 -19 -11 -31 -2 -2 -20 -32 -4 -13 -15 -19 -10 -33 
-2 -3 0 3 0 33 0 32 0 32 0 33 0 32 0 6 
7049 793 73 MP
PP
0 sg
0 0 9 26 18 24 3 8 19 33 4 4 12 28 14 19 
7 13 20 27 2 5 24 33 0 0 17 32 9 12 13 20 
14 19 9 13 17 23 7 10 19 25 6 7 21 26 6 6 
20 26 7 6 19 0 27 0 26 0 26 0 15 0 -15 -11 
-16 -21 -10 -9 -17 -23 -9 -9 -18 -23 -9 -10 -17 -23 -9 -11 
-16 -21 -10 -14 -14 -18 -13 -20 -9 -12 -17 -29 -3 -4 -21 -32 
-2 -3 -22 -29 -5 -9 -17 -23 -9 -20 -10 -13 -15 -32 -1 -2 
-22 -30 -5 -13 -15 -19 -11 -31 -2 -2 -20 -32 -4 -13 -15 -19 
-10 -33 -2 -3 0 3 0 33 0 32 0 32 0 33 0 32 
0 6 7049 793 74 MP stroke
c8
0 -31 0 -33 0 -32 0 -32 0 -14 -2 14 -16 32 -8 5 
-5 27 -21 22 -2 11 -22 32 -3 1 -7 31 -19 18 -3 15 
-23 28 -1 4 -14 32 -12 9 -7 23 -19 20 -4 13 -22 27 
-2 5 -24 32 -1 0 -13 32 -13 12 -9 21 -17 19 -7 13 
-20 23 -4 9 -22 27 -3 5 -23 29 -3 4 -24 29 -1 3 
-25 30 -1 2 -25 30 -3 2 3 0 26 0 26 0 27 0 
2 0 24 -24 7 -8 19 -27 6 -5 21 -32 0 0 25 -33 
1 -2 24 -30 2 -5 23 -27 4 -9 20 -23 6 -15 17 -18 
9 -24 11 -8 15 -32 1 -3 23 -29 3 -10 21 -23 5 -20 
15 -12 11 -32 1 -3 23 -29 3 -14 19 -19 7 -32 0 -1 
4442 897 81 MP
PP
0 sg
0 0 0 -31 0 -33 0 -32 0 -32 0 -14 -2 14 -16 32 
-8 5 -5 27 -21 22 -2 11 -22 32 -3 1 -7 31 -19 18 
-3 15 -23 28 -1 4 -14 32 -12 9 -7 23 -19 20 -4 13 
-22 27 -2 5 -24 32 -1 0 -13 32 -13 12 -9 21 -17 19 
-7 13 -20 23 -4 9 -22 27 -3 5 -23 29 -3 4 -24 29 
-1 3 -25 30 -1 2 -25 30 -3 2 3 0 26 0 26 0 
27 0 2 0 24 -24 7 -8 19 -27 6 -5 21 -32 0 0 
25 -33 1 -2 24 -30 2 -5 23 -27 4 -9 20 -23 6 -15 
17 -18 9 -24 11 -8 15 -32 1 -3 23 -29 3 -10 21 -23 
5 -20 15 -12 11 -32 1 -3 23 -29 3 -14 19 -19 7 -32 
0 -1 4442 897 82 MP stroke
c8
0 -31 0 -32 0 -33 0 -27 -6 27 -20 21 -3 12 -23 29 
-1 3 -15 32 -11 8 -8 24 -18 18 -5 15 -21 24 -3 8 
-24 29 -1 3 -25 32 0 0 -19 33 -7 7 -15 25 -12 12 
-12 20 -14 14 -15 18 15 0 26 0 27 0 13 0 13 -17 
15 -15 11 -20 13 -12 14 -26 7 -6 19 -33 0 -1 25 -31 
1 -5 23 -27 4 -11 20 -21 6 -19 15 -14 11 -32 0 -1 
4442 639 49 MP
PP
0 sg
0 0 0 -31 0 -32 0 -33 0 -27 -6 27 -20 21 -3 12 
-23 29 -1 3 -15 32 -11 8 -8 24 -18 18 -5 15 -21 24 
-3 8 -24 29 -1 3 -25 32 0 0 -19 33 -7 7 -15 25 
-12 12 -12 20 -14 14 -15 18 15 0 26 0 27 0 13 0 
13 -17 15 -15 11 -20 13 -12 14 -26 7 -6 19 -33 0 -1 
25 -31 1 -5 23 -27 4 -11 20 -21 6 -19 15 -14 11 -32 
0 -1 4442 639 50 MP stroke
c8
10 20 17 24 5 9 21 28 3 4 23 31 1 1 26 32 
0 0 26 0 26 0 27 0 10 0 -10 -11 -17 -21 -10 -12 
-15 -20 -11 -17 -12 -15 -14 -25 -6 -8 -19 -32 -2 -2 -22 -30 
-4 -8 -18 -24 -8 -18 -12 -15 -14 -32 -1 -2 0 2 0 32 
0 33 0 32 0 32 0 12 7049 497 37 MP
PP
0 sg
0 0 10 20 17 24 5 9 21 28 3 4 23 31 1 1 
26 32 0 0 26 0 26 0 27 0 10 0 -10 -11 -17 -21 
-10 -12 -15 -20 -11 -17 -12 -15 -14 -25 -6 -8 -19 -32 -2 -2 
-22 -30 -4 -8 -18 -24 -8 -18 -12 -15 -14 -32 -1 -2 0 2 
0 32 0 33 0 32 0 32 0 12 7049 497 38 MP stroke
c17
2 2 24 11 12 -11 15 -23 3 -10 4 -32 1 -32 -3 -32 
-5 -32 0 -1 -23 -32 -4 -4 -3 4 -23 27 -1 5 -8 33 
-5 32 0 32 4 32 10 31 6285 1543 21 MP
PP
0 sg
0 0 2 2 24 11 12 -11 15 -23 3 -10 4 -32 1 -32 
-3 -32 -5 -32 0 -1 -23 -32 -4 -4 -3 4 -23 27 -1 5 
-8 33 -5 32 0 32 4 32 10 31 6285 1543 22 MP stroke
c8
0 -29 0 -33 0 -32 0 -11 -3 11 -23 28 -1 4 -25 32 
0 1 -17 32 -10 8 -13 24 -13 12 -15 20 15 0 26 0 
27 0 2 0 24 -30 3 -2 22 -32 1 -3 4442 415 23 MP
PP
0 sg
0 0 0 -29 0 -33 0 -32 0 -11 -3 11 -23 28 -1 4 
-25 32 0 1 -17 32 -10 8 -13 24 -13 12 -15 20 15 0 
26 0 27 0 2 0 24 -30 3 -2 22 -32 1 -3 4442 415 24 MP stroke
c8
14 0 -14 -22 0 22 0 0 7049 348 5 MP
PP
0 sg
0 0 14 0 -14 -22 0 22 0 0 7049 348 6 MP stroke
gr

0 sg
4 w
DO
SO
6 w
4442 1929 mt 7049 1929 L
4442  348 mt 7049  348 L
4442 1929 mt 4442  348 L
7049 1929 mt 7049  348 L
4442 1929 mt 7049 1929 L
4442 1929 mt 4442  348 L
4867 1929 mt 4867 1902 L
4867  348 mt 4867  374 L
4764 2074 mt 
(-2) s
5306 1929 mt 5306 1902 L
5306  348 mt 5306  374 L
5203 2074 mt 
(-1) s
5745 1929 mt 5745 1902 L
5745  348 mt 5745  374 L
5712 2074 mt 
(0) s
6184 1929 mt 6184 1902 L
6184  348 mt 6184  374 L
6151 2074 mt 
(1) s
6623 1929 mt 6623 1902 L
6623  348 mt 6623  374 L
6590 2074 mt 
(2) s
4442 1653 mt 4468 1653 L
7049 1653 mt 7022 1653 L
4241 1697 mt 
(0.5) s
4442 1361 mt 4468 1361 L
7049 1361 mt 7022 1361 L
4341 1405 mt 
(1) s
4442 1070 mt 4468 1070 L
7049 1070 mt 7022 1070 L
4241 1114 mt 
(1.5) s
4442  778 mt 4468  778 L
7049  778 mt 7022  778 L
4341  822 mt 
(2) s
4442  486 mt 4468  486 L
7049  486 mt 7022  486 L
4241  530 mt 
(2.5) s
4442 1929 mt 7049 1929 L
4442  348 mt 7049  348 L
4442 1929 mt 4442  348 L
7049 1929 mt 7049  348 L
1 sg
0 1582 2606 0 0 -1582 1013 4126 4 MP
PP
-2606 0 0 1582 2606 0 0 -1582 1013 4126 5 MP stroke
gs 1013 2544 2607 1583 rc
c8
27 0 26 0 26 0 27 0 26 0 26 0 27 0 26 0 
26 0 27 0 26 0 26 0 27 0 26 0 26 0 27 0 
26 0 26 0 27 0 26 0 26 0 27 0 26 0 26 0 
27 0 26 0 26 0 27 0 26 0 26 0 27 0 26 0 
26 0 26 0 27 0 26 0 26 0 27 0 26 0 26 0 
27 0 26 0 26 0 27 0 26 0 26 0 27 0 26 0 
26 0 27 0 26 0 26 0 27 0 26 0 26 0 27 0 
26 0 26 0 27 0 26 0 26 0 27 0 26 0 26 0 
27 0 26 0 26 0 26 0 27 0 26 0 26 0 27 0 
26 0 26 0 27 0 26 0 26 0 27 0 26 0 26 0 
27 0 26 0 26 0 27 0 26 0 26 0 27 0 26 0 
26 0 27 0 26 0 26 0 27 0 26 0 26 0 27 0 
26 0 26 0 26 0 1013 2544 100 MP
-26 0 -26 0 -27 0 -26 0 -26 0 -27 0 -26 0 -26 0 
-27 0 -26 0 -26 0 -27 0 -26 0 -26 0 -27 0 -26 0 
-26 0 -26 0 -27 0 -26 0 -26 0 -27 0 -26 0 -26 0 
-27 0 -26 0 -26 0 -27 0 -26 0 -26 0 -27 0 -26 0 
-26 0 -27 0 -26 0 -26 0 -27 0 -26 0 -26 0 -27 0 
-26 0 -26 0 -27 0 -26 0 -26 0 -27 0 -26 0 -26 0 
-27 0 0 0 0 33 0 32 0 32 0 33 0 32 0 32 
0 32 0 33 0 32 0 32 0 33 0 32 0 32 0 32 
0 33 0 32 0 32 0 33 0 32 0 32 0 32 0 33 
0 32 0 32 0 33 0 32 0 32 0 33 0 32 0 32 
0 32 0 33 0 32 0 32 0 32 0 33 0 32 0 32 
0 33 0 32 0 32 0 33 0 32 0 32 0 32 0 33 
0 32 0 32 0 32 0 0 100 AP
0 -32 0 -32 0 -32 0 -33 0 -32 0 -32 0 -32 0 -33 
0 -32 0 -32 0 -33 0 -32 0 -32 0 -33 0 -32 0 -32 
0 -32 0 -33 0 -32 0 -32 0 -32 0 -33 0 -32 0 -32 
0 -33 0 -32 0 -32 0 -33 0 -32 0 -32 0 -32 0 -33 
0 -32 0 -32 0 -33 0 -32 0 -32 0 -32 0 -33 0 -32 
0 -32 0 -33 0 -32 0 -32 0 -32 0 -33 0 -32 0 -32 
0 -33 0 0 -26 0 -26 0 -26 0 -27 0 -26 0 -26 0 
-27 0 -26 0 -26 0 -27 0 -26 0 -26 0 -27 0 -26 0 
-26 0 -27 0 -26 0 -26 0 -27 0 -26 0 -26 0 -27 0 
-26 0 -26 0 -27 0 -26 0 -26 0 -27 0 -26 0 -26 0 
-27 0 -26 0 -26 0 -26 0 -27 0 -26 0 -26 0 -27 0 
-26 0 -26 0 -27 0 -26 0 -26 0 -27 0 -26 0 -26 0 
-27 0 -26 0 -26 0 -27 0 100 AP
0 0 1 AP
PP
0 sg
0 0 0 0 0 -32 0 -32 0 -32 0 -33 0 -32 0 -32 
0 -32 0 -33 0 -32 0 -32 0 -33 0 -32 0 -32 0 -33 
0 -32 0 -32 0 -32 0 -33 0 -32 0 -32 0 -32 0 -33 
0 -32 0 -32 0 -33 0 -32 0 -32 0 -33 0 -32 0 -32 
0 -32 0 -33 0 -32 0 -32 0 -33 0 -32 0 -32 0 -32 
0 -33 0 -32 0 -32 0 -33 0 -32 0 -32 0 -32 0 -33 
0 -32 0 -32 0 -33 0 0 -26 0 -26 0 -26 0 -27 0 
-26 0 -26 0 -27 0 -26 0 -26 0 -27 0 -26 0 -26 0 
-27 0 -26 0 -26 0 -27 0 -26 0 -26 0 -27 0 -26 0 
-26 0 -27 0 -26 0 -26 0 -27 0 -26 0 -26 0 -27 0 
-26 0 -26 0 -27 0 -26 0 -26 0 -26 0 -27 0 -26 0 
-26 0 -27 0 -26 0 -26 0 -27 0 -26 0 -26 0 -27 0 
-26 0 -26 0 -27 0 -26 0 -26 0 -27 0 -26 0 -26 0 
-27 0 -26 0 -26 0 -27 0 -26 0 -26 0 -27 0 -26 0 
-26 0 -27 0 -26 0 -26 0 -27 0 -26 0 -26 0 -26 0 
-27 0 -26 0 -26 0 -27 0 -26 0 -26 0 -27 0 -26 0 
-26 0 -27 0 -26 0 -26 0 -27 0 -26 0 -26 0 -27 0 
-26 0 -26 0 -27 0 -26 0 -26 0 -27 0 -26 0 -26 0 
-27 0 -26 0 -26 0 -27 0 -26 0 -26 0 -27 0 0 0 
0 33 0 32 0 32 0 33 0 32 0 32 0 32 0 33 
0 32 0 32 0 33 0 32 0 32 0 32 0 33 0 32 
0 32 0 33 0 32 0 32 0 32 0 33 0 32 0 32 
0 33 0 32 0 32 0 33 0 32 0 32 0 32 0 33 
0 32 0 32 0 32 0 33 0 32 0 32 0 33 0 32 
0 32 0 33 0 32 0 32 0 32 0 33 0 32 0 32 
0 32 0 0 27 0 26 0 26 0 27 0 26 0 26 0 
27 0 26 0 26 0 27 0 26 0 26 0 27 0 26 0 
26 0 27 0 26 0 26 0 27 0 26 0 26 0 27 0 
26 0 26 0 27 0 26 0 26 0 27 0 26 0 26 0 
27 0 26 0 26 0 26 0 27 0 26 0 26 0 27 0 
26 0 26 0 27 0 26 0 26 0 27 0 26 0 26 0 
27 0 26 0 26 0 27 0 26 0 26 0 27 0 26 0 
26 0 27 0 26 0 26 0 27 0 26 0 26 0 27 0 
26 0 26 0 27 0 26 0 26 0 26 0 27 0 26 0 
26 0 27 0 26 0 26 0 27 0 26 0 26 0 27 0 
26 0 26 0 27 0 26 0 26 0 27 0 26 0 26 0 
27 0 26 0 26 0 27 0 26 0 26 0 27 0 26 0 
26 0 27 0 26 0 1065 2544 300 MP stroke
26 0 26 0 1013 2544 3 MP stroke
c8
26 0 27 0 26 0 26 0 27 0 26 0 26 0 27 0 
26 0 26 0 27 0 26 0 26 0 27 0 26 0 26 0 
27 0 26 0 26 0 27 0 26 0 26 0 27 0 26 0 
26 0 26 0 27 0 20 0 6 -3 26 -24 5 -5 22 -18 
12 -14 14 -18 11 -14 15 -25 6 -8 20 -32 1 -2 22 -30 
4 -7 19 -25 7 -16 13 -17 14 -30 2 -2 22 -32 2 -6 
20 -27 6 -14 14 -18 13 -31 1 -1 22 -33 3 -8 18 -24 
8 -22 9 -10 16 -32 2 -6 19 -27 7 -21 9 -11 15 -32 
2 -8 19 -24 8 -28 5 -5 18 -32 3 -14 16 -18 9 -33 
1 -4 21 -28 6 -26 7 -6 16 -33 3 -15 16 -17 9 -32 
1 -7 20 -25 7 -32 1 -1 21 -32 4 -20 14 -12 11 -33 
1 -10 20 -22 7 -32 0 0 23 -32 3 -18 18 -15 8 -32 
0 -3 24 -29 2 -18 1013 3885 100 MP
-27 0 -26 0 -26 0 -27 0 -26 0 -26 0 -27 0 0 0 
0 33 0 32 0 32 0 33 0 32 0 32 0 32 0 33 
0 32 0 32 0 33 0 32 0 32 0 32 1 28 1 5 
9 32 16 22 2 10 13 33 11 13 5 19 20 32 1 2 
9 30 18 25 2 8 14 32 10 13 6 19 20 30 1 3 
13 32 13 17 5 15 21 31 1 2 14 32 11 16 8 16 
19 27 2 5 19 33 5 6 13 26 13 18 8 14 19 26 
4 6 22 31 1 2 22 32 3 4 19 28 8 11 15 22 
11 14 13 18 13 17 13 15 14 19 12 14 14 18 13 14 
13 18 15 14 12 16 16 16 10 13 21 20 5 8 27 24 
0 0 26 29 4 3 22 25 12 7 15 0 26 0 26 0 
27 0 26 0 26 0 26 0 27 0 26 0 26 0 27 0 
26 0 26 0 27 0 26 0 100 AP
0 -32 0 -32 0 -32 0 -33 0 -32 0 -32 0 -33 0 0 
-26 0 -26 0 -26 0 -27 0 -26 0 -26 0 -27 0 -26 0 
-26 0 -27 0 -26 0 -26 0 -27 0 -26 0 -26 0 -27 0 
-26 0 -26 0 -27 0 -26 0 -26 0 -27 0 -26 0 -26 0 
-27 0 -26 0 -26 0 -27 0 -26 0 -26 0 -27 0 -26 0 
-26 0 -26 0 -27 0 -26 0 -26 0 -27 0 -26 0 -26 0 
-27 0 -26 0 -26 0 -27 0 -26 0 -26 0 -27 0 -26 0 
-26 0 -27 0 -26 0 -26 0 -27 0 -26 0 -26 0 -27 0 
-26 0 -26 0 -27 0 -26 0 -26 0 -27 0 -26 0 -26 0 
-27 0 -26 0 -26 0 -26 0 -27 0 -26 0 -26 0 -27 0 
-26 0 -26 0 -27 0 -26 0 -26 0 -27 0 -26 0 -26 0 
-27 0 -26 0 -26 0 -27 0 -26 0 -26 0 -27 0 -26 0 
-26 0 -27 0 -26 0 -26 0 100 AP
0 -15 1 AP
PP
0 sg
0 0 0 -15 0 -32 0 -32 0 -32 0 -33 0 -32 0 -32 
0 -33 0 0 -26 0 -26 0 -26 0 -27 0 -26 0 -26 0 
-27 0 -26 0 -26 0 -27 0 -26 0 -26 0 -27 0 -26 0 
-26 0 -27 0 -26 0 -26 0 -27 0 -26 0 -26 0 -27 0 
-26 0 -26 0 -27 0 -26 0 -26 0 -27 0 -26 0 -26 0 
-27 0 -26 0 -26 0 -26 0 -27 0 -26 0 -26 0 -27 0 
-26 0 -26 0 -27 0 -26 0 -26 0 -27 0 -26 0 -26 0 
-27 0 -26 0 -26 0 -27 0 -26 0 -26 0 -27 0 -26 0 
-26 0 -27 0 -26 0 -26 0 -27 0 -26 0 -26 0 -27 0 
-26 0 -26 0 -27 0 -26 0 -26 0 -26 0 -27 0 -26 0 
-26 0 -27 0 -26 0 -26 0 -27 0 -26 0 -26 0 -27 0 
-26 0 -26 0 -27 0 -26 0 -26 0 -27 0 -26 0 -26 0 
-27 0 -26 0 -26 0 -27 0 -26 0 -26 0 -27 0 -26 0 
-26 0 -27 0 -26 0 -26 0 -27 0 0 0 0 33 0 32 
0 32 0 33 0 32 0 32 0 32 0 33 0 32 0 32 
0 33 0 32 0 32 0 32 1 28 1 5 9 32 16 22 
2 10 13 33 11 13 5 19 20 32 1 2 9 30 18 25 
2 8 14 32 10 13 6 19 20 30 1 3 13 32 13 17 
5 15 21 31 1 2 14 32 11 16 8 16 19 27 2 5 
19 33 5 6 13 26 13 18 8 14 19 26 4 6 22 31 
1 2 22 32 3 4 19 28 8 11 15 22 11 14 13 18 
13 17 13 15 14 19 12 14 14 18 13 14 13 18 15 14 
12 16 16 16 10 13 21 20 5 8 27 24 0 0 26 29 
4 3 22 25 12 7 15 0 26 0 26 0 27 0 26 0 
26 0 26 0 27 0 26 0 26 0 27 0 26 0 26 0 
27 0 26 0 26 0 27 0 26 0 26 0 27 0 26 0 
26 0 27 0 26 0 26 0 27 0 26 0 26 0 27 0 
26 0 26 0 27 0 26 0 26 0 27 0 26 0 26 0 
27 0 26 0 26 0 26 0 27 0 20 0 6 -3 26 -24 
5 -5 22 -18 12 -14 14 -18 11 -14 15 -25 6 -8 20 -32 
1 -2 22 -30 4 -7 19 -25 7 -16 13 -17 14 -30 2 -2 
22 -32 2 -6 20 -27 6 -14 14 -18 13 -31 1 -1 22 -33 
3 -8 18 -24 8 -22 9 -10 16 -32 2 -6 19 -27 7 -21 
9 -11 15 -32 2 -8 19 -24 8 -28 5 -5 18 -32 3 -14 
16 -18 9 -33 1 -4 21 -28 6 -26 7 -6 16 -33 3 -15 
16 -17 9 -32 1 -7 20 -25 7 -32 1 -1 21 -32 4 -20 
14 -12 11 -33 1 -10 20 -22 7 -32 0 0 23 -32 3 -18 
18 -15 8 -32 0 -3 1039 3838 300 MP stroke
24 -29 2 -18 1013 3885 3 MP stroke
/c24 { 0.000000 0.062500 1.000000 sr} bdef
c24
26 -8 27 -10 11 -5 15 -7 26 -14 18 -11 9 -6 26 -18 
10 -9 16 -13 21 -19 6 -5 26 -27 0 0 26 -30 2 -3 
25 -31 1 -1 22 -32 3 -4 18 -29 8 -13 11 -19 16 -28 
1 -4 17 -32 8 -18 6 -15 14 -32 6 -16 6 -16 12 -33 
9 -27 1 -5 10 -32 9 -32 6 -28 1 -5 8 -32 6 -32 
5 -33 5 -32 1 -13 3 -19 3 -32 3 -33 2 -32 2 -32 
0 -33 -13 0 -26 0 -26 0 -27 0 -26 0 -26 0 -27 0 
-26 0 -26 0 -27 0 -26 0 -26 0 -27 0 -26 0 -26 0 
-27 0 -26 0 -26 0 -27 0 -26 0 -26 0 -27 0 -26 0 
-26 0 -27 0 -26 0 -26 0 -27 0 -26 0 -26 0 -26 0 
-27 0 -26 0 -26 0 -27 0 -26 0 -26 0 -27 0 -26 0 
-26 0 -27 0 -26 0 -26 0 -27 0 -5 0 1 33 0 32 
2 32 2 33 0 10 3145 3986 100 MP
2 22 2 32 3 32 4 33 4 32 5 32 6 33 1 3 
5 29 7 32 8 32 6 21 3 12 10 32 11 32 2 7 
10 26 13 32 4 7 11 25 15 30 1 2 19 33 6 11 
14 21 13 18 10 14 16 21 10 12 16 18 14 14 13 13 
22 19 4 4 26 20 13 9 14 8 26 15 18 9 8 4 
26 10 27 8 26 6 25 4 1 0 27 2 26 1 26 -2 
4 -1 23 -3 26 -6 51 AP
PP
0 sg
0 0 2 22 2 32 3 32 4 33 4 32 5 32 6 33 
1 3 5 29 7 32 8 32 6 21 3 12 10 32 11 32 
2 7 10 26 13 32 4 7 11 25 15 30 1 2 19 33 
6 11 14 21 13 18 10 14 16 21 10 12 16 18 14 14 
13 13 22 19 4 4 26 20 13 9 14 8 26 15 18 9 
8 4 26 10 27 8 26 6 25 4 1 0 27 2 26 1 
26 -2 4 -1 23 -3 26 -6 26 -8 27 -10 11 -5 15 -7 
26 -14 18 -11 9 -6 26 -18 10 -9 16 -13 21 -19 6 -5 
26 -27 0 0 26 -30 2 -3 25 -31 1 -1 22 -32 3 -4 
18 -29 8 -13 11 -19 16 -28 1 -4 17 -32 8 -18 6 -15 
14 -32 6 -16 6 -16 12 -33 9 -27 1 -5 10 -32 9 -32 
6 -28 1 -5 8 -32 6 -32 5 -33 5 -32 1 -13 3 -19 
3 -32 3 -33 2 -32 2 -32 0 -33 -13 0 -26 0 -26 0 
-27 0 -26 0 -26 0 -27 0 -26 0 -26 0 -27 0 -26 0 
-26 0 -27 0 -26 0 -26 0 -27 0 -26 0 -26 0 -27 0 
-26 0 -26 0 -27 0 -26 0 -26 0 -27 0 -26 0 -26 0 
-27 0 -26 0 -26 0 -26 0 -27 0 -26 0 -26 0 -27 0 
-26 0 -26 0 -27 0 -26 0 -26 0 -27 0 -26 0 -26 0 
-27 0 -5 0 1 33 0 32 2 32 2 33 0 10 3145 3986 152 MP stroke
/c25 { 0.000000 0.562500 1.000000 sr} bdef
c25
26 19 20 12 6 4 26 13 27 10 22 6 4 1 26 5 
27 2 26 0 26 -2 27 -5 4 -1 22 -6 26 -9 27 -12 
10 -6 16 -8 26 -17 10 -7 17 -12 24 -20 2 -2 26 -25 
5 -6 22 -23 7 -9 19 -23 7 -9 19 -27 4 -5 20 -33 
3 -4 16 -28 10 -20 6 -12 15 -33 5 -11 9 -21 12 -32 
6 -16 5 -16 10 -33 9 -32 2 -8 6 -24 7 -33 6 -32 
5 -32 2 -21 2 -11 3 -33 3 -32 1 -32 1 -33 -10 0 
-26 0 -26 0 -27 0 -26 0 -26 0 -27 0 -26 0 -26 0 
-27 0 -26 0 -26 0 -27 0 -26 0 -26 0 -27 0 -26 0 
-26 0 -27 0 -26 0 -26 0 -27 0 -26 0 -26 0 -27 0 
-26 0 -26 0 -26 0 -27 0 -26 0 -26 0 -27 0 -26 0 
-26 0 -27 0 -26 0 -26 0 -11 0 0 33 1 32 2 32 
2 33 2 32 4 32 3039 3932 100 MP
0 0 3 32 5 33 5 32 6 32 7 33 0 0 8 32 
8 32 10 32 0 0 11 33 13 32 3 6 11 26 15 29 
2 4 18 32 6 10 15 22 12 16 13 16 13 16 16 17 
10 10 26 22 1 1 27 AP
PP
0 sg
0 0 0 0 3 32 5 33 5 32 6 32 7 33 0 0 
8 32 8 32 10 32 0 0 11 33 13 32 3 6 11 26 
15 29 2 4 18 32 6 10 15 22 12 16 13 16 13 16 
16 17 10 10 26 22 1 1 26 19 20 12 6 4 26 13 
27 10 22 6 4 1 26 5 27 2 26 0 26 -2 27 -5 
4 -1 22 -6 26 -9 27 -12 10 -6 16 -8 26 -17 10 -7 
17 -12 24 -20 2 -2 26 -25 5 -6 22 -23 7 -9 19 -23 
7 -9 19 -27 4 -5 20 -33 3 -4 16 -28 10 -20 6 -12 
15 -33 5 -11 9 -21 12 -32 6 -16 5 -16 10 -33 9 -32 
2 -8 6 -24 7 -33 6 -32 5 -32 2 -21 2 -11 3 -33 
3 -32 1 -32 1 -33 -10 0 -26 0 -26 0 -27 0 -26 0 
-26 0 -27 0 -26 0 -26 0 -27 0 -26 0 -26 0 -27 0 
-26 0 -26 0 -27 0 -26 0 -26 0 -27 0 -26 0 -26 0 
-27 0 -26 0 -26 0 -27 0 -26 0 -26 0 -26 0 -27 0 
-26 0 -26 0 -27 0 -26 0 -26 0 -27 0 -26 0 -26 0 
-11 0 0 33 1 32 2 32 2 33 2 32 4 32 3039 3932 128 MP stroke
/c26 { 0.062500 1.000000 0.937500 sr} bdef
c26
5 13 13 32 9 19 6 14 18 32 2 3 19 29 7 11 
17 22 10 10 21 22 5 5 26 21 9 6 17 12 27 13 
19 7 7 3 26 7 27 4 26 2 26 -2 27 -4 26 -7 
7 -3 19 -6 27 -12 24 -14 2 -1 26 -17 18 -14 9 -7 
26 -24 1 -1 25 -27 5 -6 22 -27 4 -5 22 -32 0 0 
20 -33 6 -11 11 -21 16 -32 0 0 14 -32 12 -33 0 0 
11 -32 9 -32 6 -24 3 -9 7 -32 6 -32 5 -32 3 -33 
3 -24 0 -8 2 -32 1 -33 -3 0 -27 0 -26 0 -26 0 
-27 0 -26 0 -26 0 -27 0 -26 0 -26 0 -27 0 -26 0 
-26 0 -27 0 -26 0 -26 0 -27 0 -26 0 -26 0 -27 0 
-26 0 -26 0 -27 0 -26 0 -26 0 -26 0 -27 0 -26 0 
-26 0 -27 0 -26 0 -26 0 -11 0 1 33 1 32 2 32 
3 33 3 32 1 7 2960 3957 100 MP
3 25 4 32 6 33 6 32 7 28 1 4 9 33 10 32 
6 19 9 AP
PP
0 sg
0 0 3 25 4 32 6 33 6 32 7 28 1 4 9 33 
10 32 6 19 5 13 13 32 9 19 6 14 18 32 2 3 
19 29 7 11 17 22 10 10 21 22 5 5 26 21 9 6 
17 12 27 13 19 7 7 3 26 7 27 4 26 2 26 -2 
27 -4 26 -7 7 -3 19 -6 27 -12 24 -14 2 -1 26 -17 
18 -14 9 -7 26 -24 1 -1 25 -27 5 -6 22 -27 4 -5 
22 -32 0 0 20 -33 6 -11 11 -21 16 -32 0 0 14 -32 
12 -33 0 0 11 -32 9 -32 6 -24 3 -9 7 -32 6 -32 
5 -32 3 -33 3 -24 0 -8 2 -32 1 -33 -3 0 -27 0 
-26 0 -26 0 -27 0 -26 0 -26 0 -27 0 -26 0 -26 0 
-27 0 -26 0 -26 0 -27 0 -26 0 -26 0 -27 0 -26 0 
-26 0 -27 0 -26 0 -26 0 -27 0 -26 0 -26 0 -26 0 
-27 0 -26 0 -26 0 -27 0 -26 0 -26 0 -11 0 1 33 
1 32 2 32 3 33 3 32 1 7 2960 3957 110 MP stroke
/c27 { 0.562500 1.000000 0.437500 sr} bdef
c27
4 26 8 33 8 32 6 19 4 13 12 33 10 25 3 7 
16 32 8 13 12 19 14 21 9 12 17 19 13 13 13 12 
27 20 1 0 25 15 26 11 27 7 0 0 26 3 26 1 
27 -3 8 -1 18 -4 26 -9 27 -12 14 -8 12 -7 26 -18 
8 -7 19 -15 16 -17 10 -10 19 -23 7 -9 17 -23 10 -14 
10 -18 16 -28 2 -4 16 -33 8 -20 5 -12 11 -32 10 -33 
1 0 8 -32 7 -32 6 -32 5 -33 0 -4 3 -28 2 -32 
1 -33 -6 0 -26 0 -27 0 -26 0 -26 0 -27 0 -26 0 
-26 0 -27 0 -26 0 -26 0 -27 0 -26 0 -26 0 -27 0 
-26 0 -26 0 -27 0 -26 0 -26 0 -27 0 -26 0 -26 0 
-26 0 -27 0 -26 0 -26 0 -19 0 1 33 2 32 2 32 
3 33 4 32 5 32 2 6 2881 3926 93 MP
PP
0 sg
0 0 4 26 8 33 8 32 6 19 4 13 12 33 10 25 
3 7 16 32 8 13 12 19 14 21 9 12 17 19 13 13 
13 12 27 20 1 0 25 15 26 11 27 7 0 0 26 3 
26 1 27 -3 8 -1 18 -4 26 -9 27 -12 14 -8 12 -7 
26 -18 8 -7 19 -15 16 -17 10 -10 19 -23 7 -9 17 -23 
10 -14 10 -18 16 -28 2 -4 16 -33 8 -20 5 -12 11 -32 
10 -33 1 0 8 -32 7 -32 6 -32 5 -33 0 -4 3 -28 
2 -32 1 -33 -6 0 -26 0 -27 0 -26 0 -26 0 -27 0 
-26 0 -26 0 -27 0 -26 0 -26 0 -27 0 -26 0 -26 0 
-27 0 -26 0 -26 0 -27 0 -26 0 -26 0 -27 0 -26 0 
-26 0 -26 0 -27 0 -26 0 -26 0 -19 0 1 33 2 32 
2 32 3 33 4 32 5 32 2 6 2881 3926 94 MP stroke
/c28 { 1.000000 0.937500 0.000000 sr} bdef
c28
2 19 4 33 5 32 7 32 8 32 1 2 9 31 12 32 
5 13 9 19 16 33 1 1 21 31 5 8 22 24 5 6 
26 22 7 4 19 13 27 12 26 7 5 1 21 3 27 -1 
15 -2 11 -2 26 -8 27 -11 19 -12 7 -4 26 -19 9 -9 
18 -16 14 -16 12 -15 13 -17 13 -20 8 -13 17 -32 2 -3 
13 -29 12 -33 1 -2 10 -30 8 -32 7 -32 1 -6 5 -27 
4 -32 3 -32 1 -33 -13 0 -26 0 -26 0 -27 0 -26 0 
-26 0 -27 0 -26 0 -26 0 -27 0 -26 0 -26 0 -27 0 
-26 0 -26 0 -27 0 -26 0 -26 0 -27 0 -26 0 -26 0 
-26 0 -27 0 -4 0 1 33 2 32 1 13 2829 4048 79 MP
PP
0 sg
0 0 2 19 4 33 5 32 7 32 8 32 1 2 9 31 
12 32 5 13 9 19 16 33 1 1 21 31 5 8 22 24 
5 6 26 22 7 4 19 13 27 12 26 7 5 1 21 3 
27 -1 15 -2 11 -2 26 -8 27 -11 19 -12 7 -4 26 -19 
9 -9 18 -16 14 -16 12 -15 13 -17 13 -20 8 -13 17 -32 
2 -3 13 -29 12 -33 1 -2 10 -30 8 -32 7 -32 1 -6 
5 -27 4 -32 3 -32 1 -33 -13 0 -26 0 -26 0 -27 0 
-26 0 -26 0 -27 0 -26 0 -26 0 -27 0 -26 0 -26 0 
-27 0 -26 0 -26 0 -27 0 -26 0 -26 0 -27 0 -26 0 
-26 0 -26 0 -27 0 -4 0 1 33 2 32 1 13 2829 4048 80 MP stroke
/c29 { 1.000000 0.437500 0.000000 sr} bdef
c29
2 10 10 32 11 32 3 9 11 24 16 29 2 3 23 32 
1 1 26 27 6 5 21 14 26 13 17 5 9 2 27 3 
26 -2 11 -3 15 -4 27 -12 26 -16 0 0 26 -22 10 -11 
17 -19 10 -13 16 -24 4 -8 17 -33 5 -11 9 -21 11 -32 
7 -24 2 -8 7 -33 5 -32 3 -32 1 -33 -18 0 -27 0 
-26 0 -26 0 -27 0 -26 0 -26 0 -27 0 -26 0 -26 0 
-27 0 -26 0 -26 0 -27 0 -26 0 -26 0 -27 0 -26 0 
-18 0 1 33 3 32 4 32 5 33 5 22 2750 3974 63 MP
PP
0 sg
0 0 2 10 10 32 11 32 3 9 11 24 16 29 2 3 
23 32 1 1 26 27 6 5 21 14 26 13 17 5 9 2 
27 3 26 -2 11 -3 15 -4 27 -12 26 -16 0 0 26 -22 
10 -11 17 -19 10 -13 16 -24 4 -8 17 -33 5 -11 9 -21 
11 -32 7 -24 2 -8 7 -33 5 -32 3 -32 1 -33 -18 0 
-27 0 -26 0 -26 0 -27 0 -26 0 -26 0 -27 0 -26 0 
-26 0 -27 0 -26 0 -26 0 -27 0 -26 0 -26 0 -27 0 
-26 0 -18 0 1 33 3 32 4 32 5 33 5 22 2750 3974 64 MP stroke
c8
-17 33 -6 4 -5 28 -21 29 -1 3 -8 33 -17 20 -3 12 
-14 32 -10 10 -5 23 -21 29 -1 3 -10 32 -15 18 -4 14 
-23 32 0 1 -10 32 -16 19 -4 13 -22 31 -1 1 -13 33 
-13 14 -7 18 -19 26 -3 6 -23 33 0 0 -15 32 -12 15 
-8 17 -18 23 -5 10 -21 28 -2 4 -22 32 -3 4 -13 28 
-13 18 -8 15 -18 25 -4 7 -23 28 -3 4 -23 26 -7 6 
7 0 26 0 27 0 26 0 26 0 5 0 22 -23 7 -9 
19 -32 0 0 24 -32 2 -5 21 -28 6 -8 18 -24 8 -15 
14 -17 12 -24 7 -8 19 -33 1 -2 22 -30 4 -9 19 -23 
7 -20 12 -13 14 -32 1 -2 22 -30 4 -13 16 -20 10 -31 
1 -1 22 -32 4 -13 16 -19 9 -33 1 -2 21 -30 5 -20 
12 -12 13 -32 2 -11 18 -22 7 -32 1 -3 21 -29 5 -28 
5 -5 17 -32 4 -27 1013 3410 100 MP
0 -5 0 -33 0 -32 0 -32 0 -32 0 -33 0 -32 0 -32 
0 -12 -1 12 -7 32 -18 21 -1 11 -9 33 -16 17 -2 15 
-12 32 -12 12 -4 20 19 AP
PP
0 sg
0 0 0 -5 0 -33 0 -32 0 -32 0 -32 0 -33 0 -32 
0 -32 0 -12 -1 12 -7 32 -18 21 -1 11 -9 33 -16 17 
-2 15 -12 32 -12 12 -4 20 -17 33 -6 4 -5 28 -21 29 
-1 3 -8 33 -17 20 -3 12 -14 32 -10 10 -5 23 -21 29 
-1 3 -10 32 -15 18 -4 14 -23 32 0 1 -10 32 -16 19 
-4 13 -22 31 -1 1 -13 33 -13 14 -7 18 -19 26 -3 6 
-23 33 0 0 -15 32 -12 15 -8 17 -18 23 -5 10 -21 28 
-2 4 -22 32 -3 4 -13 28 -13 18 -8 15 -18 25 -4 7 
-23 28 -3 4 -23 26 -7 6 7 0 26 0 27 0 26 0 
26 0 5 0 22 -23 7 -9 19 -32 0 0 24 -32 2 -5 
21 -28 6 -8 18 -24 8 -15 14 -17 12 -24 7 -8 19 -33 
1 -2 22 -30 4 -9 19 -23 7 -20 12 -13 14 -32 1 -2 
22 -30 4 -13 16 -20 10 -31 1 -1 22 -32 4 -13 16 -19 
9 -33 1 -2 21 -30 5 -20 12 -12 13 -32 2 -11 18 -22 
7 -32 1 -3 21 -29 5 -28 5 -5 17 -32 4 -27 1013 3410 120 MP stroke
c8
3 8 13 33 11 15 6 17 20 32 0 0 13 32 13 20 
6 13 21 31 0 1 16 32 10 14 9 19 17 23 5 9 
22 30 1 2 21 33 4 5 17 27 9 13 14 19 13 17 
11 15 15 20 10 13 16 20 11 12 16 20 11 12 15 18 
16 14 10 0 27 0 26 0 26 0 27 0 26 0 12 0 
-12 -8 -21 -24 -5 -4 -24 -28 -3 -2 -25 -30 -1 -1 -26 -32 
0 0 -26 -32 -1 0 -25 -32 -1 -1 -24 -31 -2 -3 -23 -30 
-4 -5 -20 -27 -6 -9 -17 -23 -9 -16 -13 -17 -14 -25 -5 -7 
-19 -32 -2 -4 -20 -29 -6 -12 -15 -20 -12 -28 -3 -4 -19 -32 
-4 -10 -16 -23 -10 -28 -4 -4 -18 -32 -5 -14 -13 -18 -12 -33 
-1 -4 -18 -28 -8 -30 -2 -2 -18 -33 -7 -25 0 25 0 33 
0 32 0 32 0 33 0 32 0 32 0 24 3619 3133 95 MP
PP
0 sg
0 0 3 8 13 33 11 15 6 17 20 32 0 0 13 32 
13 20 6 13 21 31 0 1 16 32 10 14 9 19 17 23 
5 9 22 30 1 2 21 33 4 5 17 27 9 13 14 19 
13 17 11 15 15 20 10 13 16 20 11 12 16 20 11 12 
15 18 16 14 10 0 27 0 26 0 26 0 27 0 26 0 
12 0 -12 -8 -21 -24 -5 -4 -24 -28 -3 -2 -25 -30 -1 -1 
-26 -32 0 0 -26 -32 -1 0 -25 -32 -1 -1 -24 -31 -2 -3 
-23 -30 -4 -5 -20 -27 -6 -9 -17 -23 -9 -16 -13 -17 -14 -25 
-5 -7 -19 -32 -2 -4 -20 -29 -6 -12 -15 -20 -12 -28 -3 -4 
-19 -32 -4 -10 -16 -23 -10 -28 -4 -4 -18 -32 -5 -14 -13 -18 
-12 -33 -1 -4 -18 -28 -8 -30 -2 -2 -18 -33 -7 -25 0 25 
0 33 0 32 0 32 0 33 0 32 0 32 0 24 3619 3133 96 MP stroke
c16
1 8 6 32 8 33 10 32 1 2 14 30 12 22 8 10 
19 24 9 9 17 13 26 14 18 5 9 2 26 0 11 -2 
15 -3 27 -13 23 -16 3 -3 26 -28 2 -2 21 -32 4 -6 
12 -26 13 -32 1 -4 8 -29 6 -32 5 -32 2 -33 -21 0 
-26 0 -27 0 -26 0 -26 0 -27 0 -26 0 -26 0 -27 0 
-26 0 -26 0 -27 0 -26 0 -26 0 -5 0 2 33 3 24 
2697 4069 49 MP
PP
0 sg
0 0 1 8 6 32 8 33 10 32 1 2 14 30 12 22 
8 10 19 24 9 9 17 13 26 14 18 5 9 2 26 0 
11 -2 15 -3 27 -13 23 -16 3 -3 26 -28 2 -2 21 -32 
4 -6 12 -26 13 -32 1 -4 8 -29 6 -32 5 -32 2 -33 
-21 0 -26 0 -27 0 -26 0 -26 0 -27 0 -26 0 -26 0 
-27 0 -26 0 -26 0 -27 0 -26 0 -26 0 -5 0 2 33 
3 24 2697 4069 50 MP stroke
c8
0 -25 0 -32 0 -32 0 -33 0 -32 0 -32 0 -5 0 5 
-9 32 -17 23 -2 9 -12 33 -12 12 -5 20 -21 29 -1 3 
-11 32 -15 17 -5 16 -21 29 -1 3 -13 32 -12 14 -7 19 
-20 24 -3 8 -23 32 0 0 -15 33 -11 13 -10 19 -17 21 
-5 11 -21 26 -3 6 -23 30 -2 3 -25 32 0 0 -21 32 
-5 6 -23 26 23 0 26 0 27 0 25 0 1 -1 26 -31 
0 -1 25 -31 2 -2 23 -30 3 -6 21 -27 5 -10 18 -22 
9 -18 12 -14 14 -32 1 0 23 -33 2 -7 20 -25 7 -20 
12 -12 13 -33 1 -3 21 -29 5 -19 12 -13 13 -33 1 -7 
1013 3003 73 MP
PP
0 sg
0 0 0 -25 0 -32 0 -32 0 -33 0 -32 0 -32 0 -5 
0 5 -9 32 -17 23 -2 9 -12 33 -12 12 -5 20 -21 29 
-1 3 -11 32 -15 17 -5 16 -21 29 -1 3 -13 32 -12 14 
-7 19 -20 24 -3 8 -23 32 0 0 -15 33 -11 13 -10 19 
-17 21 -5 11 -21 26 -3 6 -23 30 -2 3 -25 32 0 0 
-21 32 -5 6 -23 26 23 0 26 0 27 0 25 0 1 -1 
26 -31 0 -1 25 -31 2 -2 23 -30 3 -6 21 -27 5 -10 
18 -22 9 -18 12 -14 14 -32 1 0 23 -33 2 -7 20 -25 
7 -20 12 -12 13 -33 1 -3 21 -29 5 -19 12 -13 13 -33 
1 -7 1013 3003 74 MP stroke
c8
3 7 19 32 4 4 14 28 12 17 9 16 17 22 7 10 
20 26 4 6 22 27 4 5 22 0 27 0 26 0 26 0 
15 0 -15 -16 -13 -16 -13 -16 -13 -16 -13 -19 -11 -13 -16 -25 
-5 -8 -20 -32 -1 -1 -23 -31 -3 -6 -19 -26 -8 -15 -13 -18 
-13 -29 -3 -3 -19 -32 -4 -9 -16 -24 -11 -27 0 27 0 33 
0 32 0 32 0 33 1 25 3618 2744 45 MP
PP
0 sg
0 0 3 7 19 32 4 4 14 28 12 17 9 16 17 22 
7 10 20 26 4 6 22 27 4 5 22 0 27 0 26 0 
26 0 15 0 -15 -16 -13 -16 -13 -16 -13 -16 -13 -19 -11 -13 
-16 -25 -5 -8 -20 -32 -1 -1 -23 -31 -3 -6 -19 -26 -8 -15 
-13 -18 -13 -29 -3 -3 -19 -32 -4 -9 -16 -24 -11 -27 0 27 
0 33 0 32 0 32 0 33 1 25 3618 2744 46 MP stroke
c17
4 20 12 32 10 22 7 11 19 22 14 10 13 7 26 5 
26 -5 13 -7 14 -9 21 -23 5 -8 13 -25 12 -32 1 -3 
6 -29 4 -33 -10 0 -26 0 -26 0 -27 0 -26 0 -26 0 
-27 0 -26 0 -26 0 -5 0 3 33 2 12 2618 4081 31 MP
PP
0 sg
0 0 4 20 12 32 10 22 7 11 19 22 14 10 13 7 
26 5 26 -5 13 -7 14 -9 21 -23 5 -8 13 -25 12 -32 
1 -3 6 -29 4 -33 -10 0 -26 0 -26 0 -27 0 -26 0 
-26 0 -27 0 -26 0 -26 0 -5 0 3 33 2 12 2618 4081 32 MP stroke
c8
0 -20 0 -32 0 -32 0 -33 0 -32 0 -3 0 3 -12 32 
-14 16 -6 17 -20 26 -2 6 -21 32 -3 4 -13 28 -14 16 
-8 17 -18 21 -6 11 -20 25 -5 7 -22 26 -5 6 5 0 
27 0 26 0 26 0 11 0 16 -21 11 -11 15 -27 5 -5 
20 -32 1 -3 22 -30 4 -12 1013 2685 37 MP
PP
0 sg
0 0 0 -20 0 -32 0 -32 0 -33 0 -32 0 -3 0 3 
-12 32 -14 16 -6 17 -20 26 -2 6 -21 32 -3 4 -13 28 
-14 16 -8 17 -18 21 -6 11 -20 25 -5 7 -22 26 -5 6 
5 0 27 0 26 0 26 0 11 0 16 -21 11 -11 15 -27 
5 -5 20 -32 1 -3 22 -30 4 -12 1013 2685 38 MP stroke
c8
27 0 3 0 -3 -5 -21 -27 -6 -9 0 9 0 32 0 0 
3619 2544 9 MP
PP
0 sg
0 0 27 0 3 0 -3 -5 -21 -27 -6 -9 0 9 0 32 
0 0 3619 2544 10 MP stroke
c8
0 0 0 -11 -6 11 6 0 1013 2544 5 MP
PP
0 sg
0 0 0 0 0 -11 -6 11 6 0 1013 2544 6 MP stroke
gr

0 sg
4 w
DO
SO
6 w
1013 4126 mt 3619 4126 L
1013 2544 mt 3619 2544 L
1013 4126 mt 1013 2544 L
3619 4126 mt 3619 2544 L
1013 4126 mt 3619 4126 L
1013 4126 mt 1013 2544 L
1438 4126 mt 1438 4099 L
1438 2544 mt 1438 2570 L
1335 4271 mt 
(-2) s
1877 4126 mt 1877 4099 L
1877 2544 mt 1877 2570 L
1774 4271 mt 
(-1) s
2316 4126 mt 2316 4099 L
2316 2544 mt 2316 2570 L
2283 4271 mt 
(0) s
2754 4126 mt 2754 4099 L
2754 2544 mt 2754 2570 L
2721 4271 mt 
(1) s
3193 4126 mt 3193 4099 L
3193 2544 mt 3193 2570 L
3160 4271 mt 
(2) s
1013 3850 mt 1039 3850 L
3619 3850 mt 3592 3850 L
 812 3894 mt 
(0.5) s
1013 3558 mt 1039 3558 L
3619 3558 mt 3592 3558 L
 912 3602 mt 
(1) s
1013 3266 mt 1039 3266 L
3619 3266 mt 3592 3266 L
 812 3310 mt 
(1.5) s
1013 2974 mt 1039 2974 L
3619 2974 mt 3592 2974 L
 912 3018 mt 
(2) s
1013 2682 mt 1039 2682 L
3619 2682 mt 3592 2682 L
 812 2726 mt 
(2.5) s
1013 4126 mt 3619 4126 L
1013 2544 mt 3619 2544 L
1013 4126 mt 1013 2544 L
3619 4126 mt 3619 2544 L
1 sg
0 1582 2607 0 0 -1582 4442 4126 4 MP
PP
-2607 0 0 1582 2607 0 0 -1582 4442 4126 5 MP stroke
gs 4442 2544 2608 1583 rc
c8
27 0 26 0 26 0 27 0 26 0 26 0 27 0 26 0 
26 0 27 0 26 0 26 0 27 0 26 0 26 0 27 0 
26 0 26 0 27 0 26 0 26 0 27 0 26 0 26 0 
27 0 26 0 26 0 27 0 26 0 26 0 27 0 26 0 
26 0 27 0 26 0 26 0 27 0 26 0 26 0 27 0 
26 0 26 0 27 0 26 0 26 0 27 0 26 0 26 0 
27 0 26 0 26 0 27 0 26 0 26 0 27 0 26 0 
26 0 27 0 26 0 26 0 27 0 26 0 26 0 27 0 
26 0 26 0 27 0 26 0 26 0 27 0 26 0 26 0 
27 0 26 0 26 0 27 0 26 0 26 0 27 0 26 0 
26 0 27 0 26 0 26 0 27 0 26 0 26 0 27 0 
26 0 26 0 27 0 26 0 26 0 27 0 26 0 26 0 
27 0 26 0 26 0 4442 2544 100 MP
-27 0 -26 0 -26 0 -27 0 -26 0 -26 0 -27 0 -26 0 
-26 0 -27 0 -26 0 -26 0 -27 0 -26 0 -26 0 -27 0 
-26 0 -26 0 -27 0 -26 0 -26 0 -27 0 -26 0 -26 0 
-27 0 -26 0 -26 0 -27 0 -26 0 -26 0 -27 0 -26 0 
-26 0 -27 0 -26 0 -26 0 -27 0 -26 0 -26 0 -27 0 
-26 0 -26 0 -27 0 -26 0 -26 0 -27 0 -26 0 -26 0 
-27 0 0 0 0 33 0 32 0 32 0 33 0 32 0 32 
0 32 0 33 0 32 0 32 0 33 0 32 0 32 0 32 
0 33 0 32 0 32 0 33 0 32 0 32 0 32 0 33 
0 32 0 32 0 33 0 32 0 32 0 33 0 32 0 32 
0 32 0 33 0 32 0 32 0 32 0 33 0 32 0 32 
0 33 0 32 0 32 0 33 0 32 0 32 0 32 0 33 
0 32 0 32 0 32 0 0 100 AP
0 -32 0 -32 0 -32 0 -33 0 -32 0 -32 0 -32 0 -33 
0 -32 0 -32 0 -33 0 -32 0 -32 0 -33 0 -32 0 -32 
0 -32 0 -33 0 -32 0 -32 0 -32 0 -33 0 -32 0 -32 
0 -33 0 -32 0 -32 0 -33 0 -32 0 -32 0 -32 0 -33 
0 -32 0 -32 0 -33 0 -32 0 -32 0 -32 0 -33 0 -32 
0 -32 0 -33 0 -32 0 -32 0 -32 0 -33 0 -32 0 -32 
0 -33 0 0 -26 0 -26 0 -27 0 -26 0 -26 0 -27 0 
-26 0 -26 0 -27 0 -26 0 -26 0 -27 0 -26 0 -26 0 
-27 0 -26 0 -26 0 -27 0 -26 0 -26 0 -27 0 -26 0 
-26 0 -27 0 -26 0 -26 0 -27 0 -26 0 -26 0 -27 0 
-26 0 -26 0 -27 0 -26 0 -26 0 -27 0 -26 0 -26 0 
-27 0 -26 0 -26 0 -27 0 -26 0 -26 0 -27 0 -26 0 
-26 0 -27 0 -26 0 -26 0 100 AP
0 0 1 AP
PP
0 sg
0 0 0 0 0 -32 0 -32 0 -32 0 -33 0 -32 0 -32 
0 -32 0 -33 0 -32 0 -32 0 -33 0 -32 0 -32 0 -33 
0 -32 0 -32 0 -32 0 -33 0 -32 0 -32 0 -32 0 -33 
0 -32 0 -32 0 -33 0 -32 0 -32 0 -33 0 -32 0 -32 
0 -32 0 -33 0 -32 0 -32 0 -33 0 -32 0 -32 0 -32 
0 -33 0 -32 0 -32 0 -33 0 -32 0 -32 0 -32 0 -33 
0 -32 0 -32 0 -33 0 0 -26 0 -26 0 -27 0 -26 0 
-26 0 -27 0 -26 0 -26 0 -27 0 -26 0 -26 0 -27 0 
-26 0 -26 0 -27 0 -26 0 -26 0 -27 0 -26 0 -26 0 
-27 0 -26 0 -26 0 -27 0 -26 0 -26 0 -27 0 -26 0 
-26 0 -27 0 -26 0 -26 0 -27 0 -26 0 -26 0 -27 0 
-26 0 -26 0 -27 0 -26 0 -26 0 -27 0 -26 0 -26 0 
-27 0 -26 0 -26 0 -27 0 -26 0 -26 0 -27 0 -26 0 
-26 0 -27 0 -26 0 -26 0 -27 0 -26 0 -26 0 -27 0 
-26 0 -26 0 -27 0 -26 0 -26 0 -27 0 -26 0 -26 0 
-27 0 -26 0 -26 0 -27 0 -26 0 -26 0 -27 0 -26 0 
-26 0 -27 0 -26 0 -26 0 -27 0 -26 0 -26 0 -27 0 
-26 0 -26 0 -27 0 -26 0 -26 0 -27 0 -26 0 -26 0 
-27 0 -26 0 -26 0 -27 0 -26 0 -26 0 -27 0 0 0 
0 33 0 32 0 32 0 33 0 32 0 32 0 32 0 33 
0 32 0 32 0 33 0 32 0 32 0 32 0 33 0 32 
0 32 0 33 0 32 0 32 0 32 0 33 0 32 0 32 
0 33 0 32 0 32 0 33 0 32 0 32 0 32 0 33 
0 32 0 32 0 32 0 33 0 32 0 32 0 33 0 32 
0 32 0 33 0 32 0 32 0 32 0 33 0 32 0 32 
0 32 0 0 27 0 26 0 26 0 27 0 26 0 26 0 
27 0 26 0 26 0 27 0 26 0 26 0 27 0 26 0 
26 0 27 0 26 0 26 0 27 0 26 0 26 0 27 0 
26 0 26 0 27 0 26 0 26 0 27 0 26 0 26 0 
27 0 26 0 26 0 27 0 26 0 26 0 27 0 26 0 
26 0 27 0 26 0 26 0 27 0 26 0 26 0 27 0 
26 0 26 0 27 0 26 0 26 0 27 0 26 0 26 0 
27 0 26 0 26 0 27 0 26 0 26 0 27 0 26 0 
26 0 27 0 26 0 26 0 27 0 26 0 26 0 27 0 
26 0 26 0 27 0 26 0 26 0 27 0 26 0 26 0 
27 0 26 0 26 0 27 0 26 0 26 0 27 0 26 0 
26 0 27 0 26 0 26 0 27 0 26 0 26 0 27 0 
26 0 26 0 27 0 4494 2544 300 MP stroke
26 0 26 0 4442 2544 3 MP stroke
c8
27 0 26 0 26 0 27 0 26 0 26 0 27 0 26 0 
26 0 27 0 26 0 26 0 27 0 26 0 26 0 27 0 
26 0 26 0 27 0 26 0 26 0 27 0 26 0 26 0 
27 0 26 0 26 0 27 0 26 0 26 0 27 0 26 0 
26 0 27 0 26 0 26 0 27 0 26 0 26 0 27 0 
26 0 26 0 27 0 26 0 26 0 27 0 26 0 26 0 
27 0 26 0 26 0 27 0 26 0 26 0 27 0 26 0 
26 0 27 0 26 0 26 0 27 0 26 0 26 0 27 0 
26 0 26 0 27 0 26 0 26 0 27 0 20 0 6 -4 
26 -28 0 0 27 -23 8 -9 18 -18 13 -14 13 -16 15 -17 
12 -14 15 -18 11 -14 15 -18 11 -16 14 -16 13 -21 10 -12 
16 -27 5 -5 20 -32 1 -3 22 -30 5 -11 15 -21 11 -25 
5 -7 18 -33 3 -11 4442 3007 100 MP
-27 0 -26 0 -26 0 -27 0 -26 0 -26 0 -27 0 -26 0 
-26 0 -27 0 -26 0 -26 0 -27 0 -26 0 -26 0 -27 0 
-26 0 -26 0 -27 0 -26 0 -26 0 -27 0 -26 0 -26 0 
-27 0 -26 0 -26 0 -27 0 -26 0 -26 0 -27 0 -26 0 
-26 0 -27 0 0 0 0 33 0 32 0 32 0 33 0 32 
0 32 0 32 0 33 0 32 0 32 0 33 0 32 0 32 
0 32 0 33 0 32 0 32 0 33 0 32 0 32 0 32 
0 33 0 32 0 32 0 33 0 32 0 32 0 33 0 32 
0 32 0 32 0 33 0 32 0 32 0 21 4 11 18 33 
5 7 11 25 15 21 5 11 21 30 2 3 20 32 5 5 
16 27 10 12 13 21 13 16 12 16 15 18 11 14 15 18 
12 14 14 17 14 16 13 14 18 18 8 9 26 23 1 0 
26 28 6 4 20 0 26 0 100 AP
0 -32 0 -32 0 -33 0 -32 0 -32 0 -32 0 -33 0 -32 
0 -32 0 -33 0 -32 0 -32 0 -33 0 -32 0 -32 0 -32 
0 -33 0 -32 0 -32 0 -33 0 -32 0 -32 0 -32 0 -33 
0 -32 0 -32 0 -33 0 -32 0 -32 0 -32 0 -33 0 -32 
0 -32 0 -33 0 0 -26 0 -26 0 -27 0 -26 0 -26 0 
-27 0 -26 0 -26 0 -27 0 -26 0 -26 0 -27 0 -26 0 
-26 0 -27 0 -26 0 -26 0 -27 0 -26 0 -26 0 -27 0 
-26 0 -26 0 -27 0 -26 0 -26 0 -27 0 -26 0 -26 0 
-27 0 -26 0 -26 0 -27 0 -26 0 -26 0 -27 0 -26 0 
-26 0 -27 0 -26 0 -26 0 -27 0 -26 0 -26 0 -27 0 
-26 0 -26 0 -27 0 -26 0 -26 0 -27 0 -26 0 -26 0 
-27 0 -26 0 -26 0 -27 0 -26 0 -26 0 -27 0 -26 0 
-26 0 -27 0 -26 0 -26 0 100 AP
0 -21 1 AP
PP
0 sg
0 0 0 -21 0 -32 0 -32 0 -33 0 -32 0 -32 0 -32 
0 -33 0 -32 0 -32 0 -33 0 -32 0 -32 0 -33 0 -32 
0 -32 0 -32 0 -33 0 -32 0 -32 0 -33 0 -32 0 -32 
0 -32 0 -33 0 -32 0 -32 0 -33 0 -32 0 -32 0 -32 
0 -33 0 -32 0 -32 0 -33 0 0 -26 0 -26 0 -27 0 
-26 0 -26 0 -27 0 -26 0 -26 0 -27 0 -26 0 -26 0 
-27 0 -26 0 -26 0 -27 0 -26 0 -26 0 -27 0 -26 0 
-26 0 -27 0 -26 0 -26 0 -27 0 -26 0 -26 0 -27 0 
-26 0 -26 0 -27 0 -26 0 -26 0 -27 0 -26 0 -26 0 
-27 0 -26 0 -26 0 -27 0 -26 0 -26 0 -27 0 -26 0 
-26 0 -27 0 -26 0 -26 0 -27 0 -26 0 -26 0 -27 0 
-26 0 -26 0 -27 0 -26 0 -26 0 -27 0 -26 0 -26 0 
-27 0 -26 0 -26 0 -27 0 -26 0 -26 0 -27 0 -26 0 
-26 0 -27 0 -26 0 -26 0 -27 0 -26 0 -26 0 -27 0 
-26 0 -26 0 -27 0 -26 0 -26 0 -27 0 -26 0 -26 0 
-27 0 -26 0 -26 0 -27 0 -26 0 -26 0 -27 0 -26 0 
-26 0 -27 0 -26 0 -26 0 -27 0 -26 0 -26 0 -27 0 
0 0 0 33 0 32 0 32 0 33 0 32 0 32 0 32 
0 33 0 32 0 32 0 33 0 32 0 32 0 32 0 33 
0 32 0 32 0 33 0 32 0 32 0 32 0 33 0 32 
0 32 0 33 0 32 0 32 0 33 0 32 0 32 0 32 
0 33 0 32 0 32 0 21 4 11 18 33 5 7 11 25 
15 21 5 11 21 30 2 3 20 32 5 5 16 27 10 12 
13 21 13 16 12 16 15 18 11 14 15 18 12 14 14 17 
14 16 13 14 18 18 8 9 26 23 1 0 26 28 6 4 
20 0 26 0 27 0 26 0 26 0 27 0 26 0 26 0 
27 0 26 0 26 0 27 0 26 0 26 0 27 0 26 0 
26 0 27 0 26 0 26 0 27 0 26 0 26 0 27 0 
26 0 26 0 27 0 26 0 26 0 27 0 26 0 26 0 
27 0 26 0 26 0 27 0 26 0 26 0 27 0 26 0 
26 0 27 0 26 0 26 0 27 0 26 0 26 0 27 0 
26 0 26 0 27 0 26 0 26 0 27 0 26 0 26 0 
27 0 26 0 26 0 27 0 26 0 26 0 27 0 26 0 
26 0 27 0 26 0 26 0 27 0 26 0 26 0 27 0 
20 0 6 -4 26 -28 0 0 27 -23 8 -9 18 -18 13 -14 
13 -16 15 -17 12 -14 15 -18 11 -14 15 -18 11 -16 14 -16 
13 -21 10 -12 16 -27 5 -5 20 -32 1 -3 22 -30 5 -11 
15 -21 11 -25 5 -7 4463 2963 300 MP stroke
18 -33 3 -11 4442 3007 3 MP stroke
/c30 { 0.000000 0.312500 1.000000 sr} bdef
c30
-26 0 -27 0 -26 0 -26 0 -27 0 -26 0 -26 0 -27 0 
-26 0 -26 0 -27 0 -26 0 -26 0 -27 0 -26 0 -26 0 
-27 0 -26 0 -26 0 -27 0 -26 0 -26 0 -27 0 -26 0 
-26 0 -27 0 -26 0 -26 0 -23 0 1 33 2 32 2 32 
3 33 4 32 5 32 6 30 0 2 7 33 7 32 10 32 
2 8 7 25 12 32 7 19 6 13 14 32 7 15 9 18 
17 30 1 2 21 32 4 6 20 27 7 8 22 24 4 5 
26 24 4 3 23 18 22 14 4 3 26 14 27 11 16 5 
10 3 26 6 27 2 26 0 26 -2 27 -6 10 -3 16 -5 
26 -11 27 -14 4 -3 22 -14 23 -18 3 -3 27 -24 4 -5 
22 -24 7 -8 19 -27 5 -6 21 -32 1 -2 17 -30 9 -18 
7 -15 14 -32 5 -13 8 -19 12 -32 7 -25 2 -8 10 -32 
7 -32 7 -33 0 -2 5337 3902 100 MP
6 -30 5 -32 4 -32 3 -33 2 -32 2 -32 1 -33 -23 0 
-26 0 -27 0 -26 0 11 AP
PP
0 sg
0 0 6 -30 5 -32 4 -32 3 -33 2 -32 2 -32 1 -33 
-23 0 -26 0 -27 0 -26 0 -26 0 -27 0 -26 0 -26 0 
-27 0 -26 0 -26 0 -27 0 -26 0 -26 0 -27 0 -26 0 
-26 0 -27 0 -26 0 -26 0 -27 0 -26 0 -26 0 -27 0 
-26 0 -26 0 -27 0 -26 0 -26 0 -27 0 -26 0 -26 0 
-23 0 1 33 2 32 2 32 3 33 4 32 5 32 6 30 
0 2 7 33 7 32 10 32 2 8 7 25 12 32 7 19 
6 13 14 32 7 15 9 18 17 30 1 2 21 32 4 6 
20 27 7 8 22 24 4 5 26 24 4 3 23 18 22 14 
4 3 26 14 27 11 16 5 10 3 26 6 27 2 26 0 
26 -2 27 -6 10 -3 16 -5 26 -11 27 -14 4 -3 22 -14 
23 -18 3 -3 27 -24 4 -5 22 -24 7 -8 19 -27 5 -6 
21 -32 1 -2 17 -30 9 -18 7 -15 14 -32 5 -13 8 -19 
12 -32 7 -25 2 -8 10 -32 7 -32 7 -33 0 -2 5337 3902 112 MP stroke
/c31 { 0.125000 1.000000 0.875000 sr} bdef
c31
1 -12 2 -32 2 -33 -5 0 -26 0 -27 0 -26 0 -26 0 
-27 0 -26 0 -26 0 -27 0 -26 0 -26 0 -27 0 -26 0 
-26 0 -27 0 -26 0 -26 0 -27 0 -26 0 -26 0 -27 0 
-26 0 -26 0 -27 0 -26 0 -26 0 -5 0 2 33 2 32 
1 12 2 20 4 33 5 32 7 32 8 32 0 2 9 31 
11 32 6 17 7 15 14 33 6 11 11 21 15 24 5 8 
21 29 3 3 24 27 6 6 20 18 20 14 6 5 27 15 
26 10 9 2 17 5 27 4 26 0 26 -4 18 -5 9 -2 
26 -10 26 -15 7 -5 20 -14 20 -18 6 -6 24 -27 2 -3 
22 -29 5 -8 15 -24 11 -21 6 -11 14 -33 6 -15 7 -17 
11 -32 9 -31 0 -2 8 -32 7 -32 5 -32 4 -33 2 -20 
5416 4049 89 MP
PP
0 sg
0 0 1 -12 2 -32 2 -33 -5 0 -26 0 -27 0 -26 0 
-26 0 -27 0 -26 0 -26 0 -27 0 -26 0 -26 0 -27 0 
-26 0 -26 0 -27 0 -26 0 -26 0 -27 0 -26 0 -26 0 
-27 0 -26 0 -26 0 -27 0 -26 0 -26 0 -5 0 2 33 
2 32 1 12 2 20 4 33 5 32 7 32 8 32 0 2 
9 31 11 32 6 17 7 15 14 33 6 11 11 21 15 24 
5 8 21 29 3 3 24 27 6 6 20 18 20 14 6 5 
27 15 26 10 9 2 17 5 27 4 26 0 26 -4 18 -5 
9 -2 26 -10 26 -15 7 -5 20 -14 20 -18 6 -6 24 -27 
2 -3 22 -29 5 -8 15 -24 11 -21 6 -11 14 -33 6 -15 
7 -17 11 -32 9 -31 0 -2 8 -32 7 -32 5 -32 4 -33 
2 -20 5416 4049 90 MP stroke
/c32 { 0.937500 1.000000 0.062500 sr} bdef
c32
3 -17 4 -32 3 -32 1 -33 -11 0 -26 0 -27 0 -26 0 
-26 0 -27 0 -26 0 -26 0 -27 0 -26 0 -26 0 -27 0 
-26 0 -26 0 -27 0 -26 0 -26 0 -27 0 -26 0 -26 0 
-11 0 1 33 3 32 4 32 3 17 3 16 7 32 9 32 
7 23 3 9 13 33 10 21 6 11 19 32 2 3 23 30 
3 4 26 26 3 2 24 18 26 14 0 0 26 9 27 5 
26 0 26 -5 27 -9 0 0 26 -14 24 -18 2 -2 27 -26 
3 -4 23 -30 2 -3 19 -32 5 -11 11 -21 13 -33 3 -9 
7 -23 9 -32 7 -32 3 -16 5495 4012 69 MP
PP
0 sg
0 0 3 -17 4 -32 3 -32 1 -33 -11 0 -26 0 -27 0 
-26 0 -26 0 -27 0 -26 0 -26 0 -27 0 -26 0 -26 0 
-27 0 -26 0 -26 0 -27 0 -26 0 -26 0 -27 0 -26 0 
-26 0 -11 0 1 33 3 32 4 32 3 17 3 16 7 32 
9 32 7 23 3 9 13 33 10 21 6 11 19 32 2 3 
23 30 3 4 26 26 3 2 24 18 26 14 0 0 26 9 
27 5 26 0 26 -5 27 -9 0 0 26 -14 24 -18 2 -2 
27 -26 3 -4 23 -30 2 -3 19 -32 5 -11 11 -21 13 -33 
3 -9 7 -23 9 -32 7 -32 3 -16 5495 4012 70 MP stroke
/c33 { 1.000000 0.250000 0.000000 sr} bdef
c33
4 -13 8 -33 6 -32 3 -32 2 -33 -23 0 -26 0 -27 0 
-26 0 -26 0 -27 0 -26 0 -26 0 -27 0 -26 0 -26 0 
-27 0 -26 0 -26 0 -23 0 2 33 3 32 6 32 8 33 
4 13 6 19 13 32 7 14 10 18 16 25 7 8 20 21 
14 11 12 9 26 13 27 6 26 0 26 -6 27 -13 12 -9 
14 -11 20 -21 6 -8 17 -25 10 -18 7 -14 13 -32 6 -19 
5574 3983 49 MP
PP
0 sg
0 0 4 -13 8 -33 6 -32 3 -32 2 -33 -23 0 -26 0 
-27 0 -26 0 -26 0 -27 0 -26 0 -26 0 -27 0 -26 0 
-26 0 -27 0 -26 0 -26 0 -23 0 2 33 3 32 6 32 
8 33 4 13 6 19 13 32 7 14 10 18 16 25 7 8 
20 21 14 11 12 9 26 13 27 6 26 0 26 -6 27 -13 
12 -9 14 -11 20 -21 6 -8 17 -25 10 -18 7 -14 13 -32 
6 -19 5574 3983 50 MP stroke
c17
1 -7 -1 0 -26 0 -26 0 -27 0 -26 0 -26 0 -27 0 
-26 0 -26 0 -27 0 0 0 0 7 3 26 7 32 10 32 
7 18 8 15 18 26 6 6 20 17 27 10 26 0 26 -10 
21 -17 6 -6 18 -26 8 -15 7 -18 10 -32 7 -32 2 -26 
5627 4119 33 MP
PP
0 sg
0 0 1 -7 -1 0 -26 0 -26 0 -27 0 -26 0 -26 0 
-27 0 -26 0 -26 0 -27 0 0 0 0 7 3 26 7 32 
10 32 7 18 8 15 18 26 6 6 20 17 27 10 26 0 
26 -10 21 -17 6 -6 18 -26 8 -15 7 -18 10 -32 7 -32 
2 -26 5627 4119 34 MP stroke
c8
0 0 0 -32 0 -32 0 -32 0 -33 0 -8 -4 8 -22 32 
0 1 -22 32 -4 5 -21 27 -6 7 -23 25 23 0 27 0 
26 0 26 0 4442 2544 19 MP
PP
0 sg
0 0 0 0 0 -32 0 -32 0 -32 0 -33 0 -8 -4 8 
-22 32 0 1 -22 32 -4 5 -21 27 -6 7 -23 25 23 0 
27 0 26 0 26 0 4442 2544 20 MP stroke
c8
27 0 26 0 26 0 24 0 -24 -25 -5 -7 -21 -27 -4 -5 
-22 -32 0 -1 -22 -32 -5 -8 0 8 0 33 0 32 0 32 
0 32 0 0 7049 2544 19 MP
PP
0 sg
0 0 27 0 26 0 26 0 24 0 -24 -25 -5 -7 -21 -27 
-4 -5 -22 -32 0 -1 -22 -32 -5 -8 0 8 0 33 0 32 
0 32 0 32 0 0 7049 2544 20 MP stroke
gr

0 sg
4 w
DO
SO
6 w
4442 4126 mt 7049 4126 L
4442 2544 mt 7049 2544 L
4442 4126 mt 4442 2544 L
7049 4126 mt 7049 2544 L
4442 4126 mt 7049 4126 L
4442 4126 mt 4442 2544 L
4867 4126 mt 4867 4099 L
4867 2544 mt 4867 2570 L
4764 4271 mt 
(-2) s
5306 4126 mt 5306 4099 L
5306 2544 mt 5306 2570 L
5203 4271 mt 
(-1) s
5745 4126 mt 5745 4099 L
5745 2544 mt 5745 2570 L
5712 4271 mt 
(0) s
6184 4126 mt 6184 4099 L
6184 2544 mt 6184 2570 L
6151 4271 mt 
(1) s
6623 4126 mt 6623 4099 L
6623 2544 mt 6623 2570 L
6590 4271 mt 
(2) s
4442 3850 mt 4468 3850 L
7049 3850 mt 7022 3850 L
4241 3894 mt 
(0.5) s
4442 3558 mt 4468 3558 L
7049 3558 mt 7022 3558 L
4341 3602 mt 
(1) s
4442 3266 mt 4468 3266 L
7049 3266 mt 7022 3266 L
4241 3310 mt 
(1.5) s
4442 2974 mt 4468 2974 L
7049 2974 mt 7022 2974 L
4341 3018 mt 
(2) s
4442 2682 mt 4468 2682 L
7049 2682 mt 7022 2682 L
4241 2726 mt 
(2.5) s
4442 4126 mt 7049 4126 L
4442 2544 mt 7049 2544 L
4442 4126 mt 4442 2544 L
7049 4126 mt 7049 2544 L

end %%Color Dict

eplot
%%EndObject

epage
end

showpage

%%Trailer
%%EOF
