%!PS-Adobe-3.0 EPSF-3.0
%%Creator: MATLAB, The Mathworks, Inc. Version 7.5.0.338 (R2007b). Operating System: Linux 2.6.16.60-0.34-smp #1 SMP Fri Jan 16 14:59:01 UTC 2009 x86_64.
%%Title: /gpfs/space/phsfar/beta/zonal01/gam_zonal_bench.eps
%%CreationDate: 03/21/2009  15:08:58
%%DocumentNeededFonts: Helvetica
%%DocumentProcessColors: Cyan Magenta Yellow Black
%%LanguageLevel: 2
%%Pages: 1
%%BoundingBox:    20   317   575   523
%%EndComments

%%BeginProlog
% MathWorks dictionary
/MathWorks 160 dict begin
% definition operators
/bdef {bind def} bind def
/ldef {load def} bind def
/xdef {exch def} bdef
/xstore {exch store} bdef
% operator abbreviations
/c  /clip ldef
/cc /concat ldef
/cp /closepath ldef
/gr /grestore ldef
/gs /gsave ldef
/mt /moveto ldef
/np /newpath ldef
/cm /currentmatrix ldef
/sm /setmatrix ldef
/rm /rmoveto ldef
/rl /rlineto ldef
/s {show newpath} bdef
/sc {setcmykcolor} bdef
/sr /setrgbcolor ldef
/sg /setgray ldef
/w /setlinewidth ldef
/j /setlinejoin ldef
/cap /setlinecap ldef
/rc {rectclip} bdef
/rf {rectfill} bdef
% page state control
/pgsv () def
/bpage {/pgsv save def} bdef
/epage {pgsv restore} bdef
/bplot /gsave ldef
/eplot {stroke grestore} bdef
% orientation switch
/portraitMode 0 def /landscapeMode 1 def /rotateMode 2 def
% coordinate system mappings
/dpi2point 0 def
% font control
/FontSize 0 def
/FMS {/FontSize xstore findfont [FontSize 0 0 FontSize neg 0 0]
  makefont setfont} bdef
/reencode {exch dup where {pop load} {pop StandardEncoding} ifelse
  exch dup 3 1 roll findfont dup length dict begin
  { 1 index /FID ne {def}{pop pop} ifelse } forall
  /Encoding exch def currentdict end definefont pop} bdef
/isroman {findfont /CharStrings get /Agrave known} bdef
/FMSR {3 1 roll 1 index dup isroman {reencode} {pop pop} ifelse
  exch FMS} bdef
/csm {1 dpi2point div -1 dpi2point div scale neg translate
 dup landscapeMode eq {pop -90 rotate}
  {rotateMode eq {90 rotate} if} ifelse} bdef
% line types: solid, dotted, dashed, dotdash
/SO { [] 0 setdash } bdef
/DO { [.5 dpi2point mul 4 dpi2point mul] 0 setdash } bdef
/DA { [6 dpi2point mul] 0 setdash } bdef
/DD { [.5 dpi2point mul 4 dpi2point mul 6 dpi2point mul 4
  dpi2point mul] 0 setdash } bdef
% macros for lines and objects
/L {lineto stroke} bdef
/MP {3 1 roll moveto 1 sub {rlineto} repeat} bdef
/AP {{rlineto} repeat} bdef
/PDlw -1 def
/W {/PDlw currentlinewidth def setlinewidth} def
/PP {closepath eofill} bdef
/DP {closepath stroke} bdef
/MR {4 -2 roll moveto dup  0 exch rlineto exch 0 rlineto
  neg 0 exch rlineto closepath} bdef
/FR {MR stroke} bdef
/PR {MR fill} bdef
/L1i {{currentfile picstr readhexstring pop} image} bdef
/tMatrix matrix def
/MakeOval {newpath tMatrix currentmatrix pop translate scale
0 0 1 0 360 arc tMatrix setmatrix} bdef
/FO {MakeOval stroke} bdef
/PO {MakeOval fill} bdef
/PD {currentlinewidth 2 div 0 360 arc fill
   PDlw -1 eq not {PDlw w /PDlw -1 def} if} def
/FA {newpath tMatrix currentmatrix pop translate scale
  0 0 1 5 -2 roll arc tMatrix setmatrix stroke} bdef
/PA {newpath tMatrix currentmatrix pop	translate 0 0 moveto scale
  0 0 1 5 -2 roll arc closepath tMatrix setmatrix fill} bdef
/FAn {newpath tMatrix currentmatrix pop translate scale
  0 0 1 5 -2 roll arcn tMatrix setmatrix stroke} bdef
/PAn {newpath tMatrix currentmatrix pop translate 0 0 moveto scale
  0 0 1 5 -2 roll arcn closepath tMatrix setmatrix fill} bdef
/vradius 0 def /hradius 0 def /lry 0 def
/lrx 0 def /uly 0 def /ulx 0 def /rad 0 def
/MRR {/vradius xdef /hradius xdef /lry xdef /lrx xdef /uly xdef
  /ulx xdef newpath tMatrix currentmatrix pop ulx hradius add uly
  vradius add translate hradius vradius scale 0 0 1 180 270 arc 
  tMatrix setmatrix lrx hradius sub uly vradius add translate
  hradius vradius scale 0 0 1 270 360 arc tMatrix setmatrix
  lrx hradius sub lry vradius sub translate hradius vradius scale
  0 0 1 0 90 arc tMatrix setmatrix ulx hradius add lry vradius sub
  translate hradius vradius scale 0 0 1 90 180 arc tMatrix setmatrix
  closepath} bdef
/FRR {MRR stroke } bdef
/PRR {MRR fill } bdef
/MlrRR {/lry xdef /lrx xdef /uly xdef /ulx xdef /rad lry uly sub 2 div def
  newpath tMatrix currentmatrix pop ulx rad add uly rad add translate
  rad rad scale 0 0 1 90 270 arc tMatrix setmatrix lrx rad sub lry rad
  sub translate rad rad scale 0 0 1 270 90 arc tMatrix setmatrix
  closepath} bdef
/FlrRR {MlrRR stroke } bdef
/PlrRR {MlrRR fill } bdef
/MtbRR {/lry xdef /lrx xdef /uly xdef /ulx xdef /rad lrx ulx sub 2 div def
  newpath tMatrix currentmatrix pop ulx rad add uly rad add translate
  rad rad scale 0 0 1 180 360 arc tMatrix setmatrix lrx rad sub lry rad
  sub translate rad rad scale 0 0 1 0 180 arc tMatrix setmatrix
  closepath} bdef
/FtbRR {MtbRR stroke } bdef
/PtbRR {MtbRR fill } bdef
/stri 6 array def /dtri 6 array def
/smat 6 array def /dmat 6 array def
/tmat1 6 array def /tmat2 6 array def /dif 3 array def
/asub {/ind2 exch def /ind1 exch def dup dup
  ind1 get exch ind2 get sub exch } bdef
/tri_to_matrix {
  2 0 asub 3 1 asub 4 0 asub 5 1 asub
  dup 0 get exch 1 get 7 -1 roll astore } bdef
/compute_transform {
  dmat dtri tri_to_matrix tmat1 invertmatrix 
  smat stri tri_to_matrix tmat2 concatmatrix } bdef
/ds {stri astore pop} bdef
/dt {dtri astore pop} bdef
/db {2 copy /cols xdef /rows xdef mul dup 3 mul string
  currentfile 
  3 index 0 eq {/ASCIIHexDecode filter}
  {/ASCII85Decode filter 3 index 2 eq {/RunLengthDecode filter} if }
  ifelse exch readstring pop
  dup 0 3 index getinterval /rbmap xdef
  dup 2 index dup getinterval /gbmap xdef
  1 index dup 2 mul exch getinterval /bbmap xdef pop pop}bdef
/it {gs np dtri aload pop moveto lineto lineto cp c
  cols rows 8 compute_transform 
  rbmap gbmap bbmap true 3 colorimage gr}bdef
/il {newpath moveto lineto stroke}bdef
currentdict end def
%%EndProlog

%%BeginSetup
MathWorks begin

0 cap

end
%%EndSetup

%%Page: 1 1
%%BeginPageSetup
%%PageBoundingBox:    20   317   575   523
MathWorks begin
bpage
%%EndPageSetup

%%BeginObject: obj1
bplot

/dpi2point 12 def
portraitMode 0240 6276 csm

    0     0  6660  2468 rc
85 dict begin %Colortable dictionary
/c0 { 0.000000 0.000000 0.000000 sr} bdef
/c1 { 1.000000 1.000000 1.000000 sr} bdef
/c2 { 0.900000 0.000000 0.000000 sr} bdef
/c3 { 0.000000 0.820000 0.000000 sr} bdef
/c4 { 0.000000 0.000000 0.800000 sr} bdef
/c5 { 0.910000 0.820000 0.320000 sr} bdef
/c6 { 1.000000 0.260000 0.820000 sr} bdef
/c7 { 0.000000 0.820000 0.820000 sr} bdef
c0
1 j
1 sg
   0    0 6661 2469 rf
6 w
0 1897 5172 0 0 -1897 866 1995 4 MP
PP
-5172 0 0 1897 5172 0 0 -1897 866 1995 5 MP stroke
4 w
DO
SO
6 w
0 sg
 866 1995 mt 6038 1995 L
 866   98 mt 6038   98 L
 866 1995 mt  866   98 L
6038 1995 mt 6038   98 L
 866 1995 mt 6038 1995 L
 866 1995 mt  866   98 L
 866 1995 mt  866 1943 L
 866   98 mt  866  149 L
%%IncludeResource: font Helvetica
/Helvetica /ISOLatin1Encoding 120 FMSR

 833 2140 mt 
(0) s
1604 1995 mt 1604 1943 L
1604   98 mt 1604  149 L
1538 2140 mt 
(10) s
2343 1995 mt 2343 1943 L
2343   98 mt 2343  149 L
2277 2140 mt 
(20) s
3082 1995 mt 3082 1943 L
3082   98 mt 3082  149 L
3016 2140 mt 
(30) s
3821 1995 mt 3821 1943 L
3821   98 mt 3821  149 L
3755 2140 mt 
(40) s
4560 1995 mt 4560 1943 L
4560   98 mt 4560  149 L
4494 2140 mt 
(50) s
5299 1995 mt 5299 1943 L
5299   98 mt 5299  149 L
5233 2140 mt 
(60) s
6038 1995 mt 6038 1943 L
6038   98 mt 6038  149 L
5972 2140 mt 
(70) s
 866 1995 mt  917 1995 L
6038 1995 mt 5986 1995 L
 595 2039 mt 
(-0.5) s
 866 1362 mt  917 1362 L
6038 1362 mt 5986 1362 L
 765 1406 mt 
(0) s
 866  730 mt  917  730 L
6038  730 mt 5986  730 L
 665  774 mt 
(0.5) s
 866   98 mt  917   98 L
6038   98 mt 5986   98 L
 765  142 mt 
(1) s
 866 1995 mt 6038 1995 L
 866   98 mt 6038   98 L
 866 1995 mt  866   98 L
6038 1995 mt 6038   98 L
gs 866 98 5173 1898 rc
/c8 { 1.000000 0.000000 0.000000 sr} bdef
c8
5172 0 866 1266 2 MP stroke
0 sg
1 0 11 0 10 2 11 3 10 4 10 4 11 3 10 2 
11 1 10 -1 11 -2 10 -4 11 -4 10 -4 11 -3 10 -2 
10 0 11 2 10 3 11 4 10 4 11 4 10 3 11 1 
10 0 10 -3 11 -3 10 -5 11 -4 10 -4 11 -3 10 0 
11 1 10 3 11 4 10 5 10 5 11 4 10 2 11 -1 
10 -2 11 -4 10 -5 11 -5 10 -5 10 -3 11 -1 10 1 
11 4 10 4 11 6 10 6 11 4 10 2 10 0 11 -2 
10 -5 11 -6 10 -6 11 -5 10 -4 11 -1 10 1 11 4 
10 6 10 6 11 7 10 5 11 2 10 0 11 -3 10 -5 
11 -7 10 -7 10 -6 11 -4 10 -2 11 2 10 4 11 7 
10 7 11 7 10 6 11 4 10 0 10 -3 11 -6 10 -8 
11 -8 10 -7 11 -5 10 -2 11 1 10 5 10 7 11 8 
10 8 11 7 10 4 11 1 10 -3 11 -6 10 -8 10 -9 
11 -8 10 -6 11 -3 10 0 11 5 10 7 11 9 10 10 
11 8 10 5 10 2 11 -3 10 -5 11 -9 10 -10 11 -9 
10 -8 11 -4 10 0 10 4 11 7 10 10 11 11 10 9 
11 7 10 3 11 -1 10 -6 11 -9 10 -11 10 -11 11 -9 
10 -6 11 -1 10 3 11 7 10 11 11 12 10 11 10 9 
11 5 10 0 11 -5 10 -9 11 -12 10 -13 11 -12 10 -8 
10 -3 11 2 10 7 11 11 10 14 11 14 10 11 11 7 
10 2 11 -5 10 -9 10 -14 11 -15 10 -14 11 -11 10 -5 
11 0 10 7 11 13 10 15 10 16 11 15 10 9 11 4 
10 -3 11 -11 10 -15 11 -17 10 -17 11 -14 10 -8 10 -1 
11 6 10 13 11 18 10 19 11 18 10 12 11 6 10 -2 
10 -11 11 -17 10 -20 11 -20 10 -18 11 -10 10 -3 11 6 
10 14 10 20 11 22 10 21 11 16 10 8 11 -1 10 -11 
11 -18 10 -23 11 -24 10 -20 10 -14 11 -5 10 5 11 15 
10 22 11 25 10 25 11 19 10 11 10 1 11 -10 10 -19 
11 -25 10 -28 11 -24 10 -18 11 -7 10 4 11 15 10 23 
10 29 11 28 10 24 11 15 10 3 11 -8 10 -20 11 -27 
10 -31 10 -29 11 -22 10 -11 11 2 10 14 11 25 10 32 
11 32 10 29 10 20 11 7 10 -7 11 -20 10 -29 11 -35 
10 -33 11 -27 10 -16 11 -2 10 13 10 25 11 35 10 38 
11 34 10 25 11 12 10 -4 11 -19 10 -31 10 -39 11 -40 
10 -34 11 -22 10 -6 11 10 10 26 11 38 10 43 11 41 
10 32 10 18 11 -1 10 -18 11 -33 10 -44 11 -47 10 -41 
11 -30 10 -13 10 8 11 26 10 40 11 49 10 49 11 40 
10 25 11 4 10 -16 2924 1163 300 MP stroke
10 -36 11 -49 10 -54 11 -51 10 -38 11 -19 10 3 11 25 
10 44 11 56 10 57 10 49 11 34 10 10 11 -14 10 -37 
11 -54 10 -62 11 -60 10 -49 10 -27 11 -2 10 25 11 47 
10 63 11 67 10 60 11 43 10 18 11 -10 10 -37 10 -59 
11 -70 10 -71 11 -59 10 -36 11 -8 10 23 11 50 10 69 
10 78 11 72 10 55 11 28 10 -5 11 -36 10 -63 11 -79 
10 -81 10 -71 11 -47 10 -16 11 19 10 52 11 77 10 88 
11 85 10 68 11 40 10 3 10 -34 11 -66 10 -87 11 -93 
10 -85 11 -61 10 -26 11 14 10 51 10 82 11 99 10 100 
11 83 10 53 11 13 10 -29 11 -68 10 -96 11 -107 10 -101 
10 -77 11 -40 10 4 11 49 10 86 11 110 10 115 11 100 
10 70 10 25 11 -23 10 -69 11 -104 10 -123 11 -120 10 -98 
11 -58 10 -8 10 43 11 89 10 121 11 132 10 121 11 89 
10 41 11 -14 10 -69 11 -113 10 -139 10 -142 11 -122 10 -80 
11 -25 10 36 11 92 10 132 11 151 10 144 10 113 11 61 
10 -1 11 -67 10 -121 11 -156 10 -166 11 -149 10 -106 11 -44 
10 26 10 93 11 145 10 172 11 172 10 141 11 86 10 15 
11 -61 10 -127 10 -174 11 -192 10 -178 11 -134 10 -66 11 14 
10 93 11 157 10 197 10 202 11 174 10 116 11 36 10 -50 
11 -131 10 -190 11 -218 10 -210 11 -165 10 -92 10 -1 11 92 
10 170 11 221 10 237 11 212 10 152 11 64 10 -34 10 -130 
11 -203 10 -243 11 -241 10 -199 11 -121 10 -20 11 87 10 182 
11 248 10 276 10 257 11 196 10 101 11 -11 10 -123 11 -214 
10 -271 11 -281 10 -242 10 -160 11 -46 10 82 11 201 10 294 
11 345 10 345 11 293 10 195 876 162 197 MP stroke
gr

%%IncludeResource: font Symbol
/Symbol /ISOLatin1Encoding 120 FMSR

 505 1227 mt  -90 rotate
(f) s
90 rotate
%%IncludeResource: font Helvetica
/Helvetica /ISOLatin1Encoding 120 FMSR

 505 1165 mt  -90 rotate
( [a.u.]) s
90 rotate
3271 2261 mt 
(c) s
%%IncludeResource: font Helvetica
/Helvetica /ISOLatin1Encoding 96 FMSR

3331 2321 mt 
(s) s
%%IncludeResource: font Helvetica
/Helvetica /ISOLatin1Encoding 120 FMSR

3379 2261 mt 
( t / R) s

end %%Color Dict

eplot
%%EndObject

epage
end

showpage

%%Trailer
%%EOF
