%!PS-Adobe-3.0 EPSF-3.0
%%Creator: MATLAB, The Mathworks, Inc. Version 7.9.0.529 (R2009b). Operating System: Linux 2.6.32.54-0.3-default #1 SMP 2012-01-27 17:38:56 +0100 x86_64.
%%Title: /ptmp1/fjc/tmp/miller_scans_orig/final.eps
%%CreationDate: 07/24/2012  19:47:25
%%DocumentNeededFonts: Helvetica
%%DocumentProcessColors: Cyan Magenta Yellow Black
%%LanguageLevel: 2
%%Pages: 1
%%BoundingBox:  -25   180   635   625
%%EndComments

%%BeginProlog
% MathWorks dictionary
/MathWorks 160 dict begin
% definition operators
/bdef {bind def} bind def
/ldef {load def} bind def
/xdef {exch def} bdef
/xstore {exch store} bdef
% operator abbreviations
/c  /clip ldef
/cc /concat ldef
/cp /closepath ldef
/gr /grestore ldef
/gs /gsave ldef
/mt /moveto ldef
/np /newpath ldef
/cm /currentmatrix ldef
/sm /setmatrix ldef
/rm /rmoveto ldef
/rl /rlineto ldef
/s {show newpath} bdef
/sc {setcmykcolor} bdef
/sr /setrgbcolor ldef
/sg /setgray ldef
/w /setlinewidth ldef
/j /setlinejoin ldef
/cap /setlinecap ldef
/rc {rectclip} bdef
/rf {rectfill} bdef
% page state control
/pgsv () def
/bpage {/pgsv save def} bdef
/epage {pgsv restore} bdef
/bplot /gsave ldef
/eplot {stroke grestore} bdef
% orientation switch
/portraitMode 0 def /landscapeMode 1 def /rotateMode 2 def
% coordinate system mappings
/dpi2point 0 def
% font control
/FontSize 0 def
/FMS {/FontSize xstore findfont [FontSize 0 0 FontSize neg 0 0]
  makefont setfont} bdef
/reencode {exch dup where {pop load} {pop StandardEncoding} ifelse
  exch dup 3 1 roll findfont dup length dict begin
  { 1 index /FID ne {def}{pop pop} ifelse } forall
  /Encoding exch def currentdict end definefont pop} bdef
/isroman {findfont /CharStrings get /Agrave known} bdef
/FMSR {3 1 roll 1 index dup isroman {reencode} {pop pop} ifelse
  exch FMS} bdef
/csm {1 dpi2point div -1 dpi2point div scale neg translate
 dup landscapeMode eq {pop -90 rotate}
  {rotateMode eq {90 rotate} if} ifelse} bdef
% line types: solid, dotted, dashed, dotdash
/SO { [] 0 setdash } bdef
/DO { [.5 dpi2point mul 4 dpi2point mul] 0 setdash } bdef
/DA { [6 dpi2point mul] 0 setdash } bdef
/DD { [.5 dpi2point mul 4 dpi2point mul 6 dpi2point mul 4
  dpi2point mul] 0 setdash } bdef
% macros for lines and objects
/L {lineto stroke} bdef
/MP {3 1 roll moveto 1 sub {rlineto} repeat} bdef
/AP {{rlineto} repeat} bdef
/PDlw -1 def
/W {/PDlw currentlinewidth def setlinewidth} def
/PP {closepath eofill} bdef
/DP {closepath stroke} bdef
/MR {4 -2 roll moveto dup  0 exch rlineto exch 0 rlineto
  neg 0 exch rlineto closepath} bdef
/FR {MR stroke} bdef
/PR {MR fill} bdef
/L1i {{currentfile picstr readhexstring pop} image} bdef
/tMatrix matrix def
/MakeOval {newpath tMatrix currentmatrix pop translate scale
0 0 1 0 360 arc tMatrix setmatrix} bdef
/FO {MakeOval stroke} bdef
/PO {MakeOval fill} bdef
/PD {currentlinewidth 2 div 0 360 arc fill
   PDlw -1 eq not {PDlw w /PDlw -1 def} if} def
/FA {newpath tMatrix currentmatrix pop translate scale
  0 0 1 5 -2 roll arc tMatrix setmatrix stroke} bdef
/PA {newpath tMatrix currentmatrix pop	translate 0 0 moveto scale
  0 0 1 5 -2 roll arc closepath tMatrix setmatrix fill} bdef
/FAn {newpath tMatrix currentmatrix pop translate scale
  0 0 1 5 -2 roll arcn tMatrix setmatrix stroke} bdef
/PAn {newpath tMatrix currentmatrix pop translate 0 0 moveto scale
  0 0 1 5 -2 roll arcn closepath tMatrix setmatrix fill} bdef
/vradius 0 def /hradius 0 def /lry 0 def
/lrx 0 def /uly 0 def /ulx 0 def /rad 0 def
/MRR {/vradius xdef /hradius xdef /lry xdef /lrx xdef /uly xdef
  /ulx xdef newpath tMatrix currentmatrix pop ulx hradius add uly
  vradius add translate hradius vradius scale 0 0 1 180 270 arc 
  tMatrix setmatrix lrx hradius sub uly vradius add translate
  hradius vradius scale 0 0 1 270 360 arc tMatrix setmatrix
  lrx hradius sub lry vradius sub translate hradius vradius scale
  0 0 1 0 90 arc tMatrix setmatrix ulx hradius add lry vradius sub
  translate hradius vradius scale 0 0 1 90 180 arc tMatrix setmatrix
  closepath} bdef
/FRR {MRR stroke } bdef
/PRR {MRR fill } bdef
/MlrRR {/lry xdef /lrx xdef /uly xdef /ulx xdef /rad lry uly sub 2 div def
  newpath tMatrix currentmatrix pop ulx rad add uly rad add translate
  rad rad scale 0 0 1 90 270 arc tMatrix setmatrix lrx rad sub lry rad
  sub translate rad rad scale 0 0 1 270 90 arc tMatrix setmatrix
  closepath} bdef
/FlrRR {MlrRR stroke } bdef
/PlrRR {MlrRR fill } bdef
/MtbRR {/lry xdef /lrx xdef /uly xdef /ulx xdef /rad lrx ulx sub 2 div def
  newpath tMatrix currentmatrix pop ulx rad add uly rad add translate
  rad rad scale 0 0 1 180 360 arc tMatrix setmatrix lrx rad sub lry rad
  sub translate rad rad scale 0 0 1 0 180 arc tMatrix setmatrix
  closepath} bdef
/FtbRR {MtbRR stroke } bdef
/PtbRR {MtbRR fill } bdef
/stri 6 array def /dtri 6 array def
/smat 6 array def /dmat 6 array def
/tmat1 6 array def /tmat2 6 array def /dif 3 array def
/asub {/ind2 exch def /ind1 exch def dup dup
  ind1 get exch ind2 get sub exch } bdef
/tri_to_matrix {
  2 0 asub 3 1 asub 4 0 asub 5 1 asub
  dup 0 get exch 1 get 7 -1 roll astore } bdef
/compute_transform {
  dmat dtri tri_to_matrix tmat1 invertmatrix 
  smat stri tri_to_matrix tmat2 concatmatrix } bdef
/ds {stri astore pop} bdef
/dt {dtri astore pop} bdef
/db {2 copy /cols xdef /rows xdef mul dup 3 mul string
  currentfile 
  3 index 0 eq {/ASCIIHexDecode filter}
  {/ASCII85Decode filter 3 index 2 eq {/RunLengthDecode filter} if }
  ifelse exch readstring pop
  dup 0 3 index getinterval /rbmap xdef
  dup 2 index dup getinterval /gbmap xdef
  1 index dup 2 mul exch getinterval /bbmap xdef pop pop}bdef
/it {gs np dtri aload pop moveto lineto lineto cp c
  cols rows 8 compute_transform 
  rbmap gbmap bbmap true 3 colorimage gr}bdef
/il {newpath moveto lineto stroke}bdef
currentdict end def
%%EndProlog

%%BeginSetup
MathWorks begin

0 cap

end
%%EndSetup

%%Page: 1 1
%%BeginPageSetup
%%PageBoundingBox:  -101   139   714   652
MathWorks begin
bpage
%%EndPageSetup

%%BeginObject: obj1
bplot

/dpi2point 12 def
portraitMode -1212 7824 csm

    0     0  9782  6154 rc
85 dict begin %Colortable dictionary
/c0 { 0.000000 0.000000 0.000000 sr} bdef
/c1 { 1.000000 1.000000 1.000000 sr} bdef
/c2 { 0.900000 0.000000 0.000000 sr} bdef
/c3 { 0.000000 0.820000 0.000000 sr} bdef
/c4 { 0.000000 0.000000 0.800000 sr} bdef
/c5 { 0.910000 0.820000 0.320000 sr} bdef
/c6 { 1.000000 0.260000 0.820000 sr} bdef
/c7 { 0.000000 0.820000 0.820000 sr} bdef
c0
1 j
1 sg
   0    0 9783 6155 rf
6 w
0 2099 2087 0 0 -2099 1417 2561 4 MP
PP
-2087 0 0 2099 2087 0 0 -2099 1417 2561 5 MP stroke
4 w
DO
SO
6 w
0 sg
1417 2561 mt 3504 2561 L
1417  462 mt 3504  462 L
1417 2561 mt 1417  462 L
3504 2561 mt 3504  462 L
1417 2561 mt 3504 2561 L
1417 2561 mt 1417  462 L
1417 2561 mt 1417 2529 L
1417  462 mt 1417  493 L
%%IncludeResource: font Helvetica
/Helvetica /ISOLatin1Encoding 132 FMSR

1326 2717 mt 
(0.5) s
1486 2561 mt 1486 2545 L
1486  462 mt 1486  477 L
1556 2561 mt 1556 2545 L
1556  462 mt 1556  477 L
1625 2561 mt 1625 2545 L
1625  462 mt 1625  477 L
1695 2561 mt 1695 2545 L
1695  462 mt 1695  477 L
1764 2561 mt 1764 2545 L
1764  462 mt 1764  477 L
1834 2561 mt 1834 2545 L
1834  462 mt 1834  477 L
1903 2561 mt 1903 2545 L
1903  462 mt 1903  477 L
1973 2561 mt 1973 2545 L
1973  462 mt 1973  477 L
2043 2561 mt 2043 2545 L
2043  462 mt 2043  477 L
2112 2561 mt 2112 2529 L
2112  462 mt 2112  493 L
2076 2717 mt 
(1) s
2182 2561 mt 2182 2545 L
2182  462 mt 2182  477 L
2251 2561 mt 2251 2545 L
2251  462 mt 2251  477 L
2321 2561 mt 2321 2545 L
2321  462 mt 2321  477 L
2390 2561 mt 2390 2545 L
2390  462 mt 2390  477 L
2460 2561 mt 2460 2545 L
2460  462 mt 2460  477 L
2530 2561 mt 2530 2545 L
2530  462 mt 2530  477 L
2599 2561 mt 2599 2545 L
2599  462 mt 2599  477 L
2669 2561 mt 2669 2545 L
2669  462 mt 2669  477 L
2738 2561 mt 2738 2545 L
2738  462 mt 2738  477 L
2808 2561 mt 2808 2529 L
2808  462 mt 2808  493 L
2717 2717 mt 
(1.5) s
2877 2561 mt 2877 2545 L
2877  462 mt 2877  477 L
2947 2561 mt 2947 2545 L
2947  462 mt 2947  477 L
3017 2561 mt 3017 2545 L
3017  462 mt 3017  477 L
3086 2561 mt 3086 2545 L
3086  462 mt 3086  477 L
3156 2561 mt 3156 2545 L
3156  462 mt 3156  477 L
3225 2561 mt 3225 2545 L
3225  462 mt 3225  477 L
3295 2561 mt 3295 2545 L
3295  462 mt 3295  477 L
3364 2561 mt 3364 2545 L
3364  462 mt 3364  477 L
3434 2561 mt 3434 2545 L
3434  462 mt 3434  477 L
3504 2561 mt 3504 2529 L
3504  462 mt 3504  493 L
3468 2717 mt 
(2) s
1417 2561 mt 1448 2561 L
3504 2561 mt 3472 2561 L
1309 2609 mt 
(0) s
1417 2477 mt 1432 2477 L
3504 2477 mt 3488 2477 L
1417 2393 mt 1432 2393 L
3504 2393 mt 3488 2393 L
1417 2309 mt 1432 2309 L
3504 2309 mt 3488 2309 L
1417 2225 mt 1432 2225 L
3504 2225 mt 3488 2225 L
1417 2141 mt 1432 2141 L
3504 2141 mt 3488 2141 L
1417 2141 mt 1432 2141 L
3504 2141 mt 3488 2141 L
1417 2141 mt 1432 2141 L
3504 2141 mt 3488 2141 L
1417 2141 mt 1432 2141 L
3504 2141 mt 3488 2141 L
1417 2141 mt 1432 2141 L
3504 2141 mt 3488 2141 L
1417 2141 mt 1448 2141 L
3504 2141 mt 3472 2141 L
1199 2189 mt 
(0.1) s
1417 2057 mt 1432 2057 L
3504 2057 mt 3488 2057 L
1417 1973 mt 1432 1973 L
3504 1973 mt 3488 1973 L
1417 1889 mt 1432 1889 L
3504 1889 mt 3488 1889 L
1417 1805 mt 1432 1805 L
3504 1805 mt 3488 1805 L
1417 1721 mt 1432 1721 L
3504 1721 mt 3488 1721 L
1417 1721 mt 1432 1721 L
3504 1721 mt 3488 1721 L
1417 1721 mt 1432 1721 L
3504 1721 mt 3488 1721 L
1417 1721 mt 1432 1721 L
3504 1721 mt 3488 1721 L
1417 1721 mt 1432 1721 L
3504 1721 mt 3488 1721 L
1417 1721 mt 1448 1721 L
3504 1721 mt 3472 1721 L
1199 1769 mt 
(0.2) s
1417 1637 mt 1432 1637 L
3504 1637 mt 3488 1637 L
1417 1553 mt 1432 1553 L
3504 1553 mt 3488 1553 L
1417 1469 mt 1432 1469 L
3504 1469 mt 3488 1469 L
1417 1385 mt 1432 1385 L
3504 1385 mt 3488 1385 L
1417 1301 mt 1432 1301 L
3504 1301 mt 3488 1301 L
1417 1301 mt 1432 1301 L
3504 1301 mt 3488 1301 L
1417 1301 mt 1432 1301 L
3504 1301 mt 3488 1301 L
1417 1301 mt 1432 1301 L
3504 1301 mt 3488 1301 L
1417 1301 mt 1432 1301 L
3504 1301 mt 3488 1301 L
1417 1301 mt 1448 1301 L
3504 1301 mt 3472 1301 L
1199 1349 mt 
(0.3) s
1417 1217 mt 1432 1217 L
3504 1217 mt 3488 1217 L
1417 1133 mt 1432 1133 L
3504 1133 mt 3488 1133 L
1417 1049 mt 1432 1049 L
3504 1049 mt 3488 1049 L
1417  965 mt 1432  965 L
3504  965 mt 3488  965 L
1417  881 mt 1432  881 L
3504  881 mt 3488  881 L
1417  881 mt 1432  881 L
3504  881 mt 3488  881 L
1417  881 mt 1432  881 L
3504  881 mt 3488  881 L
1417  881 mt 1432  881 L
3504  881 mt 3488  881 L
1417  881 mt 1432  881 L
3504  881 mt 3488  881 L
1417  881 mt 1448  881 L
3504  881 mt 3472  881 L
1199  929 mt 
(0.4) s
1417  797 mt 1432  797 L
3504  797 mt 3488  797 L
1417  713 mt 1432  713 L
3504  713 mt 3488  713 L
1417  629 mt 1432  629 L
3504  629 mt 3488  629 L
1417  545 mt 1432  545 L
3504  545 mt 3488  545 L
1417  462 mt 1432  462 L
3504  462 mt 3488  462 L
1417  462 mt 1432  462 L
3504  462 mt 3488  462 L
1417  462 mt 1432  462 L
3504  462 mt 3488  462 L
1417  462 mt 1432  462 L
3504  462 mt 3488  462 L
1417  462 mt 1432  462 L
3504  462 mt 3488  462 L
1417  462 mt 1448  462 L
3504  462 mt 3472  462 L
1199  510 mt 
(0.5) s
1417 2561 mt 3504 2561 L
1417  462 mt 3504  462 L
1417 2561 mt 1417  462 L
3504 2561 mt 3504  462 L
gs 1417 462 2088 2100 rc
gr

/c8 { 0.000000 0.000000 1.000000 sr} bdef
c8
  36   36 1417  698 FO
  36   36 1556  652 FO
  36   36 1695  626 FO
  36   36 1834  621 FO
  36   36 1973  636 FO
  36   36 2112  666 FO
  36   36 2251  708 FO
  36   36 2390  758 FO
  36   36 2530  813 FO
  36   36 2669  871 FO
  36   36 2808  933 FO
  36   36 2947  996 FO
  36   36 3086 1061 FO
  36   36 3225 1127 FO
  36   36 3364 1194 FO
  36   36 3504 1262 FO
gs 1417 462 2088 2100 rc
gr

0 sg
%%IncludeResource: font Symbol
/Symbol /ISOLatin1Encoding 144 FMSR

2419 2871 mt 
(k) s
%%IncludeResource: font Symbol
/Symbol /ISOLatin1Encoding 120 FMSR

1063 1721 mt  -90 rotate
(g) s
90 rotate
%%IncludeResource: font Helvetica
/Helvetica /ISOLatin1Encoding 120 FMSR

1063 1672 mt  -90 rotate
( \(R/v) s
90 rotate
%%IncludeResource: font Helvetica
/Helvetica /ISOLatin1Encoding 96 FMSR

1123 1419 mt  -90 rotate
(th) s
90 rotate
%%IncludeResource: font Helvetica
/Helvetica /ISOLatin1Encoding 120 FMSR

1063 1339 mt  -90 rotate
(\)) s
90 rotate
gs 1417 462 2088 2100 rc
/c9 { 0.000000 0.500000 0.000000 sr} bdef
c9
140 65 139 65 139 63 139 63 139 61 139 58 139 57 140 53 
139 48 139 41 139 31 139 17 139 0 139 -17 139 -33 1417 690 16 MP stroke
gr

c9
/c10 { 1.000000 0.000000 0.000000 sr} bdef
c10
  36   36 2112  836 FO
gs 1417 462 2088 2100 rc
gr

1 sg
0 2099 2088 0 0 -2099 4018 2561 4 MP
PP
-2088 0 0 2099 2088 0 0 -2099 4018 2561 5 MP stroke
4 w
DO
SO
6 w
0 sg
4018 2561 mt 6106 2561 L
4018  462 mt 6106  462 L
4018 2561 mt 4018  462 L
6106 2561 mt 6106  462 L
4018 2561 mt 6106 2561 L
4018 2561 mt 4018  462 L
4018 2561 mt 4018 2529 L
4018  462 mt 4018  493 L
%%IncludeResource: font Helvetica
/Helvetica /ISOLatin1Encoding 132 FMSR

3905 2717 mt 
(-1) s
4087 2561 mt 4087 2545 L
4087  462 mt 4087  477 L
4157 2561 mt 4157 2545 L
4157  462 mt 4157  477 L
4226 2561 mt 4226 2545 L
4226  462 mt 4226  477 L
4296 2561 mt 4296 2545 L
4296  462 mt 4296  477 L
4366 2561 mt 4366 2545 L
4366  462 mt 4366  477 L
4435 2561 mt 4435 2545 L
4435  462 mt 4435  477 L
4505 2561 mt 4505 2545 L
4505  462 mt 4505  477 L
4574 2561 mt 4574 2545 L
4574  462 mt 4574  477 L
4644 2561 mt 4644 2545 L
4644  462 mt 4644  477 L
4714 2561 mt 4714 2529 L
4714  462 mt 4714  493 L
4678 2717 mt 
(0) s
4783 2561 mt 4783 2545 L
4783  462 mt 4783  477 L
4853 2561 mt 4853 2545 L
4853  462 mt 4853  477 L
4922 2561 mt 4922 2545 L
4922  462 mt 4922  477 L
4992 2561 mt 4992 2545 L
4992  462 mt 4992  477 L
5062 2561 mt 5062 2545 L
5062  462 mt 5062  477 L
5131 2561 mt 5131 2545 L
5131  462 mt 5131  477 L
5201 2561 mt 5201 2545 L
5201  462 mt 5201  477 L
5270 2561 mt 5270 2545 L
5270  462 mt 5270  477 L
5340 2561 mt 5340 2545 L
5340  462 mt 5340  477 L
5410 2561 mt 5410 2529 L
5410  462 mt 5410  493 L
5374 2717 mt 
(1) s
5479 2561 mt 5479 2545 L
5479  462 mt 5479  477 L
5549 2561 mt 5549 2545 L
5549  462 mt 5549  477 L
5618 2561 mt 5618 2545 L
5618  462 mt 5618  477 L
5688 2561 mt 5688 2545 L
5688  462 mt 5688  477 L
5758 2561 mt 5758 2545 L
5758  462 mt 5758  477 L
5827 2561 mt 5827 2545 L
5827  462 mt 5827  477 L
5897 2561 mt 5897 2545 L
5897  462 mt 5897  477 L
5966 2561 mt 5966 2545 L
5966  462 mt 5966  477 L
6036 2561 mt 6036 2545 L
6036  462 mt 6036  477 L
6106 2561 mt 6106 2529 L
6106  462 mt 6106  493 L
6070 2717 mt 
(2) s
4018 2561 mt 4049 2561 L
6106 2561 mt 6074 2561 L
3910 2609 mt 
(0) s
4018 2477 mt 4033 2477 L
6106 2477 mt 6090 2477 L
4018 2393 mt 4033 2393 L
6106 2393 mt 6090 2393 L
4018 2309 mt 4033 2309 L
6106 2309 mt 6090 2309 L
4018 2225 mt 4033 2225 L
6106 2225 mt 6090 2225 L
4018 2141 mt 4033 2141 L
6106 2141 mt 6090 2141 L
4018 2141 mt 4033 2141 L
6106 2141 mt 6090 2141 L
4018 2141 mt 4033 2141 L
6106 2141 mt 6090 2141 L
4018 2141 mt 4033 2141 L
6106 2141 mt 6090 2141 L
4018 2141 mt 4033 2141 L
6106 2141 mt 6090 2141 L
4018 2141 mt 4049 2141 L
6106 2141 mt 6074 2141 L
3800 2189 mt 
(0.1) s
4018 2057 mt 4033 2057 L
6106 2057 mt 6090 2057 L
4018 1973 mt 4033 1973 L
6106 1973 mt 6090 1973 L
4018 1889 mt 4033 1889 L
6106 1889 mt 6090 1889 L
4018 1805 mt 4033 1805 L
6106 1805 mt 6090 1805 L
4018 1721 mt 4033 1721 L
6106 1721 mt 6090 1721 L
4018 1721 mt 4033 1721 L
6106 1721 mt 6090 1721 L
4018 1721 mt 4033 1721 L
6106 1721 mt 6090 1721 L
4018 1721 mt 4033 1721 L
6106 1721 mt 6090 1721 L
4018 1721 mt 4033 1721 L
6106 1721 mt 6090 1721 L
4018 1721 mt 4049 1721 L
6106 1721 mt 6074 1721 L
3800 1769 mt 
(0.2) s
4018 1637 mt 4033 1637 L
6106 1637 mt 6090 1637 L
4018 1553 mt 4033 1553 L
6106 1553 mt 6090 1553 L
4018 1469 mt 4033 1469 L
6106 1469 mt 6090 1469 L
4018 1385 mt 4033 1385 L
6106 1385 mt 6090 1385 L
4018 1301 mt 4033 1301 L
6106 1301 mt 6090 1301 L
4018 1301 mt 4033 1301 L
6106 1301 mt 6090 1301 L
4018 1301 mt 4033 1301 L
6106 1301 mt 6090 1301 L
4018 1301 mt 4033 1301 L
6106 1301 mt 6090 1301 L
4018 1301 mt 4033 1301 L
6106 1301 mt 6090 1301 L
4018 1301 mt 4049 1301 L
6106 1301 mt 6074 1301 L
3800 1349 mt 
(0.3) s
4018 1217 mt 4033 1217 L
6106 1217 mt 6090 1217 L
4018 1133 mt 4033 1133 L
6106 1133 mt 6090 1133 L
4018 1049 mt 4033 1049 L
6106 1049 mt 6090 1049 L
4018  965 mt 4033  965 L
6106  965 mt 6090  965 L
4018  881 mt 4033  881 L
6106  881 mt 6090  881 L
4018  881 mt 4033  881 L
6106  881 mt 6090  881 L
4018  881 mt 4033  881 L
6106  881 mt 6090  881 L
4018  881 mt 4033  881 L
6106  881 mt 6090  881 L
4018  881 mt 4033  881 L
6106  881 mt 6090  881 L
4018  881 mt 4049  881 L
6106  881 mt 6074  881 L
3800  929 mt 
(0.4) s
4018  797 mt 4033  797 L
6106  797 mt 6090  797 L
4018  713 mt 4033  713 L
6106  713 mt 6090  713 L
4018  629 mt 4033  629 L
6106  629 mt 6090  629 L
4018  545 mt 4033  545 L
6106  545 mt 6090  545 L
4018  462 mt 4033  462 L
6106  462 mt 6090  462 L
4018  462 mt 4033  462 L
6106  462 mt 6090  462 L
4018  462 mt 4033  462 L
6106  462 mt 6090  462 L
4018  462 mt 4033  462 L
6106  462 mt 6090  462 L
4018  462 mt 4033  462 L
6106  462 mt 6090  462 L
4018  462 mt 4049  462 L
6106  462 mt 6074  462 L
3800  510 mt 
(0.5) s
4018 2561 mt 6106 2561 L
4018  462 mt 6106  462 L
4018 2561 mt 4018  462 L
6106 2561 mt 6106  462 L
gs 4018 462 2089 2100 rc
gr

c8
  36   36 4157  807 FO
  36   36 4296  630 FO
  36   36 4435  580 FO
  36   36 4574  600 FO
  36   36 4714  666 FO
  36   36 4853  769 FO
  36   36 4992  901 FO
  36   36 5131 1052 FO
  36   36 5270 1216 FO
  36   36 5410 1385 FO
  36   36 5549 1556 FO
  36   36 5688 1725 FO
  36   36 5827 1889 FO
  36   36 5966 2048 FO
  36   36 6106 2207 FO
gs 4018 462 2089 2100 rc
gr

0 sg
%%IncludeResource: font Helvetica
/Helvetica /ISOLatin1Encoding 144 FMSR

4995 2853 mt 
(s) s
%%IncludeResource: font Symbol
/Symbol /ISOLatin1Encoding 108 FMSR

5067 2925 mt 
(k) s
%%IncludeResource: font Symbol
/Symbol /ISOLatin1Encoding 120 FMSR

3664 1721 mt  -90 rotate
(g) s
90 rotate
%%IncludeResource: font Helvetica
/Helvetica /ISOLatin1Encoding 120 FMSR

3664 1672 mt  -90 rotate
( \(R/v) s
90 rotate
%%IncludeResource: font Helvetica
/Helvetica /ISOLatin1Encoding 96 FMSR

3724 1419 mt  -90 rotate
(th) s
90 rotate
%%IncludeResource: font Helvetica
/Helvetica /ISOLatin1Encoding 120 FMSR

3664 1339 mt  -90 rotate
(\)) s
90 rotate
gs 4018 462 2089 2100 rc
c9
140 167 139 166 139 170 139 172 139 172 140 169 139 164 139 153 
139 133 139 105 140 69 139 22 139 -44 139 -138 4157 779 15 MP stroke
gr

c9
c10
  36   36 4714  836 FO
gs 4018 462 2089 2100 rc
gr

1 sg
0 970 2088 0 0 -970 6635 1432 4 MP
PP
-2088 0 0 970 2088 0 0 -970 6635 1432 5 MP stroke
4 w
DO
SO
6 w
0 sg
6635 1432 mt 8723 1432 L
6635  462 mt 8723  462 L
6635 1432 mt 6635  462 L
8723 1432 mt 8723  462 L
6635 1432 mt 8723 1432 L
6635 1432 mt 6635  462 L
6635 1432 mt 6635 1400 L
6635  462 mt 6635  493 L
%%IncludeResource: font Helvetica
/Helvetica /ISOLatin1Encoding 132 FMSR

6467 1588 mt 
(-0.5) s
6739 1432 mt 6739 1416 L
6739  462 mt 6739  477 L
6843 1432 mt 6843 1416 L
6843  462 mt 6843  477 L
6948 1432 mt 6948 1416 L
6948  462 mt 6948  477 L
7052 1432 mt 7052 1416 L
7052  462 mt 7052  477 L
7157 1432 mt 7157 1416 L
7157  462 mt 7157  477 L
7261 1432 mt 7261 1416 L
7261  462 mt 7261  477 L
7365 1432 mt 7365 1416 L
7365  462 mt 7365  477 L
7470 1432 mt 7470 1416 L
7470  462 mt 7470  477 L
7574 1432 mt 7574 1416 L
7574  462 mt 7574  477 L
7679 1432 mt 7679 1400 L
7679  462 mt 7679  493 L
7643 1588 mt 
(0) s
7783 1432 mt 7783 1416 L
7783  462 mt 7783  477 L
7887 1432 mt 7887 1416 L
7887  462 mt 7887  477 L
7992 1432 mt 7992 1416 L
7992  462 mt 7992  477 L
8096 1432 mt 8096 1416 L
8096  462 mt 8096  477 L
8201 1432 mt 8201 1416 L
8201  462 mt 8201  477 L
8305 1432 mt 8305 1416 L
8305  462 mt 8305  477 L
8409 1432 mt 8409 1416 L
8409  462 mt 8409  477 L
8514 1432 mt 8514 1416 L
8514  462 mt 8514  477 L
8618 1432 mt 8618 1416 L
8618  462 mt 8618  477 L
8723 1432 mt 8723 1400 L
8723  462 mt 8723  493 L
8632 1588 mt 
(0.5) s
6635 1432 mt 6666 1432 L
8723 1432 mt 8691 1432 L
6527 1480 mt 
(0) s
6635 1354 mt 6650 1354 L
8723 1354 mt 8707 1354 L
6635 1276 mt 6650 1276 L
8723 1276 mt 8707 1276 L
6635 1199 mt 6650 1199 L
8723 1199 mt 8707 1199 L
6635 1121 mt 6650 1121 L
8723 1121 mt 8707 1121 L
6635 1044 mt 6650 1044 L
8723 1044 mt 8707 1044 L
6635 1044 mt 6650 1044 L
8723 1044 mt 8707 1044 L
6635 1044 mt 6650 1044 L
8723 1044 mt 8707 1044 L
6635 1044 mt 6650 1044 L
8723 1044 mt 8707 1044 L
6635 1044 mt 6650 1044 L
8723 1044 mt 8707 1044 L
6635 1044 mt 6666 1044 L
8723 1044 mt 8691 1044 L
6417 1092 mt 
(0.2) s
6635  966 mt 6650  966 L
8723  966 mt 8707  966 L
6635  888 mt 6650  888 L
8723  888 mt 8707  888 L
6635  811 mt 6650  811 L
8723  811 mt 8707  811 L
6635  733 mt 6650  733 L
8723  733 mt 8707  733 L
6635  656 mt 6650  656 L
8723  656 mt 8707  656 L
6635  656 mt 6650  656 L
8723  656 mt 8707  656 L
6635  656 mt 6650  656 L
8723  656 mt 8707  656 L
6635  656 mt 6650  656 L
8723  656 mt 8707  656 L
6635  656 mt 6650  656 L
8723  656 mt 8707  656 L
6635  656 mt 6666  656 L
8723  656 mt 8691  656 L
6417  704 mt 
(0.4) s
6635  578 mt 6650  578 L
8723  578 mt 8707  578 L
6635  500 mt 6650  500 L
8723  500 mt 8707  500 L
6635 1432 mt 8723 1432 L
6635  462 mt 8723  462 L
6635 1432 mt 6635  462 L
8723 1432 mt 8723  462 L
gs 6635 462 2089 971 rc
gr

c8
  36   36 6635 1221 FO
  36   36 6843 1133 FO
  36   36 7052 1046 FO
  36   36 7261  787 FO
  36   36 7470  592 FO
  36   36 7679  556 FO
  36   36 7887  662 FO
  36   36 8096  834 FO
  36   36 8305  983 FO
  36   36 8514 1088 FO
  36   36 8723 1171 FO
gs 6635 462 2089 971 rc
gr

0 sg
%%IncludeResource: font Symbol
/Symbol /ISOLatin1Encoding 120 FMSR

7298 1648 mt 
(b) s
%%IncludeResource: font Symbol
/Symbol /ISOLatin1Encoding 96 FMSR

7363 1588 mt 
(\242) s
%%IncludeResource: font Symbol
/Symbol /ISOLatin1Encoding 120 FMSR

6281 1157 mt  -90 rotate
(g) s
90 rotate
%%IncludeResource: font Helvetica
/Helvetica /ISOLatin1Encoding 120 FMSR

6281 1108 mt  -90 rotate
( \(R/v) s
90 rotate
%%IncludeResource: font Helvetica
/Helvetica /ISOLatin1Encoding 96 FMSR

6341  855 mt  -90 rotate
(th) s
90 rotate
%%IncludeResource: font Helvetica
/Helvetica /ISOLatin1Encoding 120 FMSR

6281  775 mt  -90 rotate
(\)) s
90 rotate
gs 6635 462 2089 971 rc
c9
209 96 209 114 209 158 209 177 208 106 209 -34 209 -191 209 -268 
209 -70 208 -92 6635 1221 11 MP stroke
gr

c9
c10
  36   36 7679  634 FO
gs 6635 462 2089 971 rc
gr

/c11 { 0.000000 0.750000 0.750000 sr} bdef
c11
  36   36 6635 1252 FO
  36   36 6843 1176 FO
  36   36 7052 1088 FO
  36   36 7261  839 FO
  36   36 7470  596 FO
  36   36 7679  556 FO
  36   36 7887  676 FO
  36   36 8096  869 FO
  36   36 8305 1031 FO
  36   36 8514 1153 FO
  36   36 8723 1249 FO
gs 6635 462 2089 971 rc
gr

1 sg
0 970 2088 0 0 -970 6635 2677 4 MP
PP
-2088 0 0 970 2088 0 0 -970 6635 2677 5 MP stroke
4 w
DO
SO
6 w
0 sg
6635 2677 mt 8723 2677 L
6635 1707 mt 8723 1707 L
6635 2677 mt 6635 1707 L
8723 2677 mt 8723 1707 L
6635 2677 mt 8723 2677 L
6635 2677 mt 6635 1707 L
6635 2677 mt 6635 2645 L
6635 1707 mt 6635 1738 L
%%IncludeResource: font Helvetica
/Helvetica /ISOLatin1Encoding 132 FMSR

6467 2833 mt 
(-0.5) s
6739 2677 mt 6739 2661 L
6739 1707 mt 6739 1722 L
6843 2677 mt 6843 2661 L
6843 1707 mt 6843 1722 L
6948 2677 mt 6948 2661 L
6948 1707 mt 6948 1722 L
7052 2677 mt 7052 2661 L
7052 1707 mt 7052 1722 L
7157 2677 mt 7157 2661 L
7157 1707 mt 7157 1722 L
7261 2677 mt 7261 2661 L
7261 1707 mt 7261 1722 L
7365 2677 mt 7365 2661 L
7365 1707 mt 7365 1722 L
7470 2677 mt 7470 2661 L
7470 1707 mt 7470 1722 L
7574 2677 mt 7574 2661 L
7574 1707 mt 7574 1722 L
7679 2677 mt 7679 2645 L
7679 1707 mt 7679 1738 L
7643 2833 mt 
(0) s
7783 2677 mt 7783 2661 L
7783 1707 mt 7783 1722 L
7887 2677 mt 7887 2661 L
7887 1707 mt 7887 1722 L
7992 2677 mt 7992 2661 L
7992 1707 mt 7992 1722 L
8096 2677 mt 8096 2661 L
8096 1707 mt 8096 1722 L
8201 2677 mt 8201 2661 L
8201 1707 mt 8201 1722 L
8305 2677 mt 8305 2661 L
8305 1707 mt 8305 1722 L
8409 2677 mt 8409 2661 L
8409 1707 mt 8409 1722 L
8514 2677 mt 8514 2661 L
8514 1707 mt 8514 1722 L
8618 2677 mt 8618 2661 L
8618 1707 mt 8618 1722 L
8723 2677 mt 8723 2645 L
8723 1707 mt 8723 1738 L
8632 2833 mt 
(0.5) s
6635 2677 mt 6666 2677 L
8723 2677 mt 8691 2677 L
6527 2725 mt 
(0) s
6635 2599 mt 6650 2599 L
8723 2599 mt 8707 2599 L
6635 2521 mt 6650 2521 L
8723 2521 mt 8707 2521 L
6635 2444 mt 6650 2444 L
8723 2444 mt 8707 2444 L
6635 2366 mt 6650 2366 L
8723 2366 mt 8707 2366 L
6635 2289 mt 6650 2289 L
8723 2289 mt 8707 2289 L
6635 2289 mt 6650 2289 L
8723 2289 mt 8707 2289 L
6635 2289 mt 6650 2289 L
8723 2289 mt 8707 2289 L
6635 2289 mt 6650 2289 L
8723 2289 mt 8707 2289 L
6635 2289 mt 6650 2289 L
8723 2289 mt 8707 2289 L
6635 2289 mt 6666 2289 L
8723 2289 mt 8691 2289 L
6417 2337 mt 
(0.2) s
6635 2211 mt 6650 2211 L
8723 2211 mt 8707 2211 L
6635 2133 mt 6650 2133 L
8723 2133 mt 8707 2133 L
6635 2056 mt 6650 2056 L
8723 2056 mt 8707 2056 L
6635 1978 mt 6650 1978 L
8723 1978 mt 8707 1978 L
6635 1901 mt 6650 1901 L
8723 1901 mt 8707 1901 L
6635 1901 mt 6650 1901 L
8723 1901 mt 8707 1901 L
6635 1901 mt 6650 1901 L
8723 1901 mt 8707 1901 L
6635 1901 mt 6650 1901 L
8723 1901 mt 8707 1901 L
6635 1901 mt 6650 1901 L
8723 1901 mt 8707 1901 L
6635 1901 mt 6666 1901 L
8723 1901 mt 8691 1901 L
6417 1949 mt 
(0.4) s
6635 1823 mt 6650 1823 L
8723 1823 mt 8707 1823 L
6635 1745 mt 6650 1745 L
8723 1745 mt 8707 1745 L
6635 2677 mt 8723 2677 L
6635 1707 mt 8723 1707 L
6635 2677 mt 6635 1707 L
8723 2677 mt 8723 1707 L
gs 6635 1707 2089 971 rc
gr

c8
  36   36 6635 2200 FO
  36   36 6843 2114 FO
  36   36 7052 2017 FO
  36   36 7261 1921 FO
  36   36 7470 1845 FO
  36   36 7679 1801 FO
  36   36 7887 1798 FO
  36   36 8096 1841 FO
  36   36 8305 1934 FO
  36   36 8514 2084 FO
  36   36 8723 2293 FO
gs 6635 1707 2089 971 rc
gr

0 sg
%%IncludeResource: font Symbol
/Symbol /ISOLatin1Encoding 120 FMSR

7219 2835 mt 
(a) s
%%IncludeResource: font Helvetica
/Helvetica /ISOLatin1Encoding 96 FMSR

7294 2895 mt 
(MHD) s
%%IncludeResource: font Symbol
/Symbol /ISOLatin1Encoding 120 FMSR

6281 2402 mt  -90 rotate
(g) s
90 rotate
%%IncludeResource: font Helvetica
/Helvetica /ISOLatin1Encoding 120 FMSR

6281 2353 mt  -90 rotate
( \(R/v) s
90 rotate
%%IncludeResource: font Helvetica
/Helvetica /ISOLatin1Encoding 96 FMSR

6341 2100 mt  -90 rotate
(th) s
90 rotate
%%IncludeResource: font Helvetica
/Helvetica /ISOLatin1Encoding 120 FMSR

6281 2020 mt  -90 rotate
(\)) s
90 rotate
gs 6635 1707 2089 971 rc
c9
209 154 209 116 209 75 209 37 208 -3 209 -39 209 -67 209 -86 
209 -91 208 -86 6635 2180 11 MP stroke
gr

c9
c10
  36   36 7679 1879 FO
gs 6635 1707 2089 971 rc
gr

1 sg
0 2100 2088 0 0 -2100 1432 5205 4 MP
PP
-2088 0 0 2100 2088 0 0 -2100 1432 5205 5 MP stroke
4 w
DO
SO
6 w
0 sg
1432 5205 mt 3520 5205 L
1432 3105 mt 3520 3105 L
1432 5205 mt 1432 3105 L
3520 5205 mt 3520 3105 L
1432 5205 mt 3520 5205 L
1432 5205 mt 1432 3105 L
1432 5205 mt 1432 5173 L
1432 3105 mt 1432 3136 L
%%IncludeResource: font Helvetica
/Helvetica /ISOLatin1Encoding 132 FMSR

1319 5361 mt 
(-1) s
1484 5205 mt 1484 5189 L
1484 3105 mt 1484 3120 L
1536 5205 mt 1536 5189 L
1536 3105 mt 1536 3120 L
1588 5205 mt 1588 5189 L
1588 3105 mt 1588 3120 L
1640 5205 mt 1640 5189 L
1640 3105 mt 1640 3120 L
1693 5205 mt 1693 5189 L
1693 3105 mt 1693 3120 L
1745 5205 mt 1745 5189 L
1745 3105 mt 1745 3120 L
1797 5205 mt 1797 5189 L
1797 3105 mt 1797 3120 L
1849 5205 mt 1849 5189 L
1849 3105 mt 1849 3120 L
1901 5205 mt 1901 5189 L
1901 3105 mt 1901 3120 L
1954 5205 mt 1954 5173 L
1954 3105 mt 1954 3136 L
1786 5361 mt 
(-0.5) s
2006 5205 mt 2006 5189 L
2006 3105 mt 2006 3120 L
2058 5205 mt 2058 5189 L
2058 3105 mt 2058 3120 L
2110 5205 mt 2110 5189 L
2110 3105 mt 2110 3120 L
2162 5205 mt 2162 5189 L
2162 3105 mt 2162 3120 L
2215 5205 mt 2215 5189 L
2215 3105 mt 2215 3120 L
2267 5205 mt 2267 5189 L
2267 3105 mt 2267 3120 L
2319 5205 mt 2319 5189 L
2319 3105 mt 2319 3120 L
2371 5205 mt 2371 5189 L
2371 3105 mt 2371 3120 L
2423 5205 mt 2423 5189 L
2423 3105 mt 2423 3120 L
2476 5205 mt 2476 5173 L
2476 3105 mt 2476 3136 L
2440 5361 mt 
(0) s
2528 5205 mt 2528 5189 L
2528 3105 mt 2528 3120 L
2580 5205 mt 2580 5189 L
2580 3105 mt 2580 3120 L
2632 5205 mt 2632 5189 L
2632 3105 mt 2632 3120 L
2684 5205 mt 2684 5189 L
2684 3105 mt 2684 3120 L
2737 5205 mt 2737 5189 L
2737 3105 mt 2737 3120 L
2789 5205 mt 2789 5189 L
2789 3105 mt 2789 3120 L
2841 5205 mt 2841 5189 L
2841 3105 mt 2841 3120 L
2893 5205 mt 2893 5189 L
2893 3105 mt 2893 3120 L
2945 5205 mt 2945 5189 L
2945 3105 mt 2945 3120 L
2998 5205 mt 2998 5173 L
2998 3105 mt 2998 3136 L
2907 5361 mt 
(0.5) s
3050 5205 mt 3050 5189 L
3050 3105 mt 3050 3120 L
3102 5205 mt 3102 5189 L
3102 3105 mt 3102 3120 L
3154 5205 mt 3154 5189 L
3154 3105 mt 3154 3120 L
3206 5205 mt 3206 5189 L
3206 3105 mt 3206 3120 L
3259 5205 mt 3259 5189 L
3259 3105 mt 3259 3120 L
3311 5205 mt 3311 5189 L
3311 3105 mt 3311 3120 L
3363 5205 mt 3363 5189 L
3363 3105 mt 3363 3120 L
3415 5205 mt 3415 5189 L
3415 3105 mt 3415 3120 L
3467 5205 mt 3467 5189 L
3467 3105 mt 3467 3120 L
3520 5205 mt 3520 5173 L
3520 3105 mt 3520 3136 L
3484 5361 mt 
(1) s
1432 5205 mt 1463 5205 L
3520 5205 mt 3488 5205 L
1324 5253 mt 
(0) s
1432 5121 mt 1447 5121 L
3520 5121 mt 3504 5121 L
1432 5037 mt 1447 5037 L
3520 5037 mt 3504 5037 L
1432 4953 mt 1447 4953 L
3520 4953 mt 3504 4953 L
1432 4869 mt 1447 4869 L
3520 4869 mt 3504 4869 L
1432 4785 mt 1447 4785 L
3520 4785 mt 3504 4785 L
1432 4785 mt 1447 4785 L
3520 4785 mt 3504 4785 L
1432 4785 mt 1447 4785 L
3520 4785 mt 3504 4785 L
1432 4785 mt 1447 4785 L
3520 4785 mt 3504 4785 L
1432 4785 mt 1447 4785 L
3520 4785 mt 3504 4785 L
1432 4785 mt 1463 4785 L
3520 4785 mt 3488 4785 L
1214 4833 mt 
(0.1) s
1432 4701 mt 1447 4701 L
3520 4701 mt 3504 4701 L
1432 4617 mt 1447 4617 L
3520 4617 mt 3504 4617 L
1432 4533 mt 1447 4533 L
3520 4533 mt 3504 4533 L
1432 4449 mt 1447 4449 L
3520 4449 mt 3504 4449 L
1432 4365 mt 1447 4365 L
3520 4365 mt 3504 4365 L
1432 4365 mt 1447 4365 L
3520 4365 mt 3504 4365 L
1432 4365 mt 1447 4365 L
3520 4365 mt 3504 4365 L
1432 4365 mt 1447 4365 L
3520 4365 mt 3504 4365 L
1432 4365 mt 1447 4365 L
3520 4365 mt 3504 4365 L
1432 4365 mt 1463 4365 L
3520 4365 mt 3488 4365 L
1214 4413 mt 
(0.2) s
1432 4281 mt 1447 4281 L
3520 4281 mt 3504 4281 L
1432 4197 mt 1447 4197 L
3520 4197 mt 3504 4197 L
1432 4113 mt 1447 4113 L
3520 4113 mt 3504 4113 L
1432 4029 mt 1447 4029 L
3520 4029 mt 3504 4029 L
1432 3945 mt 1447 3945 L
3520 3945 mt 3504 3945 L
1432 3945 mt 1447 3945 L
3520 3945 mt 3504 3945 L
1432 3945 mt 1447 3945 L
3520 3945 mt 3504 3945 L
1432 3945 mt 1447 3945 L
3520 3945 mt 3504 3945 L
1432 3945 mt 1447 3945 L
3520 3945 mt 3504 3945 L
1432 3945 mt 1463 3945 L
3520 3945 mt 3488 3945 L
1214 3993 mt 
(0.3) s
1432 3861 mt 1447 3861 L
3520 3861 mt 3504 3861 L
1432 3777 mt 1447 3777 L
3520 3777 mt 3504 3777 L
1432 3693 mt 1447 3693 L
3520 3693 mt 3504 3693 L
1432 3609 mt 1447 3609 L
3520 3609 mt 3504 3609 L
1432 3525 mt 1447 3525 L
3520 3525 mt 3504 3525 L
1432 3525 mt 1447 3525 L
3520 3525 mt 3504 3525 L
1432 3525 mt 1447 3525 L
3520 3525 mt 3504 3525 L
1432 3525 mt 1447 3525 L
3520 3525 mt 3504 3525 L
1432 3525 mt 1447 3525 L
3520 3525 mt 3504 3525 L
1432 3525 mt 1463 3525 L
3520 3525 mt 3488 3525 L
1214 3573 mt 
(0.4) s
1432 3441 mt 1447 3441 L
3520 3441 mt 3504 3441 L
1432 3357 mt 1447 3357 L
3520 3357 mt 3504 3357 L
1432 3273 mt 1447 3273 L
3520 3273 mt 3504 3273 L
1432 3189 mt 1447 3189 L
3520 3189 mt 3504 3189 L
1432 3105 mt 1447 3105 L
3520 3105 mt 3504 3105 L
1432 3105 mt 1447 3105 L
3520 3105 mt 3504 3105 L
1432 3105 mt 1447 3105 L
3520 3105 mt 3504 3105 L
1432 3105 mt 1447 3105 L
3520 3105 mt 3504 3105 L
1432 3105 mt 1447 3105 L
3520 3105 mt 3504 3105 L
1432 3105 mt 1463 3105 L
3520 3105 mt 3488 3105 L
1214 3153 mt 
(0.5) s
1432 5205 mt 3520 5205 L
1432 3105 mt 3520 3105 L
1432 5205 mt 1432 3105 L
3520 5205 mt 3520 3105 L
gs 1432 3105 2089 2101 rc
gr

c8
  36   36 1536 4485 FO
  36   36 1640 4252 FO
  36   36 1745 4060 FO
  36   36 1849 3887 FO
  36   36 1954 3729 FO
  36   36 2058 3594 FO
  36   36 2162 3484 FO
  36   36 2267 3401 FO
  36   36 2371 3343 FO
  36   36 2476 3309 FO
  36   36 2580 3297 FO
  36   36 2684 3305 FO
  36   36 2789 3332 FO
  36   36 2893 3374 FO
  36   36 2998 3431 FO
  36   36 3102 3501 FO
  36   36 3206 3583 FO
  36   36 3311 3678 FO
  36   36 3415 3800 FO
gs 1432 3105 2089 2101 rc
gr

0 sg
%%IncludeResource: font Symbol
/Symbol /ISOLatin1Encoding 144 FMSR

2344 5589 mt 
(d) s
%%IncludeResource: font Symbol
/Symbol /ISOLatin1Encoding 120 FMSR

1078 4365 mt  -90 rotate
(g) s
90 rotate
%%IncludeResource: font Helvetica
/Helvetica /ISOLatin1Encoding 120 FMSR

1078 4316 mt  -90 rotate
( \(R/v) s
90 rotate
%%IncludeResource: font Helvetica
/Helvetica /ISOLatin1Encoding 96 FMSR

1138 4063 mt  -90 rotate
(th) s
90 rotate
%%IncludeResource: font Helvetica
/Helvetica /ISOLatin1Encoding 120 FMSR

1078 3983 mt  -90 rotate
(\)) s
90 rotate
gs 1432 3105 2089 2101 rc
c9
104 29 105 42 104 44 104 40 105 34 104 26 105 16 104 3 
104 -12 105 -30 104 -50 105 -74 104 -98 104 -124 105 -144 104 -150 
105 -138 104 266 1536 3873 19 MP stroke
gr

c9
c10
  36   36 2476 3479 FO
gs 1432 3105 2089 2101 rc
gr

1 sg
0 2099 2088 0 0 -2099 4018 5214 4 MP
PP
-2088 0 0 2099 2088 0 0 -2099 4018 5214 5 MP stroke
4 w
DO
SO
6 w
0 sg
4018 5214 mt 6106 5214 L
4018 3115 mt 6106 3115 L
4018 5214 mt 4018 3115 L
6106 5214 mt 6106 3115 L
4018 5214 mt 6106 5214 L
4018 5214 mt 4018 3115 L
4018 5214 mt 4018 5182 L
4018 3115 mt 4018 3146 L
%%IncludeResource: font Helvetica
/Helvetica /ISOLatin1Encoding 132 FMSR

3905 5370 mt 
(-1) s
4070 5214 mt 4070 5198 L
4070 3115 mt 4070 3130 L
4122 5214 mt 4122 5198 L
4122 3115 mt 4122 3130 L
4174 5214 mt 4174 5198 L
4174 3115 mt 4174 3130 L
4226 5214 mt 4226 5198 L
4226 3115 mt 4226 3130 L
4279 5214 mt 4279 5198 L
4279 3115 mt 4279 3130 L
4331 5214 mt 4331 5198 L
4331 3115 mt 4331 3130 L
4383 5214 mt 4383 5198 L
4383 3115 mt 4383 3130 L
4435 5214 mt 4435 5198 L
4435 3115 mt 4435 3130 L
4487 5214 mt 4487 5198 L
4487 3115 mt 4487 3130 L
4540 5214 mt 4540 5182 L
4540 3115 mt 4540 3146 L
4372 5370 mt 
(-0.5) s
4592 5214 mt 4592 5198 L
4592 3115 mt 4592 3130 L
4644 5214 mt 4644 5198 L
4644 3115 mt 4644 3130 L
4696 5214 mt 4696 5198 L
4696 3115 mt 4696 3130 L
4748 5214 mt 4748 5198 L
4748 3115 mt 4748 3130 L
4801 5214 mt 4801 5198 L
4801 3115 mt 4801 3130 L
4853 5214 mt 4853 5198 L
4853 3115 mt 4853 3130 L
4905 5214 mt 4905 5198 L
4905 3115 mt 4905 3130 L
4957 5214 mt 4957 5198 L
4957 3115 mt 4957 3130 L
5009 5214 mt 5009 5198 L
5009 3115 mt 5009 3130 L
5062 5214 mt 5062 5182 L
5062 3115 mt 5062 3146 L
5026 5370 mt 
(0) s
5114 5214 mt 5114 5198 L
5114 3115 mt 5114 3130 L
5166 5214 mt 5166 5198 L
5166 3115 mt 5166 3130 L
5218 5214 mt 5218 5198 L
5218 3115 mt 5218 3130 L
5270 5214 mt 5270 5198 L
5270 3115 mt 5270 3130 L
5323 5214 mt 5323 5198 L
5323 3115 mt 5323 3130 L
5375 5214 mt 5375 5198 L
5375 3115 mt 5375 3130 L
5427 5214 mt 5427 5198 L
5427 3115 mt 5427 3130 L
5479 5214 mt 5479 5198 L
5479 3115 mt 5479 3130 L
5531 5214 mt 5531 5198 L
5531 3115 mt 5531 3130 L
5584 5214 mt 5584 5182 L
5584 3115 mt 5584 3146 L
5493 5370 mt 
(0.5) s
5636 5214 mt 5636 5198 L
5636 3115 mt 5636 3130 L
5688 5214 mt 5688 5198 L
5688 3115 mt 5688 3130 L
5740 5214 mt 5740 5198 L
5740 3115 mt 5740 3130 L
5792 5214 mt 5792 5198 L
5792 3115 mt 5792 3130 L
5845 5214 mt 5845 5198 L
5845 3115 mt 5845 3130 L
5897 5214 mt 5897 5198 L
5897 3115 mt 5897 3130 L
5949 5214 mt 5949 5198 L
5949 3115 mt 5949 3130 L
6001 5214 mt 6001 5198 L
6001 3115 mt 6001 3130 L
6053 5214 mt 6053 5198 L
6053 3115 mt 6053 3130 L
6106 5214 mt 6106 5182 L
6106 3115 mt 6106 3146 L
6070 5370 mt 
(1) s
4018 5214 mt 4049 5214 L
6106 5214 mt 6074 5214 L
3910 5262 mt 
(0) s
4018 5130 mt 4033 5130 L
6106 5130 mt 6090 5130 L
4018 5046 mt 4033 5046 L
6106 5046 mt 6090 5046 L
4018 4962 mt 4033 4962 L
6106 4962 mt 6090 4962 L
4018 4878 mt 4033 4878 L
6106 4878 mt 6090 4878 L
4018 4794 mt 4033 4794 L
6106 4794 mt 6090 4794 L
4018 4794 mt 4033 4794 L
6106 4794 mt 6090 4794 L
4018 4794 mt 4033 4794 L
6106 4794 mt 6090 4794 L
4018 4794 mt 4033 4794 L
6106 4794 mt 6090 4794 L
4018 4794 mt 4033 4794 L
6106 4794 mt 6090 4794 L
4018 4794 mt 4049 4794 L
6106 4794 mt 6074 4794 L
3800 4842 mt 
(0.1) s
4018 4710 mt 4033 4710 L
6106 4710 mt 6090 4710 L
4018 4626 mt 4033 4626 L
6106 4626 mt 6090 4626 L
4018 4542 mt 4033 4542 L
6106 4542 mt 6090 4542 L
4018 4458 mt 4033 4458 L
6106 4458 mt 6090 4458 L
4018 4374 mt 4033 4374 L
6106 4374 mt 6090 4374 L
4018 4374 mt 4033 4374 L
6106 4374 mt 6090 4374 L
4018 4374 mt 4033 4374 L
6106 4374 mt 6090 4374 L
4018 4374 mt 4033 4374 L
6106 4374 mt 6090 4374 L
4018 4374 mt 4033 4374 L
6106 4374 mt 6090 4374 L
4018 4374 mt 4049 4374 L
6106 4374 mt 6074 4374 L
3800 4422 mt 
(0.2) s
4018 4290 mt 4033 4290 L
6106 4290 mt 6090 4290 L
4018 4206 mt 4033 4206 L
6106 4206 mt 6090 4206 L
4018 4122 mt 4033 4122 L
6106 4122 mt 6090 4122 L
4018 4038 mt 4033 4038 L
6106 4038 mt 6090 4038 L
4018 3954 mt 4033 3954 L
6106 3954 mt 6090 3954 L
4018 3954 mt 4033 3954 L
6106 3954 mt 6090 3954 L
4018 3954 mt 4033 3954 L
6106 3954 mt 6090 3954 L
4018 3954 mt 4033 3954 L
6106 3954 mt 6090 3954 L
4018 3954 mt 4033 3954 L
6106 3954 mt 6090 3954 L
4018 3954 mt 4049 3954 L
6106 3954 mt 6074 3954 L
3800 4002 mt 
(0.3) s
4018 3870 mt 4033 3870 L
6106 3870 mt 6090 3870 L
4018 3786 mt 4033 3786 L
6106 3786 mt 6090 3786 L
4018 3702 mt 4033 3702 L
6106 3702 mt 6090 3702 L
4018 3618 mt 4033 3618 L
6106 3618 mt 6090 3618 L
4018 3534 mt 4033 3534 L
6106 3534 mt 6090 3534 L
4018 3534 mt 4033 3534 L
6106 3534 mt 6090 3534 L
4018 3534 mt 4033 3534 L
6106 3534 mt 6090 3534 L
4018 3534 mt 4033 3534 L
6106 3534 mt 6090 3534 L
4018 3534 mt 4033 3534 L
6106 3534 mt 6090 3534 L
4018 3534 mt 4049 3534 L
6106 3534 mt 6074 3534 L
3800 3582 mt 
(0.4) s
4018 3450 mt 4033 3450 L
6106 3450 mt 6090 3450 L
4018 3366 mt 4033 3366 L
6106 3366 mt 6090 3366 L
4018 3282 mt 4033 3282 L
6106 3282 mt 6090 3282 L
4018 3198 mt 4033 3198 L
6106 3198 mt 6090 3198 L
4018 3115 mt 4033 3115 L
6106 3115 mt 6090 3115 L
4018 3115 mt 4033 3115 L
6106 3115 mt 6090 3115 L
4018 3115 mt 4033 3115 L
6106 3115 mt 6090 3115 L
4018 3115 mt 4033 3115 L
6106 3115 mt 6090 3115 L
4018 3115 mt 4033 3115 L
6106 3115 mt 6090 3115 L
4018 3115 mt 4049 3115 L
6106 3115 mt 6074 3115 L
3800 3163 mt 
(0.5) s
4018 5214 mt 6106 5214 L
4018 3115 mt 6106 3115 L
4018 5214 mt 4018 3115 L
6106 5214 mt 6106 3115 L
gs 4018 3115 2089 2100 rc
gr

c8
  36   36 4018 3676 FO
  36   36 4226 3586 FO
  36   36 4435 3497 FO
  36   36 4644 3418 FO
  36   36 4853 3358 FO
  36   36 5062 3319 FO
  36   36 5270 3298 FO
  36   36 5479 3293 FO
  36   36 5688 3300 FO
  36   36 5897 3319 FO
  36   36 6106 3348 FO
gs 4018 3115 2089 2100 rc
gr

0 sg
%%IncludeResource: font Helvetica
/Helvetica /ISOLatin1Encoding 144 FMSR

4998 5506 mt 
(s) s
%%IncludeResource: font Symbol
/Symbol /ISOLatin1Encoding 108 FMSR

5070 5578 mt 
(d) s
%%IncludeResource: font Symbol
/Symbol /ISOLatin1Encoding 120 FMSR

3664 4374 mt  -90 rotate
(g) s
90 rotate
%%IncludeResource: font Helvetica
/Helvetica /ISOLatin1Encoding 120 FMSR

3664 4325 mt  -90 rotate
( \(R/v) s
90 rotate
%%IncludeResource: font Helvetica
/Helvetica /ISOLatin1Encoding 96 FMSR

3724 4072 mt  -90 rotate
(th) s
90 rotate
%%IncludeResource: font Helvetica
/Helvetica /ISOLatin1Encoding 120 FMSR

3664 3992 mt  -90 rotate
(\)) s
90 rotate
gs 4018 3115 2089 2100 rc
c9
209 26 209 15 209 5 209 -7 208 -21 209 -38 209 -57 209 -75 
209 -89 208 -92 4018 3692 11 MP stroke
gr

c9
c10
  36   36 5062 3489 FO
gs 4018 3115 2089 2100 rc
gr

1 sg
0 2099 2087 0 0 -2099 6628 5233 4 MP
PP
-2087 0 0 2099 2087 0 0 -2099 6628 5233 5 MP stroke
4 w
DO
SO
6 w
0 sg
6628 5233 mt 8715 5233 L
6628 3134 mt 8715 3134 L
6628 5233 mt 6628 3134 L
8715 5233 mt 8715 3134 L
6628 5233 mt 8715 5233 L
6628 5233 mt 6628 3134 L
6628 5233 mt 6628 5201 L
6628 3134 mt 6628 3165 L
%%IncludeResource: font Helvetica
/Helvetica /ISOLatin1Encoding 132 FMSR

6460 5389 mt 
(-0.5) s
6732 5233 mt 6732 5217 L
6732 3134 mt 6732 3149 L
6836 5233 mt 6836 5217 L
6836 3134 mt 6836 3149 L
6941 5233 mt 6941 5217 L
6941 3134 mt 6941 3149 L
7045 5233 mt 7045 5217 L
7045 3134 mt 7045 3149 L
7149 5233 mt 7149 5217 L
7149 3134 mt 7149 3149 L
7254 5233 mt 7254 5217 L
7254 3134 mt 7254 3149 L
7358 5233 mt 7358 5217 L
7358 3134 mt 7358 3149 L
7462 5233 mt 7462 5217 L
7462 3134 mt 7462 3149 L
7567 5233 mt 7567 5217 L
7567 3134 mt 7567 3149 L
7671 5233 mt 7671 5201 L
7671 3134 mt 7671 3165 L
7635 5389 mt 
(0) s
7775 5233 mt 7775 5217 L
7775 3134 mt 7775 3149 L
7880 5233 mt 7880 5217 L
7880 3134 mt 7880 3149 L
7984 5233 mt 7984 5217 L
7984 3134 mt 7984 3149 L
8088 5233 mt 8088 5217 L
8088 3134 mt 8088 3149 L
8193 5233 mt 8193 5217 L
8193 3134 mt 8193 3149 L
8297 5233 mt 8297 5217 L
8297 3134 mt 8297 3149 L
8401 5233 mt 8401 5217 L
8401 3134 mt 8401 3149 L
8506 5233 mt 8506 5217 L
8506 3134 mt 8506 3149 L
8610 5233 mt 8610 5217 L
8610 3134 mt 8610 3149 L
8715 5233 mt 8715 5201 L
8715 3134 mt 8715 3165 L
8624 5389 mt 
(0.5) s
6628 5233 mt 6659 5233 L
8715 5233 mt 8683 5233 L
6410 5281 mt 
(0.1) s
6628 5149 mt 6643 5149 L
8715 5149 mt 8699 5149 L
6628 5065 mt 6643 5065 L
8715 5065 mt 8699 5065 L
6628 4981 mt 6643 4981 L
8715 4981 mt 8699 4981 L
6628 4897 mt 6643 4897 L
8715 4897 mt 8699 4897 L
6628 4813 mt 6643 4813 L
8715 4813 mt 8699 4813 L
6628 4813 mt 6643 4813 L
8715 4813 mt 8699 4813 L
6628 4813 mt 6643 4813 L
8715 4813 mt 8699 4813 L
6628 4813 mt 6643 4813 L
8715 4813 mt 8699 4813 L
6628 4813 mt 6643 4813 L
8715 4813 mt 8699 4813 L
6628 4813 mt 6659 4813 L
8715 4813 mt 8683 4813 L
6410 4861 mt 
(0.2) s
6628 4729 mt 6643 4729 L
8715 4729 mt 8699 4729 L
6628 4645 mt 6643 4645 L
8715 4645 mt 8699 4645 L
6628 4561 mt 6643 4561 L
8715 4561 mt 8699 4561 L
6628 4477 mt 6643 4477 L
8715 4477 mt 8699 4477 L
6628 4393 mt 6643 4393 L
8715 4393 mt 8699 4393 L
6628 4393 mt 6643 4393 L
8715 4393 mt 8699 4393 L
6628 4393 mt 6643 4393 L
8715 4393 mt 8699 4393 L
6628 4393 mt 6643 4393 L
8715 4393 mt 8699 4393 L
6628 4393 mt 6643 4393 L
8715 4393 mt 8699 4393 L
6628 4393 mt 6659 4393 L
8715 4393 mt 8683 4393 L
6410 4441 mt 
(0.3) s
6628 4309 mt 6643 4309 L
8715 4309 mt 8699 4309 L
6628 4225 mt 6643 4225 L
8715 4225 mt 8699 4225 L
6628 4141 mt 6643 4141 L
8715 4141 mt 8699 4141 L
6628 4057 mt 6643 4057 L
8715 4057 mt 8699 4057 L
6628 3973 mt 6643 3973 L
8715 3973 mt 8699 3973 L
6628 3973 mt 6643 3973 L
8715 3973 mt 8699 3973 L
6628 3973 mt 6643 3973 L
8715 3973 mt 8699 3973 L
6628 3973 mt 6643 3973 L
8715 3973 mt 8699 3973 L
6628 3973 mt 6643 3973 L
8715 3973 mt 8699 3973 L
6628 3973 mt 6659 3973 L
8715 3973 mt 8683 3973 L
6410 4021 mt 
(0.4) s
6628 3889 mt 6643 3889 L
8715 3889 mt 8699 3889 L
6628 3805 mt 6643 3805 L
8715 3805 mt 8699 3805 L
6628 3721 mt 6643 3721 L
8715 3721 mt 8699 3721 L
6628 3637 mt 6643 3637 L
8715 3637 mt 8699 3637 L
6628 3553 mt 6643 3553 L
8715 3553 mt 8699 3553 L
6628 3553 mt 6643 3553 L
8715 3553 mt 8699 3553 L
6628 3553 mt 6643 3553 L
8715 3553 mt 8699 3553 L
6628 3553 mt 6643 3553 L
8715 3553 mt 8699 3553 L
6628 3553 mt 6643 3553 L
8715 3553 mt 8699 3553 L
6628 3553 mt 6659 3553 L
8715 3553 mt 8683 3553 L
6410 3601 mt 
(0.5) s
6628 3469 mt 6643 3469 L
8715 3469 mt 8699 3469 L
6628 3385 mt 6643 3385 L
8715 3385 mt 8699 3385 L
6628 3301 mt 6643 3301 L
8715 3301 mt 8699 3301 L
6628 3217 mt 6643 3217 L
8715 3217 mt 8699 3217 L
6628 3134 mt 6643 3134 L
8715 3134 mt 8699 3134 L
6628 3134 mt 6643 3134 L
8715 3134 mt 8699 3134 L
6628 3134 mt 6643 3134 L
8715 3134 mt 8699 3134 L
6628 3134 mt 6643 3134 L
8715 3134 mt 8699 3134 L
6628 3134 mt 6643 3134 L
8715 3134 mt 8699 3134 L
6628 3134 mt 6659 3134 L
8715 3134 mt 8683 3134 L
6410 3182 mt 
(0.6) s
6628 5233 mt 8715 5233 L
6628 3134 mt 8715 3134 L
6628 5233 mt 6628 3134 L
8715 5233 mt 8715 3134 L
gs 6628 3134 2088 2100 rc
gr

c8
  36   36 6732 3184 FO
  36   36 6836 3248 FO
  36   36 6941 3311 FO
  36   36 7045 3375 FO
  36   36 7149 3439 FO
  36   36 7254 3502 FO
  36   36 7358 3566 FO
  36   36 7462 3630 FO
  36   36 7567 3694 FO
  36   36 7671 3758 FO
  36   36 7775 3822 FO
  36   36 7880 3888 FO
  36   36 7984 3956 FO
  36   36 8088 4026 FO
  36   36 8193 4100 FO
  36   36 8297 4175 FO
  36   36 8401 4251 FO
  36   36 8506 4325 FO
  36   36 8610 4394 FO
  36   36 8715 4459 FO
gs 6628 3134 2088 2100 rc
gr

0 sg
%%IncludeResource: font Helvetica
/Helvetica /ISOLatin1Encoding 144 FMSR

7427 5516 mt 
(dR) s
%%IncludeResource: font Helvetica
/Helvetica /ISOLatin1Encoding 108 FMSR

7611 5588 mt 
(mil) s
%%IncludeResource: font Helvetica
/Helvetica /ISOLatin1Encoding 144 FMSR

7748 5516 mt 
(/dr) s
%%IncludeResource: font Symbol
/Symbol /ISOLatin1Encoding 120 FMSR

6274 4393 mt  -90 rotate
(g) s
90 rotate
%%IncludeResource: font Helvetica
/Helvetica /ISOLatin1Encoding 120 FMSR

6274 4344 mt  -90 rotate
( \(R/v) s
90 rotate
%%IncludeResource: font Helvetica
/Helvetica /ISOLatin1Encoding 96 FMSR

6334 4091 mt  -90 rotate
(th) s
90 rotate
%%IncludeResource: font Helvetica
/Helvetica /ISOLatin1Encoding 120 FMSR

6274 4011 mt  -90 rotate
(\)) s
90 rotate
gs 6628 3134 2088 2100 rc
c9
105 65 104 70 105 73 104 75 104 75 105 72 104 70 104 66 
105 65 104 63 104 63 105 63 104 63 104 62 105 63 104 63 
104 62 105 63 104 63 104 65 6628 3150 21 MP stroke
gr

c9
c10
  36   36 7671 3928 FO
gs 6628 3134 2088 2100 rc
gr

0 sg
%%IncludeResource: font Helvetica
/Helvetica /ISOLatin1Encoding 132 FMSR

4250 4742 mt 
(All Miller parameters) s
4250 4893 mt 
(refer to GKW definitions) s
7099 1206 mt 
(Cyan: ) s
%%IncludeResource: font Symbol
/Symbol /ISOLatin1Encoding 132 FMSR

7471 1206 mt 
(b) s
%%IncludeResource: font Symbol
/Symbol /ISOLatin1Encoding 96 FMSR

7543 1140 mt 
(\242) s
%%IncludeResource: font Helvetica
/Helvetica /ISOLatin1Encoding 132 FMSR

7566 1206 mt 
( only in Miller,) s
7099 1366 mt 
(not curvature) s
%%IncludeResource: font Helvetica
/Helvetica /ISOLatin1Encoding 144 FMSR

1583 1979 mt 
(Circles: GKW) s
1583 2145 mt 
(Line: GS2) s
1583 2311 mt 
(Red: Circular geometry) s

end %%Color Dict

eplot
%%EndObject

epage
end

showpage

%%Trailer
%%EOF
