%!PS-Adobe-3.0 EPSF-3.0
%%Creator: MATLAB, The Mathworks, Inc. Version 7.5.0.338 (R2007b). Operating System: Linux 2.6.16.60-0.34-smp #1 SMP Fri Jan 16 14:59:01 UTC 2009 x86_64.
%%Title: /gpfs/space/phsfar/bench/beta_eps16_bench/gs2/output/overallfig_bench.eps
%%CreationDate: 03/15/2009  21:20:01
%%DocumentNeededFonts: Helvetica
%%DocumentProcessColors: Cyan Magenta Yellow Black
%%LanguageLevel: 2
%%Pages: 1
%%BoundingBox: -104 274 707 557
%%EndComments

%%BeginProlog
% MathWorks dictionary
/MathWorks 160 dict begin
% definition operators
/bdef {bind def} bind def
/ldef {load def} bind def
/xdef {exch def} bdef
/xstore {exch store} bdef
% operator abbreviations
/c  /clip ldef
/cc /concat ldef
/cp /closepath ldef
/gr /grestore ldef
/gs /gsave ldef
/mt /moveto ldef
/np /newpath ldef
/cm /currentmatrix ldef
/sm /setmatrix ldef
/rm /rmoveto ldef
/rl /rlineto ldef
/s {show newpath} bdef
/sc {setcmykcolor} bdef
/sr /setrgbcolor ldef
/sg /setgray ldef
/w /setlinewidth ldef
/j /setlinejoin ldef
/cap /setlinecap ldef
/rc {rectclip} bdef
/rf {rectfill} bdef
% page state control
/pgsv () def
/bpage {/pgsv save def} bdef
/epage {pgsv restore} bdef
/bplot /gsave ldef
/eplot {stroke grestore} bdef
% orientation switch
/portraitMode 0 def /landscapeMode 1 def /rotateMode 2 def
% coordinate system mappings
/dpi2point 0 def
% font control
/FontSize 0 def
/FMS {/FontSize xstore findfont [FontSize 0 0 FontSize neg 0 0]
  makefont setfont} bdef
/reencode {exch dup where {pop load} {pop StandardEncoding} ifelse
  exch dup 3 1 roll findfont dup length dict begin
  { 1 index /FID ne {def}{pop pop} ifelse } forall
  /Encoding exch def currentdict end definefont pop} bdef
/isroman {findfont /CharStrings get /Agrave known} bdef
/FMSR {3 1 roll 1 index dup isroman {reencode} {pop pop} ifelse
  exch FMS} bdef
/csm {1 dpi2point div -1 dpi2point div scale neg translate
 dup landscapeMode eq {pop -90 rotate}
  {rotateMode eq {90 rotate} if} ifelse} bdef
% line types: solid, dotted, dashed, dotdash
/SO { [] 0 setdash } bdef
/DO { [.5 dpi2point mul 4 dpi2point mul] 0 setdash } bdef
/DA { [6 dpi2point mul] 0 setdash } bdef
/DD { [.5 dpi2point mul 4 dpi2point mul 6 dpi2point mul 4
  dpi2point mul] 0 setdash } bdef
% macros for lines and objects
/L {lineto stroke} bdef
/MP {3 1 roll moveto 1 sub {rlineto} repeat} bdef
/AP {{rlineto} repeat} bdef
/PDlw -1 def
/W {/PDlw currentlinewidth def setlinewidth} def
/PP {closepath eofill} bdef
/DP {closepath stroke} bdef
/MR {4 -2 roll moveto dup  0 exch rlineto exch 0 rlineto
  neg 0 exch rlineto closepath} bdef
/FR {MR stroke} bdef
/PR {MR fill} bdef
/L1i {{currentfile picstr readhexstring pop} image} bdef
/tMatrix matrix def
/MakeOval {newpath tMatrix currentmatrix pop translate scale
0 0 1 0 360 arc tMatrix setmatrix} bdef
/FO {MakeOval stroke} bdef
/PO {MakeOval fill} bdef
/PD {currentlinewidth 2 div 0 360 arc fill
   PDlw -1 eq not {PDlw w /PDlw -1 def} if} def
/FA {newpath tMatrix currentmatrix pop translate scale
  0 0 1 5 -2 roll arc tMatrix setmatrix stroke} bdef
/PA {newpath tMatrix currentmatrix pop	translate 0 0 moveto scale
  0 0 1 5 -2 roll arc closepath tMatrix setmatrix fill} bdef
/FAn {newpath tMatrix currentmatrix pop translate scale
  0 0 1 5 -2 roll arcn tMatrix setmatrix stroke} bdef
/PAn {newpath tMatrix currentmatrix pop translate 0 0 moveto scale
  0 0 1 5 -2 roll arcn closepath tMatrix setmatrix fill} bdef
/vradius 0 def /hradius 0 def /lry 0 def
/lrx 0 def /uly 0 def /ulx 0 def /rad 0 def
/MRR {/vradius xdef /hradius xdef /lry xdef /lrx xdef /uly xdef
  /ulx xdef newpath tMatrix currentmatrix pop ulx hradius add uly
  vradius add translate hradius vradius scale 0 0 1 180 270 arc 
  tMatrix setmatrix lrx hradius sub uly vradius add translate
  hradius vradius scale 0 0 1 270 360 arc tMatrix setmatrix
  lrx hradius sub lry vradius sub translate hradius vradius scale
  0 0 1 0 90 arc tMatrix setmatrix ulx hradius add lry vradius sub
  translate hradius vradius scale 0 0 1 90 180 arc tMatrix setmatrix
  closepath} bdef
/FRR {MRR stroke } bdef
/PRR {MRR fill } bdef
/MlrRR {/lry xdef /lrx xdef /uly xdef /ulx xdef /rad lry uly sub 2 div def
  newpath tMatrix currentmatrix pop ulx rad add uly rad add translate
  rad rad scale 0 0 1 90 270 arc tMatrix setmatrix lrx rad sub lry rad
  sub translate rad rad scale 0 0 1 270 90 arc tMatrix setmatrix
  closepath} bdef
/FlrRR {MlrRR stroke } bdef
/PlrRR {MlrRR fill } bdef
/MtbRR {/lry xdef /lrx xdef /uly xdef /ulx xdef /rad lrx ulx sub 2 div def
  newpath tMatrix currentmatrix pop ulx rad add uly rad add translate
  rad rad scale 0 0 1 180 360 arc tMatrix setmatrix lrx rad sub lry rad
  sub translate rad rad scale 0 0 1 0 180 arc tMatrix setmatrix
  closepath} bdef
/FtbRR {MtbRR stroke } bdef
/PtbRR {MtbRR fill } bdef
/stri 6 array def /dtri 6 array def
/smat 6 array def /dmat 6 array def
/tmat1 6 array def /tmat2 6 array def /dif 3 array def
/asub {/ind2 exch def /ind1 exch def dup dup
  ind1 get exch ind2 get sub exch } bdef
/tri_to_matrix {
  2 0 asub 3 1 asub 4 0 asub 5 1 asub
  dup 0 get exch 1 get 7 -1 roll astore } bdef
/compute_transform {
  dmat dtri tri_to_matrix tmat1 invertmatrix 
  smat stri tri_to_matrix tmat2 concatmatrix } bdef
/ds {stri astore pop} bdef
/dt {dtri astore pop} bdef
/db {2 copy /cols xdef /rows xdef mul dup 3 mul string
  currentfile 
  3 index 0 eq {/ASCIIHexDecode filter}
  {/ASCII85Decode filter 3 index 2 eq {/RunLengthDecode filter} if }
  ifelse exch readstring pop
  dup 0 3 index getinterval /rbmap xdef
  dup 2 index dup getinterval /gbmap xdef
  1 index dup 2 mul exch getinterval /bbmap xdef pop pop}bdef
/it {gs np dtri aload pop moveto lineto lineto cp c
  cols rows 8 compute_transform 
  rbmap gbmap bbmap true 3 colorimage gr}bdef
/il {newpath moveto lineto stroke}bdef
currentdict end def
%%EndProlog

%%BeginSetup
MathWorks begin

0 cap

end
%%EndSetup

%%Page: 1 1
%%BeginPageSetup
%%PageBoundingBox: -104 274 707 557
MathWorks begin
bpage
%%EndPageSetup

%%BeginObject: obj1
bplot

/dpi2point 12 def
portraitMode -2316 6876 csm

    0     0 11793  3668 rc
87 dict begin %Colortable dictionary
/c0 { 0.000000 0.000000 0.000000 sr} bdef
/c1 { 1.000000 1.000000 1.000000 sr} bdef
/c2 { 0.900000 0.000000 0.000000 sr} bdef
/c3 { 0.000000 0.820000 0.000000 sr} bdef
/c4 { 0.000000 0.000000 0.800000 sr} bdef
/c5 { 0.910000 0.820000 0.320000 sr} bdef
/c6 { 1.000000 0.260000 0.820000 sr} bdef
/c7 { 0.000000 0.820000 0.820000 sr} bdef
c0
1 j
1 sg
   0    0 11794 3669 rf
6 w
0 2964 2573 0 0 -2964 4835 3241 4 MP
PP
-2573 0 0 2964 2573 0 0 -2964 4835 3241 5 MP stroke
4 w
DO
SO
6 w
0 sg
4835 3241 mt 7408 3241 L
4835  277 mt 7408  277 L
4835 3241 mt 4835  277 L
7408 3241 mt 7408  277 L
4835 3241 mt 7408 3241 L
4835 3241 mt 4835  277 L
4835 3241 mt 4835 3211 L
4835  277 mt 4835  306 L
%%IncludeResource: font Helvetica
/Helvetica /ISOLatin1Encoding 120 FMSR

4802 3386 mt 
(0) s
5349 3241 mt 5349 3211 L
5349  277 mt 5349  306 L
5199 3386 mt 
(0.002) s
5864 3241 mt 5864 3211 L
5864  277 mt 5864  306 L
5714 3386 mt 
(0.004) s
6378 3241 mt 6378 3211 L
6378  277 mt 6378  306 L
6228 3386 mt 
(0.006) s
6893 3241 mt 6893 3211 L
6893  277 mt 6893  306 L
6743 3386 mt 
(0.008) s
7408 3241 mt 7408 3211 L
7408  277 mt 7408  306 L
7292 3386 mt 
(0.01) s
4835 3241 mt 4864 3241 L
7408 3241 mt 7378 3241 L
4734 3285 mt 
(0) s
4835 2747 mt 4864 2747 L
7408 2747 mt 7378 2747 L
4634 2791 mt 
(0.2) s
4835 2253 mt 4864 2253 L
7408 2253 mt 7378 2253 L
4634 2297 mt 
(0.4) s
4835 1758 mt 4864 1758 L
7408 1758 mt 7378 1758 L
4634 1802 mt 
(0.6) s
4835 1264 mt 4864 1264 L
7408 1264 mt 7378 1264 L
4634 1308 mt 
(0.8) s
4835  770 mt 4864  770 L
7408  770 mt 7378  770 L
4734  814 mt 
(1) s
4835 3241 mt 7408 3241 L
4835  277 mt 7408  277 L
4835 3241 mt 4835  277 L
7408 3241 mt 7408  277 L
gs 4835 277 2574 2965 rc
gr

0 j
60 79 -60 79 -60 -79 60 -79 4835 1616 5 MP
/c8 { 1.000000 0.000000 0.000000 sr} bdef
c8
DP
60 79 -60 79 -60 -79 60 -79 5092 1736 5 MP
DP
60 79 -60 79 -60 -79 60 -79 5349 1868 5 MP
DP
60 79 -60 79 -60 -79 60 -79 5606 2023 5 MP
DP
60 79 -60 79 -60 -79 60 -79 5864 2190 5 MP
DP
60 79 -60 79 -60 -79 60 -79 6121 2404 5 MP
DP
60 79 -60 79 -60 -79 60 -79 6378 2629 5 MP
DP
60 79 -60 79 -60 -79 60 -79 6636 2584 5 MP
DP
60 79 -60 79 -60 -79 60 -79 6893 1761 5 MP
DP
60 79 -60 79 -60 -79 60 -79 7150 1070 5 MP
DP
60 79 -60 79 -60 -79 60 -79 7408 539 5 MP
DP
gs 4835 277 2574 2965 rc
gr

/c9 { 0.000000 0.000000 1.000000 sr} bdef
c9
  36   36 4835 1515 FO
  36   36 5092 1627 FO
  36   36 5349 1755 FO
  36   36 5606 1903 FO
  36   36 5864 2076 FO
  36   36 6121 2278 FO
  36   36 6378 2510 FO
  36   36 6636 2601 FO
  36   36 6893 1617 FO
  36   36 7150  973 FO
  36   36 7408  461 FO
gs 4835 277 2574 2965 rc
gr

0 sg
%%IncludeResource: font Symbol
/Symbol /ISOLatin1Encoding 120 FMSR

6087 3523 mt 
(b) s
%%IncludeResource: font Helvetica
/Helvetica /ISOLatin1Encoding 120 FMSR

4498 1931 mt  -90 rotate
(R) s
90 rotate
%%IncludeResource: font Symbol
/Symbol /ISOLatin1Encoding 120 FMSR

4498 1845 mt  -90 rotate
(g) s
90 rotate
%%IncludeResource: font Helvetica
/Helvetica /ISOLatin1Encoding 120 FMSR

4498 1796 mt  -90 rotate
( / c) s
90 rotate
%%IncludeResource: font Helvetica
/Helvetica /ISOLatin1Encoding 96 FMSR

4558 1636 mt  -90 rotate
(s) s
90 rotate
gs 4835 277 2574 2965 rc
c9
257 232 257 202 258 173 257 148 257 128 257 112 4835 1515 7 MP stroke
258 -512 257 -644 257 -984 6636 2601 4 MP stroke
gr

c9
1 sg
0 2909 2480 0 0 -2909 8193 3184 4 MP
PP
-2480 0 0 2909 2480 0 0 -2909 8193 3184 5 MP stroke
4 w
DO
SO
6 w
0 sg
8193 3184 mt 10673 3184 L
8193  275 mt 10673  275 L
8193 3184 mt 8193  275 L
10673 3184 mt 10673  275 L
8193 3184 mt 10673 3184 L
8193 3184 mt 8193  275 L
8193 3184 mt 8193 3154 L
8193  275 mt 8193  304 L
%%IncludeResource: font Helvetica
/Helvetica /ISOLatin1Encoding 120 FMSR

8160 3329 mt 
(0) s
8689 3184 mt 8689 3154 L
8689  275 mt 8689  304 L
8539 3329 mt 
(0.002) s
9185 3184 mt 9185 3154 L
9185  275 mt 9185  304 L
9035 3329 mt 
(0.004) s
9681 3184 mt 9681 3154 L
9681  275 mt 9681  304 L
9531 3329 mt 
(0.006) s
10177 3184 mt 10177 3154 L
10177  275 mt 10177  304 L
10027 3329 mt 
(0.008) s
10673 3184 mt 10673 3154 L
10673  275 mt 10673  304 L
10557 3329 mt 
(0.01) s
8193 3184 mt 8222 3184 L
10673 3184 mt 10643 3184 L
7922 3228 mt 
(-0.2) s
8193 2893 mt 8222 2893 L
10673 2893 mt 10643 2893 L
7922 2937 mt 
(-0.1) s
8193 2602 mt 8222 2602 L
10673 2602 mt 10643 2602 L
8092 2646 mt 
(0) s
8193 2311 mt 8222 2311 L
10673 2311 mt 10643 2311 L
7992 2355 mt 
(0.1) s
8193 2020 mt 8222 2020 L
10673 2020 mt 10643 2020 L
7992 2064 mt 
(0.2) s
8193 1729 mt 8222 1729 L
10673 1729 mt 10643 1729 L
7992 1773 mt 
(0.3) s
8193 1438 mt 8222 1438 L
10673 1438 mt 10643 1438 L
7992 1482 mt 
(0.4) s
8193 1147 mt 8222 1147 L
10673 1147 mt 10643 1147 L
7992 1191 mt 
(0.5) s
8193  856 mt 8222  856 L
10673  856 mt 10643  856 L
7992  900 mt 
(0.6) s
8193  565 mt 8222  565 L
10673  565 mt 10643  565 L
7992  609 mt 
(0.7) s
8193  275 mt 8222  275 L
10673  275 mt 10643  275 L
7992  319 mt 
(0.8) s
8193 3184 mt 10673 3184 L
8193  275 mt 10673  275 L
8193 3184 mt 8193  275 L
10673 3184 mt 10673  275 L
gs 8193 275 2481 2910 rc
12 w
c9
248 -44 248 -64 248 -112 248 171 248 -307 248 -271 248 -230 248 -192 
248 -161 248 -133 8193 1883 11 MP stroke
c8
248 45 248 46 248 38 248 -31 248 -126 248 -122 248 -111 248 -101 
248 -92 248 -82 8193 2743 11 MP stroke
/c10 { 1.000000 0.000000 1.000000 sr} bdef
c10
248 -6 248 -10 248 -19 248 -75 248 34 248 26 248 20 248 17 
248 15 248 13 8193 2602 11 MP stroke
/c11 { 0.000000 1.000000 0.000000 sr} bdef
c11
248 -18 248 -18 248 -23 248 -303 248 47 248 61 248 65 248 66 
248 66 248 64 8193 2602 11 MP stroke
0 sg
248 -2 248 -3 248 -4 248 -49 248 20 248 13 248 10 248 8 
248 7 248 5 8193 2602 11 MP stroke
gr

12 w
%%IncludeResource: font Symbol
/Symbol /ISOLatin1Encoding 120 FMSR

9399 3466 mt 
(b) s
%%IncludeResource: font Helvetica
/Helvetica /ISOLatin1Encoding 120 FMSR

7840 2206 mt  -90 rotate
(Normalized fluxes) s
90 rotate
gs 8193 275 2481 2910 rc
gr

48 63 -48 63 -48 -63 48 -63 8193 2665 5 MP
c8
DP
48 63 -48 63 -48 -63 48 -63 8441 2678 5 MP
DP
48 63 -48 63 -48 -63 48 -63 8689 2694 5 MP
DP
48 63 -48 63 -48 -63 48 -63 8937 2713 5 MP
DP
48 63 -48 63 -48 -63 48 -63 9185 2734 5 MP
DP
48 63 -48 63 -48 -63 48 -63 9433 2763 5 MP
DP
48 63 -48 63 -48 -63 48 -63 9681 2802 5 MP
DP
48 63 -48 63 -48 -63 48 -63 9929 2709 5 MP
DP
48 63 -48 63 -48 -63 48 -63 10177 2693 5 MP
DP
48 63 -48 63 -48 -63 48 -63 10425 2683 5 MP
DP
48 63 -48 63 -48 -63 48 -63 10673 2677 5 MP
DP
gs 8193 275 2481 2910 rc
6 w
gr

6 w
48 63 -48 63 -48 -63 48 -63 8193 1945 5 MP
DP
48 63 -48 63 -48 -63 48 -63 8441 1790 5 MP
DP
48 63 -48 63 -48 -63 48 -63 8689 1617 5 MP
DP
48 63 -48 63 -48 -63 48 -63 8937 1413 5 MP
DP
48 63 -48 63 -48 -63 48 -63 9185 1172 5 MP
DP
48 63 -48 63 -48 -63 48 -63 9433 902 5 MP
DP
48 63 -48 63 -48 -63 48 -63 9681 606 5 MP
DP
48 63 -48 63 -48 -63 48 -63 9929 829 5 MP
DP
48 63 -48 63 -48 -63 48 -63 10177 671 5 MP
DP
48 63 -48 63 -48 -63 48 -63 10425 582 5 MP
DP
48 63 -48 63 -48 -63 48 -63 10673 532 5 MP
DP
gs 8193 275 2481 2910 rc
gr

48 63 -48 63 -48 -63 48 -63 8193 2665 5 MP
DP
48 63 -48 63 -48 -63 48 -63 8441 2734 5 MP
DP
48 63 -48 63 -48 -63 48 -63 8689 2804 5 MP
DP
48 63 -48 63 -48 -63 48 -63 8937 2874 5 MP
DP
48 63 -48 63 -48 -63 48 -63 9185 2937 5 MP
DP
48 63 -48 63 -48 -63 48 -63 9433 2993 5 MP
DP
48 63 -48 63 -48 -63 48 -63 9681 3025 5 MP
DP
48 63 -48 63 -48 -63 48 -63 9929 2708 5 MP
DP
48 63 -48 63 -48 -63 48 -63 10177 2673 5 MP
DP
48 63 -48 63 -48 -63 48 -63 10425 2660 5 MP
DP
48 63 -48 63 -48 -63 48 -63 10673 2643 5 MP
DP
gs 8193 275 2481 2910 rc
gr

48 63 -48 63 -48 -63 48 -63 8193 2775 5 MP
DP
48 63 -48 63 -48 -63 48 -63 8441 2696 5 MP
DP
48 63 -48 63 -48 -63 48 -63 8689 2607 5 MP
DP
48 63 -48 63 -48 -63 48 -63 8937 2509 5 MP
DP
48 63 -48 63 -48 -63 48 -63 9185 2411 5 MP
DP
48 63 -48 63 -48 -63 48 -63 9433 2297 5 MP
DP
48 63 -48 63 -48 -63 48 -63 9681 2162 5 MP
DP
48 63 -48 63 -48 -63 48 -63 9929 2117 5 MP
DP
48 63 -48 63 -48 -63 48 -63 10177 2141 5 MP
DP
48 63 -48 63 -48 -63 48 -63 10425 2188 5 MP
DP
48 63 -48 63 -48 -63 48 -63 10673 2237 5 MP
DP
gs 8193 275 2481 2910 rc
gr

48 63 -48 63 -48 -63 48 -63 8193 2665 5 MP
DP
48 63 -48 63 -48 -63 48 -63 8441 2671 5 MP
DP
48 63 -48 63 -48 -63 48 -63 8689 2678 5 MP
DP
48 63 -48 63 -48 -63 48 -63 8937 2688 5 MP
DP
48 63 -48 63 -48 -63 48 -63 9185 2699 5 MP
DP
48 63 -48 63 -48 -63 48 -63 9433 2715 5 MP
DP
48 63 -48 63 -48 -63 48 -63 9681 2738 5 MP
DP
48 63 -48 63 -48 -63 48 -63 9929 2680 5 MP
DP
48 63 -48 63 -48 -63 48 -63 10177 2676 5 MP
DP
48 63 -48 63 -48 -63 48 -63 10425 2674 5 MP
DP
48 63 -48 63 -48 -63 48 -63 10673 2671 5 MP
DP
gs 8193 275 2481 2910 rc
gr

1 sg
0 2978 2598 0 0 -2978 1533 3253 4 MP
PP
-2598 0 0 2978 2598 0 0 -2978 1533 3253 5 MP stroke
4 w
DO
SO
6 w
0 sg
1533 3253 mt 4131 3253 L
1533  275 mt 4131  275 L
1533 3253 mt 1533  275 L
4131 3253 mt 4131  275 L
1533 3253 mt 4131 3253 L
1533 3253 mt 1533  275 L
1533 3253 mt 1533 3223 L
1533  275 mt 1533  304 L
1500 3398 mt 
(0) s
2079 3253 mt 2079 3223 L
2079  275 mt 2079  304 L
2046 3398 mt 
(2) s
2626 3253 mt 2626 3223 L
2626  275 mt 2626  304 L
2593 3398 mt 
(4) s
3173 3253 mt 3173 3223 L
3173  275 mt 3173  304 L
3140 3398 mt 
(6) s
3720 3253 mt 3720 3223 L
3720  275 mt 3720  304 L
3687 3398 mt 
(8) s
1533 3253 mt 1562 3253 L
4131 3253 mt 4101 3253 L
1432 3297 mt 
(0) s
1533 2657 mt 1562 2657 L
4131 2657 mt 4101 2657 L
1332 2701 mt 
(0.5) s
1533 2061 mt 1562 2061 L
4131 2061 mt 4101 2061 L
1432 2105 mt 
(1) s
1533 1466 mt 1562 1466 L
4131 1466 mt 4101 1466 L
1332 1510 mt 
(1.5) s
1533  870 mt 1562  870 L
4131  870 mt 4101  870 L
1432  914 mt 
(2) s
1533  275 mt 1562  275 L
4131  275 mt 4101  275 L
1332  319 mt 
(2.5) s
1533 3253 mt 4131 3253 L
1533  275 mt 4131  275 L
1533 3253 mt 1533  275 L
4131 3253 mt 4131  275 L
gs 1533 275 2599 2979 rc
12 w
c9
138 -83 274 -170 273 -174 274 -178 273 -178 274 -171 273 -149 274 -106 
273 -54 273 -16 1533 1761 11 MP stroke
138 -88 274 -182 273 -188 274 -194 273 -197 274 -192 273 -169 274 -107 
273 -19 273 21 1533 2091 11 MP stroke
138 -94 274 -195 273 -204 274 -215 273 -224 274 -226 273 -206 274 -135 
273 68 273 82 1533 2444 11 MP stroke
138 -100 274 -210 273 -224 274 -240 273 -259 274 -280 273 -262 274 -133 
273 187 273 147 1533 2806 11 MP stroke
138 -106 274 -224 273 -241 274 -263 273 -291 274 -306 95 -49 2531 3254 8 MP stroke
138 -110 274 -233 273 -253 274 -271 273 -228 29 -58 2871 3254 7 MP stroke
6 w
gr

c9
48 63 -48 63 -48 -63 48 -63 1533 1846 5 MP
c8
DP
48 63 -48 63 -48 -63 48 -63 1806 1833 5 MP
DP
48 63 -48 63 -48 -63 48 -63 2079 1782 5 MP
DP
48 63 -48 63 -48 -63 48 -63 2353 1673 5 MP
DP
48 63 -48 63 -48 -63 48 -63 2626 1522 5 MP
DP
48 63 -48 63 -48 -63 48 -63 2900 1351 5 MP
DP
48 63 -48 63 -48 -63 48 -63 3173 1173 5 MP
DP
48 63 -48 63 -48 -63 48 -63 3447 995 5 MP
DP
48 63 -48 63 -48 -63 48 -63 3720 821 5 MP
DP
48 63 -48 63 -48 -63 48 -63 3994 652 5 MP
DP
gs 1533 275 2599 2979 rc
gr

48 63 -48 63 -48 -63 48 -63 1533 2169 5 MP
DP
48 63 -48 63 -48 -63 48 -63 1806 2192 5 MP
DP
48 63 -48 63 -48 -63 48 -63 2079 2182 5 MP
DP
48 63 -48 63 -48 -63 48 -63 2353 2071 5 MP
DP
48 63 -48 63 -48 -63 48 -63 2626 1896 5 MP
DP
48 63 -48 63 -48 -63 48 -63 2900 1704 5 MP
DP
48 63 -48 63 -48 -63 48 -63 3173 1508 5 MP
DP
48 63 -48 63 -48 -63 48 -63 3447 1316 5 MP
DP
48 63 -48 63 -48 -63 48 -63 3720 1129 5 MP
DP
48 63 -48 63 -48 -63 48 -63 3994 949 5 MP
DP
gs 1533 275 2599 2979 rc
gr

48 63 -48 63 -48 -63 48 -63 1533 2524 5 MP
DP
48 63 -48 63 -48 -63 48 -63 1806 2597 5 MP
DP
48 63 -48 63 -48 -63 48 -63 2079 2675 5 MP
DP
48 63 -48 63 -48 -63 48 -63 2353 2539 5 MP
DP
48 63 -48 63 -48 -63 48 -63 2626 2326 5 MP
DP
48 63 -48 63 -48 -63 48 -63 2900 2100 5 MP
DP
48 63 -48 63 -48 -63 48 -63 3173 1880 5 MP
DP
48 63 -48 63 -48 -63 48 -63 3447 1669 5 MP
DP
48 63 -48 63 -48 -63 48 -63 3720 1468 5 MP
DP
48 63 -48 63 -48 -63 48 -63 3994 1275 5 MP
DP
gs 1533 275 2599 2979 rc
gr

36 47 -36 47 -36 -47 36 -47 1533 2866 5 MP
DP
36 47 -36 47 -36 -47 36 -47 1806 3033 5 MP
DP
gs 1533 275 2599 2979 rc
gr

48 63 -48 63 -48 -63 48 -63 2353 3023 5 MP
DP
48 63 -48 63 -48 -63 48 -63 2626 2819 5 MP
DP
48 63 -48 63 -48 -63 48 -63 2900 2537 5 MP
DP
48 63 -48 63 -48 -63 48 -63 3173 2279 5 MP
DP
48 63 -48 63 -48 -63 48 -63 3447 2047 5 MP
DP
48 63 -48 63 -48 -63 48 -63 3720 1829 5 MP
DP
48 63 -48 63 -48 -63 48 -63 3994 1623 5 MP
DP
gs 1533 275 2599 2979 rc
gr

48 63 -48 63 -48 -63 48 -63 2900 2976 5 MP
DP
48 63 -48 63 -48 -63 48 -63 3173 2673 5 MP
DP
48 63 -48 63 -48 -63 48 -63 3447 2427 5 MP
DP
48 63 -48 63 -48 -63 48 -63 3720 2198 5 MP
DP
48 63 -48 63 -48 -63 48 -63 3994 1981 5 MP
DP
gs 1533 275 2599 2979 rc
gr

48 63 -48 63 -48 -63 48 -63 2900 3209 5 MP
DP
48 63 -48 63 -48 -63 48 -63 3173 3012 5 MP
DP
48 63 -48 63 -48 -63 48 -63 3447 2780 5 MP
DP
48 63 -48 63 -48 -63 48 -63 3720 2556 5 MP
DP
48 63 -48 63 -48 -63 48 -63 3994 2334 5 MP
DP
gs 1533 275 2599 2979 rc
gr

0 sg
2683 3519 mt 
(R/L) s
%%IncludeResource: font Helvetica
/Helvetica /ISOLatin1Encoding 96 FMSR

2869 3579 mt 
(Te) s
%%IncludeResource: font Helvetica
/Helvetica /ISOLatin1Encoding 120 FMSR

1196 1953 mt  -90 rotate
(R ) s
90 rotate
%%IncludeResource: font Symbol
/Symbol /ISOLatin1Encoding 120 FMSR

1196 1833 mt  -90 rotate
(g) s
90 rotate
%%IncludeResource: font Helvetica
/Helvetica /ISOLatin1Encoding 120 FMSR

1196 1784 mt  -90 rotate
( / c) s
90 rotate
%%IncludeResource: font Helvetica
/Helvetica /ISOLatin1Encoding 96 FMSR

1256 1624 mt  -90 rotate
(s) s
90 rotate
%%IncludeResource: font Helvetica
/Helvetica /ISOLatin1Encoding 120 FMSR

9543  962 mt 
(Electron heat ) s
9543 1100 mt 
(\(electro-static\)) s
9555 2354 mt 
(Particle flux ) s
9555 2492 mt 
(\(electromagn.\)) s
9542 1752 mt 
(Particle flux ) s
9542 1890 mt 
(\(electro-static\)) s
9724 2863 mt 
(Electron heat ) s
9724 3001 mt 
(\(Electromagn.\)) s
73 -49 9162 2825 2 MP stroke
-65 43 125 -29 9175 2762 3 MP
PP
-60 -14 -65 43 125 -29 9175 2762 4 MP stroke
10 -61 -75 104 9300 2733 3 MP
PP
65 -43 10 -61 -75 104 9300 2733 4 MP stroke
8534 2936 mt 
(Ion heat ) s
8375 3074 mt 
(\(Electromagn.\)) s
1913 1951 mt 
(6) s
1913 2294 mt 
(5) s
1912 2774 mt 
(4) s
1901 3150 mt 
(3) s
2547 3116 mt 
(2) s
3259 3088 mt 
(1) s

end %%Color Dict

eplot
%%EndObject

epage
end

showpage

%%Trailer
%%EOF
