%!PS-Adobe-3.0 EPSF-3.0
%%Creator: MATLAB, The Mathworks, Inc. Version 7.9.0.529 (R2009b). Operating System: Linux 3.0.74-0.6.6-default #1 SMP Thu May 16 14:06:37 CEST 2013 x86_64.
%%Title: /afs/ipp/home/d/dzar/gkw/doc/fig/phiseparatrix_w2.eps
%%CreationDate: 08/21/2013  14:19:21
%%DocumentNeededFonts: Helvetica
%%+ Helvetica-Bold
%%DocumentProcessColors: Cyan Magenta Yellow Black
%%LanguageLevel: 2
%%Pages: 1
%%BoundingBox:    68   218   542   574
%%EndComments

%%BeginProlog
% MathWorks dictionary
/MathWorks 160 dict begin
% definition operators
/bdef {bind def} bind def
/ldef {load def} bind def
/xdef {exch def} bdef
/xstore {exch store} bdef
% operator abbreviations
/c  /clip ldef
/cc /concat ldef
/cp /closepath ldef
/gr /grestore ldef
/gs /gsave ldef
/mt /moveto ldef
/np /newpath ldef
/cm /currentmatrix ldef
/sm /setmatrix ldef
/rm /rmoveto ldef
/rl /rlineto ldef
/s {show newpath} bdef
/sc {setcmykcolor} bdef
/sr /setrgbcolor ldef
/sg /setgray ldef
/w /setlinewidth ldef
/j /setlinejoin ldef
/cap /setlinecap ldef
/rc {rectclip} bdef
/rf {rectfill} bdef
% page state control
/pgsv () def
/bpage {/pgsv save def} bdef
/epage {pgsv restore} bdef
/bplot /gsave ldef
/eplot {stroke grestore} bdef
% orientation switch
/portraitMode 0 def /landscapeMode 1 def /rotateMode 2 def
% coordinate system mappings
/dpi2point 0 def
% font control
/FontSize 0 def
/FMS {/FontSize xstore findfont [FontSize 0 0 FontSize neg 0 0]
  makefont setfont} bdef
/reencode {exch dup where {pop load} {pop StandardEncoding} ifelse
  exch dup 3 1 roll findfont dup length dict begin
  { 1 index /FID ne {def}{pop pop} ifelse } forall
  /Encoding exch def currentdict end definefont pop} bdef
/isroman {findfont /CharStrings get /Agrave known} bdef
/FMSR {3 1 roll 1 index dup isroman {reencode} {pop pop} ifelse
  exch FMS} bdef
/csm {1 dpi2point div -1 dpi2point div scale neg translate
 dup landscapeMode eq {pop -90 rotate}
  {rotateMode eq {90 rotate} if} ifelse} bdef
% line types: solid, dotted, dashed, dotdash
/SO { [] 0 setdash } bdef
/DO { [.5 dpi2point mul 4 dpi2point mul] 0 setdash } bdef
/DA { [6 dpi2point mul] 0 setdash } bdef
/DD { [.5 dpi2point mul 4 dpi2point mul 6 dpi2point mul 4
  dpi2point mul] 0 setdash } bdef
% macros for lines and objects
/L {lineto stroke} bdef
/MP {3 1 roll moveto 1 sub {rlineto} repeat} bdef
/AP {{rlineto} repeat} bdef
/PDlw -1 def
/W {/PDlw currentlinewidth def setlinewidth} def
/PP {closepath eofill} bdef
/DP {closepath stroke} bdef
/MR {4 -2 roll moveto dup  0 exch rlineto exch 0 rlineto
  neg 0 exch rlineto closepath} bdef
/FR {MR stroke} bdef
/PR {MR fill} bdef
/L1i {{currentfile picstr readhexstring pop} image} bdef
/tMatrix matrix def
/MakeOval {newpath tMatrix currentmatrix pop translate scale
0 0 1 0 360 arc tMatrix setmatrix} bdef
/FO {MakeOval stroke} bdef
/PO {MakeOval fill} bdef
/PD {currentlinewidth 2 div 0 360 arc fill
   PDlw -1 eq not {PDlw w /PDlw -1 def} if} def
/FA {newpath tMatrix currentmatrix pop translate scale
  0 0 1 5 -2 roll arc tMatrix setmatrix stroke} bdef
/PA {newpath tMatrix currentmatrix pop	translate 0 0 moveto scale
  0 0 1 5 -2 roll arc closepath tMatrix setmatrix fill} bdef
/FAn {newpath tMatrix currentmatrix pop translate scale
  0 0 1 5 -2 roll arcn tMatrix setmatrix stroke} bdef
/PAn {newpath tMatrix currentmatrix pop translate 0 0 moveto scale
  0 0 1 5 -2 roll arcn closepath tMatrix setmatrix fill} bdef
/vradius 0 def /hradius 0 def /lry 0 def
/lrx 0 def /uly 0 def /ulx 0 def /rad 0 def
/MRR {/vradius xdef /hradius xdef /lry xdef /lrx xdef /uly xdef
  /ulx xdef newpath tMatrix currentmatrix pop ulx hradius add uly
  vradius add translate hradius vradius scale 0 0 1 180 270 arc 
  tMatrix setmatrix lrx hradius sub uly vradius add translate
  hradius vradius scale 0 0 1 270 360 arc tMatrix setmatrix
  lrx hradius sub lry vradius sub translate hradius vradius scale
  0 0 1 0 90 arc tMatrix setmatrix ulx hradius add lry vradius sub
  translate hradius vradius scale 0 0 1 90 180 arc tMatrix setmatrix
  closepath} bdef
/FRR {MRR stroke } bdef
/PRR {MRR fill } bdef
/MlrRR {/lry xdef /lrx xdef /uly xdef /ulx xdef /rad lry uly sub 2 div def
  newpath tMatrix currentmatrix pop ulx rad add uly rad add translate
  rad rad scale 0 0 1 90 270 arc tMatrix setmatrix lrx rad sub lry rad
  sub translate rad rad scale 0 0 1 270 90 arc tMatrix setmatrix
  closepath} bdef
/FlrRR {MlrRR stroke } bdef
/PlrRR {MlrRR fill } bdef
/MtbRR {/lry xdef /lrx xdef /uly xdef /ulx xdef /rad lrx ulx sub 2 div def
  newpath tMatrix currentmatrix pop ulx rad add uly rad add translate
  rad rad scale 0 0 1 180 360 arc tMatrix setmatrix lrx rad sub lry rad
  sub translate rad rad scale 0 0 1 0 180 arc tMatrix setmatrix
  closepath} bdef
/FtbRR {MtbRR stroke } bdef
/PtbRR {MtbRR fill } bdef
/stri 6 array def /dtri 6 array def
/smat 6 array def /dmat 6 array def
/tmat1 6 array def /tmat2 6 array def /dif 3 array def
/asub {/ind2 exch def /ind1 exch def dup dup
  ind1 get exch ind2 get sub exch } bdef
/tri_to_matrix {
  2 0 asub 3 1 asub 4 0 asub 5 1 asub
  dup 0 get exch 1 get 7 -1 roll astore } bdef
/compute_transform {
  dmat dtri tri_to_matrix tmat1 invertmatrix 
  smat stri tri_to_matrix tmat2 concatmatrix } bdef
/ds {stri astore pop} bdef
/dt {dtri astore pop} bdef
/db {2 copy /cols xdef /rows xdef mul dup 3 mul string
  currentfile 
  3 index 0 eq {/ASCIIHexDecode filter}
  {/ASCII85Decode filter 3 index 2 eq {/RunLengthDecode filter} if }
  ifelse exch readstring pop
  dup 0 3 index getinterval /rbmap xdef
  dup 2 index dup getinterval /gbmap xdef
  1 index dup 2 mul exch getinterval /bbmap xdef pop pop}bdef
/it {gs np dtri aload pop moveto lineto lineto cp c
  cols rows 8 compute_transform 
  rbmap gbmap bbmap true 3 colorimage gr}bdef
/il {newpath moveto lineto stroke}bdef
currentdict end def
%%EndProlog

%%BeginSetup
MathWorks begin

0 cap

end
%%EndSetup

%%Page: 1 1
%%BeginPageSetup
%%PageBoundingBox:    68   218   542   574
MathWorks begin
bpage
%%EndPageSetup

%%BeginObject: obj1
bplot

/dpi2point 12 def
portraitMode 0816 6888 csm

    0     0  5697  4269 rc
85 dict begin %Colortable dictionary
/c0 { 0.000000 0.000000 0.000000 sr} bdef
/c1 { 1.000000 1.000000 1.000000 sr} bdef
/c2 { 0.900000 0.000000 0.000000 sr} bdef
/c3 { 0.000000 0.820000 0.000000 sr} bdef
/c4 { 0.000000 0.000000 0.800000 sr} bdef
/c5 { 0.910000 0.820000 0.320000 sr} bdef
/c6 { 1.000000 0.260000 0.820000 sr} bdef
/c7 { 0.000000 0.820000 0.820000 sr} bdef
c0
1 j
1 sg
   0    0 5698 4270 rf
6 w
0 3479 4415 0 0 -3479 741 3799 4 MP
PP
-4415 0 0 3479 4415 0 0 -3479 741 3799 5 MP stroke
4 w
DO
SO
6 w
0 sg
 741 3799 mt 5156 3799 L
 741  320 mt 5156  320 L
 741 3799 mt  741  320 L
5156 3799 mt 5156  320 L
 741 3799 mt 5156 3799 L
 741 3799 mt  741  320 L
 741 3799 mt  741 3754 L
 741  320 mt  741  364 L
%%IncludeResource: font Helvetica-Bold
/Helvetica-Bold /ISOLatin1Encoding 168 FMSR

 433 3994 mt 
(-0.015) s
1476 3799 mt 1476 3754 L
1476  320 mt 1476  364 L
1215 3994 mt 
(-0.01) s
2212 3799 mt 2212 3754 L
2212  320 mt 2212  364 L
1904 3994 mt 
(-0.005) s
2948 3799 mt 2948 3754 L
2948  320 mt 2948  364 L
2902 3994 mt 
(0) s
3684 3799 mt 3684 3754 L
3684  320 mt 3684  364 L
3474 3994 mt 
(0.005) s
4420 3799 mt 4420 3754 L
4420  320 mt 4420  364 L
4257 3994 mt 
(0.01) s
5156 3799 mt 5156 3754 L
5156  320 mt 5156  364 L
4946 3994 mt 
(0.015) s
 741 3799 mt  785 3799 L
5156 3799 mt 5111 3799 L
 515 3863 mt 
(-2) s
 741 3364 mt  785 3364 L
5156 3364 mt 5111 3364 L
 375 3428 mt 
(-1.5) s
 741 2929 mt  785 2929 L
5156 2929 mt 5111 2929 L
 515 2993 mt 
(-1) s
 741 2494 mt  785 2494 L
5156 2494 mt 5111 2494 L
 375 2558 mt 
(-0.5) s
 741 2059 mt  785 2059 L
5156 2059 mt 5111 2059 L
 613 2123 mt 
(0) s
 741 1624 mt  785 1624 L
5156 1624 mt 5111 1624 L
 473 1688 mt 
(0.5) s
 741 1189 mt  785 1189 L
5156 1189 mt 5111 1189 L
 613 1253 mt 
(1) s
 741  754 mt  785  754 L
5156  754 mt 5111  754 L
 473  818 mt 
(1.5) s
 741  320 mt  785  320 L
5156  320 mt 5111  320 L
 613  384 mt 
(2) s
 741 3799 mt 5156 3799 L
 741  320 mt 5156  320 L
 741 3799 mt  741  320 L
5156 3799 mt 5156  320 L
gs 741 320 4416 3480 rc
gr

/c8 { 1.000000 0.000000 0.000000 sr} bdef
c8
 975 3183 mt 1095 3183 L
1035 3123 mt 1035 3243 L
2005 2580 mt 2125 2580 L
2065 2520 mt 2065 2640 L
2888 2059 mt 3008 2059 L
2948 1999 mt 2948 2119 L
3771 1538 mt 3891 1538 L
3831 1478 mt 3831 1598 L
4801  935 mt 4921  935 L
4861  875 mt 4861  995 L
 993 3141 mt 1077 3225 L
1077 3141 mt  993 3225 L
2023 2538 mt 2107 2622 L
2107 2538 mt 2023 2622 L
2906 2017 mt 2990 2101 L
2990 2017 mt 2906 2101 L
3789 1496 mt 3873 1580 L
3873 1496 mt 3789 1580 L
4819  893 mt 4903  977 L
4903  893 mt 4819  977 L
gs 741 320 4416 3480 rc
24 w
0 sg
1030 -766 883 -669 883 -669 1030 -766 1035 3494 5 MP stroke
gr

24 w
0 sg
%%IncludeResource: font Symbol
/Symbol /ISOLatin1Encoding 168 FMSR

2751 4121 mt 
(w) s
%%IncludeResource: font Helvetica-Bold
/Helvetica-Bold /ISOLatin1Encoding 132 FMSR

2866 4205 mt 
(isl,N) s
%%IncludeResource: font Symbol
/Symbol /ISOLatin1Encoding 168 FMSR

 206 2818 mt  -90 rotate
(f) s
90 rotate
%%IncludeResource: font Helvetica-Bold
/Helvetica-Bold /ISOLatin1Encoding 132 FMSR

 290 2731 mt  -90 rotate
(N) s
90 rotate
%%IncludeResource: font Helvetica-Bold
/Helvetica-Bold /ISOLatin1Encoding 168 FMSR

 206 2636 mt  -90 rotate
( at the separatrix) s
90 rotate
%%IncludeResource: font Helvetica
/Helvetica /ISOLatin1Encoding 120 FMSR

 724 3842 mt 
( ) s
5140  362 mt 
( ) s
6 w
1 sg
0 501 2018 0 0 -501 988 1156 4 MP
PP
-2018 0 0 501 2018 0 0 -501 988 1156 5 MP stroke
4 w
DO
SO
6 w
0 sg
 988 1156 mt 3006 1156 L
 988  655 mt 3006  655 L
 988 1156 mt  988  655 L
3006 1156 mt 3006  655 L
 988 1156 mt 3006 1156 L
 988 1156 mt  988  655 L
 988 1156 mt 3006 1156 L
 988  655 mt 3006  655 L
 988 1156 mt  988  655 L
3006 1156 mt 3006  655 L
%%IncludeResource: font Helvetica-Bold
/Helvetica-Bold /ISOLatin1Encoding 168 FMSR

1456  853 mt 
(Values from GKW) s
gs 988 655 2019 502 rc
gs 1118 669 243 243 rc
c8
1179  790 mt 1299  790 L
1239  730 mt 1239  850 L
1197  748 mt 1281  832 L
1281  748 mt 1197  832 L
gr

c8
gr

c8
0 sg
1456 1083 mt 
(Analytic prediction) s
gs 988 655 2019 502 rc
24 w
360 0 1059 1020 2 MP stroke
6 w
gr


end %%Color Dict

eplot
%%EndObject

epage
end

showpage

%%Trailer
%%EOF
