%!PS-Adobe-3.0 EPSF-3.0
%%Creator: MATLAB, The Mathworks, Inc. Version 7.9.0.529 (R2009b). Operating System: Linux 3.0.74-0.6.6-default #1 SMP Thu May 16 14:06:37 CEST 2013 x86_64.
%%Title: /afs/ipp/home/d/dzar/gkw/doc/fig/Phi_separatrix.eps
%%CreationDate: 08/19/2013  16:09:36
%%DocumentNeededFonts: Helvetica
%%+ Helvetica-Bold
%%DocumentProcessColors: Cyan Magenta Yellow Black
%%LanguageLevel: 2
%%Pages: 1
%%BoundingBox:    68   218   542   574
%%EndComments

%%BeginProlog
% MathWorks dictionary
/MathWorks 160 dict begin
% definition operators
/bdef {bind def} bind def
/ldef {load def} bind def
/xdef {exch def} bdef
/xstore {exch store} bdef
% operator abbreviations
/c  /clip ldef
/cc /concat ldef
/cp /closepath ldef
/gr /grestore ldef
/gs /gsave ldef
/mt /moveto ldef
/np /newpath ldef
/cm /currentmatrix ldef
/sm /setmatrix ldef
/rm /rmoveto ldef
/rl /rlineto ldef
/s {show newpath} bdef
/sc {setcmykcolor} bdef
/sr /setrgbcolor ldef
/sg /setgray ldef
/w /setlinewidth ldef
/j /setlinejoin ldef
/cap /setlinecap ldef
/rc {rectclip} bdef
/rf {rectfill} bdef
% page state control
/pgsv () def
/bpage {/pgsv save def} bdef
/epage {pgsv restore} bdef
/bplot /gsave ldef
/eplot {stroke grestore} bdef
% orientation switch
/portraitMode 0 def /landscapeMode 1 def /rotateMode 2 def
% coordinate system mappings
/dpi2point 0 def
% font control
/FontSize 0 def
/FMS {/FontSize xstore findfont [FontSize 0 0 FontSize neg 0 0]
  makefont setfont} bdef
/reencode {exch dup where {pop load} {pop StandardEncoding} ifelse
  exch dup 3 1 roll findfont dup length dict begin
  { 1 index /FID ne {def}{pop pop} ifelse } forall
  /Encoding exch def currentdict end definefont pop} bdef
/isroman {findfont /CharStrings get /Agrave known} bdef
/FMSR {3 1 roll 1 index dup isroman {reencode} {pop pop} ifelse
  exch FMS} bdef
/csm {1 dpi2point div -1 dpi2point div scale neg translate
 dup landscapeMode eq {pop -90 rotate}
  {rotateMode eq {90 rotate} if} ifelse} bdef
% line types: solid, dotted, dashed, dotdash
/SO { [] 0 setdash } bdef
/DO { [.5 dpi2point mul 4 dpi2point mul] 0 setdash } bdef
/DA { [6 dpi2point mul] 0 setdash } bdef
/DD { [.5 dpi2point mul 4 dpi2point mul 6 dpi2point mul 4
  dpi2point mul] 0 setdash } bdef
% macros for lines and objects
/L {lineto stroke} bdef
/MP {3 1 roll moveto 1 sub {rlineto} repeat} bdef
/AP {{rlineto} repeat} bdef
/PDlw -1 def
/W {/PDlw currentlinewidth def setlinewidth} def
/PP {closepath eofill} bdef
/DP {closepath stroke} bdef
/MR {4 -2 roll moveto dup  0 exch rlineto exch 0 rlineto
  neg 0 exch rlineto closepath} bdef
/FR {MR stroke} bdef
/PR {MR fill} bdef
/L1i {{currentfile picstr readhexstring pop} image} bdef
/tMatrix matrix def
/MakeOval {newpath tMatrix currentmatrix pop translate scale
0 0 1 0 360 arc tMatrix setmatrix} bdef
/FO {MakeOval stroke} bdef
/PO {MakeOval fill} bdef
/PD {currentlinewidth 2 div 0 360 arc fill
   PDlw -1 eq not {PDlw w /PDlw -1 def} if} def
/FA {newpath tMatrix currentmatrix pop translate scale
  0 0 1 5 -2 roll arc tMatrix setmatrix stroke} bdef
/PA {newpath tMatrix currentmatrix pop	translate 0 0 moveto scale
  0 0 1 5 -2 roll arc closepath tMatrix setmatrix fill} bdef
/FAn {newpath tMatrix currentmatrix pop translate scale
  0 0 1 5 -2 roll arcn tMatrix setmatrix stroke} bdef
/PAn {newpath tMatrix currentmatrix pop translate 0 0 moveto scale
  0 0 1 5 -2 roll arcn closepath tMatrix setmatrix fill} bdef
/vradius 0 def /hradius 0 def /lry 0 def
/lrx 0 def /uly 0 def /ulx 0 def /rad 0 def
/MRR {/vradius xdef /hradius xdef /lry xdef /lrx xdef /uly xdef
  /ulx xdef newpath tMatrix currentmatrix pop ulx hradius add uly
  vradius add translate hradius vradius scale 0 0 1 180 270 arc 
  tMatrix setmatrix lrx hradius sub uly vradius add translate
  hradius vradius scale 0 0 1 270 360 arc tMatrix setmatrix
  lrx hradius sub lry vradius sub translate hradius vradius scale
  0 0 1 0 90 arc tMatrix setmatrix ulx hradius add lry vradius sub
  translate hradius vradius scale 0 0 1 90 180 arc tMatrix setmatrix
  closepath} bdef
/FRR {MRR stroke } bdef
/PRR {MRR fill } bdef
/MlrRR {/lry xdef /lrx xdef /uly xdef /ulx xdef /rad lry uly sub 2 div def
  newpath tMatrix currentmatrix pop ulx rad add uly rad add translate
  rad rad scale 0 0 1 90 270 arc tMatrix setmatrix lrx rad sub lry rad
  sub translate rad rad scale 0 0 1 270 90 arc tMatrix setmatrix
  closepath} bdef
/FlrRR {MlrRR stroke } bdef
/PlrRR {MlrRR fill } bdef
/MtbRR {/lry xdef /lrx xdef /uly xdef /ulx xdef /rad lrx ulx sub 2 div def
  newpath tMatrix currentmatrix pop ulx rad add uly rad add translate
  rad rad scale 0 0 1 180 360 arc tMatrix setmatrix lrx rad sub lry rad
  sub translate rad rad scale 0 0 1 0 180 arc tMatrix setmatrix
  closepath} bdef
/FtbRR {MtbRR stroke } bdef
/PtbRR {MtbRR fill } bdef
/stri 6 array def /dtri 6 array def
/smat 6 array def /dmat 6 array def
/tmat1 6 array def /tmat2 6 array def /dif 3 array def
/asub {/ind2 exch def /ind1 exch def dup dup
  ind1 get exch ind2 get sub exch } bdef
/tri_to_matrix {
  2 0 asub 3 1 asub 4 0 asub 5 1 asub
  dup 0 get exch 1 get 7 -1 roll astore } bdef
/compute_transform {
  dmat dtri tri_to_matrix tmat1 invertmatrix 
  smat stri tri_to_matrix tmat2 concatmatrix } bdef
/ds {stri astore pop} bdef
/dt {dtri astore pop} bdef
/db {2 copy /cols xdef /rows xdef mul dup 3 mul string
  currentfile 
  3 index 0 eq {/ASCIIHexDecode filter}
  {/ASCII85Decode filter 3 index 2 eq {/RunLengthDecode filter} if }
  ifelse exch readstring pop
  dup 0 3 index getinterval /rbmap xdef
  dup 2 index dup getinterval /gbmap xdef
  1 index dup 2 mul exch getinterval /bbmap xdef pop pop}bdef
/it {gs np dtri aload pop moveto lineto lineto cp c
  cols rows 8 compute_transform 
  rbmap gbmap bbmap true 3 colorimage gr}bdef
/il {newpath moveto lineto stroke}bdef
currentdict end def
%%EndProlog

%%BeginSetup
MathWorks begin

0 cap

end
%%EndSetup

%%Page: 1 1
%%BeginPageSetup
%%PageBoundingBox:    68   218   542   574
MathWorks begin
bpage
%%EndPageSetup

%%BeginObject: obj1
bplot

/dpi2point 12 def
portraitMode 0816 6888 csm

    0     0  5697  4269 rc
85 dict begin %Colortable dictionary
/c0 { 0.000000 0.000000 0.000000 sr} bdef
/c1 { 1.000000 1.000000 1.000000 sr} bdef
/c2 { 0.900000 0.000000 0.000000 sr} bdef
/c3 { 0.000000 0.820000 0.000000 sr} bdef
/c4 { 0.000000 0.000000 0.800000 sr} bdef
/c5 { 0.910000 0.820000 0.320000 sr} bdef
/c6 { 1.000000 0.260000 0.820000 sr} bdef
/c7 { 0.000000 0.820000 0.820000 sr} bdef
c0
1 j
1 sg
   0    0 5698 4270 rf
6 w
0 3479 4415 0 0 -3479 741 3799 4 MP
PP
-4415 0 0 3479 4415 0 0 -3479 741 3799 5 MP stroke
4 w
DO
SO
6 w
0 sg
 741 3799 mt 5156 3799 L
 741  320 mt 5156  320 L
 741 3799 mt  741  320 L
5156 3799 mt 5156  320 L
 741 3799 mt 5156 3799 L
 741 3799 mt  741  320 L
 741 3799 mt  741 3754 L
 741  320 mt  741  364 L
%%IncludeResource: font Helvetica-Bold
/Helvetica-Bold /ISOLatin1Encoding 168 FMSR

 433 3994 mt 
(-0.015) s
1476 3799 mt 1476 3754 L
1476  320 mt 1476  364 L
1215 3994 mt 
(-0.01) s
2212 3799 mt 2212 3754 L
2212  320 mt 2212  364 L
1904 3994 mt 
(-0.005) s
2948 3799 mt 2948 3754 L
2948  320 mt 2948  364 L
2902 3994 mt 
(0) s
3684 3799 mt 3684 3754 L
3684  320 mt 3684  364 L
3474 3994 mt 
(0.005) s
4420 3799 mt 4420 3754 L
4420  320 mt 4420  364 L
4257 3994 mt 
(0.01) s
5156 3799 mt 5156 3754 L
5156  320 mt 5156  364 L
4946 3994 mt 
(0.015) s
 741 3799 mt  785 3799 L
5156 3799 mt 5111 3799 L
 422 3863 mt 
(-15) s
 741 3219 mt  785 3219 L
5156 3219 mt 5111 3219 L
 422 3283 mt 
(-10) s
 741 2639 mt  785 2639 L
5156 2639 mt 5111 2639 L
 515 2703 mt 
(-5) s
 741 2059 mt  785 2059 L
5156 2059 mt 5111 2059 L
 613 2123 mt 
(0) s
 741 1479 mt  785 1479 L
5156 1479 mt 5111 1479 L
 613 1543 mt 
(5) s
 741  899 mt  785  899 L
5156  899 mt 5111  899 L
 520  963 mt 
(10) s
 741  320 mt  785  320 L
5156  320 mt 5111  320 L
 520  384 mt 
(15) s
 741 3799 mt 5156 3799 L
 741  320 mt 5156  320 L
 741 3799 mt  741  320 L
5156 3799 mt 5156  320 L
gs 741 320 4416 3480 rc
gr

/c8 { 1.000000 0.000000 0.000000 sr} bdef
c8
 999 3207 mt 1071 3207 L
1035 3171 mt 1035 3243 L
2029 2589 mt 2101 2589 L
2065 2553 mt 2065 2625 L
2912 2059 mt 2984 2059 L
2948 2023 mt 2948 2095 L
3795 1529 mt 3867 1529 L
3831 1493 mt 3831 1565 L
4825  911 mt 4897  911 L
4861  875 mt 4861  947 L
1010 3182 mt 1060 3232 L
1060 3182 mt 1010 3232 L
2040 2564 mt 2090 2614 L
2090 2564 mt 2040 2614 L
2923 2034 mt 2973 2084 L
2973 2034 mt 2923 2084 L
3806 1504 mt 3856 1554 L
3856 1504 mt 3806 1554 L
4836  886 mt 4886  936 L
4886  886 mt 4836  936 L
gs 741 320 4416 3480 rc
gr

0 sg
%%IncludeResource: font Symbol
/Symbol /ISOLatin1Encoding 168 FMSR

2751 4121 mt 
(w) s
%%IncludeResource: font Helvetica-Bold
/Helvetica-Bold /ISOLatin1Encoding 132 FMSR

2866 4205 mt 
(isl,N) s
%%IncludeResource: font Symbol
/Symbol /ISOLatin1Encoding 168 FMSR

 253 2818 mt  -90 rotate
(f) s
90 rotate
%%IncludeResource: font Helvetica-Bold
/Helvetica-Bold /ISOLatin1Encoding 132 FMSR

 337 2731 mt  -90 rotate
(N) s
90 rotate
%%IncludeResource: font Helvetica-Bold
/Helvetica-Bold /ISOLatin1Encoding 168 FMSR

 253 2636 mt  -90 rotate
( at the separatrix) s
90 rotate
gs 741 320 4416 3480 rc
24 w
1030 -629 883 -538 883 -538 1030 -629 1035 3226 5 MP stroke
gr

24 w
%%IncludeResource: font Helvetica
/Helvetica /ISOLatin1Encoding 120 FMSR

 724 3842 mt 
( ) s
5140  362 mt 
( ) s
gs 741 320 4416 3480 rc
6 w
gr

6 w
c8
 975 3207 mt 1095 3207 L
1035 3147 mt 1035 3267 L
2005 2589 mt 2125 2589 L
2065 2529 mt 2065 2649 L
2888 2059 mt 3008 2059 L
2948 1999 mt 2948 2119 L
3771 1529 mt 3891 1529 L
3831 1469 mt 3831 1589 L
4801  911 mt 4921  911 L
4861  851 mt 4861  971 L
 993 3165 mt 1077 3249 L
1077 3165 mt  993 3249 L
2023 2547 mt 2107 2631 L
2107 2547 mt 2023 2631 L
2906 2017 mt 2990 2101 L
2990 2017 mt 2906 2101 L
3789 1487 mt 3873 1571 L
3873 1487 mt 3789 1571 L
4819  869 mt 4903  953 L
4903  869 mt 4819  953 L
gs 741 320 4416 3480 rc
gr

1 sg
0 684 2791 0 0 -684 927 1227 4 MP
PP
-2791 0 0 684 2791 0 0 -684 927 1227 5 MP stroke
4 w
DO
SO
6 w
0 sg
 927 1227 mt 3718 1227 L
 927  543 mt 3718  543 L
 927 1227 mt  927  543 L
3718 1227 mt 3718  543 L
 927 1227 mt 3718 1227 L
 927 1227 mt  927  543 L
 927 1227 mt 3718 1227 L
 927  543 mt 3718  543 L
 927 1227 mt  927  543 L
3718 1227 mt 3718  543 L
%%IncludeResource: font Helvetica-Bold
/Helvetica-Bold /ISOLatin1Encoding 168 FMSR

1574  791 mt 
(Values from GKW) s
gs 927 543 2792 685 rc
gs 1202 655 147 147 rc
c8
1239  728 mt 1311  728 L
1275  692 mt 1275  764 L
1250  703 mt 1300  753 L
1300  703 mt 1250  753 L
gr

c8
gr

c8
0 sg
1574 1104 mt 
(Analytic prediction) s
gs 927 543 2792 685 rc
24 w
498 0 1026 1041 2 MP stroke
6 w
gr


end %%Color Dict

eplot
%%EndObject

epage
end

showpage

%%Trailer
%%EOF
