%!PS-Adobe-3.0 EPSF-3.0
%%Creator: MATLAB, The Mathworks, Inc. Version 7.8.0.347 (R2009a). Operating System: Linux 2.6.16.60-0.39.3-smp #1 SMP Mon May 11 11:46:34 UTC 2009 x86_64.
%%Title: /storage/space1/phsfar/effe/gkw/doc/texinputs/RHbench.eps
%%CreationDate: 06/22/2009  22:31:34
%%DocumentNeededFonts: Helvetica
%%DocumentProcessColors: Cyan Magenta Yellow Black
%%LanguageLevel: 2
%%Pages: 1
%%BoundingBox:   -98   281   694   560
%%EndComments

%%BeginProlog
% MathWorks dictionary
/MathWorks 160 dict begin
% definition operators
/bdef {bind def} bind def
/ldef {load def} bind def
/xdef {exch def} bdef
/xstore {exch store} bdef
% operator abbreviations
/c  /clip ldef
/cc /concat ldef
/cp /closepath ldef
/gr /grestore ldef
/gs /gsave ldef
/mt /moveto ldef
/np /newpath ldef
/cm /currentmatrix ldef
/sm /setmatrix ldef
/rm /rmoveto ldef
/rl /rlineto ldef
/s {show newpath} bdef
/sc {setcmykcolor} bdef
/sr /setrgbcolor ldef
/sg /setgray ldef
/w /setlinewidth ldef
/j /setlinejoin ldef
/cap /setlinecap ldef
/rc {rectclip} bdef
/rf {rectfill} bdef
% page state control
/pgsv () def
/bpage {/pgsv save def} bdef
/epage {pgsv restore} bdef
/bplot /gsave ldef
/eplot {stroke grestore} bdef
% orientation switch
/portraitMode 0 def /landscapeMode 1 def /rotateMode 2 def
% coordinate system mappings
/dpi2point 0 def
% font control
/FontSize 0 def
/FMS {/FontSize xstore findfont [FontSize 0 0 FontSize neg 0 0]
  makefont setfont} bdef
/reencode {exch dup where {pop load} {pop StandardEncoding} ifelse
  exch dup 3 1 roll findfont dup length dict begin
  { 1 index /FID ne {def}{pop pop} ifelse } forall
  /Encoding exch def currentdict end definefont pop} bdef
/isroman {findfont /CharStrings get /Agrave known} bdef
/FMSR {3 1 roll 1 index dup isroman {reencode} {pop pop} ifelse
  exch FMS} bdef
/csm {1 dpi2point div -1 dpi2point div scale neg translate
 dup landscapeMode eq {pop -90 rotate}
  {rotateMode eq {90 rotate} if} ifelse} bdef
% line types: solid, dotted, dashed, dotdash
/SO { [] 0 setdash } bdef
/DO { [.5 dpi2point mul 4 dpi2point mul] 0 setdash } bdef
/DA { [6 dpi2point mul] 0 setdash } bdef
/DD { [.5 dpi2point mul 4 dpi2point mul 6 dpi2point mul 4
  dpi2point mul] 0 setdash } bdef
% macros for lines and objects
/L {lineto stroke} bdef
/MP {3 1 roll moveto 1 sub {rlineto} repeat} bdef
/AP {{rlineto} repeat} bdef
/PDlw -1 def
/W {/PDlw currentlinewidth def setlinewidth} def
/PP {closepath eofill} bdef
/DP {closepath stroke} bdef
/MR {4 -2 roll moveto dup  0 exch rlineto exch 0 rlineto
  neg 0 exch rlineto closepath} bdef
/FR {MR stroke} bdef
/PR {MR fill} bdef
/L1i {{currentfile picstr readhexstring pop} image} bdef
/tMatrix matrix def
/MakeOval {newpath tMatrix currentmatrix pop translate scale
0 0 1 0 360 arc tMatrix setmatrix} bdef
/FO {MakeOval stroke} bdef
/PO {MakeOval fill} bdef
/PD {currentlinewidth 2 div 0 360 arc fill
   PDlw -1 eq not {PDlw w /PDlw -1 def} if} def
/FA {newpath tMatrix currentmatrix pop translate scale
  0 0 1 5 -2 roll arc tMatrix setmatrix stroke} bdef
/PA {newpath tMatrix currentmatrix pop	translate 0 0 moveto scale
  0 0 1 5 -2 roll arc closepath tMatrix setmatrix fill} bdef
/FAn {newpath tMatrix currentmatrix pop translate scale
  0 0 1 5 -2 roll arcn tMatrix setmatrix stroke} bdef
/PAn {newpath tMatrix currentmatrix pop translate 0 0 moveto scale
  0 0 1 5 -2 roll arcn closepath tMatrix setmatrix fill} bdef
/vradius 0 def /hradius 0 def /lry 0 def
/lrx 0 def /uly 0 def /ulx 0 def /rad 0 def
/MRR {/vradius xdef /hradius xdef /lry xdef /lrx xdef /uly xdef
  /ulx xdef newpath tMatrix currentmatrix pop ulx hradius add uly
  vradius add translate hradius vradius scale 0 0 1 180 270 arc 
  tMatrix setmatrix lrx hradius sub uly vradius add translate
  hradius vradius scale 0 0 1 270 360 arc tMatrix setmatrix
  lrx hradius sub lry vradius sub translate hradius vradius scale
  0 0 1 0 90 arc tMatrix setmatrix ulx hradius add lry vradius sub
  translate hradius vradius scale 0 0 1 90 180 arc tMatrix setmatrix
  closepath} bdef
/FRR {MRR stroke } bdef
/PRR {MRR fill } bdef
/MlrRR {/lry xdef /lrx xdef /uly xdef /ulx xdef /rad lry uly sub 2 div def
  newpath tMatrix currentmatrix pop ulx rad add uly rad add translate
  rad rad scale 0 0 1 90 270 arc tMatrix setmatrix lrx rad sub lry rad
  sub translate rad rad scale 0 0 1 270 90 arc tMatrix setmatrix
  closepath} bdef
/FlrRR {MlrRR stroke } bdef
/PlrRR {MlrRR fill } bdef
/MtbRR {/lry xdef /lrx xdef /uly xdef /ulx xdef /rad lrx ulx sub 2 div def
  newpath tMatrix currentmatrix pop ulx rad add uly rad add translate
  rad rad scale 0 0 1 180 360 arc tMatrix setmatrix lrx rad sub lry rad
  sub translate rad rad scale 0 0 1 0 180 arc tMatrix setmatrix
  closepath} bdef
/FtbRR {MtbRR stroke } bdef
/PtbRR {MtbRR fill } bdef
/stri 6 array def /dtri 6 array def
/smat 6 array def /dmat 6 array def
/tmat1 6 array def /tmat2 6 array def /dif 3 array def
/asub {/ind2 exch def /ind1 exch def dup dup
  ind1 get exch ind2 get sub exch } bdef
/tri_to_matrix {
  2 0 asub 3 1 asub 4 0 asub 5 1 asub
  dup 0 get exch 1 get 7 -1 roll astore } bdef
/compute_transform {
  dmat dtri tri_to_matrix tmat1 invertmatrix 
  smat stri tri_to_matrix tmat2 concatmatrix } bdef
/ds {stri astore pop} bdef
/dt {dtri astore pop} bdef
/db {2 copy /cols xdef /rows xdef mul dup 3 mul string
  currentfile 
  3 index 0 eq {/ASCIIHexDecode filter}
  {/ASCII85Decode filter 3 index 2 eq {/RunLengthDecode filter} if }
  ifelse exch readstring pop
  dup 0 3 index getinterval /rbmap xdef
  dup 2 index dup getinterval /gbmap xdef
  1 index dup 2 mul exch getinterval /bbmap xdef pop pop}bdef
/it {gs np dtri aload pop moveto lineto lineto cp c
  cols rows 8 compute_transform 
  rbmap gbmap bbmap true 3 colorimage gr}bdef
/il {newpath moveto lineto stroke}bdef
currentdict end def
%%EndProlog

%%BeginSetup
MathWorks begin

0 cap

end
%%EndSetup

%%Page: 1 1
%%BeginPageSetup
%%PageBoundingBox:   -98   281   694   560
MathWorks begin
bpage
%%EndPageSetup

%%BeginObject: obj1
bplot

/dpi2point 12 def
portraitMode -1176 6720 csm

    0     0  9513  3342 rc
85 dict begin %Colortable dictionary
/c0 { 0.000000 0.000000 0.000000 sr} bdef
/c1 { 1.000000 1.000000 1.000000 sr} bdef
/c2 { 0.900000 0.000000 0.000000 sr} bdef
/c3 { 0.000000 0.820000 0.000000 sr} bdef
/c4 { 0.000000 0.000000 0.800000 sr} bdef
/c5 { 0.910000 0.820000 0.320000 sr} bdef
/c6 { 1.000000 0.260000 0.820000 sr} bdef
/c7 { 0.000000 0.820000 0.820000 sr} bdef
c0
1 j
1 sg
   0    0 9514 3343 rf
6 w
0 2667 5229 0 0 -2667 720 2967 4 MP
PP
-5229 0 0 2667 5229 0 0 -2667 720 2967 5 MP stroke
4 w
DO
SO
6 w
0 sg
 720 2967 mt 5949 2967 L
 720  300 mt 5949  300 L
 720 2967 mt  720  300 L
5949 2967 mt 5949  300 L
 720 2967 mt 5949 2967 L
 720 2967 mt  720  300 L
 720 2967 mt  720 2914 L
 720  300 mt  720  352 L
%%IncludeResource: font Helvetica
/Helvetica /ISOLatin1Encoding 120 FMSR

 687 3112 mt 
(0) s
1467 2967 mt 1467 2914 L
1467  300 mt 1467  352 L
1401 3112 mt 
(10) s
2214 2967 mt 2214 2914 L
2214  300 mt 2214  352 L
2148 3112 mt 
(20) s
2961 2967 mt 2961 2914 L
2961  300 mt 2961  352 L
2895 3112 mt 
(30) s
3708 2967 mt 3708 2914 L
3708  300 mt 3708  352 L
3642 3112 mt 
(40) s
4455 2967 mt 4455 2914 L
4455  300 mt 4455  352 L
4389 3112 mt 
(50) s
5202 2967 mt 5202 2914 L
5202  300 mt 5202  352 L
5136 3112 mt 
(60) s
5949 2967 mt 5949 2914 L
5949  300 mt 5949  352 L
5883 3112 mt 
(70) s
 720 2967 mt  772 2967 L
5949 2967 mt 5896 2967 L
 449 3011 mt 
(-0.5) s
 720 2078 mt  772 2078 L
5949 2078 mt 5896 2078 L
 619 2122 mt 
(0) s
 720 1189 mt  772 1189 L
5949 1189 mt 5896 1189 L
 519 1233 mt 
(0.5) s
 720  300 mt  772  300 L
5949  300 mt 5896  300 L
 619  344 mt 
(1) s
 720 2967 mt 5949 2967 L
 720  300 mt 5949  300 L
 720 2967 mt  720  300 L
5949 2967 mt 5949  300 L
gs 720 300 5230 2668 rc
1 0 11 0 10 3 11 4 10 5 11 6 11 4 10 4 
11 1 10 -2 11 -3 10 -5 11 -6 11 -5 10 -5 11 -2 
10 0 11 2 10 4 11 5 11 6 10 6 11 4 10 2 
11 -1 10 -3 11 -5 10 -6 11 -7 11 -5 10 -4 11 -1 
10 2 11 5 10 6 11 7 11 6 10 5 11 3 10 0 
11 -3 10 -6 11 -7 10 -8 11 -6 11 -5 10 -1 11 2 
10 4 11 7 10 8 11 8 11 6 10 3 11 0 10 -3 
11 -7 10 -8 11 -9 11 -7 10 -5 11 -2 10 2 11 5 
10 8 11 10 10 8 11 7 11 4 10 0 11 -4 10 -7 
11 -10 10 -10 11 -8 11 -7 10 -2 11 2 10 6 11 10 
10 10 11 11 10 8 11 4 11 1 10 -4 11 -9 10 -10 
11 -12 10 -10 11 -7 11 -3 10 2 11 6 10 10 11 12 
10 11 11 10 11 6 10 1 11 -4 10 -8 11 -12 10 -13 
11 -11 10 -9 11 -4 11 1 10 6 11 11 10 13 11 13 
10 11 11 7 11 3 10 -4 11 -8 10 -12 11 -14 10 -13 
11 -11 10 -6 11 0 11 6 10 10 11 14 10 15 11 13 
10 10 11 4 11 -2 10 -8 11 -12 10 -15 11 -16 10 -13 
11 -8 11 -2 10 4 11 11 10 14 11 17 10 16 11 13 
10 6 11 0 11 -6 10 -13 11 -17 10 -18 11 -16 10 -12 
11 -5 11 3 10 10 11 16 10 19 11 19 10 16 11 11 
11 2 10 -6 11 -14 10 -18 11 -22 10 -19 11 -16 10 -8 
11 1 11 10 10 17 11 22 10 23 11 20 10 14 11 5 
11 -5 10 -14 11 -21 10 -25 11 -24 10 -20 11 -11 10 -2 
11 10 11 18 10 25 11 27 10 24 11 18 10 8 11 -3 
11 -15 10 -23 11 -29 10 -29 11 -24 10 -15 11 -4 11 9 
10 19 11 28 10 32 11 29 10 22 11 12 10 -2 11 -15 
11 -25 10 -33 11 -33 10 -29 11 -20 10 -7 11 8 11 21 
10 30 11 36 10 34 11 28 10 16 11 1 10 -14 11 -27 
11 -36 10 -38 11 -35 10 -24 11 -11 10 6 11 21 11 33 
10 40 11 40 10 33 11 21 10 5 11 -12 11 -28 10 -39 
11 -43 10 -40 11 -31 10 -15 11 2 10 20 11 35 11 44 
10 47 11 40 10 27 11 11 10 -10 11 -28 11 -41 10 -49 
11 -47 10 -38 11 -23 10 -2 11 18 10 36 11 49 11 53 
10 48 11 36 10 16 11 -5 10 -27 11 -44 11 -55 10 -56 
11 -47 10 -32 11 -9 10 15 11 37 11 53 10 60 11 57 
10 46 11 25 10 0 11 -26 10 -47 11 -62 11 -65 10 -59 
11 -42 10 -17 11 10 10 36 11 58 11 68 10 69 11 56 
10 35 11 7 10 -24 2801 1798 300 MP stroke
11 -50 10 -68 11 -77 11 -71 10 -54 11 -27 10 4 11 36 
10 62 11 78 11 80 10 70 11 47 10 15 11 -20 10 -52 
11 -76 11 -88 10 -85 11 -67 10 -39 11 -2 10 34 11 67 
10 87 11 95 11 84 10 61 11 26 10 -14 11 -53 10 -82 
11 -100 11 -99 10 -83 11 -51 10 -11 11 32 10 71 11 98 
10 108 11 102 11 77 10 39 11 -6 10 -51 11 -89 10 -110 
11 -115 11 -99 10 -67 11 -22 10 27 11 73 10 108 11 124 
11 120 10 96 11 55 10 4 11 -48 10 -92 11 -122 10 -132 
11 -119 11 -85 10 -37 11 19 10 73 11 115 10 139 11 140 
11 117 10 75 11 18 10 -41 11 -96 10 -134 11 -151 10 -142 
11 -108 11 -57 10 6 11 69 10 121 11 154 10 162 11 141 
11 98 10 36 11 -33 10 -97 11 -147 10 -172 11 -169 11 -137 
10 -82 11 -12 10 61 11 126 10 169 11 186 10 169 11 126 
11 58 10 -20 11 -97 10 -158 11 -196 10 -200 11 -171 11 -113 
10 -34 11 50 10 128 11 186 10 212 11 203 10 159 11 86 
11 -2 10 -93 11 -170 10 -220 11 -234 10 -209 11 -148 11 -62 
10 36 11 130 10 204 11 242 10 242 11 198 11 121 10 21 
11 -85 10 -179 11 -244 10 -270 11 -251 10 -188 11 -93 11 19 
10 131 11 221 10 276 11 285 10 245 11 163 11 51 10 -71 
11 -184 10 -267 11 -307 10 -295 11 -232 10 -129 11 -1 11 128 
10 239 11 312 10 333 11 298 10 213 11 91 11 -49 10 -182 
11 -285 10 -342 11 -340 10 -280 11 -169 11 -28 10 122 11 256 
10 349 11 388 10 361 11 275 10 143 11 -16 11 -173 10 -301 
11 -381 10 -395 11 -340 10 -225 11 -64 11 114 10 283 11 413 
10 486 11 485 10 411 11 275 730 390 197 MP stroke
gr

%%IncludeResource: font Symbol
/Symbol /ISOLatin1Encoding 120 FMSR

 359 1814 mt  -90 rotate
(f) s
90 rotate
%%IncludeResource: font Helvetica
/Helvetica /ISOLatin1Encoding 120 FMSR

 359 1752 mt  -90 rotate
( [a.u.]) s
90 rotate
3153 3233 mt 
(c) s
%%IncludeResource: font Helvetica
/Helvetica /ISOLatin1Encoding 96 FMSR

3213 3293 mt 
(s) s
%%IncludeResource: font Helvetica
/Helvetica /ISOLatin1Encoding 120 FMSR

3261 3233 mt 
( t / R) s
gs 720 300 5230 2668 rc
/c8 { 1.000000 0.000000 0.000000 sr} bdef
c8
5229 0 720 1951 2 MP stroke
gr

c8
1 sg
0 2659 1966 0 0 -2659 6643 2958 4 MP
PP
-1966 0 0 2659 1966 0 0 -2659 6643 2958 5 MP stroke
4 w
DO
SO
6 w
0 sg
6643 2958 mt 8609 2958 L
6643  299 mt 8609  299 L
6643 2958 mt 6643  299 L
8609 2958 mt 8609  299 L
6643 2958 mt 8609 2958 L
6643 2958 mt 6643  299 L
6643 2958 mt 6643 2931 L
6643  299 mt 6643  325 L
6610 3103 mt 
(0) s
7079 2958 mt 7079 2931 L
7079  299 mt 7079  325 L
6996 3103 mt 
(0.1) s
7516 2958 mt 7516 2931 L
7516  299 mt 7516  325 L
7433 3103 mt 
(0.2) s
7953 2958 mt 7953 2931 L
7953  299 mt 7953  325 L
7870 3103 mt 
(0.3) s
8390 2958 mt 8390 2931 L
8390  299 mt 8390  325 L
8307 3103 mt 
(0.4) s
6643 2958 mt 6669 2958 L
8609 2958 mt 8582 2958 L
6542 3002 mt 
(0) s
6643 2692 mt 6669 2692 L
8609 2692 mt 8582 2692 L
6375 2736 mt 
(0.02) s
6643 2426 mt 6669 2426 L
8609 2426 mt 8582 2426 L
6375 2470 mt 
(0.04) s
6643 2160 mt 6669 2160 L
8609 2160 mt 8582 2160 L
6375 2204 mt 
(0.06) s
6643 1894 mt 6669 1894 L
8609 1894 mt 8582 1894 L
6375 1938 mt 
(0.08) s
6643 1628 mt 6669 1628 L
8609 1628 mt 8582 1628 L
6442 1672 mt 
(0.1) s
6643 1362 mt 6669 1362 L
8609 1362 mt 8582 1362 L
6375 1406 mt 
(0.12) s
6643 1096 mt 6669 1096 L
8609 1096 mt 8582 1096 L
6375 1140 mt 
(0.14) s
6643  830 mt 6669  830 L
8609  830 mt 8582  830 L
6375  874 mt 
(0.16) s
6643  564 mt 6669  564 L
8609  564 mt 8582  564 L
6375  608 mt 
(0.18) s
6643  299 mt 6669  299 L
8609  299 mt 8582  299 L
6442  343 mt 
(0.2) s
6643 2958 mt 8609 2958 L
6643  299 mt 8609  299 L
6643 2958 mt 6643  299 L
8609 2958 mt 8609  299 L
gs 6643 299 1967 2660 rc
gs 6788 838 1676 1245 rc
/c9 { 0.000000 0.000000 1.000000 sr} bdef
c9
  36   36 6861 2009 FO
  36   36 7079 1701 FO
  36   36 7298 1512 FO
  36   36 7516 1348 FO
  36   36 7735 1218 FO
  36   36 7953 1138 FO
  36   36 8172 1064 FO
  36   36 8390  911 FO
gr

c9
DA
c8
4 -2 22 -12 22 -12 22 -12 22 -12 22 -13 22 -12 22 -13 
22 -12 22 -13 22 -13 22 -13 22 -13 23 -13 22 -13 22 -14 
22 -14 22 -13 22 -14 22 -14 22 -14 22 -14 22 -15 22 -14 
22 -15 22 -15 22 -15 22 -15 23 -15 22 -16 22 -15 22 -16 
22 -16 22 -16 22 -17 22 -16 22 -17 22 -17 22 -17 22 -18 
22 -18 22 -18 22 -18 23 -18 22 -19 22 -19 22 -19 22 -20 
22 -19 22 -21 22 -20 22 -21 22 -21 22 -22 22 -21 22 -23 
22 -23 22 -23 22 -23 23 -24 22 -25 22 -25 22 -26 22 -26 
22 -27 22 -28 22 -28 22 -29 22 -30 22 -31 22 -32 22 -33 
22 -34 22 -35 23 -36 22 -38 22 -40 22 -41 22 -44 22 -45 
22 -49 22 -52 22 -55 22 -60 22 -67 22 -74 22 -85 22 -102 
22 -136 22 -341 6643 2958 91 MP stroke
SO
4 0 22 -7 22 -7 22 -7 22 -8 22 -7 22 -7 22 -8 
22 -7 22 -8 22 -7 22 -8 22 -8 23 -8 22 -8 22 -8 
22 -9 22 -8 22 -9 22 -8 22 -9 22 -9 22 -9 22 -9 
22 -9 22 -10 22 -9 22 -10 23 -10 22 -10 22 -10 22 -10 
22 -11 22 -10 22 -11 22 -11 22 -12 22 -11 22 -11 22 -12 
22 -12 22 -12 22 -13 23 -13 22 -13 22 -13 22 -13 22 -14 
22 -14 22 -14 22 -15 22 -15 22 -15 22 -15 22 -16 22 -17 
22 -16 22 -17 22 -18 23 -18 22 -18 22 -19 22 -20 22 -20 
22 -21 22 -21 22 -22 22 -23 22 -23 22 -25 22 -25 22 -26 
22 -28 22 -28 23 -30 22 -32 22 -32 22 -35 22 -37 22 -39 
22 -41 22 -45 22 -49 22 -53 22 -59 22 -67 22 -78 22 -95 
22 -129 6665 2625 90 MP stroke
gs 6788 838 1676 1245 rc
c9
  36   36 6861 2009 FO
  36   36 7079 1701 FO
  36   36 7298 1512 FO
  36   36 7516 1348 FO
  36   36 7735 1218 FO
  36   36 7953 1138 FO
  36   36 8172 1064 FO
  36   36 8390  911 FO
gr

c9
DA
c8
4 -2 22 -12 22 -12 22 -12 22 -12 22 -13 22 -12 22 -13 
22 -12 22 -13 22 -13 22 -13 22 -13 23 -13 22 -13 22 -14 
22 -14 22 -13 22 -14 22 -14 22 -14 22 -14 22 -15 22 -14 
22 -15 22 -15 22 -15 22 -15 23 -15 22 -16 22 -15 22 -16 
22 -16 22 -16 22 -17 22 -16 22 -17 22 -17 22 -17 22 -18 
22 -18 22 -18 22 -18 23 -18 22 -19 22 -19 22 -19 22 -20 
22 -19 22 -21 22 -20 22 -21 22 -21 22 -22 22 -21 22 -23 
22 -23 22 -23 22 -23 23 -24 22 -25 22 -25 22 -26 22 -26 
22 -27 22 -28 22 -28 22 -29 22 -30 22 -31 22 -32 22 -33 
22 -34 22 -35 23 -36 22 -38 22 -40 22 -41 22 -44 22 -45 
22 -49 22 -52 22 -55 22 -60 22 -67 22 -74 22 -85 22 -102 
22 -136 22 -341 6643 2958 91 MP stroke
SO
4 0 22 -7 22 -7 22 -7 22 -8 22 -7 22 -7 22 -8 
22 -7 22 -8 22 -7 22 -8 22 -8 23 -8 22 -8 22 -8 
22 -9 22 -8 22 -9 22 -8 22 -9 22 -9 22 -9 22 -9 
22 -9 22 -10 22 -9 22 -10 23 -10 22 -10 22 -10 22 -10 
22 -11 22 -10 22 -11 22 -11 22 -12 22 -11 22 -11 22 -12 
22 -12 22 -12 22 -13 23 -13 22 -13 22 -13 22 -13 22 -14 
22 -14 22 -14 22 -15 22 -15 22 -15 22 -15 22 -16 22 -17 
22 -16 22 -17 22 -18 23 -18 22 -18 22 -19 22 -20 22 -20 
22 -21 22 -21 22 -22 22 -23 22 -23 22 -25 22 -25 22 -26 
22 -28 22 -28 23 -30 22 -32 22 -32 22 -35 22 -37 22 -39 
22 -41 22 -45 22 -49 22 -53 22 -59 22 -67 22 -78 22 -95 
22 -129 6665 2625 90 MP stroke
gs 6788 838 1676 1245 rc
c9
  36   36 6861 2009 FO
  36   36 7079 1701 FO
  36   36 7298 1512 FO
  36   36 7516 1348 FO
  36   36 7735 1218 FO
  36   36 7953 1138 FO
  36   36 8172 1064 FO
  36   36 8390  911 FO
gr

c9
DA
c8
4 -2 22 -12 22 -12 22 -12 22 -12 22 -13 22 -12 22 -13 
22 -12 22 -13 22 -13 22 -13 22 -13 23 -13 22 -13 22 -14 
22 -14 22 -13 22 -14 22 -14 22 -14 22 -14 22 -15 22 -14 
22 -15 22 -15 22 -15 22 -15 23 -15 22 -16 22 -15 22 -16 
22 -16 22 -16 22 -17 22 -16 22 -17 22 -17 22 -17 22 -18 
22 -18 22 -18 22 -18 23 -18 22 -19 22 -19 22 -19 22 -20 
22 -19 22 -21 22 -20 22 -21 22 -21 22 -22 22 -21 22 -23 
22 -23 22 -23 22 -23 23 -24 22 -25 22 -25 22 -26 22 -26 
22 -27 22 -28 22 -28 22 -29 22 -30 22 -31 22 -32 22 -33 
22 -34 22 -35 23 -36 22 -38 22 -40 22 -41 22 -44 22 -45 
22 -49 22 -52 22 -55 22 -60 22 -67 22 -74 22 -85 22 -102 
22 -136 22 -341 6643 2958 91 MP stroke
SO
4 0 22 -7 22 -7 22 -7 22 -8 22 -7 22 -7 22 -8 
22 -7 22 -8 22 -7 22 -8 22 -8 23 -8 22 -8 22 -8 
22 -9 22 -8 22 -9 22 -8 22 -9 22 -9 22 -9 22 -9 
22 -9 22 -10 22 -9 22 -10 23 -10 22 -10 22 -10 22 -10 
22 -11 22 -10 22 -11 22 -11 22 -12 22 -11 22 -11 22 -12 
22 -12 22 -12 22 -13 23 -13 22 -13 22 -13 22 -13 22 -14 
22 -14 22 -14 22 -15 22 -15 22 -15 22 -15 22 -16 22 -17 
22 -16 22 -17 22 -18 23 -18 22 -18 22 -19 22 -20 22 -20 
22 -21 22 -21 22 -22 22 -23 22 -23 22 -25 22 -25 22 -26 
22 -28 22 -28 23 -30 22 -32 22 -32 22 -35 22 -37 22 -39 
22 -41 22 -45 22 -49 22 -53 22 -59 22 -67 22 -78 22 -95 
22 -129 6665 2625 90 MP stroke
gr

c8
0 sg
%%IncludeResource: font Symbol
/Symbol /ISOLatin1Encoding 120 FMSR

7599 3240 mt 
(e) s
%%IncludeResource: font Helvetica
/Helvetica /ISOLatin1Encoding 120 FMSR

6285 2208 mt  -90 rotate
(| ) s
90 rotate
%%IncludeResource: font Symbol
/Symbol /ISOLatin1Encoding 120 FMSR

6285 2144 mt  -90 rotate
(f) s
90 rotate
%%IncludeResource: font Helvetica
/Helvetica /ISOLatin1Encoding 120 FMSR

6285 2082 mt  -90 rotate
( \(t = ) s
90 rotate
%%IncludeResource: font Symbol
/Symbol /ISOLatin1Encoding 120 FMSR

6285 1839 mt  -90 rotate
(\245) s
90 rotate
%%IncludeResource: font Helvetica
/Helvetica /ISOLatin1Encoding 120 FMSR

6285 1754 mt  -90 rotate
(\) | / | ) s
90 rotate
%%IncludeResource: font Symbol
/Symbol /ISOLatin1Encoding 120 FMSR

6285 1485 mt  -90 rotate
(f) s
90 rotate
%%IncludeResource: font Helvetica
/Helvetica /ISOLatin1Encoding 120 FMSR

6285 1423 mt  -90 rotate
(\( t = 0\)|) s
90 rotate
gs 6643 299 1967 2660 rc
gs 6740 790 1772 1341 rc
c9
  60   60 6861 2009 FO
  60   60 7079 1701 FO
  60   60 7298 1512 FO
  60   60 7516 1348 FO
  60   60 7735 1218 FO
  60   60 7953 1138 FO
  60   60 8172 1064 FO
  60   60 8390  911 FO
gr

c9
DA
12 w
c8
4 -2 22 -12 22 -12 22 -12 22 -12 22 -13 22 -12 22 -13 
22 -12 22 -13 22 -13 22 -13 22 -13 23 -13 22 -13 22 -14 
22 -14 22 -13 22 -14 22 -14 22 -14 22 -14 22 -15 22 -14 
22 -15 22 -15 22 -15 22 -15 23 -15 22 -16 22 -15 22 -16 
22 -16 22 -16 22 -17 22 -16 22 -17 22 -17 22 -17 22 -18 
22 -18 22 -18 22 -18 23 -18 22 -19 22 -19 22 -19 22 -20 
22 -19 22 -21 22 -20 22 -21 22 -21 22 -22 22 -21 22 -23 
22 -23 22 -23 22 -23 23 -24 22 -25 22 -25 22 -26 22 -26 
22 -27 22 -28 22 -28 22 -29 22 -30 22 -31 22 -32 22 -33 
22 -34 22 -35 23 -36 22 -38 22 -40 22 -41 22 -44 22 -45 
22 -49 22 -52 22 -55 22 -60 22 -67 22 -74 22 -85 22 -102 
22 -136 22 -341 6643 2958 91 MP stroke
SO
4 0 22 -7 22 -7 22 -7 22 -8 22 -7 22 -7 22 -8 
22 -7 22 -8 22 -7 22 -8 22 -8 23 -8 22 -8 22 -8 
22 -9 22 -8 22 -9 22 -8 22 -9 22 -9 22 -9 22 -9 
22 -9 22 -10 22 -9 22 -10 23 -10 22 -10 22 -10 22 -10 
22 -11 22 -10 22 -11 22 -11 22 -12 22 -11 22 -11 22 -12 
22 -12 22 -12 22 -13 23 -13 22 -13 22 -13 22 -13 22 -14 
22 -14 22 -14 22 -15 22 -15 22 -15 22 -15 22 -16 22 -17 
22 -16 22 -17 22 -18 23 -18 22 -18 22 -19 22 -20 22 -20 
22 -21 22 -21 22 -22 22 -23 22 -23 22 -25 22 -25 22 -26 
22 -28 22 -28 23 -30 22 -32 22 -32 22 -35 22 -37 22 -39 
22 -41 22 -45 22 -49 22 -53 22 -59 22 -67 22 -78 22 -95 
22 -129 6665 2625 90 MP stroke
6 w
gr

c8
0 sg
6953  676 mt 
(Rosenbluth-Hinton) s
6966 2007 mt 
(Xiao-Cato) s
7906 1410 mt 
(GKW) s

end %%Color Dict

eplot
%%EndObject

epage
end

showpage

%%Trailer
%%EOF
