%!PS-Adobe-3.0 EPSF-3.0
%%Creator: MATLAB, The Mathworks, Inc. Version 7.9.0.529 (R2009b). Operating System: Linux 3.0.58-0.6.6-default #1 SMP Tue Feb 19 11:07:00 UTC 2013 (1576ecd) x86_64.
%%Title: /ptmp1/fjc/runs/nonspec_scaling3_clean/large.eps
%%CreationDate: 03/28/2013  19:36:07
%%DocumentNeededFonts: Helvetica
%%DocumentProcessColors: Cyan Magenta Yellow Black
%%LanguageLevel: 2
%%Pages: 1
%%BoundingBox:    81   224   529   568
%%EndComments

%%BeginProlog
% MathWorks dictionary
/MathWorks 160 dict begin
% definition operators
/bdef {bind def} bind def
/ldef {load def} bind def
/xdef {exch def} bdef
/xstore {exch store} bdef
% operator abbreviations
/c  /clip ldef
/cc /concat ldef
/cp /closepath ldef
/gr /grestore ldef
/gs /gsave ldef
/mt /moveto ldef
/np /newpath ldef
/cm /currentmatrix ldef
/sm /setmatrix ldef
/rm /rmoveto ldef
/rl /rlineto ldef
/s {show newpath} bdef
/sc {setcmykcolor} bdef
/sr /setrgbcolor ldef
/sg /setgray ldef
/w /setlinewidth ldef
/j /setlinejoin ldef
/cap /setlinecap ldef
/rc {rectclip} bdef
/rf {rectfill} bdef
% page state control
/pgsv () def
/bpage {/pgsv save def} bdef
/epage {pgsv restore} bdef
/bplot /gsave ldef
/eplot {stroke grestore} bdef
% orientation switch
/portraitMode 0 def /landscapeMode 1 def /rotateMode 2 def
% coordinate system mappings
/dpi2point 0 def
% font control
/FontSize 0 def
/FMS {/FontSize xstore findfont [FontSize 0 0 FontSize neg 0 0]
  makefont setfont} bdef
/reencode {exch dup where {pop load} {pop StandardEncoding} ifelse
  exch dup 3 1 roll findfont dup length dict begin
  { 1 index /FID ne {def}{pop pop} ifelse } forall
  /Encoding exch def currentdict end definefont pop} bdef
/isroman {findfont /CharStrings get /Agrave known} bdef
/FMSR {3 1 roll 1 index dup isroman {reencode} {pop pop} ifelse
  exch FMS} bdef
/csm {1 dpi2point div -1 dpi2point div scale neg translate
 dup landscapeMode eq {pop -90 rotate}
  {rotateMode eq {90 rotate} if} ifelse} bdef
% line types: solid, dotted, dashed, dotdash
/SO { [] 0 setdash } bdef
/DO { [.5 dpi2point mul 4 dpi2point mul] 0 setdash } bdef
/DA { [6 dpi2point mul] 0 setdash } bdef
/DD { [.5 dpi2point mul 4 dpi2point mul 6 dpi2point mul 4
  dpi2point mul] 0 setdash } bdef
% macros for lines and objects
/L {lineto stroke} bdef
/MP {3 1 roll moveto 1 sub {rlineto} repeat} bdef
/AP {{rlineto} repeat} bdef
/PDlw -1 def
/W {/PDlw currentlinewidth def setlinewidth} def
/PP {closepath eofill} bdef
/DP {closepath stroke} bdef
/MR {4 -2 roll moveto dup  0 exch rlineto exch 0 rlineto
  neg 0 exch rlineto closepath} bdef
/FR {MR stroke} bdef
/PR {MR fill} bdef
/L1i {{currentfile picstr readhexstring pop} image} bdef
/tMatrix matrix def
/MakeOval {newpath tMatrix currentmatrix pop translate scale
0 0 1 0 360 arc tMatrix setmatrix} bdef
/FO {MakeOval stroke} bdef
/PO {MakeOval fill} bdef
/PD {currentlinewidth 2 div 0 360 arc fill
   PDlw -1 eq not {PDlw w /PDlw -1 def} if} def
/FA {newpath tMatrix currentmatrix pop translate scale
  0 0 1 5 -2 roll arc tMatrix setmatrix stroke} bdef
/PA {newpath tMatrix currentmatrix pop	translate 0 0 moveto scale
  0 0 1 5 -2 roll arc closepath tMatrix setmatrix fill} bdef
/FAn {newpath tMatrix currentmatrix pop translate scale
  0 0 1 5 -2 roll arcn tMatrix setmatrix stroke} bdef
/PAn {newpath tMatrix currentmatrix pop translate 0 0 moveto scale
  0 0 1 5 -2 roll arcn closepath tMatrix setmatrix fill} bdef
/vradius 0 def /hradius 0 def /lry 0 def
/lrx 0 def /uly 0 def /ulx 0 def /rad 0 def
/MRR {/vradius xdef /hradius xdef /lry xdef /lrx xdef /uly xdef
  /ulx xdef newpath tMatrix currentmatrix pop ulx hradius add uly
  vradius add translate hradius vradius scale 0 0 1 180 270 arc 
  tMatrix setmatrix lrx hradius sub uly vradius add translate
  hradius vradius scale 0 0 1 270 360 arc tMatrix setmatrix
  lrx hradius sub lry vradius sub translate hradius vradius scale
  0 0 1 0 90 arc tMatrix setmatrix ulx hradius add lry vradius sub
  translate hradius vradius scale 0 0 1 90 180 arc tMatrix setmatrix
  closepath} bdef
/FRR {MRR stroke } bdef
/PRR {MRR fill } bdef
/MlrRR {/lry xdef /lrx xdef /uly xdef /ulx xdef /rad lry uly sub 2 div def
  newpath tMatrix currentmatrix pop ulx rad add uly rad add translate
  rad rad scale 0 0 1 90 270 arc tMatrix setmatrix lrx rad sub lry rad
  sub translate rad rad scale 0 0 1 270 90 arc tMatrix setmatrix
  closepath} bdef
/FlrRR {MlrRR stroke } bdef
/PlrRR {MlrRR fill } bdef
/MtbRR {/lry xdef /lrx xdef /uly xdef /ulx xdef /rad lrx ulx sub 2 div def
  newpath tMatrix currentmatrix pop ulx rad add uly rad add translate
  rad rad scale 0 0 1 180 360 arc tMatrix setmatrix lrx rad sub lry rad
  sub translate rad rad scale 0 0 1 0 180 arc tMatrix setmatrix
  closepath} bdef
/FtbRR {MtbRR stroke } bdef
/PtbRR {MtbRR fill } bdef
/stri 6 array def /dtri 6 array def
/smat 6 array def /dmat 6 array def
/tmat1 6 array def /tmat2 6 array def /dif 3 array def
/asub {/ind2 exch def /ind1 exch def dup dup
  ind1 get exch ind2 get sub exch } bdef
/tri_to_matrix {
  2 0 asub 3 1 asub 4 0 asub 5 1 asub
  dup 0 get exch 1 get 7 -1 roll astore } bdef
/compute_transform {
  dmat dtri tri_to_matrix tmat1 invertmatrix 
  smat stri tri_to_matrix tmat2 concatmatrix } bdef
/ds {stri astore pop} bdef
/dt {dtri astore pop} bdef
/db {2 copy /cols xdef /rows xdef mul dup 3 mul string
  currentfile 
  3 index 0 eq {/ASCIIHexDecode filter}
  {/ASCII85Decode filter 3 index 2 eq {/RunLengthDecode filter} if }
  ifelse exch readstring pop
  dup 0 3 index getinterval /rbmap xdef
  dup 2 index dup getinterval /gbmap xdef
  1 index dup 2 mul exch getinterval /bbmap xdef pop pop}bdef
/it {gs np dtri aload pop moveto lineto lineto cp c
  cols rows 8 compute_transform 
  rbmap gbmap bbmap true 3 colorimage gr}bdef
/il {newpath moveto lineto stroke}bdef
currentdict end def
%%EndProlog

%%BeginSetup
MathWorks begin

0 cap

end
%%EndSetup

%%Page: 1 1
%%BeginPageSetup
%%PageBoundingBox:    81   224   529   568
MathWorks begin
bpage
%%EndPageSetup

%%BeginObject: obj1
bplot

/dpi2point 12 def
portraitMode 0972 6816 csm

    0     0  5376  4119 rc
85 dict begin %Colortable dictionary
/c0 { 0.000000 0.000000 0.000000 sr} bdef
/c1 { 1.000000 1.000000 1.000000 sr} bdef
/c2 { 0.900000 0.000000 0.000000 sr} bdef
/c3 { 0.000000 0.820000 0.000000 sr} bdef
/c4 { 0.000000 0.000000 0.800000 sr} bdef
/c5 { 0.910000 0.820000 0.320000 sr} bdef
/c6 { 1.000000 0.260000 0.820000 sr} bdef
/c7 { 0.000000 0.820000 0.820000 sr} bdef
c0
1 j
1 sg
   0    0 5377 4120 rf
6 w
0 2192 4058 0 0 -2192 826 3786 4 MP
PP
-4058 0 0 2192 4058 0 0 -2192 826 3786 5 MP stroke
4 w
DO
SO
6 w
0 sg
 826 3786 mt 4884 3786 L
 826 1594 mt 4884 1594 L
 826 3786 mt  826 1594 L
4884 3786 mt 4884 1594 L
 826 3786 mt 4884 3786 L
 826 3786 mt  826 1594 L
 826 3786 mt  826 3786 L
 826 3786 mt  826 3786 L
 826 3786 mt  826 3786 L
 826 3786 mt  826 3786 L
 826 3786 mt  826 3786 L
 826 3786 mt  826 3786 L
 826 3786 mt  826 3786 L
 826 3786 mt  826 3786 L
 826 3786 mt  826 3786 L
 826 3786 mt  826 3786 L
 826 3786 mt  826 3786 L
 826 3786 mt  826 3786 L
 826 3786 mt  826 3786 L
 826 3786 mt  826 3786 L
 826 3786 mt  826 3786 L
 826 3786 mt  826 3786 L
 826 3786 mt  826 3786 L
 826 3786 mt  826 3786 L
 826 3786 mt  826 3745 L
 826 1594 mt  826 1634 L
%%IncludeResource: font Helvetica
/Helvetica /ISOLatin1Encoding 132 FMSR

 680 3942 mt 
(1024) s
 826 3786 mt  826 3786 L
 826 3786 mt  826 3786 L
 826 3786 mt  826 3786 L
 826 3786 mt  826 3786 L
 826 3786 mt  826 3786 L
 826 3786 mt  826 3786 L
 826 3786 mt  826 3786 L
 826 3786 mt  826 3786 L
 826 3786 mt  826 3786 L
 826 3786 mt  826 3786 L
 826 3786 mt  826 3786 L
 826 3786 mt  826 3786 L
 826 3786 mt  826 3786 L
 826 3786 mt  826 3786 L
 826 3786 mt  826 3786 L
 826 3786 mt  826 3786 L
 826 3786 mt  826 3786 L
 826 3786 mt  826 3786 L
1499 3786 mt 1499 3745 L
1499 1594 mt 1499 1634 L
1353 3942 mt 
(2048) s
 826 3786 mt  826 3786 L
 826 3786 mt  826 3786 L
 826 3786 mt  826 3786 L
 826 3786 mt  826 3786 L
 826 3786 mt  826 3786 L
 826 3786 mt  826 3786 L
 826 3786 mt  826 3786 L
 826 3786 mt  826 3786 L
 826 3786 mt  826 3786 L
 826 3786 mt  826 3786 L
 826 3786 mt  826 3786 L
 826 3786 mt  826 3786 L
 826 3786 mt  826 3786 L
 826 3786 mt  826 3786 L
 826 3786 mt  826 3786 L
 826 3786 mt  826 3786 L
 826 3786 mt  826 3786 L
 826 3786 mt  826 3786 L
2173 3786 mt 2173 3745 L
2173 1594 mt 2173 1634 L
2027 3942 mt 
(4096) s
 826 3786 mt  826 3786 L
 826 3786 mt  826 3786 L
 826 3786 mt  826 3786 L
 826 3786 mt  826 3786 L
 826 3786 mt  826 3786 L
 826 3786 mt  826 3786 L
 826 3786 mt  826 3786 L
 826 3786 mt  826 3786 L
 826 3786 mt  826 3786 L
 826 3786 mt  826 3786 L
 826 3786 mt  826 3786 L
 826 3786 mt  826 3786 L
 826 3786 mt  826 3786 L
 826 3786 mt  826 3786 L
 826 3786 mt  826 3786 L
 826 3786 mt  826 3786 L
 826 3786 mt  826 3786 L
 826 3786 mt  826 3786 L
2847 3786 mt 2847 3745 L
2847 1594 mt 2847 1634 L
2701 3942 mt 
(8192) s
 826 3786 mt  826 3786 L
 826 3786 mt  826 3786 L
 826 3786 mt  826 3786 L
 826 3786 mt  826 3786 L
 826 3786 mt  826 3786 L
 826 3786 mt  826 3786 L
 826 3786 mt  826 3786 L
 826 3786 mt  826 3786 L
 826 3786 mt  826 3786 L
 826 3786 mt  826 3786 L
 826 3786 mt  826 3786 L
 826 3786 mt  826 3786 L
 826 3786 mt  826 3786 L
 826 3786 mt  826 3786 L
 826 3786 mt  826 3786 L
 826 3786 mt  826 3786 L
 826 3786 mt  826 3786 L
 826 3786 mt  826 3786 L
3521 3786 mt 3521 3745 L
3521 1594 mt 3521 1634 L
3338 3942 mt 
(16384) s
 826 3786 mt  826 3786 L
 826 3786 mt  826 3786 L
 826 3786 mt  826 3786 L
 826 3786 mt  826 3786 L
 826 3786 mt  826 3786 L
 826 3786 mt  826 3786 L
 826 3786 mt  826 3786 L
 826 3786 mt  826 3786 L
 826 3786 mt  826 3786 L
 826 3786 mt  826 3786 L
 826 3786 mt  826 3786 L
 826 3786 mt  826 3786 L
 826 3786 mt  826 3786 L
 826 3786 mt  826 3786 L
 826 3786 mt  826 3786 L
 826 3786 mt  826 3786 L
 826 3786 mt  826 3786 L
 826 3786 mt  826 3786 L
4195 3786 mt 4195 3745 L
4195 1594 mt 4195 1634 L
4012 3942 mt 
(32768) s
 826 3786 mt  826 3786 L
 826 3786 mt  826 3786 L
 826 3786 mt  826 3786 L
 826 3786 mt  826 3786 L
 826 3786 mt  826 3786 L
 826 3786 mt  826 3786 L
 826 3786 mt  826 3786 L
 826 3786 mt  826 3786 L
 826 3786 mt  826 3786 L
 826 3786 mt  826 3786 L
 826 3786 mt  826 3786 L
 826 3786 mt  826 3786 L
 826 3786 mt  826 3786 L
 826 3786 mt  826 3786 L
 826 3786 mt  826 3786 L
 826 3786 mt  826 3786 L
 826 3786 mt  826 3786 L
 826 3786 mt  826 3786 L
4869 3786 mt 4869 3745 L
4869 1594 mt 4869 1634 L
4686 3942 mt 
(65536) s
 826 3786 mt  826 3786 L
 826 3786 mt  826 3786 L
 826 3786 mt  826 3786 L
 826 3786 mt  826 3786 L
 826 3786 mt  826 3786 L
 826 3786 mt  826 3786 L
 826 3786 mt  826 3786 L
 826 3786 mt  826 3786 L
 826 3786 mt  826 3786 L
 826 3786 mt  826 3786 L
 826 3786 mt  826 3786 L
 826 3786 mt  826 3786 L
 826 3786 mt  826 3786 L
 826 3786 mt  826 3786 L
 826 3786 mt  826 3786 L
 826 3786 mt  826 3786 L
 826 3786 mt  826 3786 L
 826 3786 mt  826 3786 L
 826 3786 mt  826 3786 L
 826 3786 mt  826 3786 L
 826 3786 mt  826 3786 L
 826 3786 mt  826 3786 L
 826 3786 mt  826 3786 L
 826 3786 mt  826 3786 L
 826 3786 mt  826 3786 L
 826 3786 mt  826 3786 L
 826 3786 mt  826 3786 L
 826 3786 mt  826 3786 L
 826 3786 mt  826 3786 L
 826 3786 mt  826 3786 L
 826 3786 mt  826 3786 L
 826 3786 mt  826 3786 L
 826 3786 mt  826 3786 L
 826 3786 mt  826 3786 L
 826 3786 mt  826 3786 L
 826 3786 mt  826 3786 L
 826 3786 mt  866 3786 L
4884 3786 mt 4843 3786 L
 498 3834 mt 
(1024) s
 826 3786 mt  826 3786 L
 826 3786 mt  826 3786 L
 826 3786 mt  826 3786 L
 826 3786 mt  826 3786 L
 826 3786 mt  826 3786 L
 826 3786 mt  826 3786 L
 826 3786 mt  826 3786 L
 826 3786 mt  826 3786 L
 826 3786 mt  826 3786 L
 826 3786 mt  826 3786 L
 826 3786 mt  826 3786 L
 826 3786 mt  826 3786 L
 826 3786 mt  826 3786 L
 826 3786 mt  826 3786 L
 826 3786 mt  826 3786 L
 826 3786 mt  826 3786 L
 826 3786 mt  826 3786 L
 826 3786 mt  826 3786 L
 826 3421 mt  866 3421 L
4884 3421 mt 4843 3421 L
 498 3469 mt 
(2048) s
 826 3786 mt  826 3786 L
 826 3786 mt  826 3786 L
 826 3786 mt  826 3786 L
 826 3786 mt  826 3786 L
 826 3786 mt  826 3786 L
 826 3786 mt  826 3786 L
 826 3786 mt  826 3786 L
 826 3786 mt  826 3786 L
 826 3786 mt  826 3786 L
 826 3786 mt  826 3786 L
 826 3786 mt  826 3786 L
 826 3786 mt  826 3786 L
 826 3786 mt  826 3786 L
 826 3786 mt  826 3786 L
 826 3786 mt  826 3786 L
 826 3786 mt  826 3786 L
 826 3786 mt  826 3786 L
 826 3786 mt  826 3786 L
 826 3057 mt  866 3057 L
4884 3057 mt 4843 3057 L
 498 3105 mt 
(4096) s
 826 3786 mt  826 3786 L
 826 3786 mt  826 3786 L
 826 3786 mt  826 3786 L
 826 3786 mt  826 3786 L
 826 3786 mt  826 3786 L
 826 3786 mt  826 3786 L
 826 3786 mt  826 3786 L
 826 3786 mt  826 3786 L
 826 3786 mt  826 3786 L
 826 3786 mt  826 3786 L
 826 3786 mt  826 3786 L
 826 3786 mt  826 3786 L
 826 3786 mt  826 3786 L
 826 3786 mt  826 3786 L
 826 3786 mt  826 3786 L
 826 3786 mt  826 3786 L
 826 3786 mt  826 3786 L
 826 3786 mt  826 3786 L
 826 2693 mt  866 2693 L
4884 2693 mt 4843 2693 L
 498 2741 mt 
(8192) s
 826 3786 mt  826 3786 L
 826 3786 mt  826 3786 L
 826 3786 mt  826 3786 L
 826 3786 mt  826 3786 L
 826 3786 mt  826 3786 L
 826 3786 mt  826 3786 L
 826 3786 mt  826 3786 L
 826 3786 mt  826 3786 L
 826 3786 mt  826 3786 L
 826 3786 mt  826 3786 L
 826 3786 mt  826 3786 L
 826 3786 mt  826 3786 L
 826 3786 mt  826 3786 L
 826 3786 mt  826 3786 L
 826 3786 mt  826 3786 L
 826 3786 mt  826 3786 L
 826 3786 mt  826 3786 L
 826 3786 mt  826 3786 L
 826 2329 mt  866 2329 L
4884 2329 mt 4843 2329 L
 425 2377 mt 
(16384) s
 826 3786 mt  826 3786 L
 826 3786 mt  826 3786 L
 826 3786 mt  826 3786 L
 826 3786 mt  826 3786 L
 826 3786 mt  826 3786 L
 826 3786 mt  826 3786 L
 826 3786 mt  826 3786 L
 826 3786 mt  826 3786 L
 826 3786 mt  826 3786 L
 826 3786 mt  826 3786 L
 826 3786 mt  826 3786 L
 826 3786 mt  826 3786 L
 826 3786 mt  826 3786 L
 826 3786 mt  826 3786 L
 826 3786 mt  826 3786 L
 826 3786 mt  826 3786 L
 826 3786 mt  826 3786 L
 826 3786 mt  826 3786 L
 826 1965 mt  866 1965 L
4884 1965 mt 4843 1965 L
 425 2013 mt 
(32768) s
 826 3786 mt  826 3786 L
 826 3786 mt  826 3786 L
 826 3786 mt  826 3786 L
 826 3786 mt  826 3786 L
 826 3786 mt  826 3786 L
 826 3786 mt  826 3786 L
 826 3786 mt  826 3786 L
 826 3786 mt  826 3786 L
 826 3786 mt  826 3786 L
 826 3786 mt  826 3786 L
 826 3786 mt  826 3786 L
 826 3786 mt  826 3786 L
 826 3786 mt  826 3786 L
 826 3786 mt  826 3786 L
 826 3786 mt  826 3786 L
 826 3786 mt  826 3786 L
 826 3786 mt  826 3786 L
 826 3786 mt  826 3786 L
 826 1601 mt  866 1601 L
4884 1601 mt 4843 1601 L
 425 1649 mt 
(65536) s
 826 3786 mt  826 3786 L
 826 3786 mt  826 3786 L
 826 3786 mt  826 3786 L
 826 3786 mt  826 3786 L
 826 3786 mt  826 3786 L
 826 3786 mt  826 3786 L
 826 3786 mt  826 3786 L
 826 3786 mt  826 3786 L
 826 3786 mt  826 3786 L
 826 3786 mt  826 3786 L
 826 3786 mt  826 3786 L
 826 3786 mt  826 3786 L
 826 3786 mt  826 3786 L
 826 3786 mt  826 3786 L
 826 3786 mt  826 3786 L
 826 3786 mt  826 3786 L
 826 3786 mt  826 3786 L
 826 3786 mt  826 3786 L
 826 3786 mt 4884 3786 L
 826 1594 mt 4884 1594 L
 826 3786 mt  826 1594 L
4884 3786 mt 4884 1594 L
gs 826 1594 4059 2193 rc
12 w
/c8 { 0.000000 0.000000 1.000000 sr} bdef
c8
674 -209 674 -337 674 -325 674 -368 674 -368 673 -369 826 3786 7 MP stroke
gr

12 w
c8
 790 3786 mt  862 3786 L
 826 3750 mt  826 3822 L
1463 3417 mt 1535 3417 L
1499 3381 mt 1499 3453 L
2137 3049 mt 2209 3049 L
2173 3013 mt 2173 3085 L
2811 2681 mt 2883 2681 L
2847 2645 mt 2847 2717 L
3485 2356 mt 3557 2356 L
3521 2320 mt 3521 2392 L
4159 2019 mt 4231 2019 L
4195 1983 mt 4195 2055 L
4833 1810 mt 4905 1810 L
4869 1774 mt 4869 1846 L
gs 826 1594 4059 2193 rc
gr

0 sg
2650 4099 mt 
(Cores) s
 341 2955 mt  -90 rotate
(Speedup) s
90 rotate
gs 826 1594 4059 2193 rc
/c9 { 0.000000 0.500000 0.000000 sr} bdef
c9
674 -127 674 -304 674 -296 674 -351 674 -389 1499 3421 6 MP stroke
gr

c9
0 j
36 47 -36 47 -36 -47 36 -47 1499 3468 5 MP
DP
36 47 -36 47 -36 -47 36 -47 2173 3079 5 MP
DP
36 47 -36 47 -36 -47 36 -47 2847 2728 5 MP
DP
36 47 -36 47 -36 -47 36 -47 3521 2432 5 MP
DP
36 47 -36 47 -36 -47 36 -47 4195 2128 5 MP
DP
36 47 -36 47 -36 -47 36 -47 4869 2001 5 MP
DP
gs 826 1594 4059 2193 rc
/c10 { 1.000000 0.000000 0.000000 sr} bdef
c10
674 -375 674 -250 674 -371 674 -369 673 -373 826 3786 6 MP stroke
gr

c10
  36   36  826 3786 FO
  36   36 1499 3413 FO
  36   36 2173 3044 FO
  36   36 2847 2673 FO
  36   36 3521 2423 FO
  36   36 4195 2048 FO
gs 826 1594 4059 2193 rc
DA
6 w
0 sg
674 -364 674 -364 674 -364 674 -364 674 -364 673 -365 826 3786 7 MP stroke
gr

6 w
0 sg
DA
%%IncludeResource: font Helvetica
/Helvetica /ISOLatin1Encoding 120 FMSR

 809 3829 mt 
( ) s
4868 1636 mt 
( ) s
SO
1 sg
0 1319 4049 0 0 -1319 816 1373 4 MP
PP
-4049 0 0 1319 4049 0 0 -1319 816 1373 5 MP stroke
4 w
DO
0 sg
 816 1373 mt  816   54 L
 816   54 mt  816   54 L
1488 1373 mt 1488   54 L
1488   54 mt 1488   54 L
2160 1373 mt 2160   54 L
2160   54 mt 2160   54 L
2833 1373 mt 2833   54 L
2833   54 mt 2833   54 L
3505 1373 mt 3505   54 L
3505   54 mt 3505   54 L
4177 1373 mt 4177   54 L
4177   54 mt 4177   54 L
4850 1373 mt 4850   54 L
4850   54 mt 4850   54 L
 816 1373 mt 4865 1373 L
4865 1373 mt 4865 1373 L
 816 1184 mt 4865 1184 L
4865 1184 mt 4865 1184 L
 816  996 mt 4865  996 L
4865  996 mt 4865  996 L
 816  807 mt 4865  807 L
4865  807 mt 4865  807 L
 816  619 mt 4865  619 L
4865  619 mt 4865  619 L
 816  430 mt 4865  430 L
4865  430 mt 4865  430 L
 816  242 mt 4865  242 L
4865  242 mt 4865  242 L
SO
6 w
 816 1373 mt 4865 1373 L
 816   54 mt 4865   54 L
 816 1373 mt  816   54 L
4865 1373 mt 4865   54 L
 816 1373 mt 4865 1373 L
 816 1373 mt  816   54 L
 816 1373 mt  816 1373 L
 816 1373 mt  816 1373 L
DO
 816 1373 mt  816 1373 L
 816 1373 mt  816 1373 L
SO
 816 1373 mt  816 1373 L
 816 1373 mt  816 1373 L
DO
 816 1373 mt  816 1373 L
 816 1373 mt  816 1373 L
SO
 816 1373 mt  816 1373 L
 816 1373 mt  816 1373 L
DO
 816 1373 mt  816 1373 L
 816 1373 mt  816 1373 L
SO
 816 1373 mt  816 1373 L
 816 1373 mt  816 1373 L
DO
 816 1373 mt  816 1373 L
 816 1373 mt  816 1373 L
SO
 816 1373 mt  816 1373 L
 816 1373 mt  816 1373 L
DO
 816 1373 mt  816 1373 L
 816 1373 mt  816 1373 L
SO
 816 1373 mt  816 1373 L
 816 1373 mt  816 1373 L
DO
 816 1373 mt  816 1373 L
 816 1373 mt  816 1373 L
SO
 816 1373 mt  816 1373 L
 816 1373 mt  816 1373 L
DO
 816 1373 mt  816 1373 L
 816 1373 mt  816 1373 L
SO
 816 1373 mt  816 1373 L
 816 1373 mt  816 1373 L
DO
 816 1373 mt  816 1373 L
 816 1373 mt  816 1373 L
SO
 816 1373 mt  816 1373 L
 816 1373 mt  816 1373 L
DO
 816 1373 mt  816 1373 L
 816 1373 mt  816 1373 L
SO
 816 1373 mt  816 1332 L
 816   54 mt  816   94 L
%%IncludeResource: font Helvetica
/Helvetica /ISOLatin1Encoding 132 FMSR

 736 1529 mt 
(1K) s
 816 1373 mt  816 1373 L
 816 1373 mt  816 1373 L
DO
 816 1373 mt  816 1373 L
 816 1373 mt  816 1373 L
SO
 816 1373 mt  816 1373 L
 816 1373 mt  816 1373 L
DO
 816 1373 mt  816 1373 L
 816 1373 mt  816 1373 L
SO
 816 1373 mt  816 1373 L
 816 1373 mt  816 1373 L
DO
 816 1373 mt  816 1373 L
 816 1373 mt  816 1373 L
SO
 816 1373 mt  816 1373 L
 816 1373 mt  816 1373 L
DO
 816 1373 mt  816 1373 L
 816 1373 mt  816 1373 L
SO
 816 1373 mt  816 1373 L
 816 1373 mt  816 1373 L
DO
 816 1373 mt  816 1373 L
 816 1373 mt  816 1373 L
SO
 816 1373 mt  816 1373 L
 816 1373 mt  816 1373 L
DO
 816 1373 mt  816 1373 L
 816 1373 mt  816 1373 L
SO
 816 1373 mt  816 1373 L
 816 1373 mt  816 1373 L
DO
 816 1373 mt  816 1373 L
 816 1373 mt  816 1373 L
SO
 816 1373 mt  816 1373 L
 816 1373 mt  816 1373 L
DO
 816 1373 mt  816 1373 L
 816 1373 mt  816 1373 L
SO
 816 1373 mt  816 1373 L
 816 1373 mt  816 1373 L
DO
 816 1373 mt  816 1373 L
 816 1373 mt  816 1373 L
SO
1488 1373 mt 1488 1332 L
1488   54 mt 1488   94 L
1408 1529 mt 
(2K) s
 816 1373 mt  816 1373 L
 816 1373 mt  816 1373 L
DO
 816 1373 mt  816 1373 L
 816 1373 mt  816 1373 L
SO
 816 1373 mt  816 1373 L
 816 1373 mt  816 1373 L
DO
 816 1373 mt  816 1373 L
 816 1373 mt  816 1373 L
SO
 816 1373 mt  816 1373 L
 816 1373 mt  816 1373 L
DO
 816 1373 mt  816 1373 L
 816 1373 mt  816 1373 L
SO
 816 1373 mt  816 1373 L
 816 1373 mt  816 1373 L
DO
 816 1373 mt  816 1373 L
 816 1373 mt  816 1373 L
SO
 816 1373 mt  816 1373 L
 816 1373 mt  816 1373 L
DO
 816 1373 mt  816 1373 L
 816 1373 mt  816 1373 L
SO
 816 1373 mt  816 1373 L
 816 1373 mt  816 1373 L
DO
 816 1373 mt  816 1373 L
 816 1373 mt  816 1373 L
SO
 816 1373 mt  816 1373 L
 816 1373 mt  816 1373 L
DO
 816 1373 mt  816 1373 L
 816 1373 mt  816 1373 L
SO
 816 1373 mt  816 1373 L
 816 1373 mt  816 1373 L
DO
 816 1373 mt  816 1373 L
 816 1373 mt  816 1373 L
SO
 816 1373 mt  816 1373 L
 816 1373 mt  816 1373 L
DO
 816 1373 mt  816 1373 L
 816 1373 mt  816 1373 L
SO
2160 1373 mt 2160 1332 L
2160   54 mt 2160   94 L
2080 1529 mt 
(4K) s
 816 1373 mt  816 1373 L
 816 1373 mt  816 1373 L
DO
 816 1373 mt  816 1373 L
 816 1373 mt  816 1373 L
SO
 816 1373 mt  816 1373 L
 816 1373 mt  816 1373 L
DO
 816 1373 mt  816 1373 L
 816 1373 mt  816 1373 L
SO
 816 1373 mt  816 1373 L
 816 1373 mt  816 1373 L
DO
 816 1373 mt  816 1373 L
 816 1373 mt  816 1373 L
SO
 816 1373 mt  816 1373 L
 816 1373 mt  816 1373 L
DO
 816 1373 mt  816 1373 L
 816 1373 mt  816 1373 L
SO
 816 1373 mt  816 1373 L
 816 1373 mt  816 1373 L
DO
 816 1373 mt  816 1373 L
 816 1373 mt  816 1373 L
SO
 816 1373 mt  816 1373 L
 816 1373 mt  816 1373 L
DO
 816 1373 mt  816 1373 L
 816 1373 mt  816 1373 L
SO
 816 1373 mt  816 1373 L
 816 1373 mt  816 1373 L
DO
 816 1373 mt  816 1373 L
 816 1373 mt  816 1373 L
SO
 816 1373 mt  816 1373 L
 816 1373 mt  816 1373 L
DO
 816 1373 mt  816 1373 L
 816 1373 mt  816 1373 L
SO
 816 1373 mt  816 1373 L
 816 1373 mt  816 1373 L
DO
 816 1373 mt  816 1373 L
 816 1373 mt  816 1373 L
SO
2833 1373 mt 2833 1332 L
2833   54 mt 2833   94 L
2753 1529 mt 
(8K) s
 816 1373 mt  816 1373 L
 816 1373 mt  816 1373 L
DO
 816 1373 mt  816 1373 L
 816 1373 mt  816 1373 L
SO
 816 1373 mt  816 1373 L
 816 1373 mt  816 1373 L
DO
 816 1373 mt  816 1373 L
 816 1373 mt  816 1373 L
SO
 816 1373 mt  816 1373 L
 816 1373 mt  816 1373 L
DO
 816 1373 mt  816 1373 L
 816 1373 mt  816 1373 L
SO
 816 1373 mt  816 1373 L
 816 1373 mt  816 1373 L
DO
 816 1373 mt  816 1373 L
 816 1373 mt  816 1373 L
SO
 816 1373 mt  816 1373 L
 816 1373 mt  816 1373 L
DO
 816 1373 mt  816 1373 L
 816 1373 mt  816 1373 L
SO
 816 1373 mt  816 1373 L
 816 1373 mt  816 1373 L
DO
 816 1373 mt  816 1373 L
 816 1373 mt  816 1373 L
SO
 816 1373 mt  816 1373 L
 816 1373 mt  816 1373 L
DO
 816 1373 mt  816 1373 L
 816 1373 mt  816 1373 L
SO
 816 1373 mt  816 1373 L
 816 1373 mt  816 1373 L
DO
 816 1373 mt  816 1373 L
 816 1373 mt  816 1373 L
SO
 816 1373 mt  816 1373 L
 816 1373 mt  816 1373 L
DO
 816 1373 mt  816 1373 L
 816 1373 mt  816 1373 L
SO
3505 1373 mt 3505 1332 L
3505   54 mt 3505   94 L
3388 1529 mt 
(16K) s
 816 1373 mt  816 1373 L
 816 1373 mt  816 1373 L
DO
 816 1373 mt  816 1373 L
 816 1373 mt  816 1373 L
SO
 816 1373 mt  816 1373 L
 816 1373 mt  816 1373 L
DO
 816 1373 mt  816 1373 L
 816 1373 mt  816 1373 L
SO
 816 1373 mt  816 1373 L
 816 1373 mt  816 1373 L
DO
 816 1373 mt  816 1373 L
 816 1373 mt  816 1373 L
SO
 816 1373 mt  816 1373 L
 816 1373 mt  816 1373 L
DO
 816 1373 mt  816 1373 L
 816 1373 mt  816 1373 L
SO
 816 1373 mt  816 1373 L
 816 1373 mt  816 1373 L
DO
 816 1373 mt  816 1373 L
 816 1373 mt  816 1373 L
SO
 816 1373 mt  816 1373 L
 816 1373 mt  816 1373 L
DO
 816 1373 mt  816 1373 L
 816 1373 mt  816 1373 L
SO
 816 1373 mt  816 1373 L
 816 1373 mt  816 1373 L
DO
 816 1373 mt  816 1373 L
 816 1373 mt  816 1373 L
SO
 816 1373 mt  816 1373 L
 816 1373 mt  816 1373 L
DO
 816 1373 mt  816 1373 L
 816 1373 mt  816 1373 L
SO
 816 1373 mt  816 1373 L
 816 1373 mt  816 1373 L
DO
 816 1373 mt  816 1373 L
 816 1373 mt  816 1373 L
SO
4177 1373 mt 4177 1332 L
4177   54 mt 4177   94 L
4060 1529 mt 
(32K) s
 816 1373 mt  816 1373 L
 816 1373 mt  816 1373 L
DO
 816 1373 mt  816 1373 L
 816 1373 mt  816 1373 L
SO
 816 1373 mt  816 1373 L
 816 1373 mt  816 1373 L
DO
 816 1373 mt  816 1373 L
 816 1373 mt  816 1373 L
SO
 816 1373 mt  816 1373 L
 816 1373 mt  816 1373 L
DO
 816 1373 mt  816 1373 L
 816 1373 mt  816 1373 L
SO
 816 1373 mt  816 1373 L
 816 1373 mt  816 1373 L
DO
 816 1373 mt  816 1373 L
 816 1373 mt  816 1373 L
SO
 816 1373 mt  816 1373 L
 816 1373 mt  816 1373 L
DO
 816 1373 mt  816 1373 L
 816 1373 mt  816 1373 L
SO
 816 1373 mt  816 1373 L
 816 1373 mt  816 1373 L
DO
 816 1373 mt  816 1373 L
 816 1373 mt  816 1373 L
SO
 816 1373 mt  816 1373 L
 816 1373 mt  816 1373 L
DO
 816 1373 mt  816 1373 L
 816 1373 mt  816 1373 L
SO
 816 1373 mt  816 1373 L
 816 1373 mt  816 1373 L
DO
 816 1373 mt  816 1373 L
 816 1373 mt  816 1373 L
SO
 816 1373 mt  816 1373 L
 816 1373 mt  816 1373 L
DO
 816 1373 mt  816 1373 L
 816 1373 mt  816 1373 L
SO
4850 1373 mt 4850 1332 L
4850   54 mt 4850   94 L
4733 1529 mt 
(64K) s
 816 1373 mt  816 1373 L
 816 1373 mt  816 1373 L
DO
 816 1373 mt  816 1373 L
 816 1373 mt  816 1373 L
SO
 816 1373 mt  816 1373 L
 816 1373 mt  816 1373 L
DO
 816 1373 mt  816 1373 L
 816 1373 mt  816 1373 L
SO
 816 1373 mt  816 1373 L
 816 1373 mt  816 1373 L
DO
 816 1373 mt  816 1373 L
 816 1373 mt  816 1373 L
SO
 816 1373 mt  816 1373 L
 816 1373 mt  816 1373 L
DO
 816 1373 mt  816 1373 L
 816 1373 mt  816 1373 L
SO
 816 1373 mt  816 1373 L
 816 1373 mt  816 1373 L
DO
 816 1373 mt  816 1373 L
 816 1373 mt  816 1373 L
SO
 816 1373 mt  816 1373 L
 816 1373 mt  816 1373 L
DO
 816 1373 mt  816 1373 L
 816 1373 mt  816 1373 L
SO
 816 1373 mt  816 1373 L
 816 1373 mt  816 1373 L
DO
 816 1373 mt  816 1373 L
 816 1373 mt  816 1373 L
SO
 816 1373 mt  816 1373 L
 816 1373 mt  816 1373 L
DO
 816 1373 mt  816 1373 L
 816 1373 mt  816 1373 L
SO
 816 1373 mt  816 1373 L
 816 1373 mt  816 1373 L
DO
 816 1373 mt  816 1373 L
 816 1373 mt  816 1373 L
SO
 816 1373 mt  856 1373 L
4865 1373 mt 4824 1373 L
 598 1421 mt 
(0.4) s
 816 1184 mt  856 1184 L
4865 1184 mt 4824 1184 L
 598 1232 mt 
(0.5) s
 816  996 mt  856  996 L
4865  996 mt 4824  996 L
 598 1044 mt 
(0.6) s
 816  807 mt  856  807 L
4865  807 mt 4824  807 L
 598  855 mt 
(0.7) s
 816  619 mt  856  619 L
4865  619 mt 4824  619 L
 598  667 mt 
(0.8) s
 816  430 mt  856  430 L
4865  430 mt 4824  430 L
 598  478 mt 
(0.9) s
 816  242 mt  856  242 L
4865  242 mt 4824  242 L
 708  290 mt 
(1) s
 816 1373 mt 4865 1373 L
 816   54 mt 4865   54 L
 816 1373 mt  816   54 L
4865 1373 mt 4865   54 L
gs 816 53 4050 1321 rc
12 w
c8
673 433 672 90 672 140 673 -16 672 -14 672 -16 816 242 7 MP stroke
gr

12 w
c8
 780  242 mt  852  242 L
 816  206 mt  816  278 L
1452  226 mt 1524  226 L
1488  190 mt 1488  262 L
2124  212 mt 2196  212 L
2160  176 mt 2160  248 L
2797  196 mt 2869  196 L
2833  160 mt 2833  232 L
3469  336 mt 3541  336 L
3505  300 mt 3505  372 L
4141  426 mt 4213  426 L
4177  390 mt 4177  462 L
4814  859 mt 4886  859 L
4850  823 mt 4850  895 L
gs 816 53 4050 1321 rc
gr

0 sg
 244 1308 mt  -90 rotate
(Scaling efficiency) s
90 rotate
gs 816 53 4050 1321 rc
c9
673 551 672 182 672 233 673 50 672 -94 1488 242 6 MP stroke
gr

c9
gs 1415 75 3509 1163 rc
36 47 -36 47 -36 -47 36 -47 1488 289 5 MP
DP
36 47 -36 47 -36 -47 36 -47 2160 195 5 MP
DP
36 47 -36 47 -36 -47 36 -47 2833 245 5 MP
DP
36 47 -36 47 -36 -47 36 -47 3505 478 5 MP
DP
36 47 -36 47 -36 -47 36 -47 4177 660 5 MP
DP
36 47 -36 47 -36 -47 36 -47 4850 1211 5 MP
DP
gr

gs 816 53 4050 1321 rc
c10
672 -32 672 379 673 -24 672 -17 672 -32 816 242 6 MP stroke
gr

c10
  36   36  816  242 FO
  36   36 1488  210 FO
  36   36 2160  193 FO
  36   36 2833  169 FO
  36   36 3505  548 FO
  36   36 4177  516 FO
gs 816 53 4050 1321 rc
6 w
gr

6 w
1 sg
0 795 1627 0 0 -795 996 2514 4 MP
PP
-1627 0 0 795 1627 0 0 -795 996 2514 5 MP stroke
4 w
DO
SO
6 w
0 sg
 996 2514 mt 2623 2514 L
 996 1719 mt 2623 1719 L
 996 2514 mt  996 1719 L
2623 2514 mt 2623 1719 L
 996 2514 mt 2623 2514 L
 996 2514 mt  996 1719 L
 996 2514 mt 2623 2514 L
 996 1719 mt 2623 1719 L
 996 2514 mt  996 1719 L
2623 2514 mt 2623 1719 L
1464 1881 mt 
(Large ES, No Coll) s
gs 996 1719 1628 796 rc
12 w
c8
360 0 1067 1834 2 MP stroke
gs 1174 1761 147 147 rc
1211 1834 mt 1283 1834 L
1247 1798 mt 1247 1870 L
gr

gr

12 w
c8
0 sg
1464 2070 mt 
(Large EM, Coll) s
gs 996 1719 1628 796 rc
c9
360 0 1067 2022 2 MP stroke
gs 1174 1949 147 147 rc
36 47 -36 47 -36 -47 36 -47 1247 2069 5 MP
DP
gr

gr

c9
0 sg
1464 2258 mt 
(Large EM, No Coll) s
gs 996 1719 1628 796 rc
c10
360 0 1067 2210 2 MP stroke
gs 1174 2137 147 147 rc
  36   36 1247 2210 FO
gr

gr

c10
0 sg
1464 2447 mt 
(Linear) s
gs 996 1719 1628 796 rc
DA
6 w
360 0 1067 2398 2 MP stroke
SO
gr

6 w

end %%Color Dict

eplot
%%EndObject

epage
end

showpage

%%Trailer
%%EOF
