%!PS-Adobe-3.0 EPSF-3.0
%%Creator: MATLAB, The Mathworks, Inc. Version 7.8.0.347 (R2009a). Operating System: Linux 2.6.25.20-0.5-default #1 SMP 2009-08-14 01:48:11 +0200 x86_64.
%%Title: /home/space/phsgbo/GKW/gkw/doc/fig/tempflat.eps
%%CreationDate: 10/09/2009  14:44:39
%%DocumentNeededFonts: Helvetica
%%DocumentProcessColors: Cyan Magenta Yellow Black
%%LanguageLevel: 2
%%Pages: 1
%%BoundingBox:   -54   278   650   563
%%EndComments

%%BeginProlog
% MathWorks dictionary
/MathWorks 160 dict begin
% definition operators
/bdef {bind def} bind def
/ldef {load def} bind def
/xdef {exch def} bdef
/xstore {exch store} bdef
% operator abbreviations
/c  /clip ldef
/cc /concat ldef
/cp /closepath ldef
/gr /grestore ldef
/gs /gsave ldef
/mt /moveto ldef
/np /newpath ldef
/cm /currentmatrix ldef
/sm /setmatrix ldef
/rm /rmoveto ldef
/rl /rlineto ldef
/s {show newpath} bdef
/sc {setcmykcolor} bdef
/sr /setrgbcolor ldef
/sg /setgray ldef
/w /setlinewidth ldef
/j /setlinejoin ldef
/cap /setlinecap ldef
/rc {rectclip} bdef
/rf {rectfill} bdef
% page state control
/pgsv () def
/bpage {/pgsv save def} bdef
/epage {pgsv restore} bdef
/bplot /gsave ldef
/eplot {stroke grestore} bdef
% orientation switch
/portraitMode 0 def /landscapeMode 1 def /rotateMode 2 def
% coordinate system mappings
/dpi2point 0 def
% font control
/FontSize 0 def
/FMS {/FontSize xstore findfont [FontSize 0 0 FontSize neg 0 0]
  makefont setfont} bdef
/reencode {exch dup where {pop load} {pop StandardEncoding} ifelse
  exch dup 3 1 roll findfont dup length dict begin
  { 1 index /FID ne {def}{pop pop} ifelse } forall
  /Encoding exch def currentdict end definefont pop} bdef
/isroman {findfont /CharStrings get /Agrave known} bdef
/FMSR {3 1 roll 1 index dup isroman {reencode} {pop pop} ifelse
  exch FMS} bdef
/csm {1 dpi2point div -1 dpi2point div scale neg translate
 dup landscapeMode eq {pop -90 rotate}
  {rotateMode eq {90 rotate} if} ifelse} bdef
% line types: solid, dotted, dashed, dotdash
/SO { [] 0 setdash } bdef
/DO { [.5 dpi2point mul 4 dpi2point mul] 0 setdash } bdef
/DA { [6 dpi2point mul] 0 setdash } bdef
/DD { [.5 dpi2point mul 4 dpi2point mul 6 dpi2point mul 4
  dpi2point mul] 0 setdash } bdef
% macros for lines and objects
/L {lineto stroke} bdef
/MP {3 1 roll moveto 1 sub {rlineto} repeat} bdef
/AP {{rlineto} repeat} bdef
/PDlw -1 def
/W {/PDlw currentlinewidth def setlinewidth} def
/PP {closepath eofill} bdef
/DP {closepath stroke} bdef
/MR {4 -2 roll moveto dup  0 exch rlineto exch 0 rlineto
  neg 0 exch rlineto closepath} bdef
/FR {MR stroke} bdef
/PR {MR fill} bdef
/L1i {{currentfile picstr readhexstring pop} image} bdef
/tMatrix matrix def
/MakeOval {newpath tMatrix currentmatrix pop translate scale
0 0 1 0 360 arc tMatrix setmatrix} bdef
/FO {MakeOval stroke} bdef
/PO {MakeOval fill} bdef
/PD {currentlinewidth 2 div 0 360 arc fill
   PDlw -1 eq not {PDlw w /PDlw -1 def} if} def
/FA {newpath tMatrix currentmatrix pop translate scale
  0 0 1 5 -2 roll arc tMatrix setmatrix stroke} bdef
/PA {newpath tMatrix currentmatrix pop	translate 0 0 moveto scale
  0 0 1 5 -2 roll arc closepath tMatrix setmatrix fill} bdef
/FAn {newpath tMatrix currentmatrix pop translate scale
  0 0 1 5 -2 roll arcn tMatrix setmatrix stroke} bdef
/PAn {newpath tMatrix currentmatrix pop translate 0 0 moveto scale
  0 0 1 5 -2 roll arcn closepath tMatrix setmatrix fill} bdef
/vradius 0 def /hradius 0 def /lry 0 def
/lrx 0 def /uly 0 def /ulx 0 def /rad 0 def
/MRR {/vradius xdef /hradius xdef /lry xdef /lrx xdef /uly xdef
  /ulx xdef newpath tMatrix currentmatrix pop ulx hradius add uly
  vradius add translate hradius vradius scale 0 0 1 180 270 arc 
  tMatrix setmatrix lrx hradius sub uly vradius add translate
  hradius vradius scale 0 0 1 270 360 arc tMatrix setmatrix
  lrx hradius sub lry vradius sub translate hradius vradius scale
  0 0 1 0 90 arc tMatrix setmatrix ulx hradius add lry vradius sub
  translate hradius vradius scale 0 0 1 90 180 arc tMatrix setmatrix
  closepath} bdef
/FRR {MRR stroke } bdef
/PRR {MRR fill } bdef
/MlrRR {/lry xdef /lrx xdef /uly xdef /ulx xdef /rad lry uly sub 2 div def
  newpath tMatrix currentmatrix pop ulx rad add uly rad add translate
  rad rad scale 0 0 1 90 270 arc tMatrix setmatrix lrx rad sub lry rad
  sub translate rad rad scale 0 0 1 270 90 arc tMatrix setmatrix
  closepath} bdef
/FlrRR {MlrRR stroke } bdef
/PlrRR {MlrRR fill } bdef
/MtbRR {/lry xdef /lrx xdef /uly xdef /ulx xdef /rad lrx ulx sub 2 div def
  newpath tMatrix currentmatrix pop ulx rad add uly rad add translate
  rad rad scale 0 0 1 180 360 arc tMatrix setmatrix lrx rad sub lry rad
  sub translate rad rad scale 0 0 1 0 180 arc tMatrix setmatrix
  closepath} bdef
/FtbRR {MtbRR stroke } bdef
/PtbRR {MtbRR fill } bdef
/stri 6 array def /dtri 6 array def
/smat 6 array def /dmat 6 array def
/tmat1 6 array def /tmat2 6 array def /dif 3 array def
/asub {/ind2 exch def /ind1 exch def dup dup
  ind1 get exch ind2 get sub exch } bdef
/tri_to_matrix {
  2 0 asub 3 1 asub 4 0 asub 5 1 asub
  dup 0 get exch 1 get 7 -1 roll astore } bdef
/compute_transform {
  dmat dtri tri_to_matrix tmat1 invertmatrix 
  smat stri tri_to_matrix tmat2 concatmatrix } bdef
/ds {stri astore pop} bdef
/dt {dtri astore pop} bdef
/db {2 copy /cols xdef /rows xdef mul dup 3 mul string
  currentfile 
  3 index 0 eq {/ASCIIHexDecode filter}
  {/ASCII85Decode filter 3 index 2 eq {/RunLengthDecode filter} if }
  ifelse exch readstring pop
  dup 0 3 index getinterval /rbmap xdef
  dup 2 index dup getinterval /gbmap xdef
  1 index dup 2 mul exch getinterval /bbmap xdef pop pop}bdef
/it {gs np dtri aload pop moveto lineto lineto cp c
  cols rows 8 compute_transform 
  rbmap gbmap bbmap true 3 colorimage gr}bdef
/il {newpath moveto lineto stroke}bdef
currentdict end def
%%EndProlog

%%BeginSetup
MathWorks begin

0 cap

end
%%EndSetup

%%Page: 1 1
%%BeginPageSetup
%%PageBoundingBox:   -54   278   650   563
MathWorks begin
bpage
%%EndPageSetup

%%BeginObject: obj1
bplot

/dpi2point 12 def
portraitMode -0648 6756 csm

    0     0  8457  3410 rc
86 dict begin %Colortable dictionary
/c0 { 0.000000 0.000000 0.000000 sr} bdef
/c1 { 1.000000 1.000000 1.000000 sr} bdef
/c2 { 0.900000 0.000000 0.000000 sr} bdef
/c3 { 0.000000 0.820000 0.000000 sr} bdef
/c4 { 0.000000 0.000000 0.800000 sr} bdef
/c5 { 0.910000 0.820000 0.320000 sr} bdef
/c6 { 1.000000 0.260000 0.820000 sr} bdef
/c7 { 0.000000 0.820000 0.820000 sr} bdef
c0
1 j
1 sg
   0    0 8458 3411 rf
6 w
0 2779 6555 0 0 -2779 1099 3035 4 MP
PP
-6555 0 0 2779 6555 0 0 -2779 1099 3035 5 MP stroke
4 w
DO
SO
6 w
0 sg
1099 3035 mt 7654 3035 L
1099  256 mt 7654  256 L
1099 3035 mt 1099  256 L
7654 3035 mt 7654  256 L
1099 3035 mt 7654 3035 L
1099 3035 mt 1099  256 L
1099 3035 mt 1099 2969 L
1099  256 mt 1099  321 L
%%IncludeResource: font Helvetica
/Helvetica /ISOLatin1Encoding 120 FMSR

 963 3180 mt 
(-80) s
1918 3035 mt 1918 2969 L
1918  256 mt 1918  321 L
1782 3180 mt 
(-60) s
2737 3035 mt 2737 2969 L
2737  256 mt 2737  321 L
2601 3180 mt 
(-40) s
3557 3035 mt 3557 2969 L
3557  256 mt 3557  321 L
3421 3180 mt 
(-20) s
4376 3035 mt 4376 2969 L
4376  256 mt 4376  321 L
4343 3180 mt 
(0) s
5195 3035 mt 5195 2969 L
5195  256 mt 5195  321 L
5129 3180 mt 
(20) s
6015 3035 mt 6015 2969 L
6015  256 mt 6015  321 L
5949 3180 mt 
(40) s
6834 3035 mt 6834 2969 L
6834  256 mt 6834  321 L
6768 3180 mt 
(60) s
7654 3035 mt 7654 2969 L
7654  256 mt 7654  321 L
7588 3180 mt 
(80) s
1099 3035 mt 1164 3035 L
7654 3035 mt 7588 3035 L
 794 3079 mt 
(-500) s
1099 2757 mt 1164 2757 L
7654 2757 mt 7588 2757 L
 794 2801 mt 
(-400) s
1099 2479 mt 1164 2479 L
7654 2479 mt 7588 2479 L
 794 2523 mt 
(-300) s
1099 2201 mt 1164 2201 L
7654 2201 mt 7588 2201 L
 794 2245 mt 
(-200) s
1099 1923 mt 1164 1923 L
7654 1923 mt 7588 1923 L
 794 1967 mt 
(-100) s
1099 1645 mt 1164 1645 L
7654 1645 mt 7588 1645 L
 998 1689 mt 
(0) s
1099 1367 mt 1164 1367 L
7654 1367 mt 7588 1367 L
 864 1411 mt 
(100) s
1099 1089 mt 1164 1089 L
7654 1089 mt 7588 1089 L
 864 1133 mt 
(200) s
1099  811 mt 1164  811 L
7654  811 mt 7588  811 L
 864  855 mt 
(300) s
1099  533 mt 1164  533 L
7654  533 mt 7588  533 L
 864  577 mt 
(400) s
1099  256 mt 1164  256 L
7654  256 mt 7588  256 L
 864  300 mt 
(500) s
1099 3035 mt 7654 3035 L
1099  256 mt 7654  256 L
1099 3035 mt 1099  256 L
7654 3035 mt 7654  256 L
gs 1099 256 6556 2780 rc
/c8 { 0.000000 0.000000 1.000000 sr} bdef
c8
20 6 20 7 20 6 20 7 20 7 20 7 20 9 21 9 
20 9 19 12 20 16 21 19 20 20 20 20 19 18 21 18 
20 20 20 19 20 19 20 17 20 16 20 17 20 19 20 18 
20 18 20 16 20 17 20 15 20 12 20 7 20 5 20 6 
20 10 20 14 20 16 20 16 20 18 20 20 20 22 20 22 
20 19 20 16 20 16 20 15 20 15 20 14 20 14 20 16 
20 17 20 17 20 16 20 15 20 15 20 14 20 13 20 13 
20 12 20 13 20 15 20 16 20 15 20 15 20 13 20 14 
20 12 20 11 20 9 20 6 20 5 20 4 20 4 20 3 
20 3 20 4 20 3 20 3 20 1 20 0 20 0 20 0 
20 1 20 2 20 1 20 1 20 0 20 -1 20 -1 20 0 
20 0 20 1 20 0 20 0 20 0 20 2 20 1 20 2 
20 3 20 3 20 4 20 4 20 2 20 1 20 0 20 2 
20 4 20 6 20 5 20 2 20 1 20 0 20 2 20 3 
20 4 20 4 20 3 20 2 20 3 20 3 20 2 20 1 
20 1 20 0 20 2 20 5 20 7 20 6 20 5 20 2 
20 1 20 -1 20 -2 20 0 20 2 20 6 20 8 20 7 
20 2 20 -2 20 -3 20 0 20 4 20 6 20 5 20 4 
20 1 20 1 20 1 20 1 20 3 20 3 20 3 20 2 
20 1 20 1 20 3 20 3 20 3 20 3 20 2 20 3 
20 5 20 4 20 4 20 3 20 5 20 6 20 7 20 6 
20 4 20 4 20 5 20 6 20 7 20 7 20 7 20 7 
20 7 20 7 20 7 20 6 20 7 20 8 20 9 20 8 
20 6 20 6 20 8 20 10 20 12 20 14 20 14 20 15 
20 15 20 15 20 15 20 15 20 15 20 13 20 13 20 14 
20 16 20 17 20 19 20 18 20 17 20 17 20 17 20 18 
20 17 20 19 20 19 20 21 20 22 20 21 20 21 20 23 
20 23 20 23 20 22 20 20 20 17 20 15 20 13 20 11 
20 12 20 15 20 21 20 24 20 25 20 23 20 20 20 16 
20 13 20 10 20 11 20 15 20 18 20 20 20 20 20 19 
20 18 20 19 20 20 20 18 21 14 20 8 20 5 20 5 
20 7 20 7 20 7 20 6 20 6 20 6 20 5 1825 423 256 MP stroke
DA
20 6 20 7 20 6 20 7 20 7 20 7 20 9 21 9 
20 9 19 12 20 16 21 19 20 20 20 20 19 18 21 18 
20 20 20 19 20 19 20 17 20 16 20 17 20 19 20 18 
20 18 20 16 20 17 20 15 20 12 20 7 20 5 20 6 
20 10 20 14 20 16 20 16 20 18 20 20 20 22 20 22 
20 19 20 16 20 16 20 15 20 15 20 14 20 14 20 16 
20 17 20 17 20 16 20 15 20 15 20 14 20 13 20 13 
20 12 20 13 20 15 20 16 20 15 20 15 20 13 20 14 
20 12 20 11 20 9 20 6 20 5 20 4 20 4 20 3 
20 3 20 4 20 3 20 3 20 1 20 0 20 0 20 0 
20 1 20 2 20 1 20 1 20 0 20 -1 20 -1 20 0 
20 0 20 1 20 0 20 0 20 0 20 2 20 1 20 2 
20 3 20 3 20 4 20 4 20 2 20 1 20 0 20 2 
20 4 20 6 20 5 20 2 20 1 20 0 20 2 20 3 
20 4 20 4 20 3 20 2 20 3 20 3 20 2 20 1 
20 1 20 0 20 2 20 5 20 7 20 6 20 5 20 2 
20 1 20 -1 20 -2 20 0 20 2 20 6 20 8 20 7 
20 2 20 -2 20 -3 20 0 20 4 20 6 20 5 20 4 
20 1 20 1 20 1 20 1 20 3 20 3 20 3 20 2 
20 1 20 1 20 3 20 3 20 3 20 3 20 2 20 3 
20 5 20 4 20 4 20 3 20 5 20 6 20 7 20 6 
20 4 20 4 20 5 20 6 20 7 20 7 20 7 20 7 
20 7 20 7 20 7 20 6 20 7 20 8 20 9 20 8 
20 6 20 6 20 8 20 10 20 12 20 14 20 14 20 15 
20 15 20 15 20 15 20 15 20 15 20 13 20 13 20 14 
20 16 20 17 20 19 20 18 20 17 20 17 20 17 20 18 
20 17 20 19 20 19 20 21 20 22 20 21 20 21 20 23 
20 23 20 23 20 22 20 20 20 17 20 15 20 13 20 11 
20 12 20 15 20 21 20 24 20 25 20 23 20 20 20 16 
20 13 20 10 20 11 20 15 20 18 20 20 20 20 20 19 
20 18 20 19 20 20 20 18 21 14 20 8 20 5 20 5 
20 7 20 7 20 7 20 6 20 6 20 6 20 5 1825 423 256 MP stroke
/c9 { 1.000000 0.000000 0.000000 sr} bdef
c9
20 2 20 3 20 3 20 3 20 3 20 4 20 4 21 3 
20 3 19 4 20 5 21 6 20 6 20 6 19 5 21 6 
20 6 20 7 20 8 20 9 20 12 20 13 20 12 20 12 
20 11 20 11 20 13 20 15 20 14 20 13 20 12 20 11 
20 12 20 12 20 12 20 13 20 13 20 13 20 12 20 12 
20 11 20 10 20 10 20 10 20 9 20 11 20 10 20 11 
20 10 20 10 20 12 20 13 20 13 20 13 20 12 20 11 
20 13 20 12 20 12 20 11 20 10 20 11 20 12 20 10 
20 9 20 9 20 10 20 12 20 13 20 11 20 9 20 8 
20 9 20 10 20 11 20 10 20 10 20 9 20 9 20 10 
20 11 20 11 20 12 20 12 20 11 20 12 20 11 20 11 
20 10 20 8 20 9 20 8 20 9 20 9 20 8 20 8 
20 10 20 11 20 10 20 10 20 8 20 8 20 8 20 7 
20 7 20 6 20 6 20 8 20 10 20 10 20 8 20 8 
20 8 20 7 20 8 20 6 20 5 20 7 20 9 20 12 
20 12 20 13 20 13 20 13 20 13 20 9 20 7 20 5 
20 4 20 5 20 6 20 7 20 7 20 8 20 8 20 9 
20 10 20 12 20 13 20 12 20 10 20 8 20 6 20 7 
20 7 20 8 20 8 20 6 20 5 20 5 20 5 20 4 
20 6 20 6 20 8 20 8 20 6 20 7 20 7 20 10 
20 10 20 11 20 9 20 8 20 9 20 9 20 10 20 10 
20 8 20 9 20 8 20 9 20 9 20 9 20 8 20 7 
20 7 20 7 20 10 20 10 20 12 20 11 20 13 20 13 
20 15 20 14 20 14 20 13 20 12 20 11 20 10 20 10 
20 10 20 12 20 12 20 14 20 12 20 12 20 12 20 13 
20 14 20 14 20 12 20 12 20 12 20 12 20 12 20 12 
20 13 20 12 20 14 20 13 20 13 20 12 20 13 20 13 
20 12 20 12 20 10 20 11 20 12 20 13 20 13 20 13 
20 14 20 14 20 14 20 14 20 12 20 13 20 13 20 13 
20 12 20 11 20 9 20 8 20 7 20 6 20 6 20 6 
20 7 20 6 20 6 20 5 21 4 20 4 20 5 20 4 
20 2 20 2 20 3 20 2 20 2 20 1 20 0 1825 419 256 MP stroke
/c10 { 0.000000 1.000000 0.000000 sr} bdef
c10
20 10 20 9 20 9 20 10 20 9 20 9 20 10 21 9 
20 10 19 9 20 9 21 10 20 9 20 9 19 10 21 9 
20 9 20 10 20 9 20 9 20 10 20 9 20 10 20 9 
20 9 20 10 20 9 20 9 20 10 20 9 20 9 20 10 
20 9 20 10 20 9 20 9 20 10 20 9 20 9 20 10 
20 9 20 9 20 10 20 9 20 10 20 9 20 9 20 10 
20 9 20 9 20 10 20 9 20 9 20 10 20 9 20 10 
20 9 20 9 20 10 20 9 20 9 20 10 20 9 20 9 
20 10 20 9 20 10 20 9 20 9 20 10 20 9 20 9 
20 10 20 9 20 9 20 10 20 9 20 10 20 9 20 9 
20 10 20 9 20 9 20 10 20 9 20 9 20 10 20 9 
20 10 20 9 20 9 20 10 20 9 20 9 20 10 20 9 
20 9 20 10 20 9 20 10 20 9 20 9 20 10 20 9 
20 9 20 10 20 9 20 9 20 10 20 9 20 10 20 9 
20 9 20 10 20 9 20 9 20 10 20 9 20 9 20 10 
20 9 20 10 20 9 20 9 20 10 20 9 20 9 20 10 
20 9 20 9 20 10 20 9 20 9 20 10 20 9 20 10 
20 9 20 9 20 10 20 9 20 9 20 10 20 9 20 9 
20 10 20 9 20 10 20 9 20 9 20 10 20 9 20 9 
20 10 20 9 20 9 20 10 20 9 20 10 20 9 20 9 
20 10 20 9 20 9 20 10 20 9 20 9 20 10 20 9 
20 10 20 9 20 9 20 10 20 9 20 9 20 10 20 9 
20 9 20 10 20 9 20 10 20 9 20 9 20 10 20 9 
20 9 20 10 20 9 20 9 20 10 20 9 20 10 20 9 
20 9 20 10 20 9 20 9 20 10 20 9 20 9 20 10 
20 9 20 10 20 9 20 9 20 10 20 9 20 9 20 10 
20 9 20 9 20 10 20 9 20 10 20 9 20 9 20 10 
20 9 20 9 20 10 20 9 20 9 20 10 20 9 20 10 
20 9 20 9 20 10 20 9 20 9 20 10 20 9 20 9 
20 10 20 9 20 10 20 9 20 9 20 10 20 9 20 9 
20 10 20 9 20 9 20 10 21 9 20 9 20 10 20 9 
20 10 20 9 20 9 20 10 20 9 20 9 20 10 1825 451 256 MP stroke
gr

c10
DA
0 sg
%%IncludeResource: font Symbol
/Symbol /ISOLatin1Encoding 120 FMSR

3654 3323 mt 
(D) s
3727 3323 mt 
(y) s
%%IncludeResource: font Helvetica
/Helvetica /ISOLatin1Encoding 120 FMSR

3809 3323 mt 
( - Units of ion gyro-radii) s
 712 2162 mt  -90 rotate
(Total temperature T) s
90 rotate
3307  161 mt 
(Total temperature through O and X point) s
SO

end %%Color Dict

eplot
%%EndObject

epage
end

showpage

%%Trailer
%%EOF
