%!PS-Adobe-3.0 EPSF-3.0
%%Creator: MATLAB, The Mathworks, Inc. Version 7.10.0.499 (R2010a). Operating System: Linux 2.6.38-11-generic #48-Ubuntu SMP Fri Jul 29 19:05:14 UTC 2011 i686.
%%Title: /data/phrhaz_home/runs/matlab_plots/impurities_bm_ftu/waltz-gr-es-sa.eps
%%CreationDate: 09/05/2011  13:40:05
%%DocumentNeededFonts: Helvetica
%%DocumentProcessColors: Cyan Magenta Yellow Black
%%LanguageLevel: 2
%%Pages: 1
%%BoundingBox:   -56   108   652   733
%%EndComments

%%BeginProlog
% MathWorks dictionary
/MathWorks 160 dict begin
% definition operators
/bdef {bind def} bind def
/ldef {load def} bind def
/xdef {exch def} bdef
/xstore {exch store} bdef
% operator abbreviations
/c  /clip ldef
/cc /concat ldef
/cp /closepath ldef
/gr /grestore ldef
/gs /gsave ldef
/mt /moveto ldef
/np /newpath ldef
/cm /currentmatrix ldef
/sm /setmatrix ldef
/rm /rmoveto ldef
/rl /rlineto ldef
/s {show newpath} bdef
/sc {setcmykcolor} bdef
/sr /setrgbcolor ldef
/sg /setgray ldef
/w /setlinewidth ldef
/j /setlinejoin ldef
/cap /setlinecap ldef
/rc {rectclip} bdef
/rf {rectfill} bdef
% page state control
/pgsv () def
/bpage {/pgsv save def} bdef
/epage {pgsv restore} bdef
/bplot /gsave ldef
/eplot {stroke grestore} bdef
% orientation switch
/portraitMode 0 def /landscapeMode 1 def /rotateMode 2 def
% coordinate system mappings
/dpi2point 0 def
% font control
/FontSize 0 def
/FMS {/FontSize xstore findfont [FontSize 0 0 FontSize neg 0 0]
  makefont setfont} bdef
/reencode {exch dup where {pop load} {pop StandardEncoding} ifelse
  exch dup 3 1 roll findfont dup length dict begin
  { 1 index /FID ne {def}{pop pop} ifelse } forall
  /Encoding exch def currentdict end definefont pop} bdef
/isroman {findfont /CharStrings get /Agrave known} bdef
/FMSR {3 1 roll 1 index dup isroman {reencode} {pop pop} ifelse
  exch FMS} bdef
/csm {1 dpi2point div -1 dpi2point div scale neg translate
 dup landscapeMode eq {pop -90 rotate}
  {rotateMode eq {90 rotate} if} ifelse} bdef
% line types: solid, dotted, dashed, dotdash
/SO { [] 0 setdash } bdef
/DO { [.5 dpi2point mul 4 dpi2point mul] 0 setdash } bdef
/DA { [6 dpi2point mul] 0 setdash } bdef
/DD { [.5 dpi2point mul 4 dpi2point mul 6 dpi2point mul 4
  dpi2point mul] 0 setdash } bdef
% macros for lines and objects
/L {lineto stroke} bdef
/MP {3 1 roll moveto 1 sub {rlineto} repeat} bdef
/AP {{rlineto} repeat} bdef
/PDlw -1 def
/W {/PDlw currentlinewidth def setlinewidth} def
/PP {closepath eofill} bdef
/DP {closepath stroke} bdef
/MR {4 -2 roll moveto dup  0 exch rlineto exch 0 rlineto
  neg 0 exch rlineto closepath} bdef
/FR {MR stroke} bdef
/PR {MR fill} bdef
/L1i {{currentfile picstr readhexstring pop} image} bdef
/tMatrix matrix def
/MakeOval {newpath tMatrix currentmatrix pop translate scale
0 0 1 0 360 arc tMatrix setmatrix} bdef
/FO {MakeOval stroke} bdef
/PO {MakeOval fill} bdef
/PD {currentlinewidth 2 div 0 360 arc fill
   PDlw -1 eq not {PDlw w /PDlw -1 def} if} def
/FA {newpath tMatrix currentmatrix pop translate scale
  0 0 1 5 -2 roll arc tMatrix setmatrix stroke} bdef
/PA {newpath tMatrix currentmatrix pop	translate 0 0 moveto scale
  0 0 1 5 -2 roll arc closepath tMatrix setmatrix fill} bdef
/FAn {newpath tMatrix currentmatrix pop translate scale
  0 0 1 5 -2 roll arcn tMatrix setmatrix stroke} bdef
/PAn {newpath tMatrix currentmatrix pop translate 0 0 moveto scale
  0 0 1 5 -2 roll arcn closepath tMatrix setmatrix fill} bdef
/vradius 0 def /hradius 0 def /lry 0 def
/lrx 0 def /uly 0 def /ulx 0 def /rad 0 def
/MRR {/vradius xdef /hradius xdef /lry xdef /lrx xdef /uly xdef
  /ulx xdef newpath tMatrix currentmatrix pop ulx hradius add uly
  vradius add translate hradius vradius scale 0 0 1 180 270 arc 
  tMatrix setmatrix lrx hradius sub uly vradius add translate
  hradius vradius scale 0 0 1 270 360 arc tMatrix setmatrix
  lrx hradius sub lry vradius sub translate hradius vradius scale
  0 0 1 0 90 arc tMatrix setmatrix ulx hradius add lry vradius sub
  translate hradius vradius scale 0 0 1 90 180 arc tMatrix setmatrix
  closepath} bdef
/FRR {MRR stroke } bdef
/PRR {MRR fill } bdef
/MlrRR {/lry xdef /lrx xdef /uly xdef /ulx xdef /rad lry uly sub 2 div def
  newpath tMatrix currentmatrix pop ulx rad add uly rad add translate
  rad rad scale 0 0 1 90 270 arc tMatrix setmatrix lrx rad sub lry rad
  sub translate rad rad scale 0 0 1 270 90 arc tMatrix setmatrix
  closepath} bdef
/FlrRR {MlrRR stroke } bdef
/PlrRR {MlrRR fill } bdef
/MtbRR {/lry xdef /lrx xdef /uly xdef /ulx xdef /rad lrx ulx sub 2 div def
  newpath tMatrix currentmatrix pop ulx rad add uly rad add translate
  rad rad scale 0 0 1 180 360 arc tMatrix setmatrix lrx rad sub lry rad
  sub translate rad rad scale 0 0 1 0 180 arc tMatrix setmatrix
  closepath} bdef
/FtbRR {MtbRR stroke } bdef
/PtbRR {MtbRR fill } bdef
/stri 6 array def /dtri 6 array def
/smat 6 array def /dmat 6 array def
/tmat1 6 array def /tmat2 6 array def /dif 3 array def
/asub {/ind2 exch def /ind1 exch def dup dup
  ind1 get exch ind2 get sub exch } bdef
/tri_to_matrix {
  2 0 asub 3 1 asub 4 0 asub 5 1 asub
  dup 0 get exch 1 get 7 -1 roll astore } bdef
/compute_transform {
  dmat dtri tri_to_matrix tmat1 invertmatrix 
  smat stri tri_to_matrix tmat2 concatmatrix } bdef
/ds {stri astore pop} bdef
/dt {dtri astore pop} bdef
/db {2 copy /cols xdef /rows xdef mul dup 3 mul string
  currentfile 
  3 index 0 eq {/ASCIIHexDecode filter}
  {/ASCII85Decode filter 3 index 2 eq {/RunLengthDecode filter} if }
  ifelse exch readstring pop
  dup 0 3 index getinterval /rbmap xdef
  dup 2 index dup getinterval /gbmap xdef
  1 index dup 2 mul exch getinterval /bbmap xdef pop pop}bdef
/it {gs np dtri aload pop moveto lineto lineto cp c
  cols rows 8 compute_transform 
  rbmap gbmap bbmap true 3 colorimage gr}bdef
/il {newpath moveto lineto stroke}bdef
currentdict end def
%%EndProlog

%%BeginSetup
MathWorks begin

0 cap

end
%%EndSetup

%%Page: 1 1
%%BeginPageSetup
%%PageBoundingBox:   -56   108   652   733
MathWorks begin
bpage
%%EndPageSetup

%%BeginObject: obj1
bplot

/dpi2point 12 def
portraitMode -0672 8796 csm

    0     0  8505  7500 rc
86 dict begin %Colortable dictionary
/c0 { 0.000000 0.000000 0.000000 sr} bdef
/c1 { 1.000000 1.000000 1.000000 sr} bdef
/c2 { 0.900000 0.000000 0.000000 sr} bdef
/c3 { 0.000000 0.820000 0.000000 sr} bdef
/c4 { 0.000000 0.000000 0.800000 sr} bdef
/c5 { 0.910000 0.820000 0.320000 sr} bdef
/c6 { 1.000000 0.260000 0.820000 sr} bdef
/c7 { 0.000000 0.820000 0.820000 sr} bdef
c0
1 j
1 sg
   0    0 8506 7501 rf
6 w
0 6113 6591 0 0 -6113 1106 6675 4 MP
PP
-6591 0 0 6113 6591 0 0 -6113 1106 6675 5 MP stroke
4 w
DO
SO
6 w
0 sg
1106 6675 mt 7697 6675 L
1106  562 mt 7697  562 L
1106 6675 mt 1106  562 L
7697 6675 mt 7697  562 L
1106 6675 mt 7697 6675 L
1106 6675 mt 1106  562 L
1106 6675 mt 1106 6609 L
1106  563 mt 1106  628 L
%%IncludeResource: font Helvetica
/Helvetica /ISOLatin1Encoding 240 FMSR

1040 6932 mt 
(0) s
3303 6675 mt 3303 6609 L
3303  563 mt 3303  628 L
3137 6932 mt 
(0.5) s
5500 6675 mt 5500 6609 L
5500  563 mt 5500  628 L
5434 6932 mt 
(1) s
7697 6675 mt 7697 6609 L
7697  563 mt 7697  628 L
7531 6932 mt 
(1.5) s
1106 6675 mt 1171 6675 L
7697 6675 mt 7631 6675 L
 938 6764 mt 
(0) s
1106 5656 mt 1171 5656 L
7697 5656 mt 7631 5656 L
 738 5745 mt 
(0.1) s
1106 4637 mt 1171 4637 L
7697 4637 mt 7631 4637 L
 738 4726 mt 
(0.2) s
1106 3618 mt 1171 3618 L
7697 3618 mt 7631 3618 L
 738 3707 mt 
(0.3) s
1106 2600 mt 1171 2600 L
7697 2600 mt 7631 2600 L
 738 2689 mt 
(0.4) s
1106 1581 mt 1171 1581 L
7697 1581 mt 7631 1581 L
 738 1670 mt 
(0.5) s
1106 6675 mt 7697 6675 L
1106  562 mt 7697  562 L
1106 6675 mt 1106  562 L
7697 6675 mt 7697  562 L
gs 1106 563 6592 6113 rc
36 w
gr

36 w
0 j
90 119 -90 119 -90 -119 90 -119 1545 5540 5 MP
/c8 { 0.000000 0.000000 1.000000 sr} bdef
c8
DP
90 119 -90 119 -90 -119 90 -119 2424 2128 5 MP
DP
90 119 -90 119 -90 -119 90 -119 3303 1644 5 MP
DP
90 119 -90 119 -90 -119 90 -119 4181 2729 5 MP
DP
90 119 -90 119 -90 -119 90 -119 5060 3521 5 MP
DP
90 119 -90 119 -90 -119 90 -119 5939 2824 5 MP
DP
90 119 -90 119 -90 -119 90 -119 6818 2104 5 MP
DP
90 119 -90 119 -90 -119 90 -119 7697 1337 5 MP
DP
gs 1106 563 6592 6113 rc
gr

0 sg
%%IncludeResource: font Helvetica
/Helvetica /ISOLatin1Encoding 360 FMSR

3933 7179 mt 
(k) s
%%IncludeResource: font Symbol
/Symbol /ISOLatin1Encoding 288 FMSR

4113 7359 mt 
(q) s
%%IncludeResource: font Helvetica
/Helvetica /ISOLatin1Encoding 360 FMSR

4263 7179 mt 
( ) s
%%IncludeResource: font Symbol
/Symbol /ISOLatin1Encoding 360 FMSR

4363 7179 mt 
(r) s
%%IncludeResource: font Helvetica
/Helvetica /ISOLatin1Encoding 288 FMSR

4560 7359 mt 
(D) s
%%IncludeResource: font Helvetica
/Helvetica /ISOLatin1Encoding 360 FMSR

4767 7179 mt 
( ) s
%%IncludeResource: font Symbol
/Symbol /ISOLatin1Encoding 360 FMSR

 439 4608 mt  -90 rotate
(g) s
90 rotate
%%IncludeResource: font Helvetica
/Helvetica /ISOLatin1Encoding 360 FMSR

 439 4461 mt  -90 rotate
( R) s
90 rotate
%%IncludeResource: font Helvetica
/Helvetica /ISOLatin1Encoding 288 FMSR

 619 4101 mt  -90 rotate
(ref) s
90 rotate
%%IncludeResource: font Helvetica
/Helvetica /ISOLatin1Encoding 360 FMSR

 439 3765 mt  -90 rotate
( / v) s
90 rotate
%%IncludeResource: font Helvetica
/Helvetica /ISOLatin1Encoding 288 FMSR

 619 3285 mt  -90 rotate
(th,ref) s
90 rotate
gs 1106 563 6592 6113 rc
gr

90 119 -90 119 -90 -119 90 -119 1545 5760 5 MP
/c9 { 1.000000 0.000000 0.000000 sr} bdef
c9
DP
90 119 -90 119 -90 -119 90 -119 2424 2555 5 MP
DP
90 119 -90 119 -90 -119 90 -119 3303 2055 5 MP
DP
90 119 -90 119 -90 -119 90 -119 4181 2977 5 MP
DP
90 119 -90 119 -90 -119 90 -119 5060 4255 5 MP
DP
90 119 -90 119 -90 -119 90 -119 5939 3793 5 MP
DP
90 119 -90 119 -90 -119 90 -119 6818 3294 5 MP
DP
90 119 -90 119 -90 -119 90 -119 7697 2766 5 MP
DP
gs 1106 563 6592 6113 rc
gr

90 119 -90 119 -90 -119 90 -119 1545 5827 5 MP
/c10 { 0.000000 0.498039 0.000000 sr} bdef
c10
DP
90 119 -90 119 -90 -119 90 -119 2424 2936 5 MP
DP
90 119 -90 119 -90 -119 90 -119 3303 2332 5 MP
DP
90 119 -90 119 -90 -119 90 -119 4181 3015 5 MP
DP
90 119 -90 119 -90 -119 90 -119 5060 4265 5 MP
DP
90 119 -90 119 -90 -119 90 -119 5939 4457 5 MP
DP
90 119 -90 119 -90 -119 90 -119 6818 4167 5 MP
DP
90 119 -90 119 -90 -119 90 -119 7697 3858 5 MP
DP
gs 1106 563 6592 6113 rc
gr

0 sg
2217  362 mt 
(Waltz test case, ES, Impurities bm) s
gs 1106 563 6592 6113 rc
c8
879 -844 879 -746 879 -665 879 527 878 1198 879 -419 879 -3430 1545 5408 8 MP stroke
c9
879 -553 879 -493 879 -427 879 902 878 1034 879 -427 879 -3154 1545 5632 8 MP stroke
c10
879 -276 879 -221 879 -225 879 1209 878 765 879 -517 879 -2893 1545 5832 8 MP stroke
gr

c10
0 sg
%%IncludeResource: font Helvetica
/Helvetica /ISOLatin1Encoding 120 FMSR

1089 6718 mt 
( ) s
7681  605 mt 
( ) s
6 w
1 sg
0 2689 2401 0 0 -2689 2188 6562 4 MP
PP
-2401 0 0 2689 2401 0 0 -2689 2188 6562 5 MP stroke
4 w
DO
SO
6 w
0 sg
2188 6562 mt 4589 6562 L
2188 3873 mt 4589 3873 L
2188 6562 mt 2188 3873 L
4589 6562 mt 4589 3873 L
2188 6562 mt 4589 6562 L
2188 6562 mt 2188 3873 L
2188 6562 mt 4589 6562 L
2188 3873 mt 4589 3873 L
2188 6562 mt 2188 3873 L
4589 6562 mt 4589 3873 L
%%IncludeResource: font Helvetica
/Helvetica /ISOLatin1Encoding 240 FMSR

2665 4164 mt 
(GKW, no imp.) s
gs 2188 3873 2402 2690 rc
36 w
gr

36 w
gs 2226 3861 437 437 rc
90 119 -90 119 -90 -119 90 -119 2444 4198 5 MP
c8
DP
gr

c8
gs 2188 3873 2402 2690 rc
gr

0 sg
2665 4488 mt 
(GKW, n) s
%%IncludeResource: font Helvetica
/Helvetica /ISOLatin1Encoding 192 FMSR

3486 4608 mt 
(Li) s
%%IncludeResource: font Helvetica
/Helvetica /ISOLatin1Encoding 240 FMSR

3635 4488 mt 
(/n) s
%%IncludeResource: font Helvetica
/Helvetica /ISOLatin1Encoding 192 FMSR

3835 4608 mt 
(e) s
%%IncludeResource: font Helvetica
/Helvetica /ISOLatin1Encoding 240 FMSR

3941 4488 mt 
(=0.05) s
gs 2188 3873 2402 2690 rc
gs 2226 4284 437 437 rc
90 119 -90 119 -90 -119 90 -119 2444 4621 5 MP
c9
DP
gr

c9
gr

c9
0 sg
2665 4965 mt 
(GKW, n) s
%%IncludeResource: font Helvetica
/Helvetica /ISOLatin1Encoding 192 FMSR

3486 5085 mt 
(Li) s
%%IncludeResource: font Helvetica
/Helvetica /ISOLatin1Encoding 240 FMSR

3635 4965 mt 
(/n) s
%%IncludeResource: font Helvetica
/Helvetica /ISOLatin1Encoding 192 FMSR

3835 5085 mt 
(e) s
%%IncludeResource: font Helvetica
/Helvetica /ISOLatin1Encoding 240 FMSR

3941 4965 mt 
(=0.1) s
gs 2188 3873 2402 2690 rc
gs 2226 4761 437 437 rc
90 119 -90 119 -90 -119 90 -119 2444 5098 5 MP
c10
DP
gr

c10
gr

c10
0 sg
2665 5488 mt 
(GS2, no imp.) s
gs 2188 3873 2402 2690 rc
c8
367 0 2261 5402 2 MP stroke
gr

c8
0 sg
2665 5812 mt 
(GS2, n) s
%%IncludeResource: font Helvetica
/Helvetica /ISOLatin1Encoding 192 FMSR

3412 5932 mt 
(Li) s
%%IncludeResource: font Helvetica
/Helvetica /ISOLatin1Encoding 240 FMSR

3561 5812 mt 
(/n) s
%%IncludeResource: font Helvetica
/Helvetica /ISOLatin1Encoding 192 FMSR

3761 5932 mt 
(e) s
%%IncludeResource: font Helvetica
/Helvetica /ISOLatin1Encoding 240 FMSR

3867 5812 mt 
(=0.05) s
gs 2188 3873 2402 2690 rc
c9
367 0 2261 5826 2 MP stroke
gr

c9
0 sg
2665 6289 mt 
(GS2, n) s
%%IncludeResource: font Helvetica
/Helvetica /ISOLatin1Encoding 192 FMSR

3412 6409 mt 
(Li) s
%%IncludeResource: font Helvetica
/Helvetica /ISOLatin1Encoding 240 FMSR

3561 6289 mt 
(/n) s
%%IncludeResource: font Helvetica
/Helvetica /ISOLatin1Encoding 192 FMSR

3761 6409 mt 
(e) s
%%IncludeResource: font Helvetica
/Helvetica /ISOLatin1Encoding 240 FMSR

3867 6289 mt 
(=0.1) s
gs 2188 3873 2402 2690 rc
c10
367 0 2261 6302 2 MP stroke
6 w
gr

6 w
c10

end %%Color Dict

eplot
%%EndObject

epage
end

showpage

%%Trailer
%%EOF
