%!PS-Adobe-3.0 EPSF-3.0
%%Creator: MATLAB, The Mathworks, Inc. Version 7.10.0.499 (R2010a). Operating System: Linux 2.6.38-11-generic #48-Ubuntu SMP Fri Jul 29 19:05:14 UTC 2011 i686.
%%Title: /data/phrhaz_home/runs/matlab_plots/impurities_bm_ftu/waltz-gr-es-sa-Zimp-nocoll.eps
%%CreationDate: 09/06/2011  14:53:26
%%DocumentNeededFonts: Helvetica
%%DocumentProcessColors: Cyan Magenta Yellow Black
%%LanguageLevel: 2
%%Pages: 1
%%BoundingBox:   -56   108   652   733
%%EndComments

%%BeginProlog
% MathWorks dictionary
/MathWorks 160 dict begin
% definition operators
/bdef {bind def} bind def
/ldef {load def} bind def
/xdef {exch def} bdef
/xstore {exch store} bdef
% operator abbreviations
/c  /clip ldef
/cc /concat ldef
/cp /closepath ldef
/gr /grestore ldef
/gs /gsave ldef
/mt /moveto ldef
/np /newpath ldef
/cm /currentmatrix ldef
/sm /setmatrix ldef
/rm /rmoveto ldef
/rl /rlineto ldef
/s {show newpath} bdef
/sc {setcmykcolor} bdef
/sr /setrgbcolor ldef
/sg /setgray ldef
/w /setlinewidth ldef
/j /setlinejoin ldef
/cap /setlinecap ldef
/rc {rectclip} bdef
/rf {rectfill} bdef
% page state control
/pgsv () def
/bpage {/pgsv save def} bdef
/epage {pgsv restore} bdef
/bplot /gsave ldef
/eplot {stroke grestore} bdef
% orientation switch
/portraitMode 0 def /landscapeMode 1 def /rotateMode 2 def
% coordinate system mappings
/dpi2point 0 def
% font control
/FontSize 0 def
/FMS {/FontSize xstore findfont [FontSize 0 0 FontSize neg 0 0]
  makefont setfont} bdef
/reencode {exch dup where {pop load} {pop StandardEncoding} ifelse
  exch dup 3 1 roll findfont dup length dict begin
  { 1 index /FID ne {def}{pop pop} ifelse } forall
  /Encoding exch def currentdict end definefont pop} bdef
/isroman {findfont /CharStrings get /Agrave known} bdef
/FMSR {3 1 roll 1 index dup isroman {reencode} {pop pop} ifelse
  exch FMS} bdef
/csm {1 dpi2point div -1 dpi2point div scale neg translate
 dup landscapeMode eq {pop -90 rotate}
  {rotateMode eq {90 rotate} if} ifelse} bdef
% line types: solid, dotted, dashed, dotdash
/SO { [] 0 setdash } bdef
/DO { [.5 dpi2point mul 4 dpi2point mul] 0 setdash } bdef
/DA { [6 dpi2point mul] 0 setdash } bdef
/DD { [.5 dpi2point mul 4 dpi2point mul 6 dpi2point mul 4
  dpi2point mul] 0 setdash } bdef
% macros for lines and objects
/L {lineto stroke} bdef
/MP {3 1 roll moveto 1 sub {rlineto} repeat} bdef
/AP {{rlineto} repeat} bdef
/PDlw -1 def
/W {/PDlw currentlinewidth def setlinewidth} def
/PP {closepath eofill} bdef
/DP {closepath stroke} bdef
/MR {4 -2 roll moveto dup  0 exch rlineto exch 0 rlineto
  neg 0 exch rlineto closepath} bdef
/FR {MR stroke} bdef
/PR {MR fill} bdef
/L1i {{currentfile picstr readhexstring pop} image} bdef
/tMatrix matrix def
/MakeOval {newpath tMatrix currentmatrix pop translate scale
0 0 1 0 360 arc tMatrix setmatrix} bdef
/FO {MakeOval stroke} bdef
/PO {MakeOval fill} bdef
/PD {currentlinewidth 2 div 0 360 arc fill
   PDlw -1 eq not {PDlw w /PDlw -1 def} if} def
/FA {newpath tMatrix currentmatrix pop translate scale
  0 0 1 5 -2 roll arc tMatrix setmatrix stroke} bdef
/PA {newpath tMatrix currentmatrix pop	translate 0 0 moveto scale
  0 0 1 5 -2 roll arc closepath tMatrix setmatrix fill} bdef
/FAn {newpath tMatrix currentmatrix pop translate scale
  0 0 1 5 -2 roll arcn tMatrix setmatrix stroke} bdef
/PAn {newpath tMatrix currentmatrix pop translate 0 0 moveto scale
  0 0 1 5 -2 roll arcn closepath tMatrix setmatrix fill} bdef
/vradius 0 def /hradius 0 def /lry 0 def
/lrx 0 def /uly 0 def /ulx 0 def /rad 0 def
/MRR {/vradius xdef /hradius xdef /lry xdef /lrx xdef /uly xdef
  /ulx xdef newpath tMatrix currentmatrix pop ulx hradius add uly
  vradius add translate hradius vradius scale 0 0 1 180 270 arc 
  tMatrix setmatrix lrx hradius sub uly vradius add translate
  hradius vradius scale 0 0 1 270 360 arc tMatrix setmatrix
  lrx hradius sub lry vradius sub translate hradius vradius scale
  0 0 1 0 90 arc tMatrix setmatrix ulx hradius add lry vradius sub
  translate hradius vradius scale 0 0 1 90 180 arc tMatrix setmatrix
  closepath} bdef
/FRR {MRR stroke } bdef
/PRR {MRR fill } bdef
/MlrRR {/lry xdef /lrx xdef /uly xdef /ulx xdef /rad lry uly sub 2 div def
  newpath tMatrix currentmatrix pop ulx rad add uly rad add translate
  rad rad scale 0 0 1 90 270 arc tMatrix setmatrix lrx rad sub lry rad
  sub translate rad rad scale 0 0 1 270 90 arc tMatrix setmatrix
  closepath} bdef
/FlrRR {MlrRR stroke } bdef
/PlrRR {MlrRR fill } bdef
/MtbRR {/lry xdef /lrx xdef /uly xdef /ulx xdef /rad lrx ulx sub 2 div def
  newpath tMatrix currentmatrix pop ulx rad add uly rad add translate
  rad rad scale 0 0 1 180 360 arc tMatrix setmatrix lrx rad sub lry rad
  sub translate rad rad scale 0 0 1 0 180 arc tMatrix setmatrix
  closepath} bdef
/FtbRR {MtbRR stroke } bdef
/PtbRR {MtbRR fill } bdef
/stri 6 array def /dtri 6 array def
/smat 6 array def /dmat 6 array def
/tmat1 6 array def /tmat2 6 array def /dif 3 array def
/asub {/ind2 exch def /ind1 exch def dup dup
  ind1 get exch ind2 get sub exch } bdef
/tri_to_matrix {
  2 0 asub 3 1 asub 4 0 asub 5 1 asub
  dup 0 get exch 1 get 7 -1 roll astore } bdef
/compute_transform {
  dmat dtri tri_to_matrix tmat1 invertmatrix 
  smat stri tri_to_matrix tmat2 concatmatrix } bdef
/ds {stri astore pop} bdef
/dt {dtri astore pop} bdef
/db {2 copy /cols xdef /rows xdef mul dup 3 mul string
  currentfile 
  3 index 0 eq {/ASCIIHexDecode filter}
  {/ASCII85Decode filter 3 index 2 eq {/RunLengthDecode filter} if }
  ifelse exch readstring pop
  dup 0 3 index getinterval /rbmap xdef
  dup 2 index dup getinterval /gbmap xdef
  1 index dup 2 mul exch getinterval /bbmap xdef pop pop}bdef
/it {gs np dtri aload pop moveto lineto lineto cp c
  cols rows 8 compute_transform 
  rbmap gbmap bbmap true 3 colorimage gr}bdef
/il {newpath moveto lineto stroke}bdef
currentdict end def
%%EndProlog

%%BeginSetup
MathWorks begin

0 cap

end
%%EndSetup

%%Page: 1 1
%%BeginPageSetup
%%PageBoundingBox:   -56   108   652   733
MathWorks begin
bpage
%%EndPageSetup

%%BeginObject: obj1
bplot

/dpi2point 12 def
portraitMode -0672 8796 csm

    0     0  8505  7500 rc
85 dict begin %Colortable dictionary
/c0 { 0.000000 0.000000 0.000000 sr} bdef
/c1 { 1.000000 1.000000 1.000000 sr} bdef
/c2 { 0.900000 0.000000 0.000000 sr} bdef
/c3 { 0.000000 0.820000 0.000000 sr} bdef
/c4 { 0.000000 0.000000 0.800000 sr} bdef
/c5 { 0.910000 0.820000 0.320000 sr} bdef
/c6 { 1.000000 0.260000 0.820000 sr} bdef
/c7 { 0.000000 0.820000 0.820000 sr} bdef
c0
1 j
1 sg
   0    0 8506 7501 rf
6 w
0 6112 6530 0 0 -6112 1167 6675 4 MP
PP
-6530 0 0 6112 6530 0 0 -6112 1167 6675 5 MP stroke
4 w
DO
SO
6 w
0 sg
1167 6675 mt 7697 6675 L
1167  563 mt 7697  563 L
1167 6675 mt 1167  563 L
7697 6675 mt 7697  563 L
1167 6675 mt 7697 6675 L
1167 6675 mt 1167  563 L
1167 6675 mt 1167 6609 L
1167  563 mt 1167  628 L
%%IncludeResource: font Helvetica
/Helvetica /ISOLatin1Encoding 240 FMSR

1101 6932 mt 
(0) s
3343 6675 mt 3343 6609 L
3343  563 mt 3343  628 L
3177 6932 mt 
(0.5) s
5520 6675 mt 5520 6609 L
5520  563 mt 5520  628 L
5454 6932 mt 
(1) s
7697 6675 mt 7697 6609 L
7697  563 mt 7697  628 L
7531 6932 mt 
(1.5) s
1167 6675 mt 1232 6675 L
7697 6675 mt 7631 6675 L
 799 6764 mt 
(0.1) s
1167 6063 mt 1232 6063 L
7697 6063 mt 7631 6063 L
 665 6152 mt 
(0.15) s
1167 5452 mt 1232 5452 L
7697 5452 mt 7631 5452 L
 799 5541 mt 
(0.2) s
1167 4841 mt 1232 4841 L
7697 4841 mt 7631 4841 L
 665 4930 mt 
(0.25) s
1167 4230 mt 1232 4230 L
7697 4230 mt 7631 4230 L
 799 4319 mt 
(0.3) s
1167 3619 mt 1232 3619 L
7697 3619 mt 7631 3619 L
 665 3708 mt 
(0.35) s
1167 3007 mt 1232 3007 L
7697 3007 mt 7631 3007 L
 799 3096 mt 
(0.4) s
1167 2396 mt 1232 2396 L
7697 2396 mt 7631 2396 L
 665 2485 mt 
(0.45) s
1167 1785 mt 1232 1785 L
7697 1785 mt 7631 1785 L
 799 1874 mt 
(0.5) s
1167 1174 mt 1232 1174 L
7697 1174 mt 7631 1174 L
 665 1263 mt 
(0.55) s
1167  563 mt 1232  563 L
7697  563 mt 7631  563 L
 799  652 mt 
(0.6) s
1167 6675 mt 7697 6675 L
1167  563 mt 7697  563 L
1167 6675 mt 1167  563 L
7697 6675 mt 7697  563 L
gs 1167 562 6531 6114 rc
36 w
gr

36 w
0 j
90 119 -90 119 -90 -119 90 -119 1602 6562 5 MP
/c8 { 0.000000 0.000000 1.000000 sr} bdef
c8
DP
90 119 -90 119 -90 -119 90 -119 2473 2523 5 MP
DP
90 119 -90 119 -90 -119 90 -119 3343 1949 5 MP
DP
90 119 -90 119 -90 -119 90 -119 4214 3217 5 MP
DP
90 119 -90 119 -90 -119 90 -119 5085 4303 5 MP
DP
90 119 -90 119 -90 -119 90 -119 5955 3523 5 MP
DP
90 119 -90 119 -90 -119 90 -119 6826 2712 5 MP
DP
90 119 -90 119 -90 -119 90 -119 7697 1851 5 MP
DP
gs 1167 562 6531 6114 rc
gr

0 sg
%%IncludeResource: font Helvetica
/Helvetica /ISOLatin1Encoding 360 FMSR

4014 7179 mt 
(k) s
%%IncludeResource: font Symbol
/Symbol /ISOLatin1Encoding 288 FMSR

4194 7359 mt 
(q) s
%%IncludeResource: font Helvetica
/Helvetica /ISOLatin1Encoding 360 FMSR

4344 7179 mt 
( ) s
%%IncludeResource: font Symbol
/Symbol /ISOLatin1Encoding 360 FMSR

4444 7179 mt 
(r) s
%%IncludeResource: font Helvetica
/Helvetica /ISOLatin1Encoding 288 FMSR

4641 7359 mt 
(D) s
%%IncludeResource: font Symbol
/Symbol /ISOLatin1Encoding 360 FMSR

 366 4608 mt  -90 rotate
(g) s
90 rotate
%%IncludeResource: font Helvetica
/Helvetica /ISOLatin1Encoding 360 FMSR

 366 4461 mt  -90 rotate
( R) s
90 rotate
%%IncludeResource: font Helvetica
/Helvetica /ISOLatin1Encoding 288 FMSR

 546 4101 mt  -90 rotate
(ref) s
90 rotate
%%IncludeResource: font Helvetica
/Helvetica /ISOLatin1Encoding 360 FMSR

 366 3765 mt  -90 rotate
( / v) s
90 rotate
%%IncludeResource: font Helvetica
/Helvetica /ISOLatin1Encoding 288 FMSR

 546 3285 mt  -90 rotate
(th,ref) s
90 rotate
gs 1167 562 6531 6114 rc
gr

90 119 -90 119 -90 -119 90 -119 1602 6658 5 MP
/c9 { 0.000000 0.500000 0.000000 sr} bdef
c9
DP
90 119 -90 119 -90 -119 90 -119 2473 2744 5 MP
DP
90 119 -90 119 -90 -119 90 -119 3343 2240 5 MP
DP
90 119 -90 119 -90 -119 90 -119 4214 3543 5 MP
DP
90 119 -90 119 -90 -119 90 -119 5085 4842 5 MP
DP
90 119 -90 119 -90 -119 90 -119 5955 4188 5 MP
DP
90 119 -90 119 -90 -119 90 -119 6826 3491 5 MP
DP
90 119 -90 119 -90 -119 90 -119 7697 2753 5 MP
DP
gs 1167 562 6531 6114 rc
gr

90 119 -90 119 -90 -119 90 -119 1602 6789 5 MP
/c10 { 1.000000 0.000000 0.000000 sr} bdef
c10
DP
90 119 -90 119 -90 -119 90 -119 2473 3033 5 MP
DP
90 119 -90 119 -90 -119 90 -119 3343 2602 5 MP
DP
90 119 -90 119 -90 -119 90 -119 4214 3946 5 MP
DP
90 119 -90 119 -90 -119 90 -119 5085 5449 5 MP
DP
90 119 -90 119 -90 -119 90 -119 5955 4978 5 MP
DP
90 119 -90 119 -90 -119 90 -119 6826 4449 5 MP
DP
90 119 -90 119 -90 -119 90 -119 7697 3900 5 MP
DP
gs 1167 562 6531 6114 rc
gr

90 119 -90 119 -90 -119 90 -119 1602 6733 5 MP
/c11 { 0.000000 0.750000 0.750000 sr} bdef
c11
DP
90 119 -90 119 -90 -119 90 -119 2473 3176 5 MP
DP
90 119 -90 119 -90 -119 90 -119 3343 2920 5 MP
DP
90 119 -90 119 -90 -119 90 -119 4214 4330 5 MP
DP
90 119 -90 119 -90 -119 90 -119 5085 5976 5 MP
DP
90 119 -90 119 -90 -119 90 -119 5955 5701 5 MP
DP
90 119 -90 119 -90 -119 90 -119 6826 5409 5 MP
DP
90 119 -90 119 -90 -119 90 -119 7697 5110 5 MP
DP
gs 1167 562 6531 6114 rc
gr

90 119 -90 119 -90 -119 90 -119 1602 6736 5 MP
/c12 { 0.750000 0.000000 0.750000 sr} bdef
c12
DP
90 119 -90 119 -90 -119 90 -119 2473 3567 5 MP
DP
90 119 -90 119 -90 -119 90 -119 3343 3673 5 MP
DP
90 119 -90 119 -90 -119 90 -119 4214 5164 5 MP
DP
90 119 -90 119 -90 -119 90 -119 5085 6649 5 MP
DP
90 119 -90 119 -90 -119 90 -119 5955 6499 5 MP
DP
90 119 -90 119 -90 -119 90 -119 6826 6293 5 MP
DP
90 119 -90 119 -90 -119 90 -119 7697 6056 5 MP
DP
gs 1167 562 6531 6114 rc
gr

0 sg
%%IncludeResource: font Helvetica
/Helvetica /ISOLatin1Encoding 240 FMSR

1455  262 mt 
(Waltz test case, GKW-GS2 Impurities BM, n) s
%%IncludeResource: font Helvetica
/Helvetica /ISOLatin1Encoding 192 FMSR

6200  382 mt 
(imp) s
%%IncludeResource: font Helvetica
/Helvetica /ISOLatin1Encoding 240 FMSR

6509  262 mt 
(/n) s
%%IncludeResource: font Helvetica
/Helvetica /ISOLatin1Encoding 192 FMSR

6709  382 mt 
(e) s
%%IncludeResource: font Helvetica
/Helvetica /ISOLatin1Encoding 240 FMSR

6815  262 mt 
(=0.01) s
%%IncludeResource: font Helvetica
/Helvetica /ISOLatin1Encoding 120 FMSR

1150 6718 mt 
( ) s
7681  604 mt 
( ) s
6 w
gs 1106 562 6592 6114 rc
36 w
c8
879 -943 879 -838 879 -749 879 759 878 1406 879 -500 879 -4047 1545 6430 8 MP stroke
c9
879 -777 879 -705 879 -618 879 872 878 1450 879 -427 879 -3893 1545 6526 8 MP stroke
c10
879 -514 879 -473 879 -380 879 806 878 1475 879 -349 879 -3685 1545 6640 8 MP stroke
c11
879 -235 879 -187 879 -107 879 1056 878 1539 879 -183 879 -3510 1545 6619 8 MP stroke
c12
879 -203 879 -120 879 5 879 1172 878 1626 879 170 879 -3097 1545 6634 8 MP stroke
gr

36 w
c12
0 sg
1089 6718 mt 
( ) s
7681  604 mt 
( ) s
6 w
1 sg
0 2664 2448 0 0 -2664 4361 3334 4 MP
PP
-2448 0 0 2664 2448 0 0 -2664 4361 3334 5 MP stroke
4 w
DO
SO
6 w
0 sg
4361 3334 mt 6809 3334 L
4361  670 mt 6809  670 L
4361 3334 mt 4361  670 L
6809 3334 mt 6809  670 L
4361 3334 mt 6809 3334 L
4361 3334 mt 4361  670 L
4361 3334 mt 6809 3334 L
4361  670 mt 6809  670 L
4361 3334 mt 4361  670 L
6809 3334 mt 6809  670 L
%%IncludeResource: font Helvetica
/Helvetica /ISOLatin1Encoding 240 FMSR

4849  901 mt 
(Li) s
%%IncludeResource: font Helvetica
/Helvetica /ISOLatin1Encoding 192 FMSR

5035  781 mt 
(3+) s
%%IncludeResource: font Helvetica
/Helvetica /ISOLatin1Encoding 240 FMSR

5253  901 mt 
(, m/m) s
%%IncludeResource: font Helvetica
/Helvetica /ISOLatin1Encoding 192 FMSR

5853 1021 mt 
(D) s
%%IncludeResource: font Helvetica
/Helvetica /ISOLatin1Encoding 240 FMSR

5991  901 mt 
(=3) s
gs 4361 670 2449 2665 rc
36 w
c8
375 0 4436 953 2 MP stroke
gr

36 w
c8
0 sg
4849 1426 mt 
(C) s
%%IncludeResource: font Helvetica
/Helvetica /ISOLatin1Encoding 192 FMSR

5022 1306 mt 
(6+) s
%%IncludeResource: font Helvetica
/Helvetica /ISOLatin1Encoding 240 FMSR

5240 1426 mt 
(, m/m) s
%%IncludeResource: font Helvetica
/Helvetica /ISOLatin1Encoding 192 FMSR

5840 1546 mt 
(D) s
%%IncludeResource: font Helvetica
/Helvetica /ISOLatin1Encoding 240 FMSR

5978 1426 mt 
(=6) s
gs 4361 670 2449 2665 rc
c9
375 0 4436 1477 2 MP stroke
gr

c9
0 sg
4849 1951 mt 
(Ne) s
%%IncludeResource: font Helvetica
/Helvetica /ISOLatin1Encoding 192 FMSR

5155 1831 mt 
(10+) s
%%IncludeResource: font Helvetica
/Helvetica /ISOLatin1Encoding 240 FMSR

5480 1951 mt 
(, m/m) s
%%IncludeResource: font Helvetica
/Helvetica /ISOLatin1Encoding 192 FMSR

6080 2071 mt 
(D) s
%%IncludeResource: font Helvetica
/Helvetica /ISOLatin1Encoding 240 FMSR

6218 1951 mt 
(=10) s
gs 4361 670 2449 2665 rc
c10
375 0 4436 2002 2 MP stroke
gr

c10
0 sg
4849 2475 mt 
(Fe) s
%%IncludeResource: font Helvetica
/Helvetica /ISOLatin1Encoding 192 FMSR

5121 2355 mt 
(10+) s
%%IncludeResource: font Helvetica
/Helvetica /ISOLatin1Encoding 240 FMSR

5446 2475 mt 
(, m/m) s
%%IncludeResource: font Helvetica
/Helvetica /ISOLatin1Encoding 192 FMSR

6046 2595 mt 
(D) s
%%IncludeResource: font Helvetica
/Helvetica /ISOLatin1Encoding 240 FMSR

6184 2475 mt 
(=27.5) s
gs 4361 670 2449 2665 rc
c11
375 0 4436 2526 2 MP stroke
gr

c11
0 sg
4849 3000 mt 
(W) s
%%IncludeResource: font Helvetica
/Helvetica /ISOLatin1Encoding 192 FMSR

5075 2880 mt 
(10+) s
%%IncludeResource: font Helvetica
/Helvetica /ISOLatin1Encoding 240 FMSR

5400 3000 mt 
(, m/m) s
%%IncludeResource: font Helvetica
/Helvetica /ISOLatin1Encoding 192 FMSR

6000 3120 mt 
(D) s
%%IncludeResource: font Helvetica
/Helvetica /ISOLatin1Encoding 240 FMSR

6138 3000 mt 
(=92) s
gs 4361 670 2449 2665 rc
c12
375 0 4436 3050 2 MP stroke
6 w
gr

6 w
c12
0 sg
1364 1026 mt 
(Diamonds: GKW) s
1364 1303 mt 
(Line: GS2) s

end %%Color Dict

eplot
%%EndObject

epage
end

showpage

%%Trailer
%%EOF
