%!PS-Adobe-3.0 EPSF-3.0
%%Creator: MATLAB, The Mathworks, Inc. Version 7.9.0.529 (R2009b). Operating System: Linux 2.6.32.46-0.3-default #1 SMP 2011-09-29 17:49:31 +0200 x86_64.
%%Title: /ptmp1/fjc/tmp/nonspec_nl/rh_nonspec.eps
%%CreationDate: 03/07/2012  18:08:56
%%DocumentNeededFonts: Helvetica
%%DocumentProcessColors: Cyan Magenta Yellow Black
%%LanguageLevel: 2
%%Pages: 1
%%BoundingBox:    28   295   581   496
%%EndComments

%%BeginProlog
% MathWorks dictionary
/MathWorks 160 dict begin
% definition operators
/bdef {bind def} bind def
/ldef {load def} bind def
/xdef {exch def} bdef
/xstore {exch store} bdef
% operator abbreviations
/c  /clip ldef
/cc /concat ldef
/cp /closepath ldef
/gr /grestore ldef
/gs /gsave ldef
/mt /moveto ldef
/np /newpath ldef
/cm /currentmatrix ldef
/sm /setmatrix ldef
/rm /rmoveto ldef
/rl /rlineto ldef
/s {show newpath} bdef
/sc {setcmykcolor} bdef
/sr /setrgbcolor ldef
/sg /setgray ldef
/w /setlinewidth ldef
/j /setlinejoin ldef
/cap /setlinecap ldef
/rc {rectclip} bdef
/rf {rectfill} bdef
% page state control
/pgsv () def
/bpage {/pgsv save def} bdef
/epage {pgsv restore} bdef
/bplot /gsave ldef
/eplot {stroke grestore} bdef
% orientation switch
/portraitMode 0 def /landscapeMode 1 def /rotateMode 2 def
% coordinate system mappings
/dpi2point 0 def
% font control
/FontSize 0 def
/FMS {/FontSize xstore findfont [FontSize 0 0 FontSize neg 0 0]
  makefont setfont} bdef
/reencode {exch dup where {pop load} {pop StandardEncoding} ifelse
  exch dup 3 1 roll findfont dup length dict begin
  { 1 index /FID ne {def}{pop pop} ifelse } forall
  /Encoding exch def currentdict end definefont pop} bdef
/isroman {findfont /CharStrings get /Agrave known} bdef
/FMSR {3 1 roll 1 index dup isroman {reencode} {pop pop} ifelse
  exch FMS} bdef
/csm {1 dpi2point div -1 dpi2point div scale neg translate
 dup landscapeMode eq {pop -90 rotate}
  {rotateMode eq {90 rotate} if} ifelse} bdef
% line types: solid, dotted, dashed, dotdash
/SO { [] 0 setdash } bdef
/DO { [.5 dpi2point mul 4 dpi2point mul] 0 setdash } bdef
/DA { [6 dpi2point mul] 0 setdash } bdef
/DD { [.5 dpi2point mul 4 dpi2point mul 6 dpi2point mul 4
  dpi2point mul] 0 setdash } bdef
% macros for lines and objects
/L {lineto stroke} bdef
/MP {3 1 roll moveto 1 sub {rlineto} repeat} bdef
/AP {{rlineto} repeat} bdef
/PDlw -1 def
/W {/PDlw currentlinewidth def setlinewidth} def
/PP {closepath eofill} bdef
/DP {closepath stroke} bdef
/MR {4 -2 roll moveto dup  0 exch rlineto exch 0 rlineto
  neg 0 exch rlineto closepath} bdef
/FR {MR stroke} bdef
/PR {MR fill} bdef
/L1i {{currentfile picstr readhexstring pop} image} bdef
/tMatrix matrix def
/MakeOval {newpath tMatrix currentmatrix pop translate scale
0 0 1 0 360 arc tMatrix setmatrix} bdef
/FO {MakeOval stroke} bdef
/PO {MakeOval fill} bdef
/PD {currentlinewidth 2 div 0 360 arc fill
   PDlw -1 eq not {PDlw w /PDlw -1 def} if} def
/FA {newpath tMatrix currentmatrix pop translate scale
  0 0 1 5 -2 roll arc tMatrix setmatrix stroke} bdef
/PA {newpath tMatrix currentmatrix pop	translate 0 0 moveto scale
  0 0 1 5 -2 roll arc closepath tMatrix setmatrix fill} bdef
/FAn {newpath tMatrix currentmatrix pop translate scale
  0 0 1 5 -2 roll arcn tMatrix setmatrix stroke} bdef
/PAn {newpath tMatrix currentmatrix pop translate 0 0 moveto scale
  0 0 1 5 -2 roll arcn closepath tMatrix setmatrix fill} bdef
/vradius 0 def /hradius 0 def /lry 0 def
/lrx 0 def /uly 0 def /ulx 0 def /rad 0 def
/MRR {/vradius xdef /hradius xdef /lry xdef /lrx xdef /uly xdef
  /ulx xdef newpath tMatrix currentmatrix pop ulx hradius add uly
  vradius add translate hradius vradius scale 0 0 1 180 270 arc 
  tMatrix setmatrix lrx hradius sub uly vradius add translate
  hradius vradius scale 0 0 1 270 360 arc tMatrix setmatrix
  lrx hradius sub lry vradius sub translate hradius vradius scale
  0 0 1 0 90 arc tMatrix setmatrix ulx hradius add lry vradius sub
  translate hradius vradius scale 0 0 1 90 180 arc tMatrix setmatrix
  closepath} bdef
/FRR {MRR stroke } bdef
/PRR {MRR fill } bdef
/MlrRR {/lry xdef /lrx xdef /uly xdef /ulx xdef /rad lry uly sub 2 div def
  newpath tMatrix currentmatrix pop ulx rad add uly rad add translate
  rad rad scale 0 0 1 90 270 arc tMatrix setmatrix lrx rad sub lry rad
  sub translate rad rad scale 0 0 1 270 90 arc tMatrix setmatrix
  closepath} bdef
/FlrRR {MlrRR stroke } bdef
/PlrRR {MlrRR fill } bdef
/MtbRR {/lry xdef /lrx xdef /uly xdef /ulx xdef /rad lrx ulx sub 2 div def
  newpath tMatrix currentmatrix pop ulx rad add uly rad add translate
  rad rad scale 0 0 1 180 360 arc tMatrix setmatrix lrx rad sub lry rad
  sub translate rad rad scale 0 0 1 0 180 arc tMatrix setmatrix
  closepath} bdef
/FtbRR {MtbRR stroke } bdef
/PtbRR {MtbRR fill } bdef
/stri 6 array def /dtri 6 array def
/smat 6 array def /dmat 6 array def
/tmat1 6 array def /tmat2 6 array def /dif 3 array def
/asub {/ind2 exch def /ind1 exch def dup dup
  ind1 get exch ind2 get sub exch } bdef
/tri_to_matrix {
  2 0 asub 3 1 asub 4 0 asub 5 1 asub
  dup 0 get exch 1 get 7 -1 roll astore } bdef
/compute_transform {
  dmat dtri tri_to_matrix tmat1 invertmatrix 
  smat stri tri_to_matrix tmat2 concatmatrix } bdef
/ds {stri astore pop} bdef
/dt {dtri astore pop} bdef
/db {2 copy /cols xdef /rows xdef mul dup 3 mul string
  currentfile 
  3 index 0 eq {/ASCIIHexDecode filter}
  {/ASCII85Decode filter 3 index 2 eq {/RunLengthDecode filter} if }
  ifelse exch readstring pop
  dup 0 3 index getinterval /rbmap xdef
  dup 2 index dup getinterval /gbmap xdef
  1 index dup 2 mul exch getinterval /bbmap xdef pop pop}bdef
/it {gs np dtri aload pop moveto lineto lineto cp c
  cols rows 8 compute_transform 
  rbmap gbmap bbmap true 3 colorimage gr}bdef
/il {newpath moveto lineto stroke}bdef
currentdict end def
%%EndProlog

%%BeginSetup
MathWorks begin

0 cap

end
%%EndSetup

%%Page: 1 1
%%BeginPageSetup
%%PageBoundingBox:    28   295   581   496
MathWorks begin
bpage
%%EndPageSetup

%%BeginObject: obj1
bplot

/dpi2point 12 def
portraitMode 0336 5952 csm

    0     0  6643  2401 rc
85 dict begin %Colortable dictionary
/c0 { 0.000000 0.000000 0.000000 sr} bdef
/c1 { 1.000000 1.000000 1.000000 sr} bdef
/c2 { 0.900000 0.000000 0.000000 sr} bdef
/c3 { 0.000000 0.820000 0.000000 sr} bdef
/c4 { 0.000000 0.000000 0.800000 sr} bdef
/c5 { 0.910000 0.820000 0.320000 sr} bdef
/c6 { 1.000000 0.260000 0.820000 sr} bdef
/c7 { 0.000000 0.820000 0.820000 sr} bdef
c0
1 j
1 sg
   0    0 6644 2402 rf
6 w
0 1739 5148 0 0 -1739 864 2008 4 MP
PP
-5148 0 0 1739 5148 0 0 -1739 864 2008 5 MP stroke
4 w
DO
0 sg
 864 2008 mt 6012 2008 L
6012 2008 mt 6012 2008 L
 864 1428 mt 6012 1428 L
6012 1428 mt 6012 1428 L
 864  848 mt 6012  848 L
6012  848 mt 6012  848 L
 864  269 mt 6012  269 L
6012  269 mt 6012  269 L
SO
6 w
 864 2008 mt 6012 2008 L
 864  269 mt 6012  269 L
 864 2008 mt  864  269 L
6012 2008 mt 6012  269 L
 864 2008 mt 6012 2008 L
 864 2008 mt  864  269 L
 864 2008 mt  864 1956 L
 864  269 mt  864  320 L
%%IncludeResource: font Helvetica
/Helvetica /ISOLatin1Encoding 144 FMSR

 824 2176 mt 
(0) s
1507 2008 mt 1507 1956 L
1507  269 mt 1507  320 L
1427 2176 mt 
(10) s
2151 2008 mt 2151 1956 L
2151  269 mt 2151  320 L
2071 2176 mt 
(20) s
2794 2008 mt 2794 1956 L
2794  269 mt 2794  320 L
2714 2176 mt 
(30) s
3438 2008 mt 3438 1956 L
3438  269 mt 3438  320 L
3358 2176 mt 
(40) s
4081 2008 mt 4081 1956 L
4081  269 mt 4081  320 L
4001 2176 mt 
(50) s
4725 2008 mt 4725 1956 L
4725  269 mt 4725  320 L
4645 2176 mt 
(60) s
5368 2008 mt 5368 1956 L
5368  269 mt 5368  320 L
5288 2176 mt 
(70) s
6012 2008 mt 6012 1956 L
6012  269 mt 6012  320 L
5932 2176 mt 
(80) s
 864 2008 mt  915 2008 L
6012 2008 mt 5960 2008 L
 545 2061 mt 
(-0.5) s
 864 1428 mt  915 1428 L
6012 1428 mt 5960 1428 L
 749 1481 mt 
(0) s
 864  848 mt  915  848 L
6012  848 mt 5960  848 L
 629  901 mt 
(0.5) s
 864  269 mt  915  269 L
6012  269 mt 5960  269 L
 749  322 mt 
(1) s
 864 2008 mt 6012 2008 L
 864  269 mt 6012  269 L
 864 2008 mt  864  269 L
6012 2008 mt 6012  269 L
gs 864 269 5149 1740 rc
/c8 { 0.000000 0.000000 1.000000 sr} bdef
c8
4 0 3 -1 3 0 3 1 4 0 3 0 3 0 3 1 
3 0 4 1 3 0 3 1 3 1 4 0 3 1 3 1 
3 1 3 1 4 1 3 0 3 1 3 1 4 1 3 1 
3 1 3 0 3 1 4 0 3 1 3 0 3 1 3 0 
4 0 3 0 3 0 3 0 4 0 3 -1 3 0 3 -1 
3 0 4 -1 3 -1 3 -1 3 0 4 -1 3 -1 3 -1 
3 -1 3 -1 4 -1 3 -1 3 -1 3 -1 3 -1 4 -1 
3 -1 3 0 3 -1 4 -1 3 0 3 -1 3 0 3 0 
4 0 3 -1 3 0 3 1 4 0 3 0 3 1 3 0 
3 1 4 0 3 1 3 1 3 1 3 1 4 1 3 1 
3 1 3 1 4 1 3 1 3 1 3 1 3 1 4 0 
3 1 3 1 3 0 4 1 3 0 3 1 3 0 3 0 
4 0 3 0 3 0 3 0 3 -1 4 0 3 -1 3 -1 
3 -1 4 0 3 -1 3 -1 3 -1 3 -1 4 -2 3 -1 
3 -1 3 -1 4 -1 3 -1 3 -1 3 -1 3 -1 4 -1 
3 -1 3 -1 3 0 3 -1 4 0 3 -1 3 0 3 0 
4 0 3 0 3 0 3 1 3 0 4 1 3 1 3 0 
3 1 4 1 3 1 3 1 3 2 3 1 4 1 3 1 
3 1 3 2 3 1 4 1 3 1 3 1 3 1 4 1 
3 1 3 0 3 1 3 1 4 0 3 0 3 0 3 0 
4 0 3 0 3 0 3 -1 3 0 4 -1 3 -1 3 -1 
3 -1 3 -1 4 -1 3 -1 3 -2 3 -1 4 -1 3 -2 
3 -1 3 -1 3 -1 4 -2 3 -1 3 -1 3 -1 4 -1 
3 -1 3 0 3 -1 3 0 4 -1 3 0 3 0 3 0 
3 1 4 0 3 1 3 0 3 1 4 1 3 1 3 1 
3 1 3 1 4 2 3 1 3 2 3 1 4 1 3 2 
3 1 3 2 3 1 4 1 3 2 3 1 3 1 3 1 
4 1 3 0 3 1 3 0 4 1 3 0 3 0 3 -1 
3 0 4 0 3 -1 3 -1 3 -1 4 -1 3 -1 3 -1 
3 -1 3 -2 4 -1 3 -2 3 -1 3 -2 3 -1 4 -2 
3 -1 3 -2 3 -1 4 -2 3 -1 3 -1 3 -1 3 -1 
4 -1 3 0 3 -1 3 0 4 0 3 0 3 0 3 0 
3 1 4 1 3 0 3 1 3 1 3 2 4 1 3 1 
3 2 3 2 4 1 3 2 3 2 3 1 3 2 4 2 
3 1 3 2 3 1 4 2 3 1 3 1 3 1 3 1 
4 1 3 1 3 0 3 0 3 0 4 0 3 0 3 -1 
3 0 4 -1 3 -1 3 -1 3 -1 3 -2 4 -1 3 -2 
3 -2 3 -1 4 -2 5049 1344 300 MP stroke
3 -2 3 -2 3 -2 3 -2 4 -1 3 -2 3 -2 3 -1 
3 -2 4 -1 3 -1 3 -1 3 -1 4 -1 3 0 3 -1 
3 0 3 0 4 1 3 0 3 1 3 0 4 1 3 2 
3 1 3 1 3 2 4 2 3 2 3 1 3 2 3 2 
4 2 3 2 3 2 3 2 4 2 3 2 3 2 3 1 
3 2 4 1 3 1 3 1 3 1 4 1 3 0 3 0 
3 0 3 0 4 0 3 -1 3 -1 3 -1 3 -1 4 -1 
3 -2 3 -2 3 -2 4 -2 3 -2 3 -2 3 -2 3 -2 
4 -2 3 -3 3 -2 3 -2 4 -2 3 -2 3 -2 3 -1 
3 -2 4 -1 3 -1 3 -1 3 -1 3 -1 4 0 3 0 
3 0 3 0 4 1 3 1 3 1 3 1 3 2 4 1 
3 2 3 2 3 2 4 2 3 3 3 2 3 2 3 3 
4 2 3 3 3 2 3 2 3 2 4 2 3 2 3 2 
3 2 4 1 3 1 3 1 3 1 3 0 4 0 3 0 
3 0 3 -1 4 -1 3 -1 3 -1 3 -2 3 -2 4 -2 
3 -2 3 -2 3 -2 4 -3 3 -3 3 -2 3 -3 3 -2 
4 -3 3 -3 3 -2 3 -3 3 -2 4 -2 3 -2 3 -2 
3 -1 4 -2 3 -1 3 0 3 -1 3 0 4 0 3 0 
3 1 3 1 4 1 3 1 3 2 3 2 3 2 4 2 
3 3 3 2 3 3 3 3 4 3 3 3 3 3 3 3 
4 2 3 3 3 3 3 2 3 3 4 2 3 2 3 2 
3 1 4 1 3 1 3 1 3 0 3 0 4 0 3 0 
3 -1 3 -2 3 -1 4 -2 3 -2 3 -2 3 -2 4 -3 
3 -3 3 -3 3 -3 3 -3 4 -3 3 -3 3 -3 3 -4 
4 -3 3 -3 3 -2 3 -3 3 -2 4 -3 3 -1 3 -2 
3 -2 3 -1 4 0 3 -1 3 0 3 0 4 1 3 1 
3 1 3 2 3 2 4 2 3 2 3 3 3 3 4 3 
3 3 3 3 3 4 3 3 4 4 3 3 3 4 3 3 
3 3 4 4 3 2 3 3 3 3 4 2 3 2 3 1 
3 2 3 1 4 0 3 0 3 0 3 0 4 -1 3 -1 
3 -2 3 -2 3 -2 4 -3 3 -2 3 -4 3 -3 3 -3 
4 -4 3 -3 3 -4 3 -4 4 -4 3 -3 3 -4 3 -4 
3 -3 4 -3 3 -3 3 -3 3 -2 4 -2 3 -2 3 -1 
3 -1 3 -1 4 0 3 0 3 0 3 1 3 2 4 1 
3 2 3 3 3 3 4 3 3 3 3 4 3 3 3 4 
4 4 3 4 3 5 3 4 4 4 3 4 3 4 3 4 
3 3 4 3 3 4 3 2 3 3 3 2 4 1 3 2 
3 1 3 0 4 0 4087 1301 300 MP stroke
3 0 3 -1 3 -1 3 -2 4 -2 3 -3 3 -3 3 -3 
4 -3 3 -4 3 -4 3 -4 3 -4 4 -5 3 -4 3 -4 
3 -5 3 -4 4 -4 3 -4 3 -4 3 -4 4 -3 3 -3 
3 -3 3 -2 3 -2 4 -1 3 -1 3 -1 3 0 4 1 
3 1 3 1 3 2 3 2 4 3 3 3 3 3 3 4 
3 4 4 4 3 5 3 5 3 4 4 5 3 5 3 5 
3 5 3 4 4 5 3 4 3 4 3 4 4 3 3 3 
3 3 3 2 3 2 4 1 3 1 3 0 3 0 3 -1 
4 -1 3 -2 3 -2 3 -3 4 -3 3 -4 3 -4 3 -4 
3 -4 4 -5 3 -5 3 -5 3 -5 4 -5 3 -6 3 -5 
3 -5 3 -5 4 -4 3 -5 3 -4 3 -3 3 -4 4 -3 
3 -2 3 -2 3 -1 4 -1 3 -1 3 0 3 1 3 1 
4 2 3 3 3 2 3 4 4 3 3 4 3 5 3 5 
3 5 4 5 3 6 3 5 3 6 3 5 4 6 3 5 
3 6 3 5 4 5 3 4 3 4 3 4 3 3 4 3 
3 3 3 1 3 1 4 1 3 0 3 -1 3 -1 3 -2 
4 -2 3 -3 3 -3 3 -4 3 -4 4 -5 3 -5 3 -6 
3 -5 4 -6 3 -6 3 -6 3 -6 3 -7 4 -6 3 -5 
3 -6 3 -5 4 -6 3 -4 3 -4 3 -4 3 -3 4 -3 
3 -2 3 -2 3 -1 3 0 4 0 3 1 3 2 3 2 
4 3 3 4 3 4 3 4 3 5 4 5 3 6 3 6 
3 6 4 7 3 6 3 7 3 6 3 7 4 6 3 7 
3 5 3 6 3 5 4 5 3 4 3 4 3 3 4 2 
3 2 3 1 3 1 3 -1 4 -1 3 -1 3 -3 3 -3 
4 -3 3 -4 3 -5 3 -6 3 -5 4 -7 3 -6 3 -7 
3 -7 3 -7 4 -8 3 -7 3 -7 3 -7 4 -7 3 -7 
3 -6 3 -6 3 -6 4 -5 3 -4 3 -4 3 -3 4 -2 
3 -2 3 -1 3 0 3 1 4 1 3 3 3 3 3 3 
4 5 3 4 3 6 3 6 3 6 4 7 3 8 3 7 
3 8 3 8 4 8 3 8 3 7 3 8 4 7 3 7 
3 7 3 6 3 5 4 5 3 4 3 3 3 3 4 2 
3 1 3 0 3 0 3 -2 4 -2 3 -3 3 -4 3 -5 
3 -5 4 -6 3 -7 3 -7 3 -7 4 -8 3 -9 3 -8 
3 -9 3 -9 4 -9 3 -8 3 -9 3 -8 4 -8 3 -8 
3 -6 3 -7 3 -5 4 -5 3 -4 3 -4 3 -2 3 -2 
4 0 3 0 3 1 3 2 4 3 3 4 3 5 3 5 
3 7 4 7 3 7 3 8 3 9 4 9 3 9 3 10 
3 9 3 10 4 9 3125 1326 300 MP stroke
3 10 3 9 3 8 3 8 4 8 3 7 3 6 3 6 
4 5 3 3 3 3 3 2 3 1 4 0 3 -1 3 -2 
3 -3 4 -5 3 -5 3 -6 3 -6 3 -8 4 -8 3 -9 
3 -9 3 -10 3 -10 4 -11 3 -10 3 -11 3 -10 4 -11 
3 -10 3 -10 3 -9 3 -8 4 -8 3 -7 3 -7 3 -5 
4 -5 3 -3 3 -2 3 -2 3 0 4 1 3 2 3 3 
3 5 3 5 4 6 3 7 3 9 3 8 4 10 3 10 
3 11 3 11 3 12 4 11 3 12 3 11 3 12 4 11 
3 11 3 10 3 10 3 9 4 8 3 7 3 6 3 5 
3 4 4 3 3 2 3 1 3 -1 4 -2 3 -3 3 -5 
3 -5 3 -7 4 -7 3 -9 3 -9 3 -10 4 -11 3 -12 
3 -12 3 -12 3 -13 4 -12 3 -13 3 -12 3 -13 3 -11 
4 -12 3 -10 3 -10 3 -9 4 -8 3 -7 3 -5 3 -5 
3 -3 4 -2 3 -1 3 1 3 2 4 3 3 5 3 6 
3 7 3 8 4 9 3 11 3 11 3 12 3 13 4 13 
3 14 3 14 3 13 4 15 3 13 3 14 3 13 3 13 
4 12 3 11 3 10 3 9 4 8 3 7 3 6 3 4 
3 3 4 1 3 0 3 -2 3 -3 3 -5 4 -5 3 -8 
3 -8 3 -10 4 -11 3 -12 3 -12 3 -14 3 -14 4 -14 
3 -15 3 -15 3 -15 4 -15 3 -15 3 -14 3 -13 3 -13 
4 -12 3 -11 3 -10 3 -9 3 -7 4 -6 3 -5 3 -3 
3 -1 4 0 3 2 3 3 3 5 3 6 4 8 3 10 
3 10 3 12 4 13 3 14 3 15 3 15 3 16 4 17 
3 16 3 17 3 16 3 17 4 16 3 15 3 14 3 14 
4 13 3 11 3 10 3 9 3 7 4 5 3 4 3 3 
3 0 4 -1 3 -3 3 -5 3 -6 3 -8 4 -9 3 -11 
3 -13 3 -13 3 -15 4 -15 3 -17 3 -17 3 -17 4 -18 
3 -18 3 -17 3 -18 3 -17 4 -17 3 -15 3 -15 3 -14 
4 -12 3 -11 3 -10 3 -8 3 -6 4 -5 3 -2 3 -1 
3 1 3 3 4 5 3 7 3 8 3 10 4 12 3 13 
3 14 3 16 3 17 4 18 3 18 3 19 3 20 4 19 
3 20 3 19 3 19 3 18 4 18 3 16 3 16 3 13 
3 13 4 11 3 9 3 8 3 5 4 4 3 1 3 -1 
3 -2 3 -5 4 -6 3 -9 3 -10 3 -13 4 -13 3 -16 
3 -17 3 -18 3 -19 4 -19 3 -21 3 -21 3 -21 3 -21 
4 -22 3 -20 3 -20 3 -20 4 -18 3 -17 3 -16 3 -14 
3 -12 4 -11 3 -9 3 -6 3 -5 4 -2 3 0 3 2 
3 4 3 6 4 9 2163 1529 300 MP stroke
3 10 3 13 3 14 3 17 4 17 3 19 3 20 3 22 
4 22 3 22 3 23 3 23 3 23 4 22 3 22 3 21 
3 20 4 18 3 18 3 15 3 14 3 12 4 10 3 7 
3 6 3 3 4 0 3 -2 3 -4 3 -7 3 -9 4 -11 
3 -14 3 -15 3 -18 3 -19 4 -20 3 -22 3 -24 3 -24 
4 -25 3 -25 3 -25 3 -26 3 -25 4 -24 3 -24 3 -23 
3 -21 4 -20 3 -18 3 -16 3 -14 3 -12 4 -10 3 -7 
3 -5 3 -2 3 1 4 3 3 6 3 9 3 11 4 13 
3 16 3 17 3 20 3 22 4 23 3 24 3 25 3 27 
4 26 3 28 3 27 3 26 3 27 4 25 3 24 3 24 
3 21 3 20 4 17 3 16 3 13 3 11 4 7 3 6 
3 2 3 -1 3 -3 4 -7 3 -9 3 -12 3 -15 4 -17 
3 -19 3 -22 3 -24 3 -25 4 -27 3 -28 3 -29 3 -30 
3 -31 4 -30 3 -31 3 -30 3 -29 4 -28 3 -26 3 -25 
3 -23 3 -21 4 -18 3 -16 3 -13 3 -11 4 -7 3 -4 
3 -1 3 2 3 5 4 8 3 12 3 14 3 17 3 20 
4 22 3 25 3 26 3 28 4 30 3 31 3 32 3 32 
3 33 4 32 3 32 3 31 3 31 4 28 3 27 3 25 
3 23 3 20 4 18 3 14 3 11 3 8 3 5 4 2 
3 -3 3 -5 3 -9 4 -12 3 -16 3 -19 3 -22 3 -24 
4 -27 3 -29 3 -32 3 -33 4 -34 3 -35 3 -37 3 -36 
3 -36 4 -36 3 -36 3 -34 3 -32 3 -31 4 -29 3 -26 
3 -23 3 -21 4 -18 3 -14 3 -10 3 -7 3 -3 4 1 
3 4 3 8 3 12 4 16 3 19 3 22 3 26 3 28 
4 31 3 33 3 35 3 37 3 38 4 39 3 39 3 40 
3 39 4 38 3 37 3 36 3 34 3 31 4 29 3 26 
3 23 3 20 4 16 3 12 3 8 3 4 3 0 4 -4 
3 -9 3 -12 3 -17 3 -20 4 -24 3 -27 3 -31 3 -33 
4 -36 3 -38 3 -41 3 -41 3 -42 4 -43 3 -44 3 -43 
3 -42 4 -41 3 -40 3 -37 3 -35 3 -33 4 -29 3 -26 
3 -22 3 -18 3 -14 4 -10 3 -6 3 0 3 3 4 9 
3 13 3 17 3 21 3 26 4 29 3 33 3 36 3 39 
4 42 3 43 3 45 3 47 3 48 4 47 3 48 3 47 
3 45 3 45 4 42 3 39 3 37 3 33 4 30 3 26 
3 22 3 17 3 13 4 7 3 3 3 -2 3 -7 4 -12 
3 -17 3 -21 3 -26 3 -30 4 -34 3 -37 3 -41 3 -44 
3 -46 4 -47 3 -49 3 -51 3 -50 4 -51 3 -50 3 -49 
3 -47 3 -45 4 -42 1201 1690 300 MP stroke
3 -39 3 -36 3 -32 4 -27 3 -23 3 -18 3 -14 3 -7 
4 -3 3 3 3 8 3 14 3 19 4 24 3 30 3 33 
3 38 4 42 3 46 3 49 3 52 3 54 4 56 3 57 
3 58 3 58 4 57 3 56 3 54 3 53 3 50 4 46 
3 43 3 38 3 35 3 29 4 24 3 19 3 13 3 7 
4 2 3 -5 3 -10 3 -17 3 -21 4 -28 3 -32 3 -37 
3 -42 4 -46 3 -50 3 -52 3 -56 3 -57 4 -59 3 -60 
3 -59 3 -60 3 -59 4 -56 3 -55 3 -52 3 -48 4 -45 
3 -40 3 -35 3 -30 3 -25 4 -18 3 -12 3 -5 3 1 
4 7 3 14 3 21 3 28 3 33 4 40 3 46 3 51 
3 57 3 60 4 64 3 69 3 72 3 73 4 75 3 76 
3 76 3 76 3 75 4 73 3 71 3 68 3 65 4 60 
3 55 3 50 3 44 3 39 4 31 3 25 3 19 3 10 
867 269 105 MP stroke
DA
/c9 { 0.000000 0.500000 0.000000 sr} bdef
c9
4 2 3 1 3 2 3 2 4 2 3 2 3 2 3 2 
3 2 4 1 3 2 3 1 3 1 4 1 3 1 3 1 
3 0 3 1 4 0 3 0 3 -1 3 0 4 -1 3 -1 
3 -1 3 -2 3 -1 4 -2 3 -2 3 -1 3 -2 3 -2 
4 -3 3 -2 3 -2 3 -2 4 -2 3 -2 3 -2 3 -2 
3 -1 4 -2 3 -1 3 -2 3 -1 4 0 3 -1 3 0 
3 -1 3 0 4 1 3 0 3 1 3 1 3 1 4 1 
3 2 3 1 3 2 4 2 3 2 3 2 3 2 3 3 
4 2 3 2 3 2 3 2 4 2 3 2 3 2 3 2 
3 1 4 1 3 1 3 1 3 1 3 0 4 1 3 0 
3 -1 3 0 4 -1 3 -1 3 -1 3 -2 3 -1 4 -2 
3 -2 3 -2 3 -2 4 -3 3 -2 3 -2 3 -3 3 -2 
4 -3 3 -2 3 -2 3 -2 3 -2 4 -2 3 -2 3 -2 
3 -1 4 -1 3 -1 3 0 3 -1 3 0 4 0 3 1 
3 1 3 0 4 2 3 1 3 2 3 1 3 2 4 3 
3 2 3 2 3 3 3 2 4 3 3 2 3 3 3 2 
4 3 3 2 3 2 3 2 3 2 4 2 3 1 3 2 
3 1 4 0 3 1 3 0 3 0 3 -1 4 0 3 -1 
3 -1 3 -2 3 -2 4 -1 3 -3 3 -2 3 -2 4 -3 
3 -2 3 -3 3 -3 3 -3 4 -2 3 -3 3 -3 3 -2 
4 -3 3 -2 3 -2 3 -2 3 -1 4 -2 3 -1 3 -1 
3 0 3 -1 4 0 3 1 3 0 3 1 4 1 3 2 
3 2 3 2 3 2 4 2 3 3 3 2 3 3 4 3 
3 3 3 3 3 3 3 3 4 3 3 3 3 2 3 3 
3 2 4 2 3 2 3 2 3 1 4 1 3 1 3 0 
3 0 3 0 4 -1 3 0 3 -2 3 -1 4 -2 3 -2 
3 -2 3 -2 3 -3 4 -3 3 -3 3 -3 3 -3 3 -3 
4 -3 3 -3 3 -3 3 -3 4 -3 3 -3 3 -2 3 -3 
3 -2 4 -1 3 -2 3 -1 3 -1 4 -1 3 0 3 0 
3 1 3 1 4 1 3 1 3 2 3 2 3 2 4 3 
3 3 3 3 3 3 4 3 3 3 3 4 3 3 3 4 
4 3 3 3 3 3 3 3 4 3 3 3 3 2 3 2 
3 2 4 1 3 1 3 1 3 1 3 0 4 -1 3 -1 
3 -1 3 -1 4 -2 3 -2 3 -2 3 -3 3 -3 4 -3 
3 -3 3 -3 3 -4 4 -4 3 -3 3 -4 3 -3 3 -4 
4 -3 3 -4 3 -3 3 -2 3 -3 4 -2 3 -2 3 -2 
3 -1 4 -1 3 -1 3 0 3 1 3 0 4 1 3 2 
3 1 3 3 4 2 5049 1380 300 MP stroke
3 3 3 3 3 3 3 3 4 4 3 4 3 4 3 3 
3 4 4 4 3 4 3 4 3 3 4 4 3 3 3 3 
3 2 3 2 4 2 3 2 3 1 3 1 4 0 3 0 
3 -1 3 -1 3 -1 4 -2 3 -2 3 -2 3 -3 3 -3 
4 -4 3 -3 3 -4 3 -4 4 -4 3 -4 3 -5 3 -4 
3 -4 4 -4 3 -4 3 -3 3 -4 4 -3 3 -3 3 -2 
3 -2 3 -2 4 -2 3 0 3 -1 3 0 3 0 4 1 
3 1 3 2 3 2 4 3 3 3 3 3 3 3 3 4 
4 4 3 4 3 4 3 5 4 4 3 5 3 4 3 4 
3 5 4 4 3 3 3 4 3 3 3 3 4 2 3 2 
3 2 3 1 4 1 3 0 3 0 3 -1 3 -1 4 -2 
3 -2 3 -3 3 -3 4 -3 3 -4 3 -3 3 -5 3 -4 
4 -5 3 -4 3 -5 3 -5 3 -4 4 -5 3 -5 3 -4 
3 -4 4 -4 3 -3 3 -4 3 -2 3 -3 4 -2 3 -1 
3 -1 3 0 4 0 3 0 3 1 3 2 3 2 4 2 
3 3 3 4 3 3 4 4 3 5 3 4 3 5 3 5 
4 5 3 5 3 5 3 5 3 5 4 5 3 4 3 5 
3 3 4 4 3 3 3 3 3 2 3 2 4 1 3 1 
3 0 3 -1 4 0 3 -2 3 -2 3 -2 3 -3 4 -4 
3 -4 3 -4 3 -4 3 -5 4 -5 3 -5 3 -6 3 -5 
4 -5 3 -6 3 -5 3 -5 3 -5 4 -5 3 -4 3 -4 
3 -4 4 -3 3 -2 3 -2 3 -2 3 -1 4 0 3 0 
3 1 3 1 3 2 4 2 3 3 3 4 3 4 4 4 
3 5 3 5 3 5 3 6 4 5 3 6 3 6 3 6 
4 5 3 6 3 5 3 6 3 4 4 5 3 4 3 3 
3 3 3 3 4 2 3 1 3 1 3 0 4 -1 3 -1 
3 -2 3 -2 3 -3 4 -3 3 -4 3 -5 3 -4 4 -6 
3 -5 3 -6 3 -6 3 -6 4 -6 3 -7 3 -6 3 -6 
3 -6 4 -5 3 -5 3 -5 3 -5 4 -4 3 -3 3 -3 
3 -2 3 -2 4 -1 3 0 3 0 3 1 4 2 3 2 
3 3 3 3 3 4 4 5 3 5 3 5 3 6 3 6 
4 7 3 6 3 7 3 7 4 6 3 7 3 6 3 7 
3 5 4 6 3 5 3 5 3 4 4 3 3 3 3 2 
3 1 3 1 4 0 3 0 3 -2 3 -2 3 -3 4 -3 
3 -4 3 -5 3 -5 4 -6 3 -6 3 -6 3 -7 3 -7 
4 -7 3 -7 3 -7 3 -7 4 -7 3 -7 3 -6 3 -6 
3 -6 4 -5 3 -4 3 -4 3 -3 3 -3 4 -2 3 -1 
3 0 3 0 4 1 4087 1422 300 MP stroke
3 2 3 3 3 4 3 4 4 5 3 5 3 6 3 6 
4 7 3 7 3 8 3 7 3 8 4 8 3 8 3 7 
3 8 3 7 4 7 3 6 3 6 3 5 4 4 3 4 
3 3 3 3 3 1 4 1 3 0 3 -1 3 -1 4 -3 
3 -3 3 -4 3 -5 3 -6 4 -6 3 -6 3 -7 3 -8 
3 -8 4 -8 3 -8 3 -9 3 -8 4 -8 3 -8 3 -8 
3 -7 3 -7 4 -6 3 -6 3 -5 3 -5 4 -3 3 -3 
3 -2 3 -1 3 -1 4 1 3 2 3 2 3 3 3 5 
4 4 3 6 3 6 3 7 4 8 3 8 3 8 3 9 
3 9 4 9 3 9 3 9 3 9 4 8 3 9 3 7 
3 8 3 6 4 6 3 5 3 4 3 4 3 2 4 2 
3 1 3 -1 3 -1 4 -2 3 -3 3 -4 3 -5 3 -6 
4 -7 3 -7 3 -8 3 -8 4 -9 3 -9 3 -10 3 -10 
3 -9 4 -10 3 -10 3 -9 3 -9 3 -8 4 -8 3 -8 
3 -6 3 -6 4 -5 3 -4 3 -3 3 -2 3 -1 4 -1 
3 1 3 3 3 3 4 4 3 5 3 6 3 6 3 8 
4 8 3 9 3 9 3 10 3 10 4 11 3 10 3 11 
3 10 4 10 3 10 3 9 3 9 3 8 4 8 3 6 
3 6 3 5 4 4 3 2 3 2 3 0 3 -1 4 -1 
3 -3 3 -4 3 -5 3 -7 4 -7 3 -7 3 -9 3 -10 
4 -10 3 -10 3 -11 3 -11 3 -11 4 -12 3 -11 3 -11 
3 -11 4 -10 3 -10 3 -9 3 -8 3 -8 4 -6 3 -6 
3 -4 3 -4 3 -2 4 -1 3 1 3 1 3 3 4 4 
3 5 3 6 3 7 3 8 4 9 3 10 3 10 3 11 
4 12 3 12 3 12 3 12 3 12 4 12 3 11 3 11 
3 11 3 10 4 9 3 8 3 8 3 6 4 5 3 4 
3 2 3 2 3 0 4 -2 3 -2 3 -4 3 -5 4 -6 
3 -8 3 -8 3 -10 3 -10 4 -11 3 -12 3 -12 3 -13 
4 -13 3 -13 3 -13 3 -13 3 -13 4 -12 3 -12 3 -11 
3 -10 3 -9 4 -9 3 -7 3 -6 3 -4 4 -4 3 -2 
3 0 3 0 3 2 4 4 3 5 3 6 3 8 4 8 
3 10 3 11 3 11 3 12 4 13 3 14 3 13 3 14 
3 14 4 14 3 14 3 13 3 12 4 12 3 11 3 10 
3 10 3 7 4 7 3 5 3 4 3 3 4 1 3 -1 
3 -2 3 -3 3 -5 4 -6 3 -8 3 -9 3 -10 3 -11 
4 -12 3 -13 3 -14 3 -14 4 -15 3 -15 3 -15 3 -15 
3 -15 4 -14 3 -14 3 -13 3 -12 4 -12 3 -10 3 -9 
3 -8 3 -6 4 -5 3125 1501 300 MP stroke
3 -3 3 -2 3 0 3 2 4 3 3 5 3 6 3 7 
4 9 3 11 3 11 3 13 3 13 4 15 3 15 3 15 
3 16 4 16 3 16 3 16 3 15 3 15 4 14 3 14 
3 12 3 11 3 10 4 9 3 7 3 6 3 4 4 2 
3 0 3 -1 3 -2 3 -5 4 -6 3 -8 3 -9 3 -10 
4 -12 3 -13 3 -15 3 -15 3 -15 4 -17 3 -17 3 -17 
3 -17 3 -17 4 -16 3 -16 3 -16 3 -14 4 -14 3 -12 
3 -11 3 -10 3 -8 4 -7 3 -5 3 -3 3 -1 4 1 
3 2 3 4 3 6 3 8 4 9 3 11 3 12 3 14 
3 15 4 15 3 17 3 17 3 18 4 18 3 18 3 19 
3 18 3 17 4 17 3 16 3 15 3 13 4 13 3 11 
3 9 3 8 3 6 4 4 3 2 3 0 3 -1 3 -4 
4 -6 3 -7 3 -9 3 -11 4 -12 3 -14 3 -15 3 -17 
3 -17 4 -18 3 -19 3 -19 3 -19 4 -19 3 -19 3 -19 
3 -18 3 -17 4 -16 3 -15 3 -14 3 -12 3 -10 4 -9 
3 -7 3 -5 3 -3 4 0 3 1 3 3 3 5 3 8 
4 9 3 11 3 13 3 14 4 16 3 17 3 19 3 19 
3 20 4 20 3 21 3 20 3 21 3 20 4 20 3 19 
3 18 3 17 4 15 3 14 3 12 3 10 3 9 4 6 
3 4 3 2 3 0 4 -3 3 -4 3 -7 3 -9 3 -10 
4 -13 3 -15 3 -16 3 -17 3 -19 4 -20 3 -20 3 -21 
3 -22 4 -22 3 -22 3 -21 3 -21 3 -21 4 -19 3 -18 
3 -17 3 -15 4 -13 3 -12 3 -9 3 -7 3 -5 4 -3 
3 -1 3 2 3 4 3 7 4 9 3 11 3 13 3 15 
4 16 3 19 3 19 3 21 3 22 4 23 3 23 3 24 
3 23 4 24 3 23 3 22 3 21 3 20 4 19 3 17 
3 16 3 13 3 11 4 9 3 7 3 4 3 2 4 0 
3 -4 3 -5 3 -8 3 -11 4 -13 3 -15 3 -16 3 -19 
4 -20 3 -22 3 -23 3 -23 3 -25 4 -25 3 -25 3 -25 
3 -24 3 -24 4 -23 3 -22 3 -20 3 -19 4 -17 3 -15 
3 -13 3 -11 3 -8 4 -5 3 -3 3 -1 3 3 4 5 
3 8 3 10 3 13 3 15 4 17 3 19 3 21 3 23 
3 24 4 25 3 26 3 27 3 27 4 27 3 26 3 26 
3 25 3 24 4 23 3 21 3 19 3 17 4 15 3 13 
3 9 3 8 3 4 4 1 3 -1 3 -4 3 -7 3 -10 
4 -13 3 -15 3 -17 3 -20 4 -22 3 -24 3 -25 3 -26 
3 -28 4 -28 3 -29 3 -29 3 -29 4 -28 3 -28 3 -26 
3 -25 3 -24 4 -21 2163 1547 300 MP stroke
3 -20 3 -17 3 -14 3 -12 4 -9 3 -6 3 -3 3 0 
4 3 3 6 3 9 3 12 3 15 4 17 3 20 3 23 
3 24 4 26 3 28 3 29 3 30 3 30 4 31 3 31 
3 30 3 30 4 28 3 27 3 26 3 24 3 21 4 19 
3 17 3 13 3 11 3 8 4 4 3 1 3 -2 3 -6 
4 -9 3 -12 3 -15 3 -18 3 -21 4 -24 3 -25 3 -28 
3 -30 4 -31 3 -32 3 -33 3 -33 3 -34 4 -33 3 -33 
3 -32 3 -30 3 -29 4 -27 3 -25 3 -22 3 -19 4 -17 
3 -13 3 -10 3 -7 3 -3 4 1 3 4 3 7 3 11 
4 15 3 18 3 20 3 24 3 26 4 28 3 31 3 32 
3 33 3 35 4 35 3 35 3 36 3 35 4 34 3 32 
3 31 3 29 3 27 4 24 3 22 3 18 3 15 4 12 
3 7 3 4 3 1 3 -4 4 -7 3 -12 3 -14 3 -19 
3 -22 4 -24 3 -28 3 -31 3 -32 4 -35 3 -36 3 -38 
3 -38 3 -39 4 -39 3 -38 3 -38 3 -37 4 -34 3 -33 
3 -31 3 -28 3 -25 4 -22 3 -18 3 -14 3 -11 3 -7 
4 -2 3 1 3 6 3 10 4 13 3 18 3 21 3 25 
3 28 4 31 3 34 3 35 3 38 4 39 3 40 3 41 
3 41 3 41 4 40 3 39 3 38 3 35 3 33 4 31 
3 27 3 24 3 20 4 16 3 13 3 7 3 4 3 -1 
4 -5 3 -10 3 -14 3 -18 4 -22 3 -26 3 -30 3 -33 
3 -35 4 -39 3 -40 3 -42 3 -44 3 -44 4 -45 3 -45 
3 -44 3 -43 4 -41 3 -40 3 -37 3 -34 3 -31 4 -28 
3 -24 3 -19 3 -16 4 -10 3 -6 3 -2 3 4 3 8 
4 13 3 17 3 22 3 26 3 30 4 33 3 37 3 40 
3 42 4 44 3 46 3 47 3 48 3 47 4 47 3 46 
3 45 3 43 4 40 3 38 3 34 3 31 3 26 4 22 
3 18 3 13 3 8 3 3 4 -2 3 -7 3 -13 3 -17 
4 -22 3 -27 3 -31 3 -34 3 -39 4 -42 3 -44 3 -47 
3 -49 4 -50 3 -51 3 -51 3 -50 3 -50 4 -49 3 -46 
3 -45 3 -41 3 -38 4 -34 3 -30 3 -25 3 -20 4 -16 
3 -10 3 -5 3 1 3 6 4 11 3 17 3 22 3 27 
4 32 3 36 3 41 3 43 3 47 4 50 3 52 3 54 
3 54 3 55 4 55 3 54 3 53 3 52 4 48 3 46 
3 43 3 38 3 34 4 30 3 24 3 20 3 13 4 8 
3 3 3 -4 3 -9 3 -15 4 -21 3 -26 3 -31 3 -36 
3 -41 4 -44 3 -48 3 -51 3 -54 4 -55 3 -57 3 -57 
3 -58 3 -57 4 -56 1201 1559 300 MP stroke
3 -53 3 -52 3 -49 4 -45 3 -41 3 -37 3 -32 3 -26 
4 -21 3 -15 3 -9 3 -3 3 3 4 10 3 16 3 22 
3 28 4 33 3 39 3 44 3 48 3 52 4 55 3 59 
3 61 3 62 4 64 3 64 3 63 3 63 3 61 4 59 
3 56 3 52 3 48 3 44 4 39 3 33 3 28 3 21 
4 15 3 8 3 2 3 -5 3 -12 4 -18 3 -24 3 -31 
3 -37 4 -41 3 -47 3 -52 3 -55 3 -59 4 -61 3 -64 
3 -64 3 -66 3 -65 4 -65 3 -63 3 -61 3 -58 4 -55 
3 -51 3 -45 3 -41 3 -34 4 -29 3 -21 3 -15 3 -8 
4 0 3 7 3 14 3 22 3 29 4 36 3 43 3 49 
3 55 3 61 4 66 3 69 3 74 3 77 4 79 3 80 
3 81 3 81 3 81 4 79 3 76 3 74 3 70 4 65 
3 61 3 55 3 48 3 42 4 35 3 28 3 20 3 11 
867 269 105 MP stroke
gr

c9
DA
0 sg
3157 2303 mt 
(t \(v) s
%%IncludeResource: font Helvetica
/Helvetica /ISOLatin1Encoding 108 FMSR

3357 2375 mt 
(th) s
%%IncludeResource: font Helvetica
/Helvetica /ISOLatin1Encoding 144 FMSR

3447 2303 mt 
( / R\)) s
%%IncludeResource: font Symbol
/Symbol /ISOLatin1Encoding 144 FMSR

 448 1383 mt  -90 rotate
(f) s
90 rotate
%%IncludeResource: font Helvetica
/Helvetica /ISOLatin1Encoding 144 FMSR

 448 1308 mt  -90 rotate
( \(A.U.\)) s
90 rotate
2176  145 mt 
(q=1.3, ) s
%%IncludeResource: font Symbol
/Symbol /ISOLatin1Encoding 144 FMSR

2620  145 mt 
(e) s
%%IncludeResource: font Helvetica
/Helvetica /ISOLatin1Encoding 144 FMSR

2683  145 mt 
(=0.05 GKW RH test benchmark) s
2494  957 mt 
(Xiao Catto residual:      0.0711) s
2494  783 mt 
(Spectral residual:         0.0633) s
2494  609 mt 
(Non-spectral residual: 0.0696) s
%%IncludeResource: font Helvetica
/Helvetica /ISOLatin1Encoding 120 FMSR

 847 2051 mt 
( ) s
5996  311 mt 
( ) s
SO
1 sg
0 419 1312 0 0 -419 4662 830 4 MP
PP
-1312 0 0 419 1312 0 0 -419 4662 830 5 MP stroke
4 w
DO
SO
6 w
0 sg
4662  830 mt 5974  830 L
4662  411 mt 5974  411 L
4662  830 mt 4662  411 L
5974  830 mt 5974  411 L
4662  830 mt 5974  830 L
4662  830 mt 4662  411 L
4662  830 mt 5974  830 L
4662  411 mt 5974  411 L
4662  830 mt 4662  411 L
5974  830 mt 5974  411 L
%%IncludeResource: font Helvetica
/Helvetica /ISOLatin1Encoding 144 FMSR

5138  578 mt 
(Non spectral) s
gs 4662 411 1313 420 rc
c8
365 0 4735 526 2 MP stroke
gr

c8
0 sg
5138  766 mt 
(Spectral) s
gs 4662 411 1313 420 rc
DA
c9
365 0 4735 714 2 MP stroke
SO
gr

c9

end %%Color Dict

eplot
%%EndObject

epage
end

showpage

%%Trailer
%%EOF
